gamma_s,gamma_h,alpha,sencitivity,ppv,fmeasure,time
0.0625,0.0625,0.3,NaN,NaN,NaN,8.431571738
0.0625,0.125,0.05,NaN,NaN,NaN,8.235991344
0.0625,0.125,0.8,NaN,NaN,NaN,8.267572857
0.0625,0.25,0.5,NaN,NaN,NaN,9.55784613
0.0625,0.0625,0.1,NaN,NaN,NaN,7.701401462
0.0625,0.0625,0.4,NaN,NaN,NaN,7.52477696
0.0625,0.0625,0.5,NaN,NaN,NaN,7.614154711
0.0625,0.0625,0.2,NaN,NaN,NaN,7.717402366
0.0625,0.0625,0.7,NaN,NaN,NaN,7.638329768
0.0625,0.0625,0.8,NaN,NaN,NaN,7.451801248
0.0625,0.0625,0.6,NaN,NaN,NaN,7.594139472
0.0625,0.0625,1.0,NaN,NaN,NaN,7.716425929
0.0625,0.125,0.3,NaN,NaN,NaN,7.422539797
0.0625,0.125,0.4,NaN,NaN,NaN,7.746558403
0.0625,0.125,0.1,NaN,NaN,NaN,7.409212754
0.0625,0.125,0.6,NaN,NaN,NaN,7.541084986
0.0625,0.0625,0.9,NaN,NaN,NaN,7.029657016
0.0625,0.25,0.1,NaN,NaN,NaN,7.585734572
0.0625,0.125,1.0,NaN,NaN,NaN,7.661216275
0.0625,0.125,0.5,NaN,NaN,NaN,6.793083956
0.0625,0.125,0.7,NaN,NaN,NaN,7.521469263
0.0625,0.125,0.9,NaN,NaN,NaN,7.693253216
0.0625,0.125,0.2,NaN,NaN,NaN,7.633325854
0.0625,0.25,0.6,NaN,NaN,NaN,7.426756091
0.0625,0.25,0.3,NaN,NaN,NaN,6.633035967
0.0625,0.25,0.9,NaN,NaN,NaN,7.463947902
0.0625,0.25,0.2,NaN,NaN,NaN,7.481242635
0.0625,0.25,0.4,NaN,NaN,NaN,7.400068754
0.0625,0.25,0.05,NaN,NaN,NaN,7.386178001
0.0625,0.5,0.3,NaN,0.0,NaN,7.353281797
0.0625,0.25,0.8,NaN,NaN,NaN,7.408500205
0.0625,0.5,0.2,NaN,0.0,NaN,7.311454867
0.0625,0.5,0.05,NaN,0.0,NaN,7.325937845
0.0625,0.5,0.1,NaN,0.0,NaN,7.370450863
0.0625,0.25,0.7,NaN,NaN,NaN,7.301850044
0.0625,0.5,0.8,NaN,0.0,NaN,7.3164286
0.0625,0.5,0.6,NaN,0.0,NaN,7.411057468
0.0625,0.25,1.0,NaN,NaN,NaN,6.605779332
0.0625,1.0,0.05,NaN,0.0,NaN,7.378698524
0.0625,0.5,0.5,NaN,0.0,NaN,7.346482904
0.0625,1.0,0.3,NaN,0.0,NaN,7.409644309
0.0625,0.5,0.7,NaN,0.0,NaN,6.775884326
0.0625,0.5,0.9,NaN,0.0,NaN,7.405846801
0.0625,1.0,0.9,NaN,0.0,NaN,7.445602717
0.0625,0.5,0.4,NaN,0.0,NaN,7.316279611
0.0625,1.0,0.1,NaN,0.0,NaN,7.435016501
0.0625,1.0,0.4,NaN,0.0,NaN,7.401692991
0.0625,1.0,0.6,NaN,0.0,NaN,7.319589449
0.0625,1.0,0.2,NaN,0.0,NaN,6.693243441
0.0625,1.0,0.5,NaN,0.0,NaN,7.42825917
0.0625,2.0,0.3,NaN,0.0,NaN,7.3737161
0.0625,2.0,0.05,NaN,0.0,NaN,7.381819345
0.0625,0.5,1.0,NaN,0.0,NaN,7.373877077
0.0625,1.0,0.8,NaN,0.0,NaN,7.338658928
0.0625,2.0,0.6,NaN,0.0,NaN,7.3837017
0.0625,2.0,0.7,NaN,0.0,NaN,7.383562579
0.0625,4.0,0.1,NaN,0.0,NaN,7.372051785
0.0625,4.0,0.3,NaN,0.0,NaN,7.364366903
0.0625,2.0,0.1,NaN,0.0,NaN,7.384142347
0.0625,1.0,0.7,NaN,0.0,NaN,7.228830436
0.0625,2.0,0.2,NaN,0.0,NaN,7.239490692
0.0625,1.0,1.0,NaN,0.0,NaN,6.687631084
0.0625,2.0,0.9,NaN,0.0,NaN,7.380831176
0.0625,2.0,0.4,NaN,0.0,NaN,7.418264619
0.0625,4.0,0.8,NaN,0.0,NaN,7.351289947
0.0625,2.0,0.8,NaN,0.0,NaN,7.402130697
0.0625,2.0,1.0,NaN,0.0,NaN,7.212744063
0.0625,2.0,0.5,NaN,0.0,NaN,6.731314783
0.0625,4.0,0.05,NaN,0.0,NaN,7.441327222
0.0625,4.0,0.5,NaN,0.0,NaN,7.341183073
0.0625,4.0,0.4,NaN,0.0,NaN,7.410451046
0.0625,4.0,0.2,NaN,0.0,NaN,6.739872526
0.0625,4.0,0.7,NaN,0.0,NaN,6.74601354
0.0625,4.0,0.6,NaN,0.0,NaN,7.374620789
0.0625,32.0,0.3,NaN,0.0,NaN,8.885348155
0.0625,32.0,0.6,NaN,0.0,NaN,8.259779646
0.0625,32.0,0.7,NaN,0.0,NaN,8.055784346
0.0625,32.0,0.8,NaN,0.0,NaN,8.04387086
0.0625,32.0,0.9,NaN,0.0,NaN,8.04325509
0.0625,32.0,1.0,NaN,0.0,NaN,8.785627806
0.0625,4.0,0.9,NaN,0.0,NaN,8.393954297
0.0625,4.0,1.0,NaN,0.0,NaN,8.468294977
0.0625,64.0,0.05,NaN,0.0,NaN,7.231382267
0.0625,8.0,0.05,NaN,0.0,NaN,8.224526044
0.0625,64.0,0.4,NaN,0.0,NaN,7.114721334
0.0625,64.0,0.5,NaN,0.0,NaN,7.005026676
0.0625,64.0,0.2,NaN,0.0,NaN,7.054190511
0.0625,8.0,0.1,NaN,0.0,NaN,7.839538405
0.0625,8.0,0.2,NaN,0.0,NaN,8.158252568
0.0625,64.0,1.0,NaN,0.0,NaN,6.923136723
0.0625,128.0,0.05,NaN,0.0,NaN,7.141876555
0.0625,64.0,0.7,NaN,0.0,NaN,7.062552825
0.0625,64.0,0.8,NaN,0.0,NaN,7.080284999
0.0625,64.0,0.1,NaN,0.0,NaN,7.109176186
0.0625,8.0,0.3,NaN,0.0,NaN,8.121578857
0.0625,128.0,0.1,NaN,0.0,NaN,7.137477615
0.0625,128.0,0.4,NaN,0.0,NaN,7.030556694
0.0625,128.0,0.7,NaN,0.0,NaN,7.097149695
0.0625,256.0,0.05,NaN,0.0,NaN,7.087360552
0.0625,64.0,0.6,NaN,0.0,NaN,7.100011082
0.0625,256.0,0.3,NaN,0.0,NaN,7.054243359
0.0625,128.0,0.3,NaN,0.0,NaN,7.14406953
0.0625,256.0,1.0,NaN,0.0,NaN,7.048255089
0.0625,128.0,0.8,NaN,0.0,NaN,6.991846374
0.0625,512.0,0.05,NaN,0.0,NaN,7.106509881
0.0625,256.0,0.7,NaN,0.0,NaN,7.104365691
0.0625,128.0,0.6,NaN,0.0,NaN,6.915797011
0.0625,256.0,0.4,NaN,0.0,NaN,7.119860443
0.0625,128.0,0.2,NaN,0.0,NaN,7.171123612
0.0625,128.0,1.0,NaN,0.0,NaN,7.16868082
0.0625,128.0,0.9,NaN,0.0,NaN,7.153485035
0.0625,64.0,0.3,NaN,0.0,NaN,6.374459667
0.0625,256.0,0.2,NaN,0.0,NaN,7.061914449
0.0625,256.0,0.5,NaN,0.0,NaN,7.173876165
0.0625,256.0,0.9,NaN,0.0,NaN,7.078256168
0.0625,512.0,0.1,NaN,0.0,NaN,7.215467092
0.0625,256.0,0.6,NaN,0.0,NaN,7.12754419
0.0625,64.0,0.9,NaN,0.0,NaN,6.340932712
0.0625,128.0,0.5,NaN,0.0,NaN,6.350133376
0.0625,256.0,0.1,NaN,0.0,NaN,6.422452905
0.0625,512.0,0.2,NaN,0.0,NaN,6.402557239
0.0625,256.0,0.8,NaN,0.0,NaN,6.469248575
0.0625,8.0,0.4,NaN,0.0,NaN,8.291760708
0.0625,8.0,0.5,NaN,0.0,NaN,7.862005903
0.0625,8.0,0.6,NaN,0.0,NaN,8.032547133
0.0625,8.0,0.7,NaN,0.0,NaN,7.972778058
0.0625,8.0,0.8,NaN,0.0,NaN,7.783135591
0.0625,8.0,0.9,NaN,0.0,NaN,7.79831853
0.0625,8.0,1.0,NaN,0.0,NaN,7.786164013
0.0625,16.0,0.05,NaN,0.0,NaN,7.753158019
0.0625,16.0,0.1,NaN,0.0,NaN,7.79205346
0.0625,16.0,0.3,NaN,0.0,NaN,7.773280242
0.0625,16.0,0.2,NaN,0.0,NaN,7.778572833
0.0625,16.0,0.4,NaN,0.0,NaN,7.718908731
0.0625,16.0,0.7,NaN,0.0,NaN,7.74969523
0.0625,16.0,0.5,NaN,0.0,NaN,7.736732599
0.0625,16.0,0.6,NaN,0.0,NaN,7.726234318
0.0625,32.0,0.05,NaN,0.0,NaN,7.80068842
0.0625,16.0,0.8,NaN,0.0,NaN,7.767843548
0.0625,16.0,1.0,NaN,0.0,NaN,7.751597339
0.0625,32.0,0.2,NaN,0.0,NaN,7.794003945
0.0625,32.0,0.1,NaN,0.0,NaN,7.725607
0.0625,32.0,0.5,NaN,0.0,NaN,7.742923806
0.0625,32.0,0.4,NaN,0.0,NaN,7.712228521
0.0625,16.0,0.9,NaN,0.0,NaN,7.772493824
0.125,0.5,0.4,NaN,0.0,NaN,9.120084518
0.125,1.0,0.2,NaN,0.0,NaN,9.030761729
0.125,1.0,1.0,NaN,0.0,NaN,8.479756217
0.125,2.0,0.7,NaN,0.0,NaN,8.908940808
0.125,4.0,0.4,NaN,0.0,NaN,8.322871697
0.125,8.0,0.1,NaN,0.0,NaN,8.274052005
0.125,0.0625,0.6,NaN,NaN,NaN,7.054165786
0.125,0.125,0.2,NaN,NaN,NaN,7.825002894
0.125,0.0625,0.8,NaN,NaN,NaN,7.81976445
0.125,0.125,0.1,NaN,NaN,NaN,7.73505903
0.125,0.0625,0.7,NaN,NaN,NaN,7.778485829
0.125,0.0625,0.2,NaN,NaN,NaN,7.720890199
0.125,0.0625,0.9,NaN,NaN,NaN,7.82988243
0.125,0.25,0.1,NaN,NaN,NaN,7.648466947
0.125,0.125,0.05,NaN,NaN,NaN,7.59352359
0.125,0.25,0.2,NaN,NaN,NaN,7.556508273
0.125,0.125,0.8,NaN,NaN,NaN,7.621038329
0.125,0.125,0.6,NaN,NaN,NaN,6.822810132
0.125,0.125,0.9,NaN,NaN,NaN,7.621359275
0.125,0.25,0.6,NaN,NaN,NaN,6.790159099
0.125,0.5,0.2,NaN,0.0,NaN,7.605613594
0.125,0.25,0.7,NaN,NaN,NaN,7.669685427
0.125,0.5,0.1,NaN,0.0,NaN,7.896993301
0.125,0.125,0.7,NaN,NaN,NaN,7.675077581
0.125,0.25,0.8,NaN,NaN,NaN,7.653586908
0.125,1.0,0.1,NaN,0.0,NaN,7.725965379
0.125,0.25,0.05,NaN,NaN,NaN,7.903597267
0.125,0.5,0.6,NaN,0.0,NaN,6.817960524
0.125,0.5,0.7,NaN,0.0,NaN,7.685646976
0.125,0.5,0.8,NaN,0.0,NaN,7.763336404
0.125,0.25,0.9,NaN,NaN,NaN,7.74321119
0.125,0.5,0.9,NaN,0.0,NaN,7.782375411
0.125,1.0,0.05,NaN,0.0,NaN,7.718057701
0.125,0.5,0.05,NaN,0.0,NaN,7.608579094
0.0625,512.0,0.3,NaN,0.0,NaN,8.361367587
0.0625,512.0,0.5,NaN,0.0,NaN,8.198718771
0.125,1.0,0.5,NaN,0.0,NaN,7.592596601
0.125,0.5,1.0,NaN,0.0,NaN,7.723471789
0.0625,512.0,0.6,NaN,0.0,NaN,8.215133898
0.125,1.0,0.6,NaN,0.0,NaN,7.569404549
0.125,1.0,0.4,NaN,0.0,NaN,7.552413052
0.125,1.0,0.3,NaN,0.0,NaN,6.776113467
0.0625,512.0,0.7,NaN,0.0,NaN,8.149305766
0.0625,512.0,0.8,NaN,0.0,NaN,8.280006179
0.125,1.0,0.9,NaN,0.0,NaN,7.553954931
0.0625,512.0,0.4,NaN,0.0,NaN,8.06483258
0.125,1.0,0.8,NaN,0.0,NaN,7.58148977
0.0625,512.0,0.9,NaN,0.0,NaN,7.950240999
0.125,1.0,0.7,NaN,0.0,NaN,7.561066561
0.125,2.0,0.1,NaN,0.0,NaN,7.580364544
0.125,2.0,0.6,NaN,0.0,NaN,7.576340522
0.125,2.0,0.05,NaN,0.0,NaN,6.808647117
0.125,2.0,0.2,NaN,0.0,NaN,7.681567753
0.125,2.0,0.5,NaN,0.0,NaN,7.750192934
0.125,2.0,0.3,NaN,0.0,NaN,7.648310101
0.125,2.0,0.9,NaN,0.0,NaN,7.634544028
0.125,2.0,1.0,NaN,0.0,NaN,7.618969539
0.125,4.0,0.3,NaN,0.0,NaN,7.625678212
0.125,4.0,0.05,NaN,0.0,NaN,7.617631434
0.125,2.0,0.4,NaN,0.0,NaN,7.664143951
0.125,2.0,0.8,NaN,0.0,NaN,6.672381926
0.125,8.0,0.05,NaN,0.0,NaN,7.505063762
0.125,4.0,0.1,NaN,0.0,NaN,7.483509109
0.125,4.0,0.5,NaN,0.0,NaN,6.683482744
0.125,4.0,0.6,NaN,0.0,NaN,7.502134006
0.125,4.0,0.7,NaN,0.0,NaN,7.49629351
0.125,4.0,0.2,NaN,0.0,NaN,7.564000914
0.125,4.0,0.8,NaN,0.0,NaN,7.515352634
0.125,8.0,0.4,NaN,0.0,NaN,7.500167429
0.125,8.0,0.3,NaN,0.0,NaN,7.484275115
0.125,8.0,0.5,NaN,0.0,NaN,7.511606449
0.125,4.0,0.9,NaN,0.0,NaN,7.535675341
0.0625,512.0,1.0,NaN,0.0,NaN,7.790553883
0.125,8.0,0.8,NaN,0.0,NaN,7.491445259
0.125,8.0,0.2,NaN,0.0,NaN,6.669226952
0.125,4.0,1.0,NaN,0.0,NaN,7.494169026
0.125,8.0,1.0,NaN,0.0,NaN,7.492530291
0.125,16.0,0.05,NaN,0.0,NaN,7.503417828
0.125,16.0,0.4,NaN,0.0,NaN,7.515359918
0.125,0.0625,0.05,NaN,NaN,NaN,7.691719343
0.125,8.0,0.9,NaN,0.0,NaN,6.662669517
0.125,16.0,0.7,NaN,0.0,NaN,7.489062567
0.125,16.0,0.1,NaN,0.0,NaN,7.488479059
0.125,8.0,0.7,NaN,0.0,NaN,7.500726682
0.125,32.0,0.05,NaN,0.0,NaN,7.47540708
0.125,16.0,0.5,NaN,0.0,NaN,6.687188203
0.125,8.0,0.6,NaN,0.0,NaN,7.477759806
0.125,16.0,0.6,NaN,0.0,NaN,7.50465447
0.125,32.0,0.3,NaN,0.0,NaN,7.499851965
0.125,32.0,0.2,NaN,0.0,NaN,7.596936431
0.125,16.0,0.8,NaN,0.0,NaN,7.503679656
0.125,16.0,0.2,NaN,0.0,NaN,7.527752972
0.125,32.0,0.1,NaN,0.0,NaN,6.67887988
0.125,32.0,0.7,NaN,0.0,NaN,7.477736904
0.125,16.0,0.9,NaN,0.0,NaN,7.482412465
0.125,32.0,1.0,NaN,0.0,NaN,7.490236888
0.125,32.0,0.4,NaN,0.0,NaN,7.516264847
0.125,64.0,0.3,NaN,0.0,NaN,7.494602047
0.125,16.0,0.3,NaN,0.0,NaN,7.551986126
0.125,0.0625,0.1,NaN,NaN,NaN,7.700971721
0.125,32.0,0.9,NaN,0.0,NaN,7.492998608
0.125,64.0,0.05,NaN,0.0,NaN,7.494466545
0.125,64.0,0.6,NaN,0.0,NaN,7.487902406
0.125,64.0,1.0,NaN,0.0,NaN,7.493566138
0.125,64.0,0.5,NaN,0.0,NaN,7.499744531
0.125,128.0,0.2,NaN,0.0,NaN,7.499914871
0.125,128.0,0.5,NaN,0.0,NaN,7.505658561
0.125,64.0,0.7,NaN,0.0,NaN,7.498152611
0.125,32.0,0.5,NaN,0.0,NaN,7.525064012
0.125,16.0,1.0,NaN,0.0,NaN,7.493469487
0.125,128.0,0.1,NaN,0.0,NaN,7.512583782
0.125,32.0,0.8,NaN,0.0,NaN,6.66104832
0.125,64.0,0.1,NaN,0.0,NaN,7.468277645
0.125,0.0625,0.3,NaN,NaN,NaN,7.661936649
0.125,128.0,0.3,NaN,0.0,NaN,7.480895475
0.125,64.0,0.8,NaN,0.0,NaN,7.5248327
0.125,64.0,0.4,NaN,0.0,NaN,6.683122426
0.125,128.0,0.6,NaN,0.0,NaN,6.698212136
0.125,128.0,0.05,NaN,0.0,NaN,6.675589667
0.125,32.0,0.6,NaN,0.0,NaN,7.538458233
0.125,0.0625,0.4,NaN,NaN,NaN,7.872014251
0.125,64.0,0.2,NaN,0.0,NaN,7.541293451
0.125,64.0,0.9,NaN,0.0,NaN,7.496266709
0.125,128.0,0.4,NaN,0.0,NaN,7.533721197
0.125,0.0625,0.5,NaN,NaN,NaN,7.725843965
0.125,0.0625,1.0,NaN,NaN,NaN,7.559834448
0.125,0.125,0.3,NaN,NaN,NaN,7.64615056
0.125,0.125,0.4,NaN,NaN,NaN,7.630802229
0.125,0.125,0.5,NaN,NaN,NaN,7.673433958
0.125,0.125,1.0,NaN,NaN,NaN,7.517688887
0.125,0.25,0.4,NaN,NaN,NaN,7.699569361
0.125,0.25,0.5,NaN,NaN,NaN,7.592973909
0.125,0.5,0.5,NaN,0.0,NaN,7.535994992
0.125,0.25,0.3,NaN,NaN,NaN,7.530871844
0.125,0.25,1.0,NaN,NaN,NaN,7.627486209
0.125,0.5,0.3,NaN,0.0,NaN,7.528578558
0.25,0.125,0.3,NaN,NaN,NaN,9.554224734
0.25,0.25,0.1,NaN,NaN,NaN,9.443009714
0.25,0.25,0.9,NaN,NaN,NaN,9.359250613
0.25,0.5,0.6,NaN,0.0,NaN,9.335173471
0.25,1.0,0.3,NaN,0.0,NaN,9.210050281
0.25,2.0,0.05,NaN,0.0,NaN,9.126244376
0.125,128.0,0.7,NaN,0.0,NaN,8.30655936
0.125,256.0,0.9,NaN,0.0,NaN,7.649111159
0.125,256.0,0.5,NaN,0.0,NaN,7.117773395
0.125,256.0,0.1,NaN,0.0,NaN,7.777025401
0.125,256.0,0.7,NaN,0.0,NaN,7.946835806
0.125,512.0,0.2,NaN,0.0,NaN,7.873523054
0.125,256.0,1.0,NaN,0.0,NaN,7.704570835
0.125,256.0,0.6,NaN,0.0,NaN,7.689971179
0.125,128.0,0.8,NaN,0.0,NaN,8.018024238
0.125,512.0,0.05,NaN,0.0,NaN,7.967739588
0.125,512.0,0.5,NaN,0.0,NaN,6.908326148
0.125,512.0,0.9,NaN,0.0,NaN,7.879818128
0.125,512.0,0.6,NaN,0.0,NaN,7.683962105
0.25,0.0625,0.2,NaN,NaN,NaN,7.589611725
0.125,128.0,0.9,NaN,0.0,NaN,8.209075296
0.125,512.0,0.7,NaN,0.0,NaN,7.603578842
0.25,0.0625,0.05,NaN,NaN,NaN,7.665141478
0.125,512.0,1.0,NaN,0.0,NaN,7.559780667
0.25,0.0625,0.5,NaN,NaN,NaN,6.744535182
0.25,0.0625,0.7,NaN,NaN,NaN,7.60782468
0.25,0.125,0.05,NaN,NaN,NaN,7.638439969
0.25,0.125,0.2,NaN,NaN,NaN,7.584775749
0.25,0.0625,0.6,NaN,NaN,NaN,7.844155554
0.25,0.0625,0.9,NaN,NaN,NaN,7.588017467
0.25,0.0625,1.0,NaN,NaN,NaN,7.632649806
0.25,0.125,0.6,NaN,NaN,NaN,7.608625283
0.25,0.125,0.5,NaN,NaN,NaN,6.737445104
0.25,0.125,0.7,NaN,NaN,NaN,7.555677528
0.125,128.0,1.0,NaN,0.0,NaN,8.263307619
0.25,0.25,0.05,NaN,NaN,NaN,7.563851159
0.25,0.125,0.8,NaN,NaN,NaN,7.611907591
0.25,0.125,1.0,NaN,NaN,NaN,7.71253692
0.25,0.125,0.9,NaN,NaN,NaN,7.65738994
0.25,0.25,0.8,NaN,NaN,NaN,7.682237128
0.25,0.25,0.5,NaN,NaN,NaN,7.690061029
0.25,0.25,0.7,NaN,NaN,NaN,7.659340162
0.25,0.25,0.4,NaN,NaN,NaN,7.655493669
0.125,256.0,0.05,NaN,0.0,NaN,7.662577195
0.25,0.25,0.2,NaN,NaN,NaN,6.78659358
0.25,0.25,0.3,NaN,NaN,NaN,7.681593189
0.25,0.25,0.6,NaN,NaN,NaN,7.48208501
0.25,0.25,1.0,NaN,NaN,NaN,6.825476139
0.25,0.5,0.05,NaN,0.0,NaN,7.643431846
0.125,256.0,0.2,NaN,0.0,NaN,7.649070974
0.25,0.5,0.5,NaN,0.0,NaN,7.621471092
0.25,0.5,0.1,NaN,0.0,NaN,7.574237573
0.25,0.5,0.2,NaN,0.0,NaN,7.664202144
0.25,0.5,0.3,NaN,0.0,NaN,7.65812378
0.25,0.5,0.4,NaN,0.0,NaN,7.755719558
0.25,0.5,0.7,NaN,0.0,NaN,6.835370023
0.25,0.5,0.9,NaN,0.0,NaN,7.600421533
0.25,1.0,0.2,NaN,0.0,NaN,7.660478953
0.25,0.5,0.8,NaN,0.0,NaN,7.639517074
0.25,0.5,1.0,NaN,0.0,NaN,7.637489102
0.125,256.0,0.3,NaN,0.0,NaN,7.759482335
0.25,1.0,0.1,NaN,0.0,NaN,7.595484115
0.25,1.0,0.05,NaN,0.0,NaN,7.563478876
0.125,256.0,0.4,NaN,0.0,NaN,7.606680846
0.25,1.0,0.5,NaN,0.0,NaN,7.58207695
0.25,1.0,0.4,NaN,0.0,NaN,6.815304881
0.25,1.0,0.7,NaN,0.0,NaN,7.664586614
0.25,1.0,0.6,NaN,0.0,NaN,7.633224861
0.25,1.0,1.0,NaN,0.0,NaN,7.606813155
0.25,1.0,0.8,NaN,0.0,NaN,7.617127871
0.125,256.0,0.8,NaN,0.0,NaN,7.640966215
0.25,1.0,0.9,NaN,0.0,NaN,7.680430325
0.25,2.0,0.3,NaN,0.0,NaN,7.568147165
0.25,2.0,0.1,NaN,0.0,NaN,6.762618237
0.25,2.0,0.2,NaN,0.0,NaN,7.641240114
0.25,2.0,0.5,NaN,0.0,NaN,7.627882855
0.25,2.0,0.4,NaN,0.0,NaN,7.772745149
0.25,2.0,0.6,NaN,0.0,NaN,7.63401993
0.25,2.0,0.7,NaN,0.0,NaN,7.522386781
0.25,4.0,0.3,NaN,0.0,NaN,7.448464016
0.25,2.0,0.8,NaN,0.0,NaN,6.62705595
0.25,2.0,1.0,NaN,0.0,NaN,7.503211797
0.25,2.0,0.9,NaN,0.0,NaN,7.447843126
0.25,4.0,0.05,NaN,0.0,NaN,7.444585725
0.25,4.0,0.5,NaN,0.0,NaN,7.455244211
0.125,512.0,0.1,NaN,0.0,NaN,7.672032437
0.25,4.0,0.4,NaN,0.0,NaN,6.61456932
0.25,4.0,0.2,NaN,0.0,NaN,7.460804821
0.25,4.0,0.1,NaN,0.0,NaN,7.449996031
0.25,4.0,1.0,NaN,0.0,NaN,7.433502307
0.25,4.0,0.7,NaN,0.0,NaN,7.46294957
0.25,4.0,0.6,NaN,0.0,NaN,7.44161461
0.25,8.0,0.2,NaN,0.0,NaN,7.439915883
0.25,4.0,0.8,NaN,0.0,NaN,7.424824956
0.25,8.0,0.05,NaN,0.0,NaN,6.619189066
0.25,4.0,0.9,NaN,0.0,NaN,7.514307891
0.25,8.0,0.3,NaN,0.0,NaN,7.528005689
0.25,8.0,0.1,NaN,0.0,NaN,7.524970557
0.25,8.0,0.5,NaN,0.0,NaN,7.533567614
0.125,512.0,0.3,NaN,0.0,NaN,7.525493326
0.25,8.0,0.4,NaN,0.0,NaN,7.481795692
0.125,512.0,0.4,NaN,0.0,NaN,7.507607303
0.25,8.0,0.6,NaN,0.0,NaN,7.481151412
0.25,16.0,0.05,NaN,0.0,NaN,7.476867557
0.25,8.0,0.9,NaN,0.0,NaN,7.501059521
0.25,8.0,0.7,NaN,0.0,NaN,6.616336836
0.25,16.0,0.2,NaN,0.0,NaN,7.496220636
0.125,512.0,0.8,NaN,0.0,NaN,7.596932697
0.25,16.0,0.7,NaN,0.0,NaN,7.492604012
0.25,16.0,0.4,NaN,0.0,NaN,7.490700289
0.25,16.0,0.3,NaN,0.0,NaN,6.617363799
0.25,16.0,0.9,NaN,0.0,NaN,7.487902519
0.25,32.0,0.1,NaN,0.0,NaN,7.480017034
0.25,8.0,1.0,NaN,0.0,NaN,7.480032608
0.25,8.0,0.8,NaN,0.0,NaN,7.479353314
0.25,0.0625,0.1,NaN,NaN,NaN,7.480466871
0.25,16.0,0.5,NaN,0.0,NaN,7.478149246
0.25,16.0,0.1,NaN,0.0,NaN,7.509055836
0.25,16.0,0.6,NaN,0.0,NaN,7.476159526
0.25,32.0,0.5,NaN,0.0,NaN,6.616859992
0.25,16.0,0.8,NaN,0.0,NaN,7.517592124
0.25,16.0,1.0,NaN,0.0,NaN,6.612145513
0.25,32.0,0.3,NaN,0.0,NaN,7.516430971
0.25,32.0,0.4,NaN,0.0,NaN,7.47456945
0.25,32.0,0.05,NaN,0.0,NaN,7.475088448
0.25,32.0,0.2,NaN,0.0,NaN,7.489760125
0.25,0.0625,0.3,NaN,NaN,NaN,7.583248305
0.25,0.0625,0.4,NaN,NaN,NaN,7.550093857
0.25,0.125,0.1,NaN,NaN,NaN,7.548400115
0.25,0.0625,0.8,NaN,NaN,NaN,7.546452719
0.25,0.125,0.4,NaN,NaN,NaN,7.543703256
0.25,64.0,1.0,NaN,0.0,NaN,8.12058329
0.25,128.0,0.4,NaN,0.0,NaN,8.115198232
0.25,128.0,0.6,NaN,0.0,NaN,8.036988886
0.25,128.0,0.8,NaN,0.0,NaN,8.966714501
0.25,256.0,0.05,NaN,0.0,NaN,8.966568765
0.25,256.0,0.4,NaN,0.0,NaN,8.934804704
0.25,32.0,0.6,NaN,0.0,NaN,8.871960941
0.25,64.0,0.2,NaN,0.0,NaN,6.894899262
0.25,64.0,0.7,NaN,0.0,NaN,6.960727147
0.25,128.0,0.2,NaN,0.0,NaN,6.793046657
0.25,256.0,0.8,NaN,0.0,NaN,7.397888291
0.25,32.0,0.7,NaN,0.0,NaN,7.735883025
0.25,128.0,0.5,NaN,0.0,NaN,6.773869666
0.25,128.0,0.7,NaN,0.0,NaN,6.839161104
0.25,32.0,0.8,NaN,0.0,NaN,8.088661441
0.25,256.0,0.2,NaN,0.0,NaN,7.280677976
0.25,128.0,1.0,NaN,0.0,NaN,7.370456154
0.25,256.0,0.3,NaN,0.0,NaN,7.311644228
0.25,512.0,0.4,NaN,0.0,NaN,7.192975863
0.25,256.0,0.9,NaN,0.0,NaN,7.3721186
0.25,512.0,0.05,NaN,0.0,NaN,7.436871358
0.25,32.0,0.9,NaN,0.0,NaN,7.663880765
0.25,512.0,0.7,NaN,0.0,NaN,7.204560157
0.25,256.0,1.0,NaN,0.0,NaN,7.214457893
0.25,256.0,0.6,NaN,0.0,NaN,7.173103885
0.25,256.0,0.7,NaN,0.0,NaN,7.207601025
0.25,32.0,1.0,NaN,0.0,NaN,7.905936945
0.25,512.0,0.5,NaN,0.0,NaN,7.219799242
0.25,128.0,0.9,NaN,0.0,NaN,6.800884342
0.25,64.0,0.3,NaN,0.0,NaN,7.832851582
0.25,64.0,0.1,NaN,0.0,NaN,8.067491389
0.5,0.0625,0.05,NaN,NaN,NaN,7.352702108
0.25,64.0,0.05,NaN,0.0,NaN,7.595403582
0.25,512.0,0.2,NaN,0.0,NaN,7.188553139
0.25,512.0,0.3,NaN,0.0,NaN,7.295505687
0.5,0.0625,0.3,NaN,NaN,NaN,7.170706449
0.25,512.0,0.6,NaN,0.0,NaN,7.284481803
0.5,0.0625,0.1,NaN,NaN,NaN,7.25721721
0.5,0.0625,0.7,NaN,NaN,NaN,7.127072035
0.25,256.0,0.1,NaN,0.0,NaN,6.716617345
0.25,512.0,0.9,NaN,0.0,NaN,7.353234854
0.5,0.0625,0.2,NaN,NaN,NaN,7.18237951
0.5,0.0625,1.0,NaN,NaN,NaN,7.124643393
0.25,256.0,0.5,NaN,0.0,NaN,6.714072653
0.5,0.0625,0.8,NaN,NaN,NaN,7.109898994
0.5,0.125,0.3,NaN,NaN,NaN,7.113978753
0.5,0.125,0.4,NaN,NaN,NaN,7.131016893
0.25,512.0,1.0,NaN,0.0,NaN,7.164071837
0.5,0.0625,0.9,NaN,NaN,NaN,7.168663734
0.5,0.125,0.6,NaN,NaN,NaN,7.200310156
0.25,512.0,0.1,NaN,0.0,NaN,6.750657321
0.5,0.125,0.5,NaN,NaN,NaN,7.21875503
0.5,0.25,0.05,NaN,NaN,NaN,7.239262819
0.5,0.0625,0.6,NaN,NaN,NaN,7.25914731
0.5,0.25,0.2,NaN,NaN,NaN,7.233929729
0.25,512.0,0.8,NaN,0.0,NaN,6.738465827
0.5,0.125,0.2,NaN,NaN,NaN,7.173432886
0.5,0.125,1.0,NaN,NaN,NaN,7.151155818
0.5,0.0625,0.4,NaN,NaN,NaN,6.692134086
0.25,64.0,0.4,NaN,0.0,NaN,7.648813652
0.5,0.25,0.6,NaN,NaN,NaN,7.125048409
0.5,0.0625,0.5,NaN,NaN,NaN,7.100344794
0.5,0.125,0.9,NaN,NaN,NaN,7.152227813
0.5,0.25,0.5,NaN,NaN,NaN,7.200060081
0.5,0.125,0.1,NaN,NaN,NaN,7.274969937
0.5,0.25,0.1,NaN,NaN,NaN,7.180326182
0.5,0.25,0.7,NaN,NaN,NaN,7.122271032
0.5,0.125,0.05,NaN,NaN,NaN,6.682783536
0.5,0.25,0.8,NaN,NaN,NaN,7.113872669
0.5,0.125,0.8,NaN,NaN,NaN,7.222902368
0.5,0.25,0.4,NaN,NaN,NaN,7.194996042
0.25,64.0,0.6,NaN,0.0,NaN,7.54283021
0.25,64.0,0.5,NaN,0.0,NaN,7.483770714
0.5,0.125,0.7,NaN,NaN,NaN,6.65428959
0.5,0.25,0.3,NaN,NaN,NaN,6.655207783
0.25,64.0,0.8,NaN,0.0,NaN,7.520628124
0.25,64.0,0.9,NaN,0.0,NaN,7.507408954
0.25,128.0,0.05,NaN,0.0,NaN,7.555737853
0.5,0.25,0.9,NaN,NaN,NaN,6.717097959
0.5,0.25,1.0,NaN,NaN,NaN,6.634132685
0.25,128.0,0.1,NaN,0.0,NaN,7.593853126
0.25,128.0,0.3,NaN,0.0,NaN,7.522439495
0.5,4.0,0.9,NaN,0.0,NaN,10.22292832
0.5,8.0,0.9,NaN,0.0,NaN,10.039027229
0.5,16.0,0.6,NaN,0.0,NaN,10.154853207
0.5,32.0,0.3,NaN,0.0,NaN,9.838416347
0.5,64.0,0.05,NaN,0.0,NaN,9.720898698
0.5,64.0,0.8,NaN,0.0,NaN,9.637379851
0.5,1.0,0.5,NaN,0.0,NaN,7.720414565
0.5,0.5,0.05,NaN,0.0,NaN,8.85898879
0.5,1.0,0.7,NaN,0.0,NaN,7.68813774
0.5,1.0,0.9,NaN,0.0,NaN,7.757408273
0.5,2.0,0.3,NaN,0.0,NaN,7.689686844
0.5,2.0,0.05,NaN,0.0,NaN,7.770044045
0.5,2.0,0.1,NaN,0.0,NaN,6.973369762
0.5,0.5,0.1,NaN,0.0,NaN,8.395134623
0.5,2.0,0.9,NaN,0.0,NaN,7.669079898
0.5,2.0,0.6,NaN,0.0,NaN,7.606137495
0.5,4.0,0.05,NaN,0.0,NaN,6.834660003
0.5,2.0,0.7,NaN,0.0,NaN,7.82158302
0.5,2.0,0.5,NaN,0.0,NaN,7.55020308
0.5,4.0,0.1,NaN,0.0,NaN,7.650353635
0.5,0.5,0.2,NaN,0.0,NaN,8.413131286
0.5,4.0,0.6,NaN,0.0,NaN,7.583042763
0.5,4.0,0.3,NaN,0.0,NaN,7.549450129
0.5,4.0,0.5,NaN,0.0,NaN,7.93997748
0.5,4.0,1.0,NaN,0.0,NaN,7.821671249
0.5,4.0,0.7,NaN,0.0,NaN,7.712881095
0.5,8.0,0.1,NaN,0.0,NaN,7.611812112
0.5,0.5,0.3,NaN,0.0,NaN,7.727084283
0.5,8.0,0.2,NaN,0.0,NaN,6.835968865
0.5,8.0,0.6,NaN,0.0,NaN,7.63880816
0.5,8.0,0.8,NaN,0.0,NaN,7.662040326
0.5,0.5,0.4,NaN,0.0,NaN,7.591857034
0.5,16.0,0.05,NaN,0.0,NaN,6.734623916
0.5,8.0,0.4,NaN,0.0,NaN,7.624757471
0.5,16.0,0.1,NaN,0.0,NaN,7.549109992
0.5,8.0,0.7,NaN,0.0,NaN,7.634444288
0.5,16.0,0.5,NaN,0.0,NaN,7.633900209
0.5,16.0,0.2,NaN,0.0,NaN,7.669930447
0.5,8.0,1.0,NaN,0.0,NaN,7.625359598
0.5,16.0,0.4,NaN,0.0,NaN,7.559291209
0.5,16.0,0.3,NaN,0.0,NaN,7.602508181
0.5,16.0,0.7,NaN,0.0,NaN,7.591287561
0.5,16.0,0.8,NaN,0.0,NaN,7.56201519
0.5,32.0,0.2,NaN,0.0,NaN,7.651639059
0.5,16.0,0.9,NaN,0.0,NaN,6.841148506
0.5,16.0,1.0,NaN,0.0,NaN,7.663642175
0.5,0.5,0.5,NaN,0.0,NaN,7.868559249
0.5,32.0,0.05,NaN,0.0,NaN,7.561232609
0.5,32.0,0.1,NaN,0.0,NaN,7.684884626
0.5,32.0,0.4,NaN,0.0,NaN,7.64310974
0.5,32.0,0.6,NaN,0.0,NaN,7.621893934
0.5,0.5,0.6,NaN,0.0,NaN,7.813935044
0.5,32.0,0.5,NaN,0.0,NaN,6.814263431
0.5,32.0,0.8,NaN,0.0,NaN,7.570285293
0.5,32.0,0.7,NaN,0.0,NaN,7.577788569
0.5,32.0,1.0,NaN,0.0,NaN,7.570874054
0.5,32.0,0.9,NaN,0.0,NaN,7.637582145
0.5,64.0,0.2,NaN,0.0,NaN,7.564852936
0.5,64.0,0.3,NaN,0.0,NaN,6.812161597
0.5,64.0,0.1,NaN,0.0,NaN,7.540395896
0.5,0.5,0.7,NaN,0.0,NaN,7.883488303
0.5,64.0,0.4,NaN,0.0,NaN,7.706255437
0.5,64.0,0.5,NaN,0.0,NaN,7.610012809
0.5,64.0,0.6,NaN,0.0,NaN,7.643405698
0.5,64.0,0.7,NaN,0.0,NaN,7.758894918
0.5,64.0,1.0,NaN,0.0,NaN,6.824978717
0.5,128.0,0.05,NaN,0.0,NaN,7.59756568
0.5,64.0,0.9,NaN,0.0,NaN,7.595605022
0.5,0.5,0.8,NaN,0.0,NaN,7.940249182
0.5,128.0,0.1,NaN,0.0,NaN,7.607135124
0.5,128.0,0.2,NaN,0.0,NaN,7.641685911
0.5,128.0,0.4,NaN,0.0,NaN,7.658048196
0.5,128.0,0.3,NaN,0.0,NaN,7.571673427
0.5,128.0,0.7,NaN,0.0,NaN,6.848440575
0.5,128.0,0.8,NaN,0.0,NaN,7.571837225
0.5,128.0,0.9,NaN,0.0,NaN,7.617616487
0.5,128.0,0.6,NaN,0.0,NaN,7.573301467
0.5,256.0,0.05,NaN,0.0,NaN,7.658435373
0.5,128.0,0.5,NaN,0.0,NaN,7.518049454
0.5,0.5,0.9,NaN,0.0,NaN,7.879283046
0.5,128.0,1.0,NaN,0.0,NaN,7.497188761
0.5,256.0,0.5,NaN,0.0,NaN,7.440353736
0.5,256.0,0.2,NaN,0.0,NaN,6.681173997
0.5,256.0,0.3,NaN,0.0,NaN,7.396572342
0.5,256.0,0.4,NaN,0.0,NaN,7.389398164
0.5,256.0,0.1,NaN,0.0,NaN,7.365642873
0.5,256.0,1.0,NaN,0.0,NaN,6.626118284
0.5,0.5,1.0,NaN,0.0,NaN,8.107856595
0.5,256.0,0.6,NaN,0.0,NaN,7.382681789
0.5,512.0,0.1,NaN,0.0,NaN,7.386612749
0.5,512.0,0.05,NaN,0.0,NaN,7.377921387
0.5,256.0,0.9,NaN,0.0,NaN,7.406371299
0.5,256.0,0.7,NaN,0.0,NaN,7.448827654
0.5,256.0,0.8,NaN,0.0,NaN,7.452673713
0.5,512.0,0.2,NaN,0.0,NaN,7.403900082
0.5,1.0,0.05,NaN,0.0,NaN,7.769879917
0.5,512.0,0.3,NaN,0.0,NaN,7.398011125
0.5,512.0,0.5,NaN,0.0,NaN,6.618411098
0.5,512.0,0.4,NaN,0.0,NaN,7.369539277
0.5,512.0,0.9,NaN,0.0,NaN,7.394767093
0.5,512.0,0.6,NaN,0.0,NaN,7.395599382
0.5,512.0,0.8,NaN,0.0,NaN,7.377500294
1.0,0.0625,0.05,NaN,NaN,NaN,7.3777708
1.0,0.0625,0.1,NaN,NaN,NaN,7.370073372
1.0,0.0625,0.2,NaN,NaN,NaN,6.614821683
1.0,0.0625,0.5,NaN,NaN,NaN,7.400223393
1.0,0.0625,0.3,NaN,NaN,NaN,7.370813401
0.5,512.0,0.7,NaN,0.0,NaN,7.403787842
1.0,0.0625,0.7,NaN,NaN,NaN,7.352689371
0.5,1.0,0.1,NaN,0.0,NaN,7.68298486
1.0,0.0625,0.4,NaN,NaN,NaN,7.417249188
1.0,0.0625,0.9,NaN,NaN,NaN,7.397761244
1.0,0.0625,0.8,NaN,NaN,NaN,6.618723803
1.0,0.125,0.4,NaN,NaN,NaN,7.35741512
1.0,0.125,0.1,NaN,NaN,NaN,7.387561893
1.0,0.125,0.05,NaN,NaN,NaN,7.431444051
0.5,1.0,0.2,NaN,0.0,NaN,7.678415164
1.0,0.125,0.5,NaN,NaN,NaN,6.630592353
1.0,0.125,0.6,NaN,NaN,NaN,7.414071345
1.0,0.0625,1.0,NaN,NaN,NaN,7.415840049
1.0,0.125,0.3,NaN,NaN,NaN,7.364843417
0.5,512.0,1.0,NaN,0.0,NaN,7.412512682
1.0,0.125,0.8,NaN,NaN,NaN,6.648398732
0.5,1.0,0.3,NaN,0.0,NaN,7.758224091
1.0,0.0625,0.6,NaN,NaN,NaN,7.422167165
0.5,1.0,0.4,NaN,0.0,NaN,7.712660889
1.0,0.125,0.2,NaN,NaN,NaN,7.424747075
0.5,1.0,0.6,NaN,0.0,NaN,7.740386518
0.5,1.0,0.8,NaN,0.0,NaN,7.720506065
1.0,0.125,0.7,NaN,NaN,NaN,7.425439037
0.5,1.0,1.0,NaN,0.0,NaN,7.730693616
0.5,2.0,0.2,NaN,0.0,NaN,7.656210776
0.5,2.0,0.4,NaN,0.0,NaN,7.621695427
0.5,2.0,0.8,NaN,0.0,NaN,7.681179024
0.5,2.0,1.0,NaN,0.0,NaN,8.099907223
0.5,4.0,0.4,NaN,0.0,NaN,7.623158002
0.5,8.0,0.5,NaN,0.0,NaN,7.597195177
0.5,4.0,0.8,NaN,0.0,NaN,7.583295919
0.5,8.0,0.05,NaN,0.0,NaN,7.92713527
0.5,4.0,0.2,NaN,0.0,NaN,7.55089383
0.5,8.0,0.3,NaN,0.0,NaN,7.65521135
1.0,0.125,0.9,NaN,NaN,NaN,8.249143679
1.0,0.125,1.0,NaN,NaN,NaN,8.150123113
1.0,0.25,0.05,NaN,NaN,NaN,8.11698793
1.0,0.25,0.1,NaN,NaN,NaN,7.912257068
1.0,0.25,0.2,NaN,NaN,NaN,7.899917412
1.0,0.25,0.3,NaN,NaN,NaN,7.849141006
1.0,0.25,0.4,NaN,NaN,NaN,7.011029627
1.0,0.25,0.6,NaN,NaN,NaN,7.118028871
1.0,0.25,0.5,NaN,NaN,NaN,6.268123589
1.0,0.25,0.7,NaN,NaN,NaN,6.25952199
1.0,4.0,0.7,NaN,0.0,NaN,8.23952382
1.0,8.0,0.5,NaN,0.0,NaN,8.170399504
1.0,16.0,0.2,NaN,0.0,NaN,9.604027905
1.0,16.0,1.0,NaN,0.0,NaN,9.457767735
1.0,32.0,0.7,NaN,0.0,NaN,8.15203276
1.0,64.0,0.4,NaN,0.0,NaN,9.281698031
1.0,1.0,0.8,NaN,0.0,NaN,7.865988181
1.0,1.0,0.7,NaN,0.0,NaN,7.784799053
1.0,2.0,0.1,NaN,0.0,NaN,8.091330378
1.0,1.0,0.3,NaN,0.0,NaN,7.698382317
1.0,2.0,0.05,NaN,0.0,NaN,7.724493777
1.0,2.0,0.2,NaN,0.0,NaN,8.007594464
1.0,4.0,0.05,NaN,0.0,NaN,7.795481409
1.0,2.0,0.6,NaN,0.0,NaN,7.747828884
1.0,2.0,0.7,NaN,0.0,NaN,7.616135045
1.0,1.0,1.0,NaN,0.0,NaN,7.792357006
1.0,4.0,0.2,NaN,0.0,NaN,7.649107554
1.0,2.0,0.8,NaN,0.0,NaN,7.115880137
1.0,0.25,0.9,NaN,NaN,NaN,8.301672153
1.0,0.25,0.8,NaN,NaN,NaN,8.137126915
1.0,4.0,0.1,NaN,0.0,NaN,7.672335221
1.0,4.0,0.9,NaN,0.0,NaN,7.694959195
1.0,0.25,1.0,NaN,NaN,NaN,8.444652953
1.0,4.0,0.8,NaN,0.0,NaN,6.867525782
1.0,2.0,1.0,NaN,0.0,NaN,7.63923842
1.0,8.0,0.1,NaN,0.0,NaN,7.885464629
1.0,4.0,0.6,NaN,0.0,NaN,7.588693605
1.0,8.0,0.2,NaN,0.0,NaN,7.549435993
1.0,8.0,0.7,NaN,0.0,NaN,6.72768987
1.0,8.0,0.3,NaN,0.0,NaN,7.545276523
1.0,8.0,0.05,NaN,0.0,NaN,7.597826405
1.0,8.0,0.4,NaN,0.0,NaN,7.666227863
1.0,0.5,0.05,NaN,0.0,NaN,8.116414293
1.0,8.0,1.0,NaN,0.0,NaN,7.507401529
1.0,8.0,0.6,NaN,0.0,NaN,7.550895077
1.0,0.5,0.1,NaN,0.0,NaN,8.034390895
1.0,8.0,0.9,NaN,0.0,NaN,7.626395056
1.0,16.0,0.3,NaN,0.0,NaN,6.782477137
1.0,16.0,0.05,NaN,0.0,NaN,7.616406873
1.0,8.0,0.8,NaN,0.0,NaN,7.551780308
1.0,16.0,0.4,NaN,0.0,NaN,7.549416574
1.0,16.0,0.1,NaN,0.0,NaN,7.747695792
1.0,16.0,0.7,NaN,0.0,NaN,7.718260785
1.0,16.0,0.8,NaN,0.0,NaN,7.772495746
1.0,32.0,0.1,NaN,0.0,NaN,6.923643536
1.0,16.0,0.6,NaN,0.0,NaN,7.672084629
1.0,0.5,0.2,NaN,0.0,NaN,7.919524954
1.0,32.0,0.05,NaN,0.0,NaN,7.63456229
1.0,16.0,0.5,NaN,0.0,NaN,7.728865754
1.0,32.0,0.5,NaN,0.0,NaN,7.591875472
1.0,32.0,0.4,NaN,0.0,NaN,7.606771219
1.0,32.0,0.3,NaN,0.0,NaN,7.564547147
1.0,16.0,0.9,NaN,0.0,NaN,7.622828515
1.0,64.0,0.2,NaN,0.0,NaN,7.564804995
1.0,32.0,0.9,NaN,0.0,NaN,7.681983851
1.0,0.5,0.3,NaN,0.0,NaN,7.962761217
1.0,32.0,0.8,NaN,0.0,NaN,6.778973837
1.0,32.0,0.2,NaN,0.0,NaN,7.644361987
1.0,32.0,0.6,NaN,0.0,NaN,7.620610798
1.0,64.0,0.1,NaN,0.0,NaN,7.618928936
1.0,64.0,0.05,NaN,0.0,NaN,7.656416282
1.0,64.0,0.6,NaN,0.0,NaN,6.771008037
1.0,64.0,1.0,NaN,0.0,NaN,7.714541983
1.0,0.5,0.4,NaN,0.0,NaN,8.011042337
1.0,64.0,0.8,NaN,0.0,NaN,7.748222398
1.0,64.0,0.5,NaN,0.0,NaN,7.696694843
1.0,32.0,1.0,NaN,0.0,NaN,7.722590938
1.0,64.0,0.3,NaN,0.0,NaN,7.711384086
1.0,64.0,0.9,NaN,0.0,NaN,7.593511502
1.0,0.5,0.5,NaN,0.0,NaN,7.899760713
1.0,128.0,0.1,NaN,0.0,NaN,6.819996215
1.0,128.0,0.2,NaN,0.0,NaN,7.587346612
1.0,128.0,0.5,NaN,0.0,NaN,7.588059171
1.0,128.0,0.4,NaN,0.0,NaN,7.601490644
1.0,64.0,0.7,NaN,0.0,NaN,7.560800804
1.0,128.0,0.9,NaN,0.0,NaN,6.839844967
1.0,128.0,0.05,NaN,0.0,NaN,7.5675089
1.0,128.0,0.3,NaN,0.0,NaN,7.560619543
1.0,128.0,0.6,NaN,0.0,NaN,7.55247352
1.0,256.0,0.05,NaN,0.0,NaN,7.603596092
1.0,128.0,0.8,NaN,0.0,NaN,7.570893941
1.0,256.0,0.2,NaN,0.0,NaN,7.535344381
1.0,0.5,0.6,NaN,0.0,NaN,7.819898484
1.0,256.0,0.4,NaN,0.0,NaN,6.770038585
1.0,256.0,0.1,NaN,0.0,NaN,7.528254171
1.0,128.0,0.7,NaN,0.0,NaN,7.528165205
1.0,128.0,1.0,NaN,0.0,NaN,7.499273613
1.0,256.0,0.3,NaN,0.0,NaN,7.522750521
1.0,0.5,0.7,NaN,0.0,NaN,8.065900127
1.0,256.0,0.5,NaN,0.0,NaN,7.57813941
1.0,256.0,0.6,NaN,0.0,NaN,7.526537211
1.0,256.0,0.9,NaN,0.0,NaN,7.526134344
1.0,256.0,0.8,NaN,0.0,NaN,7.526179232
1.0,256.0,1.0,NaN,0.0,NaN,7.552753679
1.0,0.5,0.8,NaN,0.0,NaN,7.880120087
1.0,512.0,0.4,NaN,0.0,NaN,7.56066445
1.0,512.0,0.2,NaN,0.0,NaN,7.54703162
1.0,256.0,0.7,NaN,0.0,NaN,7.577377924
1.0,512.0,0.05,NaN,0.0,NaN,7.520813395
1.0,512.0,0.5,NaN,0.0,NaN,7.502940243
1.0,512.0,0.3,NaN,0.0,NaN,7.564957622
1.0,512.0,0.6,NaN,0.0,NaN,7.526033684
1.0,512.0,0.1,NaN,0.0,NaN,6.652821006
2.0,0.0625,0.1,NaN,NaN,NaN,7.484561745
1.0,512.0,0.8,NaN,0.0,NaN,7.461580021
1.0,0.5,0.9,NaN,0.0,NaN,7.961276999
1.0,512.0,1.0,NaN,0.0,NaN,7.570034623
1.0,512.0,0.9,NaN,0.0,NaN,7.471684419
1.0,512.0,0.7,NaN,0.0,NaN,6.841596585
2.0,0.0625,0.6,NaN,NaN,NaN,7.505427026
2.0,0.0625,0.05,NaN,NaN,NaN,7.48739705
2.0,0.0625,0.8,NaN,NaN,NaN,7.460565083
2.0,0.0625,0.2,NaN,NaN,NaN,7.492940106
2.0,0.0625,0.3,NaN,NaN,NaN,7.426620559
2.0,0.125,0.2,NaN,NaN,NaN,7.425546381
2.0,0.0625,0.5,NaN,NaN,NaN,7.449601058
2.0,0.0625,0.9,NaN,NaN,NaN,7.448420579
2.0,0.0625,0.7,NaN,NaN,NaN,7.470742668
2.0,0.0625,0.4,NaN,NaN,NaN,6.637653951
2.0,0.125,0.05,NaN,NaN,NaN,7.475971769
2.0,0.125,0.1,NaN,NaN,NaN,7.501970556
2.0,0.125,0.3,NaN,NaN,NaN,7.46452554
1.0,0.5,1.0,NaN,0.0,NaN,7.794939863
2.0,0.0625,1.0,NaN,NaN,NaN,6.809120727
2.0,0.125,0.4,NaN,NaN,NaN,6.80018051
2.0,0.125,0.5,NaN,NaN,NaN,6.798580377
1.0,1.0,0.05,NaN,0.0,NaN,7.797653073
1.0,1.0,0.1,NaN,0.0,NaN,7.755675116
1.0,1.0,0.4,NaN,0.0,NaN,7.803808333
1.0,1.0,0.2,NaN,0.0,NaN,7.81519168
1.0,1.0,0.5,NaN,0.0,NaN,7.757495848
1.0,1.0,0.6,NaN,0.0,NaN,7.745133319
1.0,1.0,0.9,NaN,0.0,NaN,7.682186054
1.0,2.0,0.3,NaN,0.0,NaN,7.712077813
1.0,2.0,0.9,NaN,0.0,NaN,7.719056445
1.0,2.0,0.4,NaN,0.0,NaN,7.699538246
1.0,4.0,0.3,NaN,0.0,NaN,7.674438841
1.0,2.0,0.5,NaN,0.0,NaN,7.905942839
1.0,4.0,0.5,NaN,0.0,NaN,7.669982061
1.0,4.0,0.4,NaN,0.0,NaN,7.704297424
1.0,4.0,1.0,NaN,0.0,NaN,7.719982243
2.0,0.125,0.8,NaN,NaN,NaN,8.358529936
2.0,0.125,0.9,NaN,NaN,NaN,8.337504154
2.0,0.125,1.0,NaN,NaN,NaN,8.433150392
2.0,0.25,0.05,NaN,NaN,NaN,8.436180353
2.0,0.25,0.1,NaN,NaN,NaN,8.277224068
2.0,0.25,0.2,NaN,NaN,NaN,8.362150779
2.0,0.125,0.6,NaN,NaN,NaN,7.237509416
2.0,0.125,0.7,NaN,NaN,NaN,7.620730409
2.0,0.25,0.7,NaN,NaN,NaN,6.946470786
2.0,0.25,0.3,NaN,NaN,NaN,7.11410172
2.0,0.25,0.9,NaN,NaN,NaN,6.897520625
2.0,0.5,0.3,NaN,0.0,NaN,6.994257918
2.0,0.5,0.2,NaN,0.0,NaN,6.918174054
2.0,0.25,1.0,NaN,NaN,NaN,6.923916178
2.0,0.25,0.4,NaN,NaN,NaN,7.021850995
2.0,0.25,0.5,NaN,NaN,NaN,6.999416408
2.0,0.25,0.6,NaN,NaN,NaN,7.025021105
2.0,0.25,0.8,NaN,NaN,NaN,6.248903709
2.0,0.5,0.1,NaN,0.0,NaN,6.23024436
2.0,0.5,0.05,NaN,0.0,NaN,6.979170332
2.0,0.5,0.4,NaN,0.0,NaN,6.216781982
2.0,0.5,0.5,NaN,0.0,NaN,6.204492484
2.0,8.0,0.2,NaN,0.0,NaN,8.357884114
2.0,16.0,0.2,NaN,0.0,NaN,8.676538635
2.0,16.0,1.0,NaN,0.0,NaN,8.157019878
2.0,32.0,0.7,NaN,0.0,NaN,8.31869563
2.0,64.0,0.4,NaN,0.0,NaN,8.294857246
2.0,128.0,0.1,NaN,0.0,NaN,8.196937609
2.0,2.0,0.4,NaN,0.0,NaN,7.68112001
2.0,4.0,0.2,NaN,0.0,NaN,6.888052799
2.0,2.0,0.9,NaN,0.0,NaN,7.747314964
2.0,2.0,0.05,NaN,0.0,NaN,8.006060607
2.0,2.0,1.0,NaN,0.0,NaN,7.898386691
2.0,2.0,0.5,NaN,0.0,NaN,7.802417201
2.0,2.0,0.8,NaN,0.0,NaN,7.698381773
2.0,0.5,0.6,NaN,0.0,NaN,8.772421786
2.0,2.0,0.7,NaN,0.0,NaN,7.634199329
2.0,0.5,0.7,NaN,0.0,NaN,8.271004277
2.0,4.0,0.9,NaN,0.0,NaN,7.60623618
2.0,4.0,0.4,NaN,0.0,NaN,7.764375019
2.0,4.0,0.5,NaN,0.0,NaN,8.000758914
2.0,4.0,0.8,NaN,0.0,NaN,7.854316551
2.0,8.0,0.3,NaN,0.0,NaN,6.904145254
2.0,4.0,1.0,NaN,0.0,NaN,7.743227232
2.0,4.0,0.7,NaN,0.0,NaN,7.61618828
2.0,8.0,0.5,NaN,0.0,NaN,7.570084546
2.0,8.0,1.0,NaN,0.0,NaN,7.868121189
2.0,8.0,0.6,NaN,0.0,NaN,7.708122139
2.0,16.0,0.3,NaN,0.0,NaN,6.911320399
2.0,8.0,0.9,NaN,0.0,NaN,7.62825664
2.0,16.0,0.05,NaN,0.0,NaN,7.727403951
2.0,0.5,0.8,NaN,0.0,NaN,8.060575525
2.0,0.5,0.9,NaN,0.0,NaN,8.278366482
2.0,16.0,0.4,NaN,0.0,NaN,7.650868889
2.0,16.0,0.9,NaN,0.0,NaN,7.630132511
2.0,32.0,0.05,NaN,0.0,NaN,6.722281802
2.0,16.0,0.8,NaN,0.0,NaN,7.73968767
2.0,16.0,0.5,NaN,0.0,NaN,7.619757432
2.0,16.0,0.7,NaN,0.0,NaN,7.649604945
2.0,8.0,0.8,NaN,0.0,NaN,7.591386786
2.0,32.0,0.6,NaN,0.0,NaN,7.56714113
2.0,16.0,0.6,NaN,0.0,NaN,7.713351593
2.0,32.0,0.5,NaN,0.0,NaN,7.557616793
2.0,32.0,0.1,NaN,0.0,NaN,7.631297624
2.0,32.0,0.4,NaN,0.0,NaN,7.594566997
2.0,0.5,1.0,NaN,0.0,NaN,7.923011883
2.0,32.0,0.2,NaN,0.0,NaN,7.608918425
2.0,32.0,0.8,NaN,0.0,NaN,6.753690562
2.0,32.0,0.3,NaN,0.0,NaN,7.707449842
2.0,32.0,0.9,NaN,0.0,NaN,7.631725834
2.0,64.0,0.5,NaN,0.0,NaN,6.789611329
2.0,64.0,0.3,NaN,0.0,NaN,7.614636597
2.0,32.0,1.0,NaN,0.0,NaN,7.799017755
2.0,64.0,0.2,NaN,0.0,NaN,7.586032731
2.0,64.0,0.1,NaN,0.0,NaN,7.59333092
2.0,64.0,0.05,NaN,0.0,NaN,7.575583972
2.0,1.0,0.05,NaN,0.0,NaN,7.786661585
2.0,128.0,0.2,NaN,0.0,NaN,6.810088644
2.0,64.0,0.6,NaN,0.0,NaN,7.59685903
2.0,128.0,0.05,NaN,0.0,NaN,7.609216013
2.0,64.0,1.0,NaN,0.0,NaN,7.604385662
2.0,64.0,0.9,NaN,0.0,NaN,7.626802344
2.0,64.0,0.8,NaN,0.0,NaN,7.575018189
2.0,64.0,0.7,NaN,0.0,NaN,7.690780654
2.0,128.0,0.7,NaN,0.0,NaN,7.608352909
2.0,128.0,0.6,NaN,0.0,NaN,7.573175538
2.0,128.0,0.3,NaN,0.0,NaN,7.586144487
2.0,128.0,0.8,NaN,0.0,NaN,7.554012893
2.0,128.0,0.5,NaN,0.0,NaN,7.545963938
2.0,1.0,0.1,NaN,0.0,NaN,7.854247431
2.0,128.0,0.9,NaN,0.0,NaN,6.752122397
2.0,128.0,0.4,NaN,0.0,NaN,7.605400316
2.0,256.0,0.2,NaN,0.0,NaN,7.559201295
2.0,128.0,1.0,NaN,0.0,NaN,7.587305024
2.0,256.0,0.4,NaN,0.0,NaN,7.604704852
2.0,1.0,0.2,NaN,0.0,NaN,7.998479514
2.0,256.0,0.3,NaN,0.0,NaN,7.63832091
2.0,256.0,0.6,NaN,0.0,NaN,7.584808222
2.0,256.0,0.5,NaN,0.0,NaN,6.756900605
2.0,256.0,0.9,NaN,0.0,NaN,7.572083749
2.0,512.0,0.2,NaN,0.0,NaN,7.578237047
2.0,512.0,0.05,NaN,0.0,NaN,7.533979328
2.0,256.0,0.05,NaN,0.0,NaN,7.595599166
2.0,256.0,1.0,NaN,0.0,NaN,7.516636476
2.0,256.0,0.1,NaN,0.0,NaN,7.632723513
2.0,512.0,0.1,NaN,0.0,NaN,6.686601862
2.0,512.0,0.5,NaN,0.0,NaN,7.520448749
2.0,256.0,0.7,NaN,0.0,NaN,7.514519997
2.0,1.0,0.3,NaN,0.0,NaN,7.906642507
2.0,256.0,0.8,NaN,0.0,NaN,7.496082432
2.0,512.0,0.7,NaN,0.0,NaN,7.50640841
2.0,512.0,0.8,NaN,0.0,NaN,6.756065708
2.0,512.0,0.4,NaN,0.0,NaN,7.552580263
2.0,1.0,0.4,NaN,0.0,NaN,7.884917485
4.0,0.0625,0.3,NaN,NaN,NaN,7.502939814
2.0,512.0,0.3,NaN,0.0,NaN,7.547279732
2.0,512.0,0.6,NaN,0.0,NaN,7.471868135
4.0,0.0625,0.05,NaN,NaN,NaN,7.501681649
4.0,0.0625,0.1,NaN,NaN,NaN,7.515715412
2.0,512.0,1.0,NaN,0.0,NaN,7.557744834
2.0,512.0,0.9,NaN,0.0,NaN,7.571211568
4.0,0.0625,1.0,NaN,NaN,NaN,7.494950634
4.0,0.0625,0.4,NaN,NaN,NaN,6.655762278
4.0,0.0625,0.6,NaN,NaN,NaN,7.614915842
4.0,0.125,0.05,NaN,NaN,NaN,6.667650766
4.0,0.0625,0.2,NaN,NaN,NaN,7.502021144
4.0,0.0625,0.8,NaN,NaN,NaN,7.481108074
4.0,0.0625,0.7,NaN,NaN,NaN,7.502293251
4.0,0.0625,0.5,NaN,NaN,NaN,7.482025239
4.0,0.125,0.6,NaN,NaN,NaN,7.479535719
4.0,0.0625,0.9,NaN,NaN,NaN,7.45583606
2.0,1.0,0.5,NaN,0.0,NaN,8.026314358
4.0,0.125,0.4,NaN,NaN,NaN,7.466059399
4.0,0.125,0.1,NaN,NaN,NaN,7.465329928
4.0,0.125,0.5,NaN,NaN,NaN,7.478210898
4.0,0.125,0.2,NaN,NaN,NaN,7.500797559
4.0,0.125,0.8,NaN,NaN,NaN,7.482568542
4.0,0.125,1.0,NaN,NaN,NaN,7.475347356
4.0,0.125,0.3,NaN,NaN,NaN,7.55151309
4.0,0.125,0.7,NaN,NaN,NaN,6.670085088
2.0,1.0,0.6,NaN,0.0,NaN,7.867532192
4.0,0.25,0.1,NaN,NaN,NaN,7.491795398
4.0,0.25,0.05,NaN,NaN,NaN,7.522119585
2.0,1.0,0.7,NaN,0.0,NaN,7.858068403
4.0,0.125,0.9,NaN,NaN,NaN,7.523023707
4.0,0.25,0.2,NaN,NaN,NaN,6.642564054
2.0,1.0,0.8,NaN,0.0,NaN,7.981646272
4.0,0.25,0.3,NaN,NaN,NaN,6.640437232
2.0,1.0,0.9,NaN,0.0,NaN,7.995730662
2.0,1.0,1.0,NaN,0.0,NaN,7.985754296
2.0,2.0,0.1,NaN,0.0,NaN,7.968598172
2.0,2.0,0.2,NaN,0.0,NaN,7.996474926
2.0,2.0,0.3,NaN,0.0,NaN,7.726727887
2.0,2.0,0.6,NaN,0.0,NaN,7.785667568
2.0,4.0,0.05,NaN,0.0,NaN,7.838406885
2.0,4.0,0.3,NaN,0.0,NaN,7.76957793
2.0,16.0,0.1,NaN,0.0,NaN,7.797868293
2.0,4.0,0.6,NaN,0.0,NaN,7.792864949
2.0,8.0,0.4,NaN,0.0,NaN,7.696835181
2.0,8.0,0.1,NaN,0.0,NaN,7.837629819
2.0,8.0,0.7,NaN,0.0,NaN,7.834541565
2.0,8.0,0.05,NaN,0.0,NaN,7.778601371
2.0,4.0,0.1,NaN,0.0,NaN,7.745287062
4.0,0.25,0.6,NaN,NaN,NaN,8.191097085
4.0,0.25,0.9,NaN,NaN,NaN,8.920100097
4.0,0.25,1.0,NaN,NaN,NaN,8.122737223
4.0,0.5,0.05,NaN,0.0,NaN,8.881599323
4.0,0.5,0.1,NaN,0.0,NaN,8.835953168
4.0,0.5,0.2,NaN,0.0,NaN,8.08931587
4.0,0.25,0.4,NaN,NaN,NaN,7.165647122
4.0,0.25,0.5,NaN,NaN,NaN,7.213237858
4.0,0.25,0.7,NaN,NaN,NaN,7.774942308
4.0,0.5,0.3,NaN,0.0,NaN,7.406506564
4.0,0.5,0.6,NaN,0.0,NaN,7.372145767
4.0,1.0,0.3,NaN,0.0,NaN,6.699358586
4.0,0.5,0.4,NaN,0.0,NaN,7.41006027
4.0,0.5,0.7,NaN,0.0,NaN,7.476859101
4.0,0.5,1.0,NaN,0.0,NaN,7.330159647
4.0,0.5,0.8,NaN,0.0,NaN,7.3714292
4.0,0.25,0.8,NaN,NaN,NaN,7.083134117
4.0,0.5,0.5,NaN,0.0,NaN,7.377928697
4.0,1.0,0.9,NaN,0.0,NaN,6.535159526
4.0,1.0,0.1,NaN,0.0,NaN,7.217509316
4.0,0.5,0.9,NaN,0.0,NaN,7.266535296
4.0,2.0,0.5,NaN,0.0,NaN,6.477451281
4.0,1.0,0.05,NaN,0.0,NaN,7.207491709
4.0,1.0,0.2,NaN,0.0,NaN,7.104589514
4.0,4.0,0.1,NaN,0.0,NaN,6.362036241
4.0,1.0,0.7,NaN,0.0,NaN,7.163020902
4.0,1.0,0.4,NaN,0.0,NaN,7.208204277
4.0,1.0,0.6,NaN,0.0,NaN,7.081453509
4.0,1.0,0.5,NaN,0.0,NaN,7.107977421
4.0,4.0,0.8,NaN,0.0,NaN,6.388463322
4.0,1.0,0.8,NaN,0.0,NaN,7.105354028
4.0,2.0,0.2,NaN,0.0,NaN,7.092478757
4.0,2.0,0.3,NaN,0.0,NaN,7.027774951
4.0,1.0,1.0,NaN,0.0,NaN,7.219679629
4.0,2.0,0.1,NaN,0.0,NaN,7.147888327
4.0,2.0,1.0,NaN,0.0,NaN,7.024729592
4.0,2.0,0.9,NaN,0.0,NaN,7.195226856
4.0,2.0,0.4,NaN,0.0,NaN,7.1942496
4.0,2.0,0.8,NaN,0.0,NaN,7.149937815
4.0,2.0,0.05,NaN,0.0,NaN,7.093467204
4.0,2.0,0.6,NaN,0.0,NaN,7.223352154
4.0,8.0,0.2,NaN,0.0,NaN,6.367281649
4.0,4.0,0.5,NaN,0.0,NaN,7.184220408
4.0,2.0,0.7,NaN,0.0,NaN,7.179355657
4.0,4.0,0.4,NaN,0.0,NaN,7.114649202
4.0,4.0,0.2,NaN,0.0,NaN,7.138052678
4.0,4.0,0.6,NaN,0.0,NaN,7.019322134
4.0,4.0,0.05,NaN,0.0,NaN,7.121245194
4.0,4.0,0.9,NaN,0.0,NaN,7.136295974
4.0,8.0,0.3,NaN,0.0,NaN,6.325493961
4.0,4.0,0.7,NaN,0.0,NaN,7.055094618
4.0,8.0,0.05,NaN,0.0,NaN,7.133041474
4.0,4.0,0.3,NaN,0.0,NaN,7.123479406
4.0,8.0,0.1,NaN,0.0,NaN,6.97483588
4.0,4.0,1.0,NaN,0.0,NaN,7.124571035
4.0,128.0,0.1,NaN,0.0,NaN,10.016283687
4.0,128.0,1.0,NaN,0.0,NaN,9.826598888
4.0,256.0,0.9,NaN,0.0,NaN,9.763178857
4.0,512.0,0.4,NaN,0.0,NaN,9.61645257
8.0,0.0625,0.3,NaN,NaN,NaN,9.524616811
8.0,0.0625,0.9,NaN,NaN,NaN,9.485517061
4.0,32.0,0.3,NaN,0.0,NaN,7.666850099
4.0,32.0,0.1,NaN,0.0,NaN,7.694938605
4.0,16.0,1.0,NaN,0.0,NaN,7.723448302
4.0,8.0,0.4,NaN,0.0,NaN,9.393365286
4.0,32.0,0.9,NaN,0.0,NaN,7.582688624
4.0,64.0,0.1,NaN,0.0,NaN,6.800761257
4.0,64.0,0.3,NaN,0.0,NaN,7.976841282
4.0,32.0,1.0,NaN,0.0,NaN,7.817735269
4.0,64.0,0.05,NaN,0.0,NaN,7.8451494
4.0,32.0,0.5,NaN,0.0,NaN,7.824926865
4.0,128.0,0.05,NaN,0.0,NaN,7.715508226
4.0,8.0,0.5,NaN,0.0,NaN,8.162490105
4.0,32.0,0.7,NaN,0.0,NaN,7.566795586
4.0,64.0,0.7,NaN,0.0,NaN,7.807587152
4.0,64.0,0.5,NaN,0.0,NaN,7.963561303
4.0,64.0,0.9,NaN,0.0,NaN,7.865536245
4.0,128.0,0.4,NaN,0.0,NaN,7.565436319
4.0,128.0,0.2,NaN,0.0,NaN,6.904627863
4.0,64.0,1.0,NaN,0.0,NaN,7.912462653
4.0,256.0,0.05,NaN,0.0,NaN,7.595190214
4.0,8.0,0.6,NaN,0.0,NaN,8.420315774
4.0,256.0,0.2,NaN,0.0,NaN,6.681716
4.0,128.0,0.6,NaN,0.0,NaN,7.558816679
4.0,8.0,0.7,NaN,0.0,NaN,7.707577786
4.0,256.0,0.8,NaN,0.0,NaN,7.588007719
4.0,256.0,0.1,NaN,0.0,NaN,7.632202186
4.0,128.0,0.8,NaN,0.0,NaN,7.636589033
4.0,256.0,1.0,NaN,0.0,NaN,6.840937767
4.0,256.0,0.7,NaN,0.0,NaN,7.593901387
4.0,128.0,0.9,NaN,0.0,NaN,7.564616074
4.0,256.0,0.4,NaN,0.0,NaN,7.569408386
4.0,256.0,0.3,NaN,0.0,NaN,7.583737683
4.0,512.0,0.1,NaN,0.0,NaN,7.623314843
4.0,256.0,0.6,NaN,0.0,NaN,7.637071368
4.0,8.0,0.8,NaN,0.0,NaN,7.716589587
4.0,256.0,0.5,NaN,0.0,NaN,7.582294614
4.0,512.0,0.05,NaN,0.0,NaN,7.608370823
4.0,512.0,0.7,NaN,0.0,NaN,6.749276981
4.0,512.0,0.5,NaN,0.0,NaN,7.529780045
4.0,512.0,0.6,NaN,0.0,NaN,7.548350777
4.0,512.0,0.8,NaN,0.0,NaN,7.599849297
4.0,512.0,0.2,NaN,0.0,NaN,7.723538419
4.0,512.0,0.3,NaN,0.0,NaN,7.67969719
4.0,512.0,0.9,NaN,0.0,NaN,7.786203389
8.0,0.0625,0.2,NaN,NaN,NaN,7.665424353
8.0,0.0625,0.4,NaN,NaN,NaN,6.780879966
4.0,8.0,0.9,NaN,0.0,NaN,8.02216335
8.0,0.0625,0.1,NaN,NaN,NaN,7.616462376
4.0,512.0,1.0,NaN,0.0,NaN,7.748949382
8.0,0.0625,0.5,NaN,NaN,NaN,7.669748353
4.0,8.0,1.0,NaN,0.0,NaN,7.916644408
8.0,0.0625,0.05,NaN,NaN,NaN,7.622188794
8.0,0.0625,0.6,NaN,NaN,NaN,7.657257653
8.0,0.0625,1.0,NaN,NaN,NaN,7.672725765
8.0,0.125,0.1,NaN,NaN,NaN,6.754886344
8.0,0.125,0.05,NaN,NaN,NaN,7.711779472
4.0,16.0,0.05,NaN,0.0,NaN,8.066981609
8.0,0.0625,0.8,NaN,NaN,NaN,7.692396447
8.0,0.0625,0.7,NaN,NaN,NaN,7.751794317
8.0,0.125,0.2,NaN,NaN,NaN,7.787488497
8.0,0.125,0.3,NaN,NaN,NaN,7.724626426
8.0,0.125,0.7,NaN,NaN,NaN,7.808635493
8.0,0.125,0.8,NaN,NaN,NaN,6.996215628
8.0,0.125,0.6,NaN,NaN,NaN,7.787620609
8.0,0.125,0.4,NaN,NaN,NaN,7.758986007
8.0,0.125,0.5,NaN,NaN,NaN,7.766061051
8.0,0.125,1.0,NaN,NaN,NaN,7.743960612
8.0,0.125,0.9,NaN,NaN,NaN,7.721795357
4.0,16.0,0.1,NaN,0.0,NaN,7.943809386
8.0,0.25,0.2,NaN,NaN,NaN,7.61801604
8.0,0.25,0.05,NaN,NaN,NaN,7.561852645
8.0,0.25,0.6,NaN,NaN,NaN,7.644003868
8.0,0.25,0.5,NaN,NaN,NaN,7.628451396
8.0,0.25,0.4,NaN,NaN,NaN,6.857811845
8.0,0.25,0.3,NaN,NaN,NaN,7.613636361
8.0,0.25,0.1,NaN,NaN,NaN,7.596666897
8.0,0.5,0.05,NaN,0.0,NaN,6.941241456
8.0,0.25,1.0,NaN,NaN,NaN,7.578277104
4.0,16.0,0.2,NaN,0.0,NaN,7.887418095
8.0,0.5,0.1,NaN,0.0,NaN,7.598278648
8.0,0.25,0.7,NaN,NaN,NaN,7.546490414
8.0,0.5,0.2,NaN,0.0,NaN,7.602424076
8.0,0.5,0.3,NaN,0.0,NaN,7.547120934
8.0,0.25,0.9,NaN,NaN,NaN,7.531274559
4.0,16.0,0.3,NaN,0.0,NaN,7.871762084
8.0,0.5,0.5,NaN,0.0,NaN,7.541956549
8.0,0.25,0.8,NaN,NaN,NaN,7.486682642
8.0,0.5,0.7,NaN,0.0,NaN,6.782733391
8.0,0.5,0.6,NaN,0.0,NaN,7.477047739
8.0,0.5,0.9,NaN,0.0,NaN,7.483905262
8.0,0.5,0.8,NaN,0.0,NaN,7.467929011
8.0,0.5,0.4,NaN,0.0,NaN,7.466937253
8.0,1.0,0.5,NaN,0.0,NaN,7.457852238
8.0,1.0,0.05,NaN,0.0,NaN,7.495810727
8.0,0.5,1.0,NaN,0.0,NaN,7.461730135
8.0,1.0,0.3,NaN,0.0,NaN,6.818507652
8.0,1.0,0.4,NaN,0.0,NaN,7.499213679
8.0,1.0,0.1,NaN,0.0,NaN,7.497948004
8.0,1.0,0.2,NaN,0.0,NaN,7.494894832
8.0,1.0,0.9,NaN,0.0,NaN,7.493233223
8.0,1.0,0.7,NaN,0.0,NaN,7.492113857
8.0,1.0,0.8,NaN,0.0,NaN,7.445944024
8.0,1.0,0.6,NaN,0.0,NaN,7.457227025
8.0,2.0,0.1,NaN,0.0,NaN,7.481568857
4.0,16.0,0.4,NaN,0.0,NaN,7.859480456
8.0,2.0,0.05,NaN,0.0,NaN,7.47915968
8.0,1.0,1.0,NaN,0.0,NaN,6.850388139
8.0,2.0,0.8,NaN,0.0,NaN,7.475201095
8.0,2.0,0.2,NaN,0.0,NaN,7.482460244
8.0,2.0,0.7,NaN,0.0,NaN,7.481115969
8.0,2.0,0.4,NaN,0.0,NaN,7.480736596
8.0,2.0,0.6,NaN,0.0,NaN,6.790948431
4.0,16.0,0.5,NaN,0.0,NaN,7.862646862
8.0,2.0,0.3,NaN,0.0,NaN,7.473563966
8.0,2.0,0.5,NaN,0.0,NaN,7.434115592
8.0,2.0,1.0,NaN,0.0,NaN,7.470617933
8.0,4.0,0.05,NaN,0.0,NaN,6.804055192
8.0,2.0,0.9,NaN,0.0,NaN,7.495362943
8.0,4.0,0.1,NaN,0.0,NaN,6.794013345
4.0,16.0,0.6,NaN,0.0,NaN,7.869059878
4.0,16.0,0.7,NaN,0.0,NaN,7.865751695
4.0,16.0,0.8,NaN,0.0,NaN,8.062034327
4.0,16.0,0.9,NaN,0.0,NaN,7.872480619
4.0,32.0,0.05,NaN,0.0,NaN,7.818428156
4.0,32.0,0.2,NaN,0.0,NaN,7.777017196
4.0,32.0,0.4,NaN,0.0,NaN,7.685177536
4.0,32.0,0.6,NaN,0.0,NaN,7.671687631
4.0,32.0,0.8,NaN,0.0,NaN,7.67708632
4.0,128.0,0.5,NaN,0.0,NaN,7.691754938
4.0,64.0,0.4,NaN,0.0,NaN,7.674482959
4.0,64.0,0.8,NaN,0.0,NaN,7.71172033
4.0,128.0,0.3,NaN,0.0,NaN,7.703133014
4.0,64.0,0.2,NaN,0.0,NaN,7.694939485
4.0,128.0,0.7,NaN,0.0,NaN,7.67750851
4.0,64.0,0.6,NaN,0.0,NaN,7.685296028
8.0,4.0,0.4,NaN,0.0,NaN,8.818904055
8.0,4.0,0.7,NaN,0.0,NaN,8.136556242
8.0,4.0,0.8,NaN,0.0,NaN,8.039030865
8.0,4.0,0.9,NaN,0.0,NaN,8.696468138
8.0,4.0,1.0,NaN,0.0,NaN,8.013624133
8.0,8.0,0.05,NaN,0.0,NaN,7.999532382
8.0,4.0,0.2,NaN,0.0,NaN,7.141065487
8.0,4.0,0.3,NaN,0.0,NaN,7.051839522
8.0,4.0,0.5,NaN,0.0,NaN,7.072123582
8.0,4.0,0.6,NaN,0.0,NaN,7.157242141
8.0,8.0,0.1,NaN,0.0,NaN,7.154283076
8.0,8.0,0.6,NaN,0.0,NaN,7.040554128
8.0,8.0,0.3,NaN,0.0,NaN,6.996759866
8.0,8.0,0.4,NaN,0.0,NaN,6.982306099
8.0,8.0,0.7,NaN,0.0,NaN,7.108137852
8.0,16.0,0.5,NaN,0.0,NaN,6.952301722
8.0,8.0,0.5,NaN,0.0,NaN,7.051268508
8.0,32.0,0.1,NaN,0.0,NaN,7.042827342
8.0,8.0,0.9,NaN,0.0,NaN,6.948833133
8.0,16.0,0.1,NaN,0.0,NaN,7.038908386
8.0,8.0,1.0,NaN,0.0,NaN,6.919852707
8.0,16.0,0.2,NaN,0.0,NaN,6.948222108
8.0,16.0,0.4,NaN,0.0,NaN,7.061594247
8.0,16.0,0.05,NaN,0.0,NaN,7.001725588
8.0,16.0,0.6,NaN,0.0,NaN,7.092444316
8.0,16.0,0.8,NaN,0.0,NaN,7.077926134
8.0,8.0,0.2,NaN,0.0,NaN,6.412012236
8.0,32.0,0.2,NaN,0.0,NaN,7.040050095
8.0,32.0,0.05,NaN,0.0,NaN,7.021209742
8.0,16.0,0.9,NaN,0.0,NaN,7.003273375
8.0,16.0,0.7,NaN,0.0,NaN,6.980501215
8.0,32.0,0.4,NaN,0.0,NaN,7.115852807
8.0,8.0,0.8,NaN,0.0,NaN,6.39925331
8.0,32.0,0.3,NaN,0.0,NaN,6.980095137
8.0,32.0,0.5,NaN,0.0,NaN,6.395626732
8.0,16.0,0.3,NaN,0.0,NaN,6.405774633
8.0,32.0,0.6,NaN,0.0,NaN,6.330749454
8.0,16.0,1.0,NaN,0.0,NaN,6.41542112
8.0,256.0,1.0,NaN,0.0,NaN,8.272672381
8.0,512.0,1.0,NaN,0.0,NaN,9.973765232
16.0,0.0625,0.7,NaN,NaN,NaN,8.233579353
16.0,0.125,0.4,NaN,NaN,NaN,9.807061256
16.0,0.25,0.1,NaN,NaN,NaN,8.21215752
16.0,0.25,0.9,NaN,NaN,NaN,8.193022639
8.0,128.0,1.0,NaN,0.0,NaN,7.624615228
8.0,128.0,0.6,NaN,0.0,NaN,7.625757559
8.0,256.0,0.05,NaN,0.0,NaN,7.932716322
8.0,128.0,0.7,NaN,0.0,NaN,7.647095018
8.0,128.0,0.4,NaN,0.0,NaN,7.751913377
8.0,256.0,0.7,NaN,0.0,NaN,7.807693904
8.0,256.0,0.6,NaN,0.0,NaN,7.60130902
8.0,512.0,0.05,NaN,0.0,NaN,7.774709667
8.0,512.0,0.1,NaN,0.0,NaN,7.676909085
8.0,256.0,0.4,NaN,0.0,NaN,7.02661847
8.0,256.0,0.3,NaN,0.0,NaN,7.798719301
8.0,256.0,0.2,NaN,0.0,NaN,7.650607313
8.0,512.0,0.4,NaN,0.0,NaN,7.645759773
8.0,512.0,0.5,NaN,0.0,NaN,6.892915796
8.0,32.0,0.7,NaN,0.0,NaN,8.453223431
8.0,32.0,0.8,NaN,0.0,NaN,8.266102809
8.0,512.0,0.8,NaN,0.0,NaN,7.536434399
16.0,0.0625,0.1,NaN,NaN,NaN,7.587756371
16.0,0.0625,0.05,NaN,NaN,NaN,7.579280859
8.0,512.0,0.7,NaN,0.0,NaN,7.844267881
8.0,32.0,0.9,NaN,0.0,NaN,8.19231228
8.0,512.0,0.3,NaN,0.0,NaN,7.544301714
16.0,0.0625,0.3,NaN,NaN,NaN,7.731298209
16.0,0.0625,0.4,NaN,NaN,NaN,6.766386922
16.0,0.0625,0.6,NaN,NaN,NaN,7.643408718
8.0,32.0,1.0,NaN,0.0,NaN,8.011220788
16.0,0.0625,0.2,NaN,NaN,NaN,7.605604206
16.0,0.0625,0.9,NaN,NaN,NaN,7.671300912
16.0,0.125,0.05,NaN,NaN,NaN,7.662629493
16.0,0.125,0.1,NaN,NaN,NaN,6.786781039
16.0,0.0625,0.8,NaN,NaN,NaN,7.669453665
8.0,64.0,0.05,NaN,0.0,NaN,8.602590244
16.0,0.0625,0.5,NaN,NaN,NaN,7.618935808
16.0,0.125,0.3,NaN,NaN,NaN,7.576528061
16.0,0.0625,1.0,NaN,NaN,NaN,7.581431776
16.0,0.125,0.5,NaN,NaN,NaN,7.558212302
16.0,0.125,0.6,NaN,NaN,NaN,7.551266534
16.0,0.125,0.2,NaN,NaN,NaN,7.561098194
16.0,0.125,0.9,NaN,NaN,NaN,6.711716359
16.0,0.125,0.8,NaN,NaN,NaN,7.655001266
16.0,0.25,0.3,NaN,NaN,NaN,7.732844293
16.0,0.25,0.05,NaN,NaN,NaN,7.710966922
16.0,0.25,0.2,NaN,NaN,NaN,7.727923564
16.0,0.125,0.7,NaN,NaN,NaN,7.829527456
8.0,64.0,0.1,NaN,0.0,NaN,7.98417603
16.0,0.125,1.0,NaN,NaN,NaN,7.804625339
16.0,0.25,0.5,NaN,NaN,NaN,7.7515763
16.0,0.25,0.6,NaN,NaN,NaN,6.783122625
16.0,0.25,0.4,NaN,NaN,NaN,7.843529576
16.0,0.25,0.8,NaN,NaN,NaN,7.76567999
16.0,0.5,0.05,NaN,0.0,NaN,7.703066162
16.0,0.25,1.0,NaN,NaN,NaN,7.72402109
8.0,64.0,0.2,NaN,0.0,NaN,7.962888361
16.0,0.5,0.2,NaN,0.0,NaN,7.676954284
16.0,0.5,0.3,NaN,0.0,NaN,7.000694073
16.0,0.25,0.7,NaN,NaN,NaN,7.767285976
16.0,0.5,0.1,NaN,0.0,NaN,7.67494697
16.0,0.5,0.5,NaN,0.0,NaN,7.691988861
16.0,0.5,0.7,NaN,0.0,NaN,7.657377834
16.0,0.5,0.6,NaN,0.0,NaN,7.643719146
16.0,0.5,0.4,NaN,0.0,NaN,7.671079114
16.0,1.0,0.3,NaN,0.0,NaN,7.714396485
16.0,0.5,0.9,NaN,0.0,NaN,7.741851095
8.0,64.0,0.3,NaN,0.0,NaN,7.99563875
16.0,0.5,1.0,NaN,0.0,NaN,6.869218603
16.0,1.0,0.1,NaN,0.0,NaN,7.634412917
16.0,1.0,0.2,NaN,0.0,NaN,7.693807833
16.0,0.5,0.8,NaN,0.0,NaN,7.649332867
16.0,1.0,0.05,NaN,0.0,NaN,7.635323909
16.0,1.0,0.5,NaN,0.0,NaN,7.631123214
8.0,64.0,0.4,NaN,0.0,NaN,7.880299068
16.0,1.0,0.8,NaN,0.0,NaN,7.586904012
16.0,1.0,0.6,NaN,0.0,NaN,6.928329674
16.0,1.0,0.4,NaN,0.0,NaN,7.568462529
16.0,1.0,0.7,NaN,0.0,NaN,7.561838982
16.0,1.0,1.0,NaN,0.0,NaN,7.53627822
16.0,2.0,0.4,NaN,0.0,NaN,7.576054566
16.0,1.0,0.9,NaN,0.0,NaN,7.536225837
16.0,2.0,0.6,NaN,0.0,NaN,7.596063998
8.0,64.0,0.5,NaN,0.0,NaN,7.968168996
16.0,2.0,0.1,NaN,0.0,NaN,7.598766387
16.0,2.0,0.2,NaN,0.0,NaN,6.791419561
16.0,2.0,0.05,NaN,0.0,NaN,7.511761542
16.0,2.0,0.3,NaN,0.0,NaN,7.568922205
16.0,2.0,0.9,NaN,0.0,NaN,6.752106498
16.0,2.0,0.5,NaN,0.0,NaN,7.499375453
16.0,2.0,0.8,NaN,0.0,NaN,7.518767921
16.0,4.0,0.05,NaN,0.0,NaN,7.453104856
16.0,4.0,0.2,NaN,0.0,NaN,7.427265611
16.0,2.0,0.7,NaN,0.0,NaN,7.458228479
8.0,64.0,0.6,NaN,0.0,NaN,7.843669026
16.0,4.0,0.1,NaN,0.0,NaN,7.502857469
16.0,4.0,0.7,NaN,0.0,NaN,7.501141924
16.0,4.0,0.5,NaN,0.0,NaN,6.722966134
16.0,2.0,1.0,NaN,0.0,NaN,7.460516942
16.0,4.0,0.3,NaN,0.0,NaN,7.46999781
16.0,4.0,0.9,NaN,0.0,NaN,7.467282327
16.0,4.0,0.8,NaN,0.0,NaN,7.422474783
16.0,4.0,0.4,NaN,0.0,NaN,7.464129186
16.0,8.0,0.4,NaN,0.0,NaN,7.449767932
16.0,4.0,0.6,NaN,0.0,NaN,7.43974082
16.0,8.0,0.3,NaN,0.0,NaN,7.412186993
16.0,8.0,0.1,NaN,0.0,NaN,6.670400104
8.0,64.0,0.7,NaN,0.0,NaN,7.750420348
16.0,4.0,1.0,NaN,0.0,NaN,7.432083996
16.0,8.0,0.5,NaN,0.0,NaN,7.384145571
16.0,8.0,1.0,NaN,0.0,NaN,7.408420339
16.0,16.0,0.1,NaN,0.0,NaN,7.426736116
16.0,8.0,0.6,NaN,0.0,NaN,7.418681863
16.0,8.0,0.2,NaN,0.0,NaN,7.423012011
16.0,8.0,0.8,NaN,0.0,NaN,6.624785732
8.0,64.0,0.8,NaN,0.0,NaN,7.722353376
16.0,8.0,0.05,NaN,0.0,NaN,7.414364139
16.0,8.0,0.9,NaN,0.0,NaN,7.472210015
16.0,8.0,0.7,NaN,0.0,NaN,7.488546379
16.0,16.0,0.2,NaN,0.0,NaN,7.410131878
16.0,16.0,0.3,NaN,0.0,NaN,6.646870255
16.0,16.0,0.05,NaN,0.0,NaN,7.410124265
8.0,64.0,0.9,NaN,0.0,NaN,7.748997715
8.0,64.0,1.0,NaN,0.0,NaN,7.752913666
16.0,16.0,0.4,NaN,0.0,NaN,6.675647929
8.0,128.0,0.05,NaN,0.0,NaN,7.72785502
8.0,128.0,0.1,NaN,0.0,NaN,7.79607366
8.0,128.0,0.2,NaN,0.0,NaN,7.712008901
8.0,128.0,0.3,NaN,0.0,NaN,7.61854185
8.0,128.0,0.5,NaN,0.0,NaN,7.721413769
8.0,128.0,0.9,NaN,0.0,NaN,7.63279633
8.0,128.0,0.8,NaN,0.0,NaN,7.733662394
8.0,256.0,0.5,NaN,0.0,NaN,7.653405859
8.0,256.0,0.8,NaN,0.0,NaN,7.601647167
8.0,256.0,0.1,NaN,0.0,NaN,7.673360799
8.0,512.0,0.2,NaN,0.0,NaN,7.650069945
8.0,256.0,0.9,NaN,0.0,NaN,7.582109946
8.0,512.0,0.9,NaN,0.0,NaN,7.590279585
8.0,512.0,0.6,NaN,0.0,NaN,7.568250503
16.0,16.0,0.5,NaN,0.0,NaN,8.17128851
16.0,16.0,0.6,NaN,0.0,NaN,8.461951597
16.0,16.0,0.7,NaN,0.0,NaN,8.474184574
16.0,16.0,0.9,NaN,0.0,NaN,8.088767397
16.0,16.0,0.8,NaN,0.0,NaN,8.095096772
16.0,16.0,1.0,NaN,0.0,NaN,8.046252566
16.0,32.0,0.8,NaN,0.0,NaN,6.91502899
16.0,64.0,0.2,NaN,0.0,NaN,6.922894248
16.0,32.0,0.6,NaN,0.0,NaN,6.922727725
16.0,32.0,0.05,NaN,0.0,NaN,6.909866402
16.0,32.0,0.7,NaN,0.0,NaN,6.937514964
16.0,32.0,0.4,NaN,0.0,NaN,6.980879388
16.0,64.0,0.05,NaN,0.0,NaN,6.968002441
16.0,64.0,0.3,NaN,0.0,NaN,6.902427072
16.0,32.0,0.2,NaN,0.0,NaN,6.934375969
16.0,64.0,0.4,NaN,0.0,NaN,6.975737107
16.0,32.0,0.9,NaN,0.0,NaN,6.929360584
16.0,64.0,0.9,NaN,0.0,NaN,6.888216826
16.0,32.0,0.3,NaN,0.0,NaN,6.922815294
16.0,64.0,1.0,NaN,0.0,NaN,6.923988914
16.0,128.0,0.05,NaN,0.0,NaN,6.893479144
16.0,128.0,0.1,NaN,0.0,NaN,6.902259767
16.0,64.0,0.5,NaN,0.0,NaN,6.8994538
16.0,32.0,1.0,NaN,0.0,NaN,6.888605764
16.0,64.0,0.6,NaN,0.0,NaN,6.932949294
16.0,64.0,0.7,NaN,0.0,NaN,6.953082476
16.0,128.0,0.2,NaN,0.0,NaN,6.953843032
16.0,32.0,0.1,NaN,0.0,NaN,6.374595396
16.0,32.0,0.5,NaN,0.0,NaN,6.35268077
16.0,64.0,0.1,NaN,0.0,NaN,6.370908708
16.0,128.0,0.3,NaN,0.0,NaN,6.375389386
16.0,128.0,0.4,NaN,0.0,NaN,6.381102426
16.0,64.0,0.8,NaN,0.0,NaN,6.376663466
32.0,0.125,0.2,NaN,NaN,NaN,10.270273952
32.0,0.25,0.05,NaN,NaN,NaN,10.122047795
32.0,0.25,0.8,NaN,NaN,NaN,10.006837962
32.0,0.5,0.5,NaN,0.0,NaN,9.891506441
32.0,1.0,0.2,NaN,0.0,NaN,9.803040544
32.0,1.0,1.0,NaN,0.0,NaN,9.703134104
16.0,512.0,0.1,NaN,0.0,NaN,7.906894473
16.0,512.0,0.4,NaN,0.0,NaN,7.591306862
16.0,128.0,0.5,NaN,0.0,NaN,8.225689476
16.0,512.0,0.8,NaN,0.0,NaN,7.652007103
16.0,512.0,0.9,NaN,0.0,NaN,7.597141769
16.0,512.0,0.6,NaN,0.0,NaN,7.697480328
16.0,512.0,1.0,NaN,0.0,NaN,7.683465023
32.0,0.0625,0.2,NaN,NaN,NaN,7.707029643
32.0,0.0625,0.8,NaN,NaN,NaN,7.644594176
32.0,0.0625,0.3,NaN,NaN,NaN,7.822608249
32.0,0.0625,1.0,NaN,NaN,NaN,7.851169018
32.0,0.125,0.3,NaN,NaN,NaN,7.648166061
16.0,128.0,0.6,NaN,0.0,NaN,8.179452129
32.0,0.0625,0.9,NaN,NaN,NaN,7.522308247
32.0,0.0625,0.7,NaN,NaN,NaN,7.007055828
32.0,0.0625,0.5,NaN,NaN,NaN,7.560411134
32.0,0.125,0.8,NaN,NaN,NaN,7.612366383
32.0,0.125,0.4,NaN,NaN,NaN,7.622891423
32.0,0.125,0.7,NaN,NaN,NaN,7.006095089
32.0,0.125,0.6,NaN,NaN,NaN,7.879350757
16.0,128.0,0.7,NaN,0.0,NaN,8.276306117
32.0,0.125,0.9,NaN,NaN,NaN,7.637919826
32.0,0.25,0.1,NaN,NaN,NaN,7.636661996
32.0,0.125,1.0,NaN,NaN,NaN,7.625882765
16.0,128.0,0.8,NaN,0.0,NaN,7.655888023
32.0,0.25,0.5,NaN,NaN,NaN,7.515232906
32.0,0.25,0.4,NaN,NaN,NaN,6.757147698
32.0,0.5,0.1,NaN,0.0,NaN,6.730796887
32.0,0.25,0.2,NaN,NaN,NaN,7.663980053
32.0,0.25,0.3,NaN,NaN,NaN,7.659166466
32.0,0.25,0.7,NaN,NaN,NaN,7.702214278
32.0,0.25,0.9,NaN,NaN,NaN,7.638271042
16.0,128.0,0.9,NaN,0.0,NaN,8.559477067
32.0,0.25,0.6,NaN,NaN,NaN,7.681106103
32.0,0.25,1.0,NaN,NaN,NaN,7.74917784
32.0,0.5,0.4,NaN,0.0,NaN,7.702962295
32.0,0.5,0.9,NaN,0.0,NaN,6.794017242
32.0,0.5,0.2,NaN,0.0,NaN,7.790558068
32.0,0.5,0.05,NaN,0.0,NaN,7.683361013
32.0,0.5,0.6,NaN,0.0,NaN,7.693271191
32.0,0.5,0.3,NaN,0.0,NaN,7.664470613
32.0,0.5,0.7,NaN,0.0,NaN,7.736921322
32.0,0.5,1.0,NaN,0.0,NaN,7.722218388
16.0,128.0,1.0,NaN,0.0,NaN,7.871319594
32.0,0.5,0.8,NaN,0.0,NaN,7.606462696
32.0,1.0,0.1,NaN,0.0,NaN,7.64653497
32.0,1.0,0.6,NaN,0.0,NaN,6.817826741
32.0,1.0,0.05,NaN,0.0,NaN,7.658774599
32.0,1.0,0.3,NaN,0.0,NaN,7.598656082
32.0,1.0,0.4,NaN,0.0,NaN,7.708879186
32.0,1.0,0.7,NaN,0.0,NaN,7.682156487
32.0,1.0,0.5,NaN,0.0,NaN,7.638309571
16.0,256.0,0.05,NaN,0.0,NaN,7.9497745
32.0,2.0,0.3,NaN,0.0,NaN,6.937311655
32.0,2.0,0.05,NaN,0.0,NaN,7.609269974
32.0,1.0,0.9,NaN,0.0,NaN,7.687665628
32.0,1.0,0.8,NaN,0.0,NaN,7.562993455
32.0,2.0,0.2,NaN,0.0,NaN,7.645482661
32.0,2.0,1.0,NaN,0.0,NaN,6.894414851
32.0,2.0,0.7,NaN,0.0,NaN,7.619891952
32.0,2.0,0.4,NaN,0.0,NaN,7.569464702
16.0,256.0,0.1,NaN,0.0,NaN,7.870307653
32.0,2.0,0.6,NaN,0.0,NaN,7.655976296
32.0,2.0,0.1,NaN,0.0,NaN,7.520555444
32.0,2.0,0.5,NaN,0.0,NaN,7.575491567
32.0,4.0,0.6,NaN,0.0,NaN,6.832196737
16.0,256.0,0.2,NaN,0.0,NaN,7.914797091
32.0,4.0,0.2,NaN,0.0,NaN,7.668452458
32.0,2.0,0.8,NaN,0.0,NaN,7.696604406
32.0,2.0,0.9,NaN,0.0,NaN,7.689857105
32.0,4.0,0.3,NaN,0.0,NaN,7.655237485
32.0,4.0,0.1,NaN,0.0,NaN,7.667092546
32.0,4.0,0.05,NaN,0.0,NaN,7.654536601
32.0,4.0,0.9,NaN,0.0,NaN,7.605168917
32.0,8.0,0.2,NaN,0.0,NaN,6.811551468
32.0,4.0,0.4,NaN,0.0,NaN,7.529598616
32.0,4.0,1.0,NaN,0.0,NaN,7.573761932
32.0,4.0,0.5,NaN,0.0,NaN,7.566304311
16.0,256.0,0.3,NaN,0.0,NaN,7.809864814
32.0,4.0,0.7,NaN,0.0,NaN,7.524393365
32.0,4.0,0.8,NaN,0.0,NaN,7.48550572
32.0,8.0,0.1,NaN,0.0,NaN,7.474064228
32.0,8.0,0.4,NaN,0.0,NaN,7.487807201
32.0,8.0,0.3,NaN,0.0,NaN,7.456851222
32.0,8.0,0.05,NaN,0.0,NaN,7.43796698
32.0,8.0,1.0,NaN,0.0,NaN,7.50911257
32.0,8.0,0.7,NaN,0.0,NaN,7.45497158
32.0,16.0,0.05,NaN,0.0,NaN,7.463558228
32.0,8.0,0.8,NaN,0.0,NaN,7.478296854
32.0,8.0,0.6,NaN,0.0,NaN,7.465228817
32.0,16.0,0.3,NaN,0.0,NaN,7.45086654
32.0,8.0,0.5,NaN,0.0,NaN,7.470906191
32.0,8.0,0.9,NaN,0.0,NaN,6.654834914
16.0,256.0,0.4,NaN,0.0,NaN,7.858776312
32.0,16.0,0.1,NaN,0.0,NaN,7.451832919
16.0,256.0,0.5,NaN,0.0,NaN,7.870940233
64.0,0.5,0.3,NaN,0.0,NaN,9.94633192
32.0,16.0,0.6,NaN,0.0,NaN,7.453330784
32.0,16.0,0.8,NaN,0.0,NaN,7.456479461
32.0,16.0,0.5,NaN,0.0,NaN,6.650926814
32.0,16.0,0.2,NaN,0.0,NaN,7.430191742
32.0,16.0,0.4,NaN,0.0,NaN,7.451392634
32.0,16.0,0.9,NaN,0.0,NaN,7.410211928
32.0,32.0,0.4,NaN,0.0,NaN,7.474800648
32.0,32.0,0.1,NaN,0.0,NaN,6.635140097
32.0,16.0,1.0,NaN,0.0,NaN,7.399554863
32.0,32.0,0.2,NaN,0.0,NaN,7.447470849
32.0,32.0,0.5,NaN,0.0,NaN,7.398006733
32.0,32.0,0.8,NaN,0.0,NaN,6.67425363
32.0,32.0,0.6,NaN,0.0,NaN,7.382274957
32.0,16.0,0.7,NaN,0.0,NaN,7.402673722
32.0,32.0,0.3,NaN,0.0,NaN,7.41997237
32.0,32.0,0.05,NaN,0.0,NaN,7.400090881
32.0,32.0,0.9,NaN,0.0,NaN,7.453990948
32.0,32.0,0.7,NaN,0.0,NaN,7.446458845
32.0,64.0,0.05,NaN,0.0,NaN,7.405472333
16.0,256.0,0.6,NaN,0.0,NaN,7.815038435
32.0,32.0,1.0,NaN,0.0,NaN,7.416265056
16.0,256.0,0.7,NaN,0.0,NaN,7.777349676
32.0,64.0,0.2,NaN,0.0,NaN,6.625814739
32.0,64.0,0.1,NaN,0.0,NaN,6.61460278
16.0,256.0,0.8,NaN,0.0,NaN,7.727509071
16.0,256.0,0.9,NaN,0.0,NaN,7.73755758
16.0,256.0,1.0,NaN,0.0,NaN,7.706928433
16.0,512.0,0.05,NaN,0.0,NaN,7.799176162
16.0,512.0,0.2,NaN,0.0,NaN,7.79551487
16.0,512.0,0.3,NaN,0.0,NaN,7.716357328
16.0,512.0,0.5,NaN,0.0,NaN,7.683809977
16.0,512.0,0.7,NaN,0.0,NaN,7.664996119
32.0,0.0625,0.1,NaN,NaN,NaN,7.724071312
32.0,0.0625,0.05,NaN,NaN,NaN,7.671245042
32.0,0.0625,0.4,NaN,NaN,NaN,7.653899356
32.0,0.125,0.1,NaN,NaN,NaN,7.741974497
32.0,0.125,0.05,NaN,NaN,NaN,7.752349793
32.0,0.125,0.5,NaN,NaN,NaN,7.788367788
32.0,0.0625,0.6,NaN,NaN,NaN,7.681776695
32.0,64.0,0.6,NaN,0.0,NaN,8.305857691
32.0,64.0,0.8,NaN,0.0,NaN,7.957317328
32.0,64.0,0.7,NaN,0.0,NaN,7.951394743
32.0,64.0,0.9,NaN,0.0,NaN,8.255459703
32.0,64.0,1.0,NaN,0.0,NaN,7.930927084
32.0,128.0,0.05,NaN,0.0,NaN,8.277433925
32.0,256.0,0.1,NaN,0.0,NaN,6.93364434
32.0,128.0,0.3,NaN,0.0,NaN,6.976934654
32.0,128.0,0.5,NaN,0.0,NaN,6.968801066
32.0,128.0,0.7,NaN,0.0,NaN,6.988679734
32.0,256.0,0.05,NaN,0.0,NaN,6.994047564
32.0,128.0,0.1,NaN,0.0,NaN,7.03401478
32.0,128.0,0.6,NaN,0.0,NaN,6.989212332
32.0,128.0,0.9,NaN,0.0,NaN,6.237015644
32.0,256.0,0.3,NaN,0.0,NaN,6.991374334
32.0,128.0,1.0,NaN,0.0,NaN,6.975192826
32.0,128.0,0.2,NaN,0.0,NaN,7.008754984
32.0,256.0,0.6,NaN,0.0,NaN,7.03763524
32.0,256.0,0.5,NaN,0.0,NaN,7.005695207
32.0,64.0,0.4,NaN,0.0,NaN,7.688124356
32.0,256.0,0.2,NaN,0.0,NaN,6.976700324
32.0,64.0,0.3,NaN,0.0,NaN,7.282078206
32.0,256.0,0.4,NaN,0.0,NaN,6.228971157
32.0,64.0,0.5,NaN,0.0,NaN,7.236253782
32.0,128.0,0.4,NaN,0.0,NaN,7.007209376
32.0,128.0,0.8,NaN,0.0,NaN,6.980647104
32.0,256.0,0.7,NaN,0.0,NaN,6.170698861
32.0,256.0,0.8,NaN,0.0,NaN,6.167867828
64.0,0.25,0.3,NaN,NaN,NaN,10.075897116
64.0,1.0,0.05,NaN,0.0,NaN,9.896272448
64.0,1.0,0.8,NaN,0.0,NaN,9.801504609
64.0,2.0,0.5,NaN,0.0,NaN,9.586672326
64.0,4.0,0.2,NaN,0.0,NaN,9.588831188
64.0,0.0625,1.0,NaN,NaN,NaN,7.733881296
64.0,0.0625,0.8,NaN,NaN,NaN,7.556366421
64.0,0.0625,0.4,NaN,NaN,NaN,7.684122978
64.0,0.125,0.05,NaN,NaN,NaN,7.670352413
32.0,256.0,1.0,NaN,0.0,NaN,8.059146368
64.0,0.125,0.4,NaN,NaN,NaN,7.719616316
64.0,0.125,0.6,NaN,NaN,NaN,7.974961517
32.0,256.0,0.9,NaN,0.0,NaN,8.603585539
64.0,0.125,1.0,NaN,NaN,NaN,7.899278821
64.0,0.25,0.5,NaN,NaN,NaN,7.969330764
64.0,0.125,0.7,NaN,NaN,NaN,7.829057441
64.0,0.125,0.9,NaN,NaN,NaN,7.77570486
64.0,0.125,0.1,NaN,NaN,NaN,7.565704847
64.0,0.25,0.7,NaN,NaN,NaN,7.718072062
64.0,0.25,0.2,NaN,NaN,NaN,6.796814838
64.0,0.25,0.05,NaN,NaN,NaN,7.570988109
64.0,0.5,0.4,NaN,0.0,NaN,7.590242934
64.0,0.25,0.8,NaN,NaN,NaN,7.534787098
64.0,0.5,0.2,NaN,0.0,NaN,7.021888588
64.0,0.25,1.0,NaN,NaN,NaN,7.60949154
64.0,0.5,0.5,NaN,0.0,NaN,7.607167768
32.0,512.0,0.05,NaN,0.0,NaN,8.137322702
64.0,0.5,0.1,NaN,0.0,NaN,7.717684169
64.0,0.5,0.05,NaN,0.0,NaN,7.709204797
32.0,512.0,0.1,NaN,0.0,NaN,7.886598463
64.0,0.5,0.6,NaN,0.0,NaN,7.690996327
64.0,0.5,1.0,NaN,0.0,NaN,6.712051796
64.0,0.5,0.8,NaN,0.0,NaN,7.616749824
64.0,1.0,0.1,NaN,0.0,NaN,7.602311391
64.0,0.5,0.7,NaN,0.0,NaN,7.6064006
64.0,1.0,0.2,NaN,0.0,NaN,7.613921738
64.0,1.0,0.7,NaN,0.0,NaN,6.888852054
64.0,0.5,0.9,NaN,0.0,NaN,7.607988764
32.0,512.0,0.2,NaN,0.0,NaN,7.76581224
64.0,1.0,0.4,NaN,0.0,NaN,7.595192053
64.0,2.0,0.4,NaN,0.0,NaN,6.815304762
64.0,1.0,0.5,NaN,0.0,NaN,7.630361572
64.0,1.0,0.3,NaN,0.0,NaN,7.57178633
64.0,1.0,0.9,NaN,0.0,NaN,7.557689574
64.0,1.0,1.0,NaN,0.0,NaN,7.563347015
64.0,1.0,0.6,NaN,0.0,NaN,7.778764152
64.0,2.0,0.1,NaN,0.0,NaN,7.774152926
64.0,2.0,0.2,NaN,0.0,NaN,7.766732756
64.0,2.0,0.05,NaN,0.0,NaN,7.75877868
64.0,2.0,0.7,NaN,0.0,NaN,7.715651804
32.0,512.0,0.3,NaN,0.0,NaN,7.804587245
64.0,2.0,0.6,NaN,0.0,NaN,7.72751858
64.0,4.0,0.1,NaN,0.0,NaN,6.892397835
64.0,2.0,0.3,NaN,0.0,NaN,7.742319521
64.0,2.0,0.9,NaN,0.0,NaN,7.648247536
64.0,2.0,0.8,NaN,0.0,NaN,7.567977906
64.0,4.0,0.4,NaN,0.0,NaN,7.609841597
64.0,4.0,0.3,NaN,0.0,NaN,7.617784331
64.0,2.0,1.0,NaN,0.0,NaN,7.607607051
32.0,512.0,0.4,NaN,0.0,NaN,7.996760573
64.0,4.0,0.9,NaN,0.0,NaN,6.849763751
64.0,4.0,0.05,NaN,0.0,NaN,7.696763112
64.0,4.0,0.7,NaN,0.0,NaN,7.704065745
64.0,4.0,0.5,NaN,0.0,NaN,7.72244497
64.0,4.0,0.6,NaN,0.0,NaN,7.668962871
64.0,4.0,1.0,NaN,0.0,NaN,7.705371238
32.0,512.0,0.5,NaN,0.0,NaN,8.034854343
64.0,4.0,0.8,NaN,0.0,NaN,7.661712701
64.0,8.0,0.05,NaN,0.0,NaN,7.726807793
64.0,8.0,0.5,NaN,0.0,NaN,6.764956261
64.0,8.0,0.3,NaN,0.0,NaN,7.647102365
32.0,512.0,0.6,NaN,0.0,NaN,8.088252258
64.0,8.0,0.2,NaN,0.0,NaN,7.640451333
64.0,8.0,0.1,NaN,0.0,NaN,7.585534746
64.0,8.0,0.4,NaN,0.0,NaN,7.558836988
64.0,8.0,0.7,NaN,0.0,NaN,7.556879595
64.0,8.0,1.0,NaN,0.0,NaN,7.602190689
64.0,8.0,0.6,NaN,0.0,NaN,7.620872199
64.0,8.0,0.9,NaN,0.0,NaN,7.598932003
64.0,8.0,0.8,NaN,0.0,NaN,7.543631323
64.0,16.0,0.1,NaN,0.0,NaN,6.816611831
64.0,16.0,0.5,NaN,0.0,NaN,7.667454081
64.0,16.0,0.3,NaN,0.0,NaN,7.687809965
64.0,16.0,0.2,NaN,0.0,NaN,7.77276525
64.0,16.0,0.05,NaN,0.0,NaN,7.644329199
32.0,512.0,0.7,NaN,0.0,NaN,7.954358787
64.0,16.0,0.4,NaN,0.0,NaN,7.640556484
64.0,16.0,0.8,NaN,0.0,NaN,6.723518749
64.0,16.0,0.6,NaN,0.0,NaN,7.627666487
64.0,32.0,0.1,NaN,0.0,NaN,7.612703834
64.0,16.0,1.0,NaN,0.0,NaN,7.592629574
64.0,32.0,0.05,NaN,0.0,NaN,7.61159383
64.0,16.0,0.9,NaN,0.0,NaN,7.610432783
64.0,32.0,0.4,NaN,0.0,NaN,6.783650685
32.0,512.0,0.8,NaN,0.0,NaN,7.857823658
64.0,32.0,0.2,NaN,0.0,NaN,7.515247105
64.0,16.0,0.7,NaN,0.0,NaN,7.510414338
64.0,32.0,0.6,NaN,0.0,NaN,7.505031385
64.0,32.0,0.3,NaN,0.0,NaN,7.511224605
64.0,64.0,0.2,NaN,0.0,NaN,7.557435812
64.0,32.0,0.9,NaN,0.0,NaN,7.587893443
64.0,32.0,0.8,NaN,0.0,NaN,7.558304423
64.0,32.0,0.5,NaN,0.0,NaN,7.56671683
64.0,64.0,0.1,NaN,0.0,NaN,7.514591652
64.0,32.0,0.7,NaN,0.0,NaN,7.513870597
64.0,64.0,0.05,NaN,0.0,NaN,6.718675019
64.0,64.0,0.9,NaN,0.0,NaN,7.523356748
64.0,64.0,0.5,NaN,0.0,NaN,7.56341164
32.0,512.0,0.9,NaN,0.0,NaN,7.92606648
64.0,64.0,0.4,NaN,0.0,NaN,7.585876695
64.0,128.0,0.1,NaN,0.0,NaN,7.608633073
64.0,128.0,0.05,NaN,0.0,NaN,7.603725736
64.0,64.0,0.3,NaN,0.0,NaN,7.596274594
64.0,32.0,1.0,NaN,0.0,NaN,7.548373085
64.0,128.0,0.4,NaN,0.0,NaN,7.557843514
64.0,64.0,0.8,NaN,0.0,NaN,7.557536737
64.0,64.0,1.0,NaN,0.0,NaN,7.558452421
64.0,64.0,0.6,NaN,0.0,NaN,7.543365461
32.0,512.0,1.0,NaN,0.0,NaN,7.829305591
64.0,128.0,0.3,NaN,0.0,NaN,7.512361275
64.0,64.0,0.7,NaN,0.0,NaN,6.714685429
64.0,128.0,0.2,NaN,0.0,NaN,6.678195264
64.0,128.0,0.5,NaN,0.0,NaN,6.67373022
64.0,0.0625,0.05,NaN,NaN,NaN,7.78248679
64.0,0.0625,0.1,NaN,NaN,NaN,7.778363389
64.0,128.0,0.6,NaN,0.0,NaN,6.761851829
64.0,0.0625,0.2,NaN,NaN,NaN,7.88796104
64.0,0.0625,0.3,NaN,NaN,NaN,7.905251564
64.0,0.0625,0.5,NaN,NaN,NaN,7.872447535
64.0,0.0625,0.6,NaN,NaN,NaN,7.872588842
64.0,0.0625,0.7,NaN,NaN,NaN,7.860594142
64.0,0.0625,0.9,NaN,NaN,NaN,7.821417204
64.0,0.125,0.2,NaN,NaN,NaN,7.792727119
64.0,0.125,0.3,NaN,NaN,NaN,7.822355
64.0,0.125,0.5,NaN,NaN,NaN,7.776685962
64.0,0.125,0.8,NaN,NaN,NaN,7.741562628
64.0,0.25,0.9,NaN,NaN,NaN,7.674221185
64.0,0.25,0.1,NaN,NaN,NaN,7.724926963
64.0,0.25,0.4,NaN,NaN,NaN,7.756898652
64.0,0.25,0.6,NaN,NaN,NaN,7.657223913
64.0,128.0,0.9,NaN,0.0,NaN,8.117441143
64.0,256.0,0.1,NaN,0.0,NaN,8.007922374
64.0,256.0,0.2,NaN,0.0,NaN,8.004503133
64.0,256.0,0.3,NaN,0.0,NaN,8.606314651
64.0,256.0,0.4,NaN,0.0,NaN,8.565855745
64.0,256.0,0.5,NaN,0.0,NaN,7.924424633
64.0,128.0,0.7,NaN,0.0,NaN,7.089252182
64.0,128.0,0.8,NaN,0.0,NaN,7.277023128
64.0,128.0,1.0,NaN,0.0,NaN,7.148316735
64.0,256.0,0.05,NaN,0.0,NaN,7.154517891
64.0,256.0,0.7,NaN,0.0,NaN,7.007426359
64.0,256.0,0.6,NaN,0.0,NaN,6.998993444
64.0,256.0,1.0,NaN,0.0,NaN,6.91392153
64.0,512.0,0.05,NaN,0.0,NaN,7.00876983
64.0,256.0,0.8,NaN,0.0,NaN,7.053695215
64.0,512.0,0.2,NaN,0.0,NaN,6.908200869
64.0,512.0,0.1,NaN,0.0,NaN,6.994318719
64.0,512.0,0.5,NaN,0.0,NaN,7.01244966
64.0,512.0,0.7,NaN,0.0,NaN,6.894707517
64.0,512.0,0.8,NaN,0.0,NaN,7.022937366
64.0,512.0,0.9,NaN,0.0,NaN,6.977570272
64.0,512.0,0.3,NaN,0.0,NaN,6.972239787
128.0,0.0625,0.1,NaN,NaN,NaN,7.073207661
64.0,512.0,0.6,NaN,0.0,NaN,7.030611706
64.0,512.0,0.4,NaN,0.0,NaN,6.547773606
64.0,512.0,1.0,NaN,0.0,NaN,7.012061299
128.0,0.0625,0.3,NaN,NaN,NaN,7.019145814
128.0,0.0625,0.05,NaN,NaN,NaN,6.34337024
64.0,256.0,0.9,NaN,0.0,NaN,6.433087117
128.0,0.0625,0.2,NaN,NaN,NaN,6.917757322
128.0,0.0625,0.4,NaN,NaN,NaN,6.289307591
128.0,0.0625,0.5,NaN,NaN,NaN,6.321992471
128.0,0.5,0.9,NaN,0.0,NaN,8.289384439
128.0,1.0,0.9,NaN,0.0,NaN,8.174864877
128.0,2.0,0.6,NaN,0.0,NaN,9.627695548
128.0,4.0,0.3,NaN,0.0,NaN,9.497156717
128.0,8.0,0.05,NaN,0.0,NaN,9.441571593
128.0,8.0,0.8,NaN,0.0,NaN,8.148842965
128.0,0.25,0.3,NaN,NaN,NaN,7.807987497
128.0,0.25,0.9,NaN,NaN,NaN,7.731961645
128.0,0.5,0.2,NaN,0.0,NaN,7.718826713
128.0,0.25,0.4,NaN,NaN,NaN,7.613500232
128.0,0.25,0.7,NaN,NaN,NaN,7.631822303
128.0,0.0625,0.6,NaN,NaN,NaN,8.557854437
128.0,0.5,0.05,NaN,0.0,NaN,7.5472152
128.0,0.5,0.6,NaN,0.0,NaN,7.817046625
128.0,0.5,0.8,NaN,0.0,NaN,6.904823511
128.0,0.5,1.0,NaN,0.0,NaN,7.63500618
128.0,0.5,0.5,NaN,0.0,NaN,7.78843817
128.0,0.5,0.1,NaN,0.0,NaN,7.746622427
128.0,0.0625,0.7,NaN,NaN,NaN,8.893750325
128.0,1.0,0.3,NaN,0.0,NaN,7.686906468
128.0,1.0,0.8,NaN,0.0,NaN,6.899870167
128.0,1.0,0.6,NaN,0.0,NaN,7.58176216
128.0,1.0,0.7,NaN,0.0,NaN,7.721531447
128.0,1.0,0.2,NaN,0.0,NaN,7.614781953
128.0,1.0,1.0,NaN,0.0,NaN,7.555547327
128.0,1.0,0.1,NaN,0.0,NaN,7.627956229
128.0,0.0625,0.8,NaN,NaN,NaN,7.705641298
128.0,2.0,0.2,NaN,0.0,NaN,7.597665268
128.0,2.0,0.4,NaN,0.0,NaN,7.561883165
128.0,2.0,0.5,NaN,0.0,NaN,6.726148041
128.0,2.0,0.7,NaN,0.0,NaN,7.593658105
128.0,2.0,0.1,NaN,0.0,NaN,7.619771535
128.0,2.0,1.0,NaN,0.0,NaN,7.699083353
128.0,2.0,0.3,NaN,0.0,NaN,7.670058109
128.0,4.0,0.2,NaN,0.0,NaN,6.742680876
128.0,2.0,0.05,NaN,0.0,NaN,7.618239607
128.0,0.0625,0.9,NaN,NaN,NaN,7.848268553
128.0,4.0,0.1,NaN,0.0,NaN,7.654082804
128.0,4.0,0.9,NaN,0.0,NaN,7.625549414
128.0,4.0,1.0,NaN,0.0,NaN,6.807742961
128.0,2.0,0.9,NaN,0.0,NaN,7.621750097
128.0,4.0,0.05,NaN,0.0,NaN,7.609143629
128.0,2.0,0.8,NaN,0.0,NaN,7.569587401
128.0,4.0,0.4,NaN,0.0,NaN,7.592298126
128.0,4.0,0.7,NaN,0.0,NaN,7.627692678
128.0,0.0625,1.0,NaN,NaN,NaN,7.766174666
128.0,4.0,0.5,NaN,0.0,NaN,7.558564941
128.0,4.0,0.8,NaN,0.0,NaN,7.57240402
128.0,8.0,0.1,NaN,0.0,NaN,7.558798731
128.0,4.0,0.6,NaN,0.0,NaN,7.583843154
128.0,8.0,0.7,NaN,0.0,NaN,6.712835603
128.0,8.0,0.4,NaN,0.0,NaN,7.556289765
128.0,8.0,0.6,NaN,0.0,NaN,7.55396671
128.0,0.125,0.05,NaN,NaN,NaN,7.997655641
128.0,8.0,0.2,NaN,0.0,NaN,7.548308019
128.0,8.0,0.5,NaN,0.0,NaN,7.550124693
128.0,8.0,0.9,NaN,0.0,NaN,7.535473881
128.0,8.0,0.3,NaN,0.0,NaN,7.599392665
128.0,16.0,0.1,NaN,0.0,NaN,7.867960077
128.0,16.0,0.4,NaN,0.0,NaN,6.801863019
128.0,16.0,0.05,NaN,0.0,NaN,7.742832954
128.0,16.0,0.5,NaN,0.0,NaN,7.74301337
128.0,16.0,0.3,NaN,0.0,NaN,7.729872169
128.0,16.0,0.2,NaN,0.0,NaN,7.829369133
128.0,8.0,1.0,NaN,0.0,NaN,7.678707635
128.0,0.125,0.1,NaN,NaN,NaN,8.127281002
128.0,32.0,0.05,NaN,0.0,NaN,6.81873611
128.0,16.0,0.8,NaN,0.0,NaN,7.72033932
128.0,16.0,0.7,NaN,0.0,NaN,7.817384017
128.0,16.0,1.0,NaN,0.0,NaN,7.774507909
128.0,16.0,0.6,NaN,0.0,NaN,7.748699983
128.0,32.0,0.3,NaN,0.0,NaN,7.696127343
128.0,32.0,0.1,NaN,0.0,NaN,7.667309161
128.0,32.0,0.7,NaN,0.0,NaN,6.765830665
128.0,16.0,0.9,NaN,0.0,NaN,7.650881385
128.0,32.0,0.4,NaN,0.0,NaN,7.646510836
128.0,0.125,0.2,NaN,NaN,NaN,7.972082587
128.0,32.0,0.2,NaN,0.0,NaN,7.684167887
128.0,32.0,0.6,NaN,0.0,NaN,7.658941866
128.0,64.0,0.05,NaN,0.0,NaN,7.63950668
128.0,32.0,0.5,NaN,0.0,NaN,7.618861086
128.0,0.125,0.3,NaN,NaN,NaN,7.917123846
128.0,32.0,0.8,NaN,0.0,NaN,7.565381298
128.0,64.0,0.3,NaN,0.0,NaN,6.759054218
128.0,64.0,0.4,NaN,0.0,NaN,7.601842722
128.0,32.0,1.0,NaN,0.0,NaN,7.596006145
128.0,64.0,0.2,NaN,0.0,NaN,7.613617799
128.0,64.0,0.1,NaN,0.0,NaN,7.598331183
128.0,0.125,0.4,NaN,NaN,NaN,7.88324297
128.0,64.0,0.7,NaN,0.0,NaN,7.565610425
128.0,32.0,0.9,NaN,0.0,NaN,7.601674784
128.0,64.0,0.9,NaN,0.0,NaN,7.580614002
128.0,128.0,0.05,NaN,0.0,NaN,7.567212007
128.0,64.0,0.8,NaN,0.0,NaN,7.543168119
128.0,64.0,0.6,NaN,0.0,NaN,7.520090065
128.0,128.0,0.3,NaN,0.0,NaN,7.530982053
128.0,64.0,0.5,NaN,0.0,NaN,7.516852884
128.0,64.0,1.0,NaN,0.0,NaN,6.77033378
128.0,128.0,0.5,NaN,0.0,NaN,7.515849224
128.0,128.0,0.4,NaN,0.0,NaN,7.555694663
128.0,256.0,0.1,NaN,0.0,NaN,7.578884659
128.0,128.0,0.7,NaN,0.0,NaN,7.545815484
128.0,128.0,0.6,NaN,0.0,NaN,6.723299191
128.0,128.0,1.0,NaN,0.0,NaN,7.584199542
128.0,128.0,0.2,NaN,0.0,NaN,7.551983301
128.0,128.0,0.1,NaN,0.0,NaN,7.513725014
128.0,128.0,0.9,NaN,0.0,NaN,7.510621239
128.0,128.0,0.8,NaN,0.0,NaN,7.509049552
128.0,256.0,0.3,NaN,0.0,NaN,7.48017524
128.0,256.0,0.5,NaN,0.0,NaN,7.480015432
128.0,256.0,0.2,NaN,0.0,NaN,6.885611324
128.0,256.0,0.05,NaN,0.0,NaN,7.47704134
128.0,256.0,0.4,NaN,0.0,NaN,7.476022895
128.0,0.125,0.5,NaN,NaN,NaN,7.849007158
128.0,256.0,0.6,NaN,0.0,NaN,7.495388169
128.0,256.0,1.0,NaN,0.0,NaN,7.471135182
128.0,512.0,0.05,NaN,0.0,NaN,7.493425083
128.0,256.0,0.9,NaN,0.0,NaN,6.895784238
128.0,256.0,0.8,NaN,0.0,NaN,7.464358509
128.0,512.0,0.1,NaN,0.0,NaN,7.462460705
128.0,256.0,0.7,NaN,0.0,NaN,7.454535128
128.0,0.125,0.6,NaN,NaN,NaN,7.836124117
128.0,512.0,0.2,NaN,0.0,NaN,6.744982309
128.0,512.0,0.3,NaN,0.0,NaN,6.926628231
128.0,0.125,0.8,NaN,NaN,NaN,7.832139833
128.0,0.125,0.7,NaN,NaN,NaN,7.844220399
128.0,0.125,0.9,NaN,NaN,NaN,7.819530239
128.0,0.125,1.0,NaN,NaN,NaN,7.945490521
128.0,0.25,0.05,NaN,NaN,NaN,7.937940175
128.0,0.25,0.1,NaN,NaN,NaN,7.737932817
128.0,0.25,0.2,NaN,NaN,NaN,7.730734814
128.0,0.25,0.5,NaN,NaN,NaN,7.761634549
128.0,0.25,0.8,NaN,NaN,NaN,7.725278685
128.0,0.25,0.6,NaN,NaN,NaN,7.721144315
128.0,0.5,0.3,NaN,0.0,NaN,7.717835907
128.0,1.0,0.4,NaN,0.0,NaN,7.6887389
128.0,0.5,0.4,NaN,0.0,NaN,7.753721714
128.0,0.5,0.7,NaN,0.0,NaN,7.714283882
128.0,0.25,1.0,NaN,NaN,NaN,7.63016279
128.0,1.0,0.5,NaN,0.0,NaN,7.732119903
128.0,1.0,0.05,NaN,0.0,NaN,7.660248243
128.0,512.0,0.8,NaN,0.0,NaN,8.770625769
128.0,512.0,0.4,NaN,0.0,NaN,8.791724817
128.0,512.0,0.9,NaN,0.0,NaN,8.12841681
128.0,512.0,0.7,NaN,0.0,NaN,8.120576103
128.0,512.0,1.0,NaN,0.0,NaN,8.109266058
256.0,0.0625,0.05,NaN,NaN,NaN,8.058479445
128.0,512.0,0.5,NaN,0.0,NaN,7.516188688
128.0,512.0,0.6,NaN,0.0,NaN,7.122541947
256.0,0.0625,0.4,NaN,NaN,NaN,7.06595212
256.0,0.0625,0.3,NaN,NaN,NaN,7.280461166
256.0,0.0625,0.6,NaN,NaN,NaN,7.163998373
256.0,0.0625,0.2,NaN,NaN,NaN,7.268920577
256.0,0.0625,0.1,NaN,NaN,NaN,6.613045493
256.0,0.0625,0.7,NaN,NaN,NaN,7.1115981
256.0,0.125,0.05,NaN,NaN,NaN,7.148093783
256.0,0.0625,0.9,NaN,NaN,NaN,7.032402653
256.0,0.0625,1.0,NaN,NaN,NaN,7.097937129
256.0,0.125,0.2,NaN,NaN,NaN,7.150761262
256.0,0.125,0.6,NaN,NaN,NaN,7.29006006
256.0,0.0625,0.5,NaN,NaN,NaN,6.505898013
256.0,0.125,0.5,NaN,NaN,NaN,7.088847328
256.0,0.25,0.2,NaN,NaN,NaN,7.251229543
256.0,0.125,0.3,NaN,NaN,NaN,7.169280094
256.0,0.125,1.0,NaN,NaN,NaN,7.153484896
256.0,0.125,0.9,NaN,NaN,NaN,7.18185306
256.0,0.125,0.1,NaN,NaN,NaN,6.518386965
256.0,0.125,0.7,NaN,NaN,NaN,7.190429235
256.0,0.0625,0.8,NaN,NaN,NaN,7.284014647
256.0,0.125,0.8,NaN,NaN,NaN,6.541960004
256.0,0.25,0.9,NaN,NaN,NaN,7.023336528
256.0,0.25,0.6,NaN,NaN,NaN,7.102634628
256.0,0.25,0.8,NaN,NaN,NaN,7.098764157
256.0,0.25,0.5,NaN,NaN,NaN,7.083621784
256.0,0.25,0.1,NaN,NaN,NaN,7.108149538
256.0,0.25,0.3,NaN,NaN,NaN,7.107978488
256.0,0.125,0.4,NaN,NaN,NaN,7.080353678
256.0,0.25,0.4,NaN,NaN,NaN,6.366116745
256.0,0.5,0.1,NaN,0.0,NaN,7.012592157
256.0,0.25,1.0,NaN,NaN,NaN,7.048718026
256.0,0.5,0.3,NaN,0.0,NaN,7.122531285
256.0,0.5,0.05,NaN,0.0,NaN,6.446796687
256.0,0.25,0.05,NaN,NaN,NaN,7.126383601
256.0,0.25,0.7,NaN,NaN,NaN,7.129867283
256.0,0.5,0.2,NaN,0.0,NaN,7.039296371
256.0,0.5,0.4,NaN,0.0,NaN,6.44668871
256.0,0.5,0.5,NaN,0.0,NaN,6.327050573
256.0,4.0,0.7,NaN,0.0,NaN,10.049333764
256.0,8.0,0.7,NaN,0.0,NaN,8.873178129
256.0,16.0,0.4,NaN,0.0,NaN,9.790512377
256.0,32.0,0.1,NaN,0.0,NaN,8.605165201
256.0,32.0,0.9,NaN,0.0,NaN,8.480382877
256.0,64.0,0.6,NaN,0.0,NaN,8.424408111
256.0,2.0,0.5,NaN,0.0,NaN,7.928315365
256.0,2.0,0.7,NaN,0.0,NaN,7.970595752
256.0,4.0,0.8,NaN,0.0,NaN,7.919207973
256.0,0.5,0.6,NaN,0.0,NaN,8.178646817
256.0,4.0,0.05,NaN,0.0,NaN,7.638576105
256.0,4.0,0.9,NaN,0.0,NaN,6.824455408
256.0,2.0,0.6,NaN,0.0,NaN,7.725887294
256.0,4.0,0.6,NaN,0.0,NaN,7.765934361
256.0,4.0,0.2,NaN,0.0,NaN,7.562314569
256.0,0.5,0.7,NaN,0.0,NaN,8.077149448
256.0,8.0,0.8,NaN,0.0,NaN,7.58184841
256.0,4.0,0.4,NaN,0.0,NaN,7.620094898
256.0,8.0,0.1,NaN,0.0,NaN,7.526144905
256.0,8.0,0.3,NaN,0.0,NaN,7.535575247
256.0,8.0,0.5,NaN,0.0,NaN,7.567135307
256.0,4.0,0.3,NaN,0.0,NaN,7.72791507
256.0,8.0,0.6,NaN,0.0,NaN,7.708746528
256.0,8.0,0.9,NaN,0.0,NaN,7.026740402
256.0,8.0,1.0,NaN,0.0,NaN,7.924222157
256.0,16.0,0.5,NaN,0.0,NaN,7.582604099
256.0,0.5,0.8,NaN,0.0,NaN,8.254639938
256.0,8.0,0.4,NaN,0.0,NaN,7.827985606
256.0,16.0,0.3,NaN,0.0,NaN,7.638835522
256.0,0.5,0.9,NaN,0.0,NaN,8.099198034
256.0,16.0,0.6,NaN,0.0,NaN,6.778944224
256.0,32.0,0.05,NaN,0.0,NaN,7.687984461
256.0,16.0,0.2,NaN,0.0,NaN,7.66818468
256.0,16.0,0.7,NaN,0.0,NaN,7.605105663
256.0,16.0,0.1,NaN,0.0,NaN,7.657243699
256.0,0.5,1.0,NaN,0.0,NaN,7.645128455
256.0,16.0,0.9,NaN,0.0,NaN,7.654804903
256.0,32.0,0.3,NaN,0.0,NaN,6.836447959
256.0,32.0,0.2,NaN,0.0,NaN,7.6464282
256.0,16.0,0.05,NaN,0.0,NaN,7.627845817
256.0,16.0,1.0,NaN,0.0,NaN,7.59220947
256.0,32.0,0.4,NaN,0.0,NaN,7.637789001
256.0,16.0,0.8,NaN,0.0,NaN,7.58598615
256.0,32.0,0.8,NaN,0.0,NaN,7.613251301
256.0,32.0,1.0,NaN,0.0,NaN,7.572900101
256.0,1.0,0.05,NaN,0.0,NaN,7.913406865
256.0,64.0,0.05,NaN,0.0,NaN,6.788884772
256.0,32.0,0.5,NaN,0.0,NaN,7.843986863
256.0,32.0,0.7,NaN,0.0,NaN,7.806466035
256.0,32.0,0.6,NaN,0.0,NaN,7.736592268
256.0,64.0,0.1,NaN,0.0,NaN,7.633922991
256.0,64.0,0.5,NaN,0.0,NaN,7.675659611
256.0,64.0,0.7,NaN,0.0,NaN,7.626568655
256.0,64.0,0.8,NaN,0.0,NaN,6.849766767
256.0,64.0,0.2,NaN,0.0,NaN,7.897611055
256.0,64.0,0.4,NaN,0.0,NaN,7.725761661
256.0,128.0,0.2,NaN,0.0,NaN,7.747741108
256.0,64.0,0.3,NaN,0.0,NaN,7.70551433
256.0,64.0,0.9,NaN,0.0,NaN,7.711858453
256.0,128.0,0.3,NaN,0.0,NaN,7.670183678
256.0,1.0,0.1,NaN,0.0,NaN,8.433598093
256.0,128.0,0.4,NaN,0.0,NaN,6.94435079
256.0,128.0,0.05,NaN,0.0,NaN,7.684250584
256.0,64.0,1.0,NaN,0.0,NaN,7.706556865
256.0,128.0,1.0,NaN,0.0,NaN,7.680972658
256.0,256.0,0.05,NaN,0.0,NaN,6.856893135
256.0,128.0,0.1,NaN,0.0,NaN,7.693546346
256.0,128.0,0.5,NaN,0.0,NaN,7.68242491
256.0,128.0,0.9,NaN,0.0,NaN,7.667651577
256.0,1.0,0.2,NaN,0.0,NaN,7.938461445
256.0,128.0,0.7,NaN,0.0,NaN,7.652617429
256.0,128.0,0.8,NaN,0.0,NaN,7.63551781
256.0,256.0,0.1,NaN,0.0,NaN,7.641479007
256.0,256.0,0.6,NaN,0.0,NaN,7.636470214
256.0,128.0,0.6,NaN,0.0,NaN,7.610485463
256.0,256.0,0.5,NaN,0.0,NaN,7.551905299
256.0,256.0,0.4,NaN,0.0,NaN,7.574859756
256.0,256.0,0.7,NaN,0.0,NaN,6.882952135
256.0,256.0,0.2,NaN,0.0,NaN,7.5546955
256.0,512.0,0.2,NaN,0.0,NaN,7.566764791
256.0,1.0,0.3,NaN,0.0,NaN,7.882910407
256.0,512.0,0.1,NaN,0.0,NaN,7.60446795
256.0,512.0,0.05,NaN,0.0,NaN,7.684975917
256.0,512.0,0.9,NaN,0.0,NaN,7.598157509
256.0,256.0,0.8,NaN,0.0,NaN,7.577859882
256.0,256.0,0.9,NaN,0.0,NaN,7.56994592
256.0,256.0,0.3,NaN,0.0,NaN,7.576973435
256.0,512.0,0.3,NaN,0.0,NaN,6.759395806
256.0,512.0,0.8,NaN,0.0,NaN,7.529667623
256.0,512.0,0.7,NaN,0.0,NaN,7.492131309
256.0,256.0,1.0,NaN,0.0,NaN,7.478377035
256.0,512.0,0.4,NaN,0.0,NaN,7.527529182
256.0,1.0,0.4,NaN,0.0,NaN,7.840348901
256.0,512.0,0.6,NaN,0.0,NaN,7.539548008
256.0,512.0,1.0,NaN,0.0,NaN,6.881285971
256.0,1.0,0.5,NaN,0.0,NaN,7.820659226
512.0,0.0625,0.4,NaN,NaN,NaN,7.572888342
512.0,0.0625,0.2,NaN,NaN,NaN,7.558170584
256.0,512.0,0.5,NaN,0.0,NaN,7.54225707
512.0,0.0625,0.3,NaN,NaN,NaN,7.542539178
512.0,0.0625,0.6,NaN,NaN,NaN,6.85666052
512.0,0.0625,0.1,NaN,NaN,NaN,7.532257977
512.0,0.0625,0.9,NaN,NaN,NaN,7.527280002
512.0,0.125,0.05,NaN,NaN,NaN,7.515091784
512.0,0.0625,0.5,NaN,NaN,NaN,7.503527475
512.0,0.125,0.2,NaN,NaN,NaN,6.832388241
512.0,0.0625,1.0,NaN,NaN,NaN,7.485497939
256.0,1.0,0.6,NaN,0.0,NaN,7.859155606
512.0,0.125,0.7,NaN,NaN,NaN,7.505816688
512.0,0.0625,0.05,NaN,NaN,NaN,7.499969966
512.0,0.25,0.05,NaN,NaN,NaN,7.50407801
512.0,0.0625,0.8,NaN,NaN,NaN,7.566508881
512.0,0.125,0.6,NaN,NaN,NaN,7.501371699
512.0,0.125,0.4,NaN,NaN,NaN,7.501476006
512.0,0.125,0.1,NaN,NaN,NaN,7.500803988
512.0,0.25,0.1,NaN,NaN,NaN,7.498537295
512.0,0.125,0.8,NaN,NaN,NaN,7.488622102
512.0,0.125,0.5,NaN,NaN,NaN,7.496293479
256.0,1.0,0.7,NaN,0.0,NaN,7.844407367
512.0,0.125,0.9,NaN,NaN,NaN,6.812898103
256.0,1.0,0.8,NaN,0.0,NaN,7.880799908
512.0,0.0625,0.7,NaN,NaN,NaN,7.519626133
512.0,0.25,0.2,NaN,NaN,NaN,6.823560029
512.0,0.25,0.3,NaN,NaN,NaN,6.839511209
512.0,0.125,0.3,NaN,NaN,NaN,7.504849474
512.0,0.125,1.0,NaN,NaN,NaN,7.494850703
256.0,1.0,0.9,NaN,0.0,NaN,7.868973691
256.0,1.0,1.0,NaN,0.0,NaN,7.966656883
256.0,2.0,0.05,NaN,0.0,NaN,7.877357273
256.0,2.0,0.1,NaN,0.0,NaN,7.863718862
256.0,2.0,0.2,NaN,0.0,NaN,7.744486121
256.0,2.0,0.3,NaN,0.0,NaN,7.669876813
256.0,2.0,0.4,NaN,0.0,NaN,7.70030973
256.0,2.0,0.8,NaN,0.0,NaN,7.72269483
256.0,2.0,1.0,NaN,0.0,NaN,7.669530792
256.0,8.0,0.2,NaN,0.0,NaN,7.6926771
256.0,2.0,0.9,NaN,0.0,NaN,7.694654841
256.0,8.0,0.05,NaN,0.0,NaN,7.688338084
256.0,4.0,0.1,NaN,0.0,NaN,7.644718941
256.0,4.0,1.0,NaN,0.0,NaN,7.681888345
256.0,4.0,0.5,NaN,0.0,NaN,7.788499011
512.0,0.25,0.9,NaN,NaN,NaN,8.683090744
512.0,0.5,0.05,NaN,0.0,NaN,8.660354518
512.0,0.25,1.0,NaN,NaN,NaN,8.752621454
512.0,0.5,0.1,NaN,0.0,NaN,8.601062038
512.0,0.5,0.2,NaN,0.0,NaN,8.518179779
512.0,0.5,0.3,NaN,0.0,NaN,8.477562653
512.0,0.25,0.4,NaN,NaN,NaN,7.481102512
512.0,0.25,0.5,NaN,NaN,NaN,7.11171794
512.0,0.25,0.6,NaN,NaN,NaN,7.12883374
512.0,0.5,0.5,NaN,0.0,NaN,7.058163434
512.0,0.25,0.7,NaN,NaN,NaN,7.257458245
512.0,1.0,0.6,NaN,0.0,NaN,7.003389876
512.0,0.5,0.9,NaN,0.0,NaN,6.991305115
512.0,0.5,1.0,NaN,0.0,NaN,7.110275851
512.0,0.25,0.8,NaN,NaN,NaN,7.041077357
512.0,0.5,0.4,NaN,0.0,NaN,7.172748806
512.0,0.5,0.7,NaN,0.0,NaN,6.98289808
512.0,1.0,0.2,NaN,0.0,NaN,6.984636938
512.0,2.0,0.2,NaN,0.0,NaN,7.019038499
512.0,0.5,0.6,NaN,0.0,NaN,7.079692307
512.0,1.0,0.5,NaN,0.0,NaN,7.086924196
512.0,1.0,0.3,NaN,0.0,NaN,6.932823109
512.0,1.0,0.05,NaN,0.0,NaN,7.018895999
512.0,2.0,0.3,NaN,0.0,NaN,7.097437469
512.0,2.0,0.1,NaN,0.0,NaN,6.942778997
512.0,1.0,1.0,NaN,0.0,NaN,7.064616729
512.0,1.0,0.9,NaN,0.0,NaN,6.985143341
512.0,0.5,0.8,NaN,0.0,NaN,7.075538099
512.0,1.0,0.4,NaN,0.0,NaN,6.25694296
512.0,1.0,0.7,NaN,0.0,NaN,6.968205743
512.0,2.0,0.5,NaN,0.0,NaN,6.263338821
512.0,2.0,0.4,NaN,0.0,NaN,7.034392577
512.0,2.0,0.6,NaN,0.0,NaN,6.209233008
512.0,2.0,0.05,NaN,0.0,NaN,6.256248644
512.0,1.0,0.1,NaN,0.0,NaN,7.011814952
512.0,1.0,0.8,NaN,0.0,NaN,7.003514176
512.0,32.0,0.3,NaN,0.0,NaN,8.219114957
512.0,64.0,0.05,NaN,0.0,NaN,8.195869427
512.0,64.0,0.8,NaN,0.0,NaN,9.741774905
512.0,128.0,0.5,NaN,0.0,NaN,9.530550607
512.0,256.0,0.2,NaN,0.0,NaN,8.179822458
512.0,256.0,1.0,NaN,0.0,NaN,9.40615836
512.0,8.0,0.5,NaN,0.0,NaN,7.67258691
512.0,16.0,0.4,NaN,0.0,NaN,7.768494402
512.0,8.0,1.0,NaN,0.0,NaN,7.73245319
512.0,8.0,0.9,NaN,0.0,NaN,7.720389665
512.0,16.0,0.1,NaN,0.0,NaN,7.642229824
512.0,16.0,0.8,NaN,0.0,NaN,7.615645762
512.0,32.0,0.05,NaN,0.0,NaN,7.749381483
512.0,16.0,0.7,NaN,0.0,NaN,7.597597453
512.0,2.0,0.8,NaN,0.0,NaN,8.354145516
512.0,2.0,0.7,NaN,0.0,NaN,8.567486415
512.0,32.0,0.5,NaN,0.0,NaN,7.567336136
512.0,32.0,0.7,NaN,0.0,NaN,7.70326703
512.0,16.0,0.2,NaN,0.0,NaN,7.679182465
512.0,32.0,0.4,NaN,0.0,NaN,6.900359619
512.0,16.0,0.9,NaN,0.0,NaN,7.704150504
512.0,32.0,0.6,NaN,0.0,NaN,7.605352242
512.0,64.0,0.2,NaN,0.0,NaN,7.655640213
512.0,32.0,0.9,NaN,0.0,NaN,7.633575096
512.0,2.0,0.9,NaN,0.0,NaN,8.281029791
512.0,64.0,0.4,NaN,0.0,NaN,7.573397639
512.0,32.0,0.8,NaN,0.0,NaN,7.663305977
512.0,64.0,0.1,NaN,0.0,NaN,6.743846744
512.0,32.0,0.1,NaN,0.0,NaN,7.524608957
512.0,64.0,0.3,NaN,0.0,NaN,7.604359312
512.0,64.0,0.6,NaN,0.0,NaN,7.665029714
512.0,32.0,1.0,NaN,0.0,NaN,7.601373032
512.0,2.0,1.0,NaN,0.0,NaN,8.623395072
512.0,64.0,0.5,NaN,0.0,NaN,7.644092817
512.0,128.0,0.1,NaN,0.0,NaN,7.669885736
512.0,64.0,0.9,NaN,0.0,NaN,6.950042666
512.0,4.0,0.05,NaN,0.0,NaN,8.589066675
512.0,64.0,1.0,NaN,0.0,NaN,7.550720814
512.0,128.0,0.6,NaN,0.0,NaN,6.748968748
512.0,128.0,0.05,NaN,0.0,NaN,7.606026856
512.0,128.0,0.3,NaN,0.0,NaN,7.642974374
512.0,64.0,0.7,NaN,0.0,NaN,7.630216085
512.0,128.0,0.2,NaN,0.0,NaN,7.746469237
512.0,128.0,0.7,NaN,0.0,NaN,7.724869591
512.0,256.0,0.3,NaN,0.0,NaN,6.764226671
512.0,128.0,0.9,NaN,0.0,NaN,7.684435626
512.0,4.0,0.1,NaN,0.0,NaN,7.997327499
512.0,128.0,0.8,NaN,0.0,NaN,7.725271908
512.0,256.0,0.05,NaN,0.0,NaN,7.750141427
512.0,128.0,0.4,NaN,0.0,NaN,7.804891764
512.0,128.0,1.0,NaN,0.0,NaN,7.791225821
512.0,256.0,0.4,NaN,0.0,NaN,7.759861718
512.0,256.0,0.5,NaN,0.0,NaN,7.673757564
512.0,256.0,0.6,NaN,0.0,NaN,7.673748145
512.0,256.0,0.1,NaN,0.0,NaN,7.635354246
512.0,256.0,0.7,NaN,0.0,NaN,7.66742652
512.0,256.0,0.8,NaN,0.0,NaN,7.65532982
512.0,512.0,0.05,NaN,0.0,NaN,6.846602824
512.0,512.0,0.1,NaN,0.0,NaN,7.754738264
512.0,4.0,0.2,NaN,0.0,NaN,8.109247509
512.0,512.0,0.3,NaN,0.0,NaN,7.660984933
512.0,256.0,0.9,NaN,0.0,NaN,7.668694618
512.0,512.0,0.2,NaN,0.0,NaN,7.654279476
512.0,512.0,0.4,NaN,0.0,NaN,7.693391271
512.0,512.0,1.0,NaN,0.0,NaN,7.71485387
512.0,512.0,0.7,NaN,0.0,NaN,6.998318554
512.0,512.0,0.8,NaN,0.0,NaN,7.685164047
512.0,4.0,0.3,NaN,0.0,NaN,7.97102146
512.0,512.0,0.5,NaN,0.0,NaN,7.70100207
512.0,512.0,0.9,NaN,0.0,NaN,7.69639435
512.0,512.0,0.6,NaN,0.0,NaN,7.665737866
512.0,4.0,0.4,NaN,0.0,NaN,7.837287053
0.0625,0.0625,0.05,NaN,NaN,NaN,7.550686306
512.0,4.0,0.5,NaN,0.0,NaN,7.851832858
512.0,4.0,0.6,NaN,0.0,NaN,7.801071915
512.0,4.0,0.7,NaN,0.0,NaN,7.80297649
512.0,4.0,0.8,NaN,0.0,NaN,7.809796063
512.0,4.0,0.9,NaN,0.0,NaN,7.784867574
512.0,4.0,1.0,NaN,0.0,NaN,7.773675746
512.0,8.0,0.05,NaN,0.0,NaN,7.751513032
512.0,8.0,0.1,NaN,0.0,NaN,7.794143935
512.0,8.0,0.3,NaN,0.0,NaN,7.770545673
512.0,8.0,0.2,NaN,0.0,NaN,7.75074281
512.0,8.0,0.4,NaN,0.0,NaN,7.792093929
512.0,8.0,0.6,NaN,0.0,NaN,7.642948286
512.0,8.0,0.7,NaN,0.0,NaN,7.760150351
512.0,8.0,0.8,NaN,0.0,NaN,7.716297372
512.0,16.0,0.3,NaN,0.0,NaN,7.671372196
512.0,16.0,0.05,NaN,0.0,NaN,7.672677908
512.0,16.0,0.5,NaN,0.0,NaN,7.692841918
512.0,16.0,1.0,NaN,0.0,NaN,7.727602866
512.0,16.0,0.6,NaN,0.0,NaN,7.679531
512.0,32.0,0.2,NaN,0.0,NaN,7.599193037
