gamma_s,gamma_h,alpha,sencitivity,ppv,fmeasure,time
1.0,1.0,0.7,0.75,0.8181818181818182,0.7826086956521738,4.844902255
1.0,1.0,0.9,0.75,0.75,0.75,4.836752119
1.0,1.0,0.1,0.75,0.9,0.8181818181818182,5.080008638
1.0,1.0,0.3,0.75,0.9,0.8181818181818182,5.068153423
1.0,1.0,0.5,0.75,0.9,0.8181818181818182,5.080694807
1.0,4.0,,0.0,NaN,NaN,5.069870705
1.0,8.0,0.1,0.7916666666666666,0.6129032258064516,0.6909090909090909,5.074579041
1.0,8.0,0.5,0.9583333333333334,0.4791666666666667,0.638888888888889,4.848782807
1.0,8.0,0.3,0.9583333333333334,0.5609756097560976,0.7076923076923077,5.111736545
1.0,8.0,0.7,0.9583333333333334,0.46938775510204084,0.6301369863013699,4.857092866
1.0,1.0,,0.0,NaN,NaN,5.289256913
1.0,2.0,0.1,0.7916666666666666,0.7307692307692307,0.76,5.258129637
1.0,2.0,0.3,0.7916666666666666,0.7307692307692307,0.76,5.26385581
1.0,2.0,0.5,0.7916666666666666,0.7307692307692307,0.76,5.291795942
1.0,2.0,0.7,0.9166666666666666,0.7586206896551724,0.830188679245283,5.277897508
1.0,2.0,0.9,0.9583333333333334,0.696969696969697,0.8070175438596493,5.255216213
1.0,2.0,,0.0,NaN,NaN,5.258721144
1.0,4.0,0.9,0.9583333333333334,0.5,0.6571428571428571,5.231772171
1.0,4.0,0.5,0.9583333333333334,0.6052631578947368,0.7419354838709677,6.666601254
1.0,4.0,0.1,0.7916666666666666,0.6551724137931034,0.7169811320754716,5.246301585
1.0,4.0,0.3,0.875,0.6176470588235294,0.7241379310344829,5.237645505
1.0,4.0,0.7,0.9583333333333334,0.575,0.71875,5.246634322
2.0,1.0,0.3,0.75,0.9,0.8181818181818182,5.08328845
2.0,1.0,0.7,0.75,0.9,0.8181818181818182,5.086747241
2.0,1.0,0.5,0.75,0.9,0.8181818181818182,5.082688141
2.0,1.0,0.9,0.75,0.8181818181818182,0.7826086956521738,5.112496894
2.0,1.0,,0.0,NaN,NaN,5.251602069
1.0,8.0,,0.0,NaN,NaN,5.313684109
1.0,8.0,0.9,0.9583333333333334,0.46,0.6216216216216216,5.322742504
1.0,16.0,0.1,0.875,0.5833333333333334,0.7000000000000001,5.345152542
1.0,16.0,0.3,0.9583333333333334,0.46938775510204084,0.6301369863013699,5.246001918
1.0,16.0,0.5,0.9583333333333334,0.45098039215686275,0.6133333333333333,5.715236798
1.0,16.0,0.7,0.9583333333333334,0.42592592592592593,0.5897435897435898,5.221155445
1.0,16.0,0.9,0.9583333333333334,0.42592592592592593,0.5897435897435898,5.254755312
1.0,16.0,,0.0,NaN,NaN,5.258112439
1.0,32.0,0.1,0.9583333333333334,0.5227272727272727,0.6764705882352942,5.198037313
1.0,32.0,0.3,0.9583333333333334,0.42592592592592593,0.5897435897435898,5.280000427
1.0,32.0,,0.0,NaN,NaN,5.25587149
1.0,32.0,0.5,0.9583333333333334,0.42592592592592593,0.5897435897435898,5.210622859
1.0,32.0,0.9,0.9583333333333334,0.4107142857142857,0.575,5.254332461
1.0,32.0,0.7,0.9583333333333334,0.4107142857142857,0.575,5.231184003
2.0,1.0,0.1,0.75,0.9,0.8181818181818182,5.46648576
2.0,8.0,,0.0,NaN,NaN,4.851880862
2.0,8.0,0.9,0.9583333333333334,0.4791666666666667,0.638888888888889,5.072377844
2.0,16.0,0.1,0.7916666666666666,0.6551724137931034,0.7169811320754716,4.853401619
2.0,2.0,0.1,0.7916666666666666,0.7307692307692307,0.76,5.295583907
2.0,2.0,0.3,0.7916666666666666,0.7307692307692307,0.76,5.233450013
2.0,2.0,0.5,0.7916666666666666,0.7307692307692307,0.76,5.245455425
2.0,2.0,0.7,0.7916666666666666,0.7307692307692307,0.76,5.241132392
2.0,2.0,0.9,0.7916666666666666,0.7307692307692307,0.76,5.311411971
2.0,2.0,,0.0,NaN,NaN,5.271801092
2.0,4.0,0.3,0.7916666666666666,0.6551724137931034,0.7169811320754716,5.216898614
2.0,4.0,0.1,0.7916666666666666,0.6551724137931034,0.7169811320754716,5.260939863
2.0,4.0,0.5,0.875,0.6176470588235294,0.7241379310344829,5.240340535
2.0,4.0,,0.0,NaN,NaN,5.230154772
2.0,4.0,0.9,0.9583333333333334,0.5897435897435898,0.7301587301587301,5.244431126
2.0,8.0,0.5,0.9583333333333334,0.5609756097560976,0.7076923076923077,5.217742107
2.0,8.0,0.1,0.7916666666666666,0.6551724137931034,0.7169811320754716,5.27693278
2.0,4.0,0.7,0.9166666666666666,0.6111111111111112,0.7333333333333334,5.276424154
2.0,8.0,0.3,0.875,0.6176470588235294,0.7241379310344829,5.26674869
2.0,8.0,0.7,0.9583333333333334,0.5227272727272727,0.6764705882352942,5.219190468
4.0,2.0,0.1,0.7083333333333334,0.8095238095238095,0.7555555555555556,5.078913424
4.0,1.0,,0.0,NaN,NaN,5.079036181
4.0,2.0,0.7,0.7916666666666666,0.7916666666666666,0.7916666666666666,4.857642476
4.0,2.0,0.5,0.7916666666666666,0.7916666666666666,0.7916666666666666,4.855043866
4.0,2.0,0.3,0.7083333333333334,0.8095238095238095,0.7555555555555556,5.135781472
2.0,16.0,0.3,0.9583333333333334,0.5609756097560976,0.7076923076923077,5.258997491
2.0,16.0,0.5,0.9583333333333334,0.4791666666666667,0.638888888888889,5.411389983
2.0,16.0,0.7,0.9583333333333334,0.46,0.6216216216216216,5.287541912
2.0,16.0,0.9,0.9583333333333334,0.42592592592592593,0.5897435897435898,5.286612456
2.0,16.0,,0.0,NaN,NaN,5.281301623
2.0,32.0,0.1,0.9166666666666666,0.5641025641025641,0.6984126984126983,5.305602724
2.0,32.0,0.3,0.9583333333333334,0.46938775510204084,0.6301369863013699,5.315845037
2.0,32.0,0.5,0.9583333333333334,0.42592592592592593,0.5897435897435898,5.245739507
2.0,32.0,0.7,0.9583333333333334,0.42592592592592593,0.5897435897435898,5.247564996
2.0,32.0,0.9,0.9583333333333334,0.42592592592592593,0.5897435897435898,5.245066948
2.0,32.0,,0.0,NaN,NaN,5.247072198
4.0,1.0,0.1,0.6666666666666666,0.8888888888888888,0.761904761904762,5.230942799
4.0,1.0,0.3,0.6666666666666666,0.8888888888888888,0.761904761904762,5.258829603
4.0,1.0,0.9,0.75,0.9,0.8181818181818182,5.319218977
4.0,1.0,0.7,0.6666666666666666,0.8888888888888888,0.761904761904762,5.255611548
4.0,1.0,0.5,0.6666666666666666,0.8888888888888888,0.761904761904762,5.220664638
4.0,16.0,0.3,0.9166666666666666,0.6285714285714286,0.7457627118644068,5.075607183
4.0,16.0,0.7,0.9583333333333334,0.5111111111111111,0.6666666666666666,5.073974036
4.0,16.0,0.5,0.9583333333333334,0.5348837209302325,0.6865671641791045,5.085244535
4.0,16.0,0.9,0.9583333333333334,0.4791666666666667,0.638888888888889,5.114076204
4.0,16.0,,0.0,NaN,NaN,5.309539058
4.0,2.0,0.9,0.7916666666666666,0.7916666666666666,0.7916666666666666,5.24928464
4.0,2.0,,0.0,NaN,NaN,5.2533999
4.0,4.0,0.1,0.7083333333333334,0.7083333333333334,0.7083333333333334,5.242048336
4.0,4.0,0.3,0.7916666666666666,0.7037037037037037,0.7450980392156864,6.513273813
4.0,4.0,0.7,0.875,0.65625,0.75,6.401215725
4.0,4.0,0.5,0.7916666666666666,0.7037037037037037,0.7450980392156864,5.314967425
4.0,4.0,0.9,0.875,0.6176470588235294,0.7241379310344829,5.245048807
4.0,4.0,,0.0,NaN,NaN,5.238245344
4.0,8.0,,0.0,NaN,NaN,5.226071878
4.0,8.0,0.3,0.7916666666666666,0.7037037037037037,0.7450980392156864,5.354220897
4.0,8.0,0.1,0.7083333333333334,0.7083333333333334,0.7083333333333334,5.22812771
4.0,16.0,0.1,0.7916666666666666,0.7037037037037037,0.7450980392156864,5.35890657
4.0,8.0,0.5,0.875,0.6176470588235294,0.7241379310344829,5.217537813
4.0,8.0,0.7,0.9583333333333334,0.575,0.71875,5.212112229
4.0,8.0,0.9,0.9583333333333334,0.5348837209302325,0.6865671641791045,5.300827634
4.0,32.0,0.1,0.875,0.65625,0.75,5.321044742
4.0,32.0,0.3,0.9583333333333334,0.5348837209302325,0.6865671641791045,5.295070731
8.0,2.0,,0.0,NaN,NaN,4.857412972
8.0,2.0,0.9,0.7916666666666666,0.7916666666666666,0.7916666666666666,5.109090753
8.0,4.0,0.1,0.7083333333333334,0.7083333333333334,0.7083333333333334,4.843718662
4.0,32.0,0.5,0.9583333333333334,0.46938775510204084,0.6301369863013699,5.285063387
8.0,4.0,0.3,0.7083333333333334,0.7083333333333334,0.7083333333333334,4.851605469
4.0,32.0,0.7,0.9583333333333334,0.42592592592592593,0.5897435897435898,5.275769232
4.0,32.0,0.9,0.9583333333333334,0.42592592592592593,0.5897435897435898,5.305298665
4.0,32.0,,0.0,NaN,NaN,5.269818763
8.0,1.0,0.1,0.6666666666666666,0.8888888888888888,0.761904761904762,5.265521745
8.0,1.0,0.3,0.6666666666666666,0.8888888888888888,0.761904761904762,5.263695668
8.0,1.0,0.5,0.6666666666666666,0.8888888888888888,0.761904761904762,5.283316698
8.0,1.0,0.7,0.6666666666666666,0.8888888888888888,0.761904761904762,5.247778058
8.0,1.0,0.9,0.6666666666666666,0.8888888888888888,0.761904761904762,5.260804429
8.0,1.0,,0.0,NaN,NaN,5.241723383
8.0,2.0,0.1,0.7083333333333334,0.8095238095238095,0.7555555555555556,5.255126572
8.0,2.0,0.3,0.7083333333333334,0.8095238095238095,0.7555555555555556,5.243607197
8.0,2.0,0.5,0.7083333333333334,0.8095238095238095,0.7555555555555556,5.234743281
8.0,2.0,0.7,0.7083333333333334,0.8095238095238095,0.7555555555555556,5.291130958
8.0,4.0,0.5,0.7916666666666666,0.7037037037037037,0.7450980392156864,5.663194433
8.0,4.0,0.7,0.7916666666666666,0.7037037037037037,0.7450980392156864,6.928994154
8.0,8.0,0.9,0.875,0.6176470588235294,0.7241379310344829,5.649877862
8.0,4.0,,0.0,NaN,NaN,5.485373328
8.0,16.0,,0.0,NaN,NaN,5.34094183
8.0,16.0,0.1,0.7083333333333334,0.7083333333333334,0.7083333333333334,7.04306286
16.0,1.0,,0.0,NaN,NaN,5.219890213
16.0,1.0,0.7,0.6666666666666666,0.8888888888888888,0.761904761904762,5.097163321
16.0,1.0,0.9,0.6666666666666666,0.8888888888888888,0.761904761904762,5.291002953
16.0,2.0,0.3,0.7083333333333334,0.8095238095238095,0.7555555555555556,5.015288317
16.0,2.0,0.7,0.7083333333333334,0.8095238095238095,0.7555555555555556,5.063375776
16.0,2.0,0.1,0.7083333333333334,0.8095238095238095,0.7555555555555556,5.039570206
16.0,2.0,,0.0,NaN,NaN,4.924908374
16.0,2.0,0.9,0.7083333333333334,0.8095238095238095,0.7555555555555556,5.253987172
16.0,2.0,0.5,0.7083333333333334,0.8095238095238095,0.7555555555555556,5.22136384
8.0,4.0,0.9,0.7916666666666666,0.7037037037037037,0.7450980392156864,5.53264768
16.0,4.0,0.3,0.7083333333333334,0.7083333333333334,0.7083333333333334,5.123385795
16.0,4.0,,0.0,NaN,NaN,4.935132406
16.0,4.0,0.9,0.7083333333333334,0.7083333333333334,0.7083333333333334,5.155841007
16.0,4.0,0.7,0.7083333333333334,0.7083333333333334,0.7083333333333334,5.190774469
16.0,4.0,0.1,0.7083333333333334,0.7083333333333334,0.7083333333333334,5.215777603
16.0,4.0,0.5,0.7083333333333334,0.7083333333333334,0.7083333333333334,5.208906326
16.0,8.0,0.1,0.7083333333333334,0.7083333333333334,0.7083333333333334,5.200019742
16.0,8.0,0.7,0.7916666666666666,0.7037037037037037,0.7450980392156864,4.957640518
16.0,8.0,0.5,0.7083333333333334,0.7083333333333334,0.7083333333333334,5.233869905
16.0,16.0,0.5,0.7916666666666666,0.7037037037037037,0.7450980392156864,4.973785925
16.0,8.0,0.3,0.7083333333333334,0.7083333333333334,0.7083333333333334,5.18656404
16.0,8.0,,0.0,NaN,NaN,5.154930166
16.0,8.0,0.9,0.7916666666666666,0.7037037037037037,0.7450980392156864,5.112073469
16.0,16.0,0.1,0.7083333333333334,0.7083333333333334,0.7083333333333334,5.187053695
16.0,16.0,0.7,0.7916666666666666,0.7037037037037037,0.7450980392156864,5.197002029
16.0,16.0,0.3,0.7916666666666666,0.7037037037037037,0.7450980392156864,5.169221308
16.0,16.0,,0.0,NaN,NaN,5.196950472
16.0,16.0,0.9,0.875,0.6176470588235294,0.7241379310344829,5.184176397
16.0,32.0,0.9,0.9583333333333334,0.5348837209302325,0.6865671641791045,5.108132351
16.0,32.0,,0.0,NaN,NaN,4.934990878
16.0,32.0,0.7,0.9583333333333334,0.5348837209302325,0.6865671641791045,5.189846147
16.0,32.0,0.5,0.875,0.5526315789473685,0.6774193548387096,5.108023343
16.0,32.0,0.3,0.7916666666666666,0.7037037037037037,0.7450980392156864,5.202811773
16.0,32.0,0.1,0.7083333333333334,0.7083333333333334,0.7083333333333334,5.164515151
32.0,1.0,0.3,0.5833333333333334,0.875,0.7000000000000001,5.134931526
32.0,1.0,0.1,0.5833333333333334,0.875,0.7000000000000001,5.128488968
32.0,1.0,0.5,0.5833333333333334,0.875,0.7000000000000001,5.160150783
32.0,1.0,0.9,0.6666666666666666,0.8888888888888888,0.761904761904762,4.890914499
32.0,1.0,0.7,0.6666666666666666,0.8888888888888888,0.761904761904762,5.161776658
32.0,2.0,0.3,0.7083333333333334,0.8095238095238095,0.7555555555555556,5.129775749
32.0,1.0,,0.0,NaN,NaN,5.172947029
32.0,2.0,0.1,0.625,0.8823529411764706,0.7317073170731708,5.099666172
32.0,2.0,0.7,0.7083333333333334,0.8095238095238095,0.7555555555555556,4.934528636
32.0,2.0,0.5,0.7083333333333334,0.8095238095238095,0.7555555555555556,5.073864397
32.0,2.0,,0.0,NaN,NaN,5.079083359
32.0,2.0,0.9,0.7083333333333334,0.8095238095238095,0.7555555555555556,5.109910112
8.0,8.0,0.1,0.7083333333333334,0.7083333333333334,0.7083333333333334,5.574561669
32.0,4.0,0.3,0.7083333333333334,0.7083333333333334,0.7083333333333334,5.078059848
32.0,4.0,0.5,0.7083333333333334,0.7083333333333334,0.7083333333333334,5.115733148
32.0,4.0,,0.0,NaN,NaN,4.714743582
32.0,4.0,0.1,0.625,0.75,0.6818181818181818,4.8021013
8.0,8.0,0.3,0.7916666666666666,0.7037037037037037,0.7450980392156864,5.347526025
32.0,4.0,0.7,0.7083333333333334,0.7083333333333334,0.7083333333333334,4.919936122
32.0,8.0,,0.0,NaN,NaN,4.744255269
32.0,4.0,0.9,0.7083333333333334,0.7083333333333334,0.7083333333333334,4.970286144
32.0,8.0,0.7,0.7083333333333334,0.7083333333333334,0.7083333333333334,4.960307048
32.0,8.0,0.1,0.7083333333333334,0.7083333333333334,0.7083333333333334,4.909498869
8.0,8.0,0.5,0.7916666666666666,0.7037037037037037,0.7450980392156864,5.292299009
32.0,16.0,0.9,0.7916666666666666,0.7037037037037037,0.7450980392156864,4.720039066
32.0,8.0,0.3,0.7083333333333334,0.7083333333333334,0.7083333333333334,4.937517485
32.0,8.0,0.5,0.7083333333333334,0.7083333333333334,0.7083333333333334,4.943702095
32.0,8.0,0.9,0.7083333333333334,0.7083333333333334,0.7083333333333334,4.982832074
8.0,8.0,0.7,0.7916666666666666,0.7037037037037037,0.7450980392156864,5.333098537
32.0,16.0,0.3,0.7083333333333334,0.7083333333333334,0.7083333333333334,4.975459044
8.0,8.0,,0.0,NaN,NaN,5.374242658
8.0,16.0,0.5,0.875,0.6176470588235294,0.7241379310344829,5.29509611
8.0,16.0,0.3,0.7916666666666666,0.7037037037037037,0.7450980392156864,5.310827216
32.0,16.0,0.5,0.7083333333333334,0.7083333333333334,0.7083333333333334,4.960272373
32.0,16.0,,0.0,NaN,NaN,4.959196438
8.0,16.0,0.7,0.9583333333333334,0.5609756097560976,0.7076923076923077,5.26380126
32.0,16.0,0.7,0.7916666666666666,0.7037037037037037,0.7450980392156864,4.962412704
32.0,16.0,0.1,0.7083333333333334,0.7083333333333334,0.7083333333333334,4.970203312
32.0,32.0,0.1,0.7083333333333334,0.7083333333333334,0.7083333333333334,4.918408535
32.0,32.0,0.5,0.7916666666666666,0.7037037037037037,0.7450980392156864,4.952764301
32.0,32.0,,0.0,NaN,NaN,4.750355759
32.0,32.0,0.7,0.7916666666666666,0.7037037037037037,0.7450980392156864,4.977820496
32.0,32.0,0.9,0.875,0.5526315789473685,0.6774193548387096,4.952413855
32.0,32.0,0.3,0.7916666666666666,0.7037037037037037,0.7450980392156864,4.744700781
8.0,16.0,0.9,0.9583333333333334,0.5348837209302325,0.6865671641791045,5.275825073
8.0,32.0,0.1,0.7916666666666666,0.7037037037037037,0.7450980392156864,5.304726584
8.0,32.0,0.3,0.9166666666666666,0.5641025641025641,0.6984126984126983,5.29114007
8.0,32.0,0.5,0.9583333333333334,0.5348837209302325,0.6865671641791045,5.337898691
8.0,32.0,0.7,0.9583333333333334,0.4791666666666667,0.638888888888889,5.276838088
8.0,32.0,0.9,0.9583333333333334,0.46938775510204084,0.6301369863013699,5.28776666
8.0,32.0,,0.0,NaN,NaN,5.283508431
16.0,1.0,0.1,0.6666666666666666,0.8888888888888888,0.761904761904762,5.204486796
16.0,1.0,0.3,0.6666666666666666,0.8888888888888888,0.761904761904762,5.223871115
16.0,1.0,0.5,0.6666666666666666,0.8888888888888888,0.761904761904762,5.223288529
