gamma_s,gamma_h,alpha,sencitivity,ppv,fmeasure,time
0.5,0.5,0.5.fa,0.8333333333333334,0.7142857142857143,0.7692307692307692,0.0
0.5,0.2,0.1.fa,0.75,0.6428571428571429,0.6923076923076924,0.0
0.5,0.5,0.3.fa,0.75,0.75,0.75,0.0
0.5,0.5,0.7.fa,0.8333333333333334,0.6666666666666666,0.7407407407407408,0.0
0.5,0.3333333333333333,0.1.fa,0.75,0.6428571428571429,0.6923076923076924,0.0
0.5,0.3333333333333333,0.5.fa,0.8333333333333334,0.625,0.7142857142857143,0.0
0.5,0.5,0.9.fa,0.8333333333333334,0.6666666666666666,0.7407407407407408,0.0
0.5,0.3333333333333333,0.7.fa,0.8333333333333334,0.5882352941176471,0.6896551724137931,0.0
0.5,0.3333333333333333,0.3.fa,0.75,0.6428571428571429,0.6923076923076924,0.0
0.5,0.2,0.7.fa,0.8333333333333334,0.5882352941176471,0.6896551724137931,0.0
0.5,0.3333333333333333,0.9.fa,0.8333333333333334,0.5882352941176471,0.6896551724137931,0.0
0.5,0.1111111111111111,0.1.fa,0.75,0.6428571428571429,0.6923076923076924,0.0
0.5,0.2,0.3.fa,0.75,0.6428571428571429,0.6923076923076924,0.0
0.5,0.2,0.5.fa,0.8333333333333334,0.625,0.7142857142857143,0.0
0.5,0.2,0.9.fa,0.8333333333333334,0.5882352941176471,0.6896551724137931,0.0
0.5,0.1111111111111111,0.5.fa,0.8333333333333334,0.625,0.7142857142857143,0.0
0.5,0.1111111111111111,0.7.fa,0.8333333333333334,0.5882352941176471,0.6896551724137931,0.0
0.5,0.058823529411764705,0.1.fa,0.75,0.6428571428571429,0.6923076923076924,0.0
0.5,0.1111111111111111,0.9.fa,0.8333333333333334,0.5882352941176471,0.6896551724137931,0.0
0.5,0.1111111111111111,0.3.fa,0.75,0.6428571428571429,0.6923076923076924,0.0
0.5,0.058823529411764705,0.5.fa,0.8333333333333334,0.625,0.7142857142857143,0.0
0.5,0.058823529411764705,0.3.fa,0.75,0.6428571428571429,0.6923076923076924,0.0
0.5,0.058823529411764705,0.7.fa,0.8333333333333334,0.5882352941176471,0.6896551724137931,0.0
0.5,0.030303030303030304,0.3.fa,0.75,0.6,0.6666666666666665,0.0
0.5,0.030303030303030304,0.1.fa,0.75,0.6,0.6666666666666665,0.0
0.5,0.058823529411764705,0.9.fa,0.8333333333333334,0.5882352941176471,0.6896551724137931,0.0
0.3333333333333333,0.5,0.3.fa,0.75,0.75,0.75,0.0
0.3333333333333333,0.5,0.5.fa,0.8333333333333334,0.7692307692307693,0.8,0.0
0.5,0.030303030303030304,0.7.fa,0.8333333333333334,0.5555555555555556,0.6666666666666667,0.0
0.5,0.030303030303030304,0.5.fa,0.8333333333333334,0.5882352941176471,0.6896551724137931,0.0
0.2,0.1111111111111111,0.1.fa,0.625,0.7142857142857143,0.6666666666666666,0.0
0.5,0.030303030303030304,0.9.fa,0.8333333333333334,0.5555555555555556,0.6666666666666667,0.0
0.2,0.1111111111111111,0.3.fa,0.75,0.6428571428571429,0.6923076923076924,0.0
0.2,0.1111111111111111,0.5.fa,0.8333333333333334,0.6666666666666666,0.7407407407407408,0.0
0.3333333333333333,0.5,0.7.fa,0.8333333333333334,0.7142857142857143,0.7692307692307692,0.0
0.3333333333333333,0.3333333333333333,0.5.fa,0.8333333333333334,0.6666666666666666,0.7407407407407408,0.0
0.3333333333333333,0.5,0.1.fa,0.75,0.75,0.75,0.0
0.3333333333333333,0.3333333333333333,0.3.fa,0.75,0.6428571428571429,0.6923076923076924,0.0
0.3333333333333333,0.3333333333333333,0.1.fa,0.75,0.6428571428571429,0.6923076923076924,0.0
0.3333333333333333,0.3333333333333333,0.7.fa,0.8333333333333334,0.625,0.7142857142857143,0.0
0.2,0.1111111111111111,0.7.fa,0.8333333333333334,0.625,0.7142857142857143,0.0
0.2,0.1111111111111111,0.9.fa,0.8333333333333334,0.625,0.7142857142857143,0.0
0.2,0.058823529411764705,0.1.fa,0.625,0.6521739130434783,0.6382978723404256,0.0
0.3333333333333333,0.3333333333333333,0.9.fa,0.8333333333333334,0.625,0.7142857142857143,0.0
0.3333333333333333,0.2,0.1.fa,0.75,0.6428571428571429,0.6923076923076924,0.0
0.3333333333333333,0.2,0.5.fa,0.8333333333333334,0.6666666666666666,0.7407407407407408,0.0
0.3333333333333333,0.1111111111111111,0.1.fa,0.75,0.6428571428571429,0.6923076923076924,0.0
0.3333333333333333,0.5,0.9.fa,0.8333333333333334,0.7142857142857143,0.7692307692307692,0.0
0.3333333333333333,0.2,0.3.fa,0.75,0.6428571428571429,0.6923076923076924,0.0
0.3333333333333333,0.2,0.7.fa,0.8333333333333334,0.625,0.7142857142857143,0.0
0.3333333333333333,0.2,0.9.fa,0.8333333333333334,0.625,0.7142857142857143,0.0
0.3333333333333333,0.1111111111111111,0.3.fa,0.75,0.6428571428571429,0.6923076923076924,0.0
0.3333333333333333,0.1111111111111111,0.7.fa,0.8333333333333334,0.625,0.7142857142857143,0.0
0.3333333333333333,0.1111111111111111,0.5.fa,0.8333333333333334,0.6666666666666666,0.7407407407407408,0.0
0.3333333333333333,0.058823529411764705,0.7.fa,0.8333333333333334,0.625,0.7142857142857143,0.0
0.3333333333333333,0.1111111111111111,0.9.fa,0.8333333333333334,0.625,0.7142857142857143,0.0
0.3333333333333333,0.058823529411764705,0.1.fa,0.75,0.6428571428571429,0.6923076923076924,0.0
0.3333333333333333,0.058823529411764705,0.5.fa,0.8333333333333334,0.6666666666666666,0.7407407407407408,0.0
0.3333333333333333,0.058823529411764705,0.9.fa,0.8333333333333334,0.625,0.7142857142857143,0.0
0.3333333333333333,0.058823529411764705,0.3.fa,0.75,0.6428571428571429,0.6923076923076924,0.0
0.3333333333333333,0.030303030303030304,0.5.fa,0.8333333333333334,0.625,0.7142857142857143,0.0
0.3333333333333333,0.030303030303030304,0.3.fa,0.75,0.6,0.6666666666666665,0.0
0.3333333333333333,0.030303030303030304,0.9.fa,0.8333333333333334,0.5882352941176471,0.6896551724137931,0.0
0.3333333333333333,0.030303030303030304,0.7.fa,0.8333333333333334,0.5882352941176471,0.6896551724137931,0.0
0.2,0.5,0.3.fa,0.75,0.75,0.75,0.0
0.3333333333333333,0.030303030303030304,0.1.fa,0.75,0.6,0.6666666666666665,0.0
0.2,0.3333333333333333,0.3.fa,0.75,0.6428571428571429,0.6923076923076924,0.0
0.2,0.5,0.9.fa,0.8333333333333334,0.7142857142857143,0.7692307692307692,0.0
0.2,0.5,0.7.fa,0.8333333333333334,0.7142857142857143,0.7692307692307692,0.0
0.2,0.5,0.1.fa,0.625,0.8333333333333334,0.7142857142857143,0.0
0.2,0.3333333333333333,0.1.fa,0.625,0.7142857142857143,0.6666666666666666,0.0
0.2,0.5,0.5.fa,0.8333333333333334,0.7692307692307693,0.8,0.0
0.2,0.3333333333333333,0.7.fa,0.8333333333333334,0.625,0.7142857142857143,0.0
0.2,0.3333333333333333,0.5.fa,0.8333333333333334,0.6666666666666666,0.7407407407407408,0.0
0.2,0.2,0.3.fa,0.75,0.6428571428571429,0.6923076923076924,0.0
0.2,0.2,0.5.fa,0.8333333333333334,0.6666666666666666,0.7407407407407408,0.0
0.2,0.2,0.9.fa,0.8333333333333334,0.625,0.7142857142857143,0.0
0.2,0.2,0.1.fa,0.625,0.7142857142857143,0.6666666666666666,0.0
0.2,0.3333333333333333,0.9.fa,0.8333333333333334,0.625,0.7142857142857143,0.0
0.2,0.2,0.7.fa,0.8333333333333334,0.625,0.7142857142857143,0.0
0.2,0.030303030303030304,0.1.fa,0.625,0.6,0.6122448979591836,0.0
0.2,0.058823529411764705,0.7.fa,0.8333333333333334,0.625,0.7142857142857143,0.0
0.2,0.058823529411764705,0.9.fa,0.8333333333333334,0.625,0.7142857142857143,0.0
0.2,0.030303030303030304,0.5.fa,0.8333333333333334,0.625,0.7142857142857143,0.0
0.2,0.030303030303030304,0.7.fa,0.8333333333333334,0.5882352941176471,0.6896551724137931,0.0
0.1111111111111111,0.5,0.1.fa,0.625,0.8333333333333334,0.7142857142857143,0.0
0.2,0.058823529411764705,0.3.fa,0.75,0.6428571428571429,0.6923076923076924,0.0
0.1111111111111111,0.5,0.3.fa,0.7083333333333334,0.7391304347826086,0.723404255319149,0.0
0.1111111111111111,0.5,0.7.fa,0.8333333333333334,0.7142857142857143,0.7692307692307692,0.0
0.1111111111111111,0.3333333333333333,0.5.fa,0.8333333333333334,0.6666666666666666,0.7407407407407408,0.0
0.2,0.030303030303030304,0.9.fa,0.8333333333333334,0.5882352941176471,0.6896551724137931,0.0
0.2,0.058823529411764705,0.5.fa,0.8333333333333334,0.6666666666666666,0.7407407407407408,0.0
0.1111111111111111,0.2,0.1.fa,0.625,0.7142857142857143,0.6666666666666666,0.0
0.2,0.030303030303030304,0.3.fa,0.75,0.6,0.6666666666666665,0.0
0.1111111111111111,0.1111111111111111,0.5.fa,0.8333333333333334,0.6666666666666666,0.7407407407407408,0.0
0.1111111111111111,0.2,0.9.fa,0.8333333333333334,0.625,0.7142857142857143,0.0
0.1111111111111111,0.3333333333333333,0.7.fa,0.8333333333333334,0.625,0.7142857142857143,0.0
0.1111111111111111,0.5,0.9.fa,0.8333333333333334,0.7142857142857143,0.7692307692307692,0.0
0.1111111111111111,0.058823529411764705,0.7.fa,0.8333333333333334,0.625,0.7142857142857143,0.0
0.1111111111111111,0.5,0.5.fa,0.8333333333333334,0.7692307692307693,0.8,0.0
0.1111111111111111,0.3333333333333333,0.1.fa,0.625,0.7142857142857143,0.6666666666666666,0.0
0.1111111111111111,0.3333333333333333,0.3.fa,0.7083333333333334,0.6296296296296297,0.6666666666666667,0.0
0.1111111111111111,0.058823529411764705,0.3.fa,0.7083333333333334,0.6296296296296297,0.6666666666666667,0.0
0.1111111111111111,0.1111111111111111,0.1.fa,0.625,0.7142857142857143,0.6666666666666666,0.0
0.1111111111111111,0.3333333333333333,0.9.fa,0.8333333333333334,0.625,0.7142857142857143,0.0
0.1111111111111111,0.2,0.5.fa,0.8333333333333334,0.6666666666666666,0.7407407407407408,0.0
0.1111111111111111,0.2,0.3.fa,0.7083333333333334,0.6296296296296297,0.6666666666666667,0.0
0.1111111111111111,0.1111111111111111,0.9.fa,0.8333333333333334,0.625,0.7142857142857143,0.0
0.1111111111111111,0.2,0.7.fa,0.8333333333333334,0.625,0.7142857142857143,0.0
0.1111111111111111,0.058823529411764705,0.5.fa,0.8333333333333334,0.6666666666666666,0.7407407407407408,0.0
0.1111111111111111,0.1111111111111111,0.3.fa,0.7083333333333334,0.6296296296296297,0.6666666666666667,0.0
0.1111111111111111,0.030303030303030304,0.1.fa,0.625,0.6,0.6122448979591836,0.0
0.1111111111111111,0.1111111111111111,0.7.fa,0.8333333333333334,0.625,0.7142857142857143,0.0
0.1111111111111111,0.058823529411764705,0.1.fa,0.625,0.6521739130434783,0.6382978723404256,0.0
0.1111111111111111,0.058823529411764705,0.9.fa,0.8333333333333334,0.625,0.7142857142857143,0.0
0.058823529411764705,0.5,0.7.fa,0.8333333333333334,0.7142857142857143,0.7692307692307692,0.0
0.058823529411764705,0.2,0.3.fa,0.7083333333333334,0.6296296296296297,0.6666666666666667,0.0
0.058823529411764705,0.1111111111111111,0.9.fa,0.8333333333333334,0.625,0.7142857142857143,0.0
0.058823529411764705,0.030303030303030304,0.5.fa,0.8333333333333334,0.625,0.7142857142857143,0.0
0.030303030303030304,0.3333333333333333,0.1.fa,0.625,0.7142857142857143,0.6666666666666666,0.0
0.030303030303030304,0.2,0.7.fa,0.8333333333333334,0.625,0.7142857142857143,0.0
0.1111111111111111,0.030303030303030304,0.3.fa,0.7083333333333334,0.5862068965517241,0.6415094339622641,0.0
0.1111111111111111,0.030303030303030304,0.5.fa,0.8333333333333334,0.625,0.7142857142857143,0.0
0.058823529411764705,0.5,0.1.fa,0.625,0.8333333333333334,0.7142857142857143,0.0
0.058823529411764705,0.5,0.3.fa,0.7083333333333334,0.7391304347826086,0.723404255319149,0.0
0.1111111111111111,0.030303030303030304,0.9.fa,0.8333333333333334,0.5882352941176471,0.6896551724137931,0.0
0.1111111111111111,0.030303030303030304,0.7.fa,0.8333333333333334,0.5882352941176471,0.6896551724137931,0.0
0.058823529411764705,0.3333333333333333,0.1.fa,0.625,0.7142857142857143,0.6666666666666666,0.0
0.058823529411764705,0.5,0.9.fa,0.8333333333333334,0.7142857142857143,0.7692307692307692,0.0
0.058823529411764705,0.5,0.5.fa,0.8333333333333334,0.7692307692307693,0.8,0.0
0.058823529411764705,0.3333333333333333,0.3.fa,0.7083333333333334,0.6296296296296297,0.6666666666666667,0.0
0.058823529411764705,0.2,0.7.fa,0.8333333333333334,0.625,0.7142857142857143,0.0
0.058823529411764705,0.3333333333333333,0.7.fa,0.8333333333333334,0.625,0.7142857142857143,0.0
0.058823529411764705,0.3333333333333333,0.5.fa,0.8333333333333334,0.6666666666666666,0.7407407407407408,0.0
0.058823529411764705,0.3333333333333333,0.9.fa,0.8333333333333334,0.625,0.7142857142857143,0.0
0.058823529411764705,0.2,0.9.fa,0.8333333333333334,0.625,0.7142857142857143,0.0
0.058823529411764705,0.2,0.1.fa,0.625,0.7142857142857143,0.6666666666666666,0.0
0.058823529411764705,0.1111111111111111,0.7.fa,0.8333333333333334,0.625,0.7142857142857143,0.0
0.058823529411764705,0.2,0.5.fa,0.8333333333333334,0.6666666666666666,0.7407407407407408,0.0
0.058823529411764705,0.1111111111111111,0.5.fa,0.8333333333333334,0.6666666666666666,0.7407407407407408,0.0
0.058823529411764705,0.1111111111111111,0.1.fa,0.625,0.7142857142857143,0.6666666666666666,0.0
0.058823529411764705,0.1111111111111111,0.3.fa,0.7083333333333334,0.6296296296296297,0.6666666666666667,0.0
0.058823529411764705,0.058823529411764705,0.5.fa,0.8333333333333334,0.6666666666666666,0.7407407407407408,0.0
0.058823529411764705,0.058823529411764705,0.7.fa,0.8333333333333334,0.625,0.7142857142857143,0.0
0.058823529411764705,0.058823529411764705,0.9.fa,0.8333333333333334,0.625,0.7142857142857143,0.0
0.058823529411764705,0.058823529411764705,0.3.fa,0.7083333333333334,0.6296296296296297,0.6666666666666667,0.0
0.058823529411764705,0.058823529411764705,0.1.fa,0.625,0.6521739130434783,0.6382978723404256,0.0
0.058823529411764705,0.030303030303030304,0.1.fa,0.625,0.6,0.6122448979591836,0.0
0.058823529411764705,0.030303030303030304,0.3.fa,0.7083333333333334,0.5862068965517241,0.6415094339622641,0.0
0.030303030303030304,0.5,0.5.fa,0.8333333333333334,0.7692307692307693,0.8,0.0
0.058823529411764705,0.030303030303030304,0.7.fa,0.8333333333333334,0.5882352941176471,0.6896551724137931,0.0
0.030303030303030304,0.5,0.3.fa,0.7083333333333334,0.7391304347826086,0.723404255319149,0.0
0.058823529411764705,0.030303030303030304,0.9.fa,0.8333333333333334,0.5882352941176471,0.6896551724137931,0.0
0.030303030303030304,0.5,0.1.fa,0.625,0.8333333333333334,0.7142857142857143,0.0
0.030303030303030304,0.5,0.9.fa,0.8333333333333334,0.7142857142857143,0.7692307692307692,0.0
0.030303030303030304,0.3333333333333333,0.3.fa,0.7083333333333334,0.6296296296296297,0.6666666666666667,0.0
0.030303030303030304,0.5,0.7.fa,0.8333333333333334,0.7142857142857143,0.7692307692307692,0.0
0.030303030303030304,0.3333333333333333,0.9.fa,0.8333333333333334,0.625,0.7142857142857143,0.0
0.030303030303030304,0.2,0.1.fa,0.625,0.7142857142857143,0.6666666666666666,0.0
0.030303030303030304,0.3333333333333333,0.5.fa,0.8333333333333334,0.6666666666666666,0.7407407407407408,0.0
0.030303030303030304,0.2,0.5.fa,0.8333333333333334,0.6666666666666666,0.7407407407407408,0.0
0.030303030303030304,0.1111111111111111,0.3.fa,0.7083333333333334,0.6296296296296297,0.6666666666666667,0.0
0.030303030303030304,0.2,0.3.fa,0.7083333333333334,0.6296296296296297,0.6666666666666667,0.0
0.030303030303030304,0.3333333333333333,0.7.fa,0.8333333333333334,0.625,0.7142857142857143,0.0
0.030303030303030304,0.1111111111111111,0.5.fa,0.8333333333333334,0.6666666666666666,0.7407407407407408,0.0
0.030303030303030304,0.1111111111111111,0.1.fa,0.625,0.7142857142857143,0.6666666666666666,0.0
0.030303030303030304,0.1111111111111111,0.7.fa,0.8333333333333334,0.625,0.7142857142857143,0.0
0.030303030303030304,0.2,0.9.fa,0.8333333333333334,0.625,0.7142857142857143,0.0
0.030303030303030304,0.1111111111111111,0.9.fa,0.8333333333333334,0.625,0.7142857142857143,0.0
0.030303030303030304,0.058823529411764705,0.5.fa,0.8333333333333334,0.6666666666666666,0.7407407407407408,0.0
0.030303030303030304,0.058823529411764705,0.1.fa,0.625,0.6521739130434783,0.6382978723404256,0.0
0.030303030303030304,0.030303030303030304,0.1.fa,0.625,0.6,0.6122448979591836,0.0
0.030303030303030304,0.058823529411764705,0.3.fa,0.7083333333333334,0.6296296296296297,0.6666666666666667,0.0
0.030303030303030304,0.058823529411764705,0.9.fa,0.8333333333333334,0.625,0.7142857142857143,0.0
0.030303030303030304,0.058823529411764705,0.7.fa,0.8333333333333334,0.625,0.7142857142857143,0.0
0.030303030303030304,0.030303030303030304,0.5.fa,0.8333333333333334,0.625,0.7142857142857143,0.0
0.030303030303030304,0.030303030303030304,0.9.fa,0.8333333333333334,0.5882352941176471,0.6896551724137931,0.0
0.030303030303030304,0.030303030303030304,0.3.fa,0.7083333333333334,0.5862068965517241,0.6415094339622641,0.0
0.030303030303030304,0.030303030303030304,0.7.fa,0.8333333333333334,0.5882352941176471,0.6896551724137931,0.0
0.5,0.5,0.1.fa,0.75,0.75,0.75,0.0
