gamma_s,gamma_h,alpha,sencitivity,ppv,fmeasure,time
1.0,1.0,0.9,0.9411764705882353,0.64,0.7619047619047621,5.662579347
1.0,1.0,0.3,0.9411764705882353,0.64,0.7619047619047621,5.626614936
1.0,1.0,0.5,0.9411764705882353,0.64,0.7619047619047621,5.635278232
1.0,1.0,0.1,0.9411764705882353,0.64,0.7619047619047621,5.558198851
1.0,1.0,0.7,0.9411764705882353,0.64,0.7619047619047621,5.710394214
1.0,1.0,,0.0,NaN,NaN,7.160618717
1.0,16.0,0.1,0.9411764705882353,0.5925925925925926,0.7272727272727272,5.778237583
1.0,8.0,0.9,0.9411764705882353,0.5925925925925926,0.7272727272727272,5.803989018
1.0,8.0,0.5,0.9411764705882353,0.5925925925925926,0.7272727272727272,5.815498755
2.0,1.0,0.1,0.9411764705882353,0.64,0.7619047619047621,5.794153998
1.0,8.0,,0.0,NaN,NaN,5.783287449
1.0,8.0,0.7,0.9411764705882353,0.5925925925925926,0.7272727272727272,5.884879695
1.0,16.0,,0.0,NaN,NaN,5.773729296
1.0,16.0,0.3,0.9411764705882353,0.5925925925925926,0.7272727272727272,5.803617742
1.0,32.0,0.7,0.9411764705882353,0.5925925925925926,0.7272727272727272,5.791891871
1.0,8.0,0.3,0.9411764705882353,0.5925925925925926,0.7272727272727272,5.901796782
2.0,1.0,0.7,0.9411764705882353,0.64,0.7619047619047621,5.796689869
1.0,16.0,0.5,0.9411764705882353,0.5925925925925926,0.7272727272727272,5.791615861
1.0,32.0,0.9,0.9411764705882353,0.5925925925925926,0.7272727272727272,5.786528298
2.0,1.0,0.3,0.9411764705882353,0.64,0.7619047619047621,5.782101092
1.0,16.0,0.9,0.9411764705882353,0.5925925925925926,0.7272727272727272,5.785900114
1.0,32.0,,0.0,NaN,NaN,5.822546194
1.0,32.0,0.3,0.9411764705882353,0.5925925925925926,0.7272727272727272,5.820452408
1.0,16.0,0.7,0.9411764705882353,0.5925925925925926,0.7272727272727272,5.771413008
1.0,32.0,0.5,0.9411764705882353,0.5925925925925926,0.7272727272727272,5.777533659
2.0,1.0,0.5,0.9411764705882353,0.64,0.7619047619047621,5.767564845
1.0,32.0,0.1,0.9411764705882353,0.5925925925925926,0.7272727272727272,5.866475038
1.0,2.0,0.1,0.9411764705882353,0.5925925925925926,0.7272727272727272,7.14947581
1.0,2.0,0.5,0.9411764705882353,0.5925925925925926,0.7272727272727272,6.634451913
1.0,2.0,0.3,0.9411764705882353,0.5925925925925926,0.7272727272727272,6.70104537
1.0,2.0,0.7,0.9411764705882353,0.5925925925925926,0.7272727272727272,6.654599396
1.0,2.0,0.9,0.9411764705882353,0.5925925925925926,0.7272727272727272,7.174010586
1.0,2.0,,0.0,NaN,NaN,6.394346826
1.0,4.0,0.1,0.9411764705882353,0.5925925925925926,0.7272727272727272,6.339947207
1.0,4.0,0.3,0.9411764705882353,0.5925925925925926,0.7272727272727272,6.502879082
1.0,4.0,0.5,0.9411764705882353,0.5925925925925926,0.7272727272727272,7.02715835
1.0,4.0,0.7,0.9411764705882353,0.5925925925925926,0.7272727272727272,6.621639689
1.0,4.0,0.9,0.9411764705882353,0.5925925925925926,0.7272727272727272,7.076471117
1.0,4.0,,0.0,NaN,NaN,6.600525061
1.0,8.0,0.1,0.9411764705882353,0.5925925925925926,0.7272727272727272,6.782499037
2.0,16.0,,0.0,NaN,NaN,5.629620173
2.0,16.0,0.3,0.9411764705882353,0.5925925925925926,0.7272727272727272,5.680194585
2.0,16.0,0.1,0.9411764705882353,0.5925925925925926,0.7272727272727272,5.676867742
2.0,8.0,,0.0,NaN,NaN,5.651371422
4.0,1.0,0.7,0.9411764705882353,0.64,0.7619047619047621,5.463574345
2.0,16.0,0.7,0.9411764705882353,0.5925925925925926,0.7272727272727272,5.675275583
4.0,1.0,,0.0,NaN,NaN,5.4839014
2.0,32.0,0.5,0.9411764705882353,0.5925925925925926,0.7272727272727272,5.650405769
2.0,16.0,0.5,0.9411764705882353,0.5925925925925926,0.7272727272727272,5.680830009
2.0,16.0,0.9,0.9411764705882353,0.5925925925925926,0.7272727272727272,5.696250896
2.0,32.0,,0.0,NaN,NaN,5.607846373
2.0,32.0,0.9,0.9411764705882353,0.5925925925925926,0.7272727272727272,5.632217871
2.0,32.0,0.3,0.9411764705882353,0.5925925925925926,0.7272727272727272,5.671864296
2.0,32.0,0.1,0.9411764705882353,0.5925925925925926,0.7272727272727272,5.679785837
4.0,1.0,0.3,0.9411764705882353,0.64,0.7619047619047621,5.623655217
2.0,32.0,0.7,0.9411764705882353,0.5925925925925926,0.7272727272727272,5.612448381
4.0,1.0,0.5,0.9411764705882353,0.64,0.7619047619047621,5.649418261
4.0,1.0,0.1,0.9411764705882353,0.64,0.7619047619047621,5.620986216
4.0,1.0,0.9,0.9411764705882353,0.64,0.7619047619047621,5.666976267
2.0,1.0,,0.0,NaN,NaN,6.58904649
2.0,2.0,0.1,0.9411764705882353,0.5925925925925926,0.7272727272727272,7.150137754
2.0,2.0,0.3,0.9411764705882353,0.5925925925925926,0.7272727272727272,6.749477188
2.0,1.0,0.9,0.9411764705882353,0.64,0.7619047619047621,6.746303928
2.0,2.0,0.5,0.9411764705882353,0.5925925925925926,0.7272727272727272,6.639647649
2.0,2.0,0.7,0.9411764705882353,0.5925925925925926,0.7272727272727272,6.73464882
2.0,2.0,0.9,0.9411764705882353,0.5925925925925926,0.7272727272727272,7.124712198
2.0,2.0,,0.0,NaN,NaN,6.743857205
2.0,4.0,0.1,0.9411764705882353,0.5925925925925926,0.7272727272727272,7.423848997
2.0,4.0,0.5,0.9411764705882353,0.5925925925925926,0.7272727272727272,7.394987952
2.0,4.0,0.3,0.9411764705882353,0.5925925925925926,0.7272727272727272,6.594424103
2.0,4.0,0.9,0.9411764705882353,0.5925925925925926,0.7272727272727272,6.59832767
2.0,4.0,0.7,0.9411764705882353,0.5925925925925926,0.7272727272727272,7.024644219
2.0,4.0,,0.0,NaN,NaN,6.467269097
2.0,8.0,0.1,0.9411764705882353,0.5925925925925926,0.7272727272727272,6.575922482
2.0,8.0,0.3,0.9411764705882353,0.5925925925925926,0.7272727272727272,6.993527432
2.0,8.0,0.5,0.9411764705882353,0.5925925925925926,0.7272727272727272,6.559728229
2.0,8.0,0.7,0.9411764705882353,0.5925925925925926,0.7272727272727272,6.575857749
2.0,8.0,0.9,0.9411764705882353,0.5925925925925926,0.7272727272727272,7.021104002
4.0,2.0,0.1,0.9411764705882353,0.5925925925925926,0.7272727272727272,7.699940263
4.0,2.0,0.3,0.9411764705882353,0.5925925925925926,0.7272727272727272,6.849578548
4.0,4.0,0.5,0.9411764705882353,0.5925925925925926,0.7272727272727272,7.839376179
4.0,8.0,0.7,0.9411764705882353,0.5925925925925926,0.7272727272727272,7.856903495
4.0,2.0,,0.0,NaN,NaN,6.866503743
4.0,4.0,,0.0,NaN,NaN,7.027698516
4.0,2.0,0.5,0.9411764705882353,0.5925925925925926,0.7272727272727272,6.989835082
4.0,2.0,0.7,0.9411764705882353,0.5925925925925926,0.7272727272727272,7.551727154
4.0,2.0,0.9,0.9411764705882353,0.5925925925925926,0.7272727272727272,7.216884555
4.0,32.0,0.1,0.9411764705882353,0.5925925925925926,0.7272727272727272,5.999275588
4.0,32.0,0.7,0.9411764705882353,0.5925925925925926,0.7272727272727272,5.810438066
4.0,32.0,,0.0,NaN,NaN,5.823587746
8.0,1.0,0.3,0.7647058823529411,0.65,0.7027027027027027,5.912197374
4.0,32.0,0.9,0.9411764705882353,0.5925925925925926,0.7272727272727272,6.077150938
4.0,32.0,0.3,0.9411764705882353,0.5925925925925926,0.7272727272727272,5.914580542
8.0,1.0,0.1,0.7058823529411765,0.7058823529411765,0.7058823529411765,5.850293652
8.0,1.0,0.7,0.9411764705882353,0.64,0.7619047619047621,5.867477156
8.0,1.0,0.9,0.9411764705882353,0.64,0.7619047619047621,5.918280829
8.0,1.0,0.5,0.9411764705882353,0.64,0.7619047619047621,5.928295732
8.0,1.0,,0.0,NaN,NaN,5.827331623
8.0,2.0,0.3,0.9411764705882353,0.5925925925925926,0.7272727272727272,5.801300468
4.0,4.0,0.1,0.9411764705882353,0.5925925925925926,0.7272727272727272,6.411072643
8.0,2.0,0.1,0.7058823529411765,0.6,0.6486486486486486,5.757809681
8.0,2.0,0.5,0.9411764705882353,0.5925925925925926,0.7272727272727272,5.727732854
8.0,2.0,0.7,0.9411764705882353,0.5925925925925926,0.7272727272727272,5.666674358
8.0,2.0,,0.0,NaN,NaN,5.611485693
8.0,4.0,0.1,0.7058823529411765,0.6,0.6486486486486486,5.80541024
8.0,2.0,0.9,0.9411764705882353,0.5925925925925926,0.7272727272727272,5.915616545
8.0,4.0,0.3,0.9411764705882353,0.5925925925925926,0.7272727272727272,5.709766139
8.0,4.0,0.5,0.9411764705882353,0.5925925925925926,0.7272727272727272,5.923713365
8.0,4.0,0.7,0.9411764705882353,0.5925925925925926,0.7272727272727272,5.854906013
8.0,4.0,0.9,0.9411764705882353,0.5925925925925926,0.7272727272727272,5.997795065
8.0,4.0,,0.0,NaN,NaN,5.720451335
8.0,8.0,0.1,0.9411764705882353,0.5925925925925926,0.7272727272727272,5.851147863
4.0,4.0,0.3,0.9411764705882353,0.5925925925925926,0.7272727272727272,6.593448531
8.0,8.0,0.5,0.9411764705882353,0.5925925925925926,0.7272727272727272,5.835602281
8.0,8.0,0.9,0.9411764705882353,0.5925925925925926,0.7272727272727272,5.956520441
8.0,8.0,0.3,0.9411764705882353,0.5925925925925926,0.7272727272727272,5.933896021
4.0,4.0,0.7,0.9411764705882353,0.5925925925925926,0.7272727272727272,6.689508269
8.0,8.0,0.7,0.9411764705882353,0.5925925925925926,0.7272727272727272,5.910967234
8.0,8.0,,0.0,NaN,NaN,5.891832139
8.0,16.0,0.1,0.9411764705882353,0.5925925925925926,0.7272727272727272,5.77132256
8.0,16.0,0.3,0.9411764705882353,0.5925925925925926,0.7272727272727272,6.191719625
8.0,16.0,0.5,0.9411764705882353,0.5925925925925926,0.7272727272727272,6.020618649
8.0,16.0,0.7,0.9411764705882353,0.5925925925925926,0.7272727272727272,6.073881907
4.0,4.0,0.9,0.9411764705882353,0.5925925925925926,0.7272727272727272,7.419523095
8.0,16.0,,0.0,NaN,NaN,5.898765679
8.0,16.0,0.9,0.9411764705882353,0.5925925925925926,0.7272727272727272,5.89879612
8.0,32.0,,0.0,NaN,NaN,5.906672515
8.0,32.0,0.1,0.9411764705882353,0.5925925925925926,0.7272727272727272,5.971857067
8.0,32.0,0.5,0.9411764705882353,0.5925925925925926,0.7272727272727272,5.96683557
8.0,32.0,0.3,0.9411764705882353,0.5925925925925926,0.7272727272727272,6.117883939
16.0,1.0,0.7,0.7647058823529411,0.65,0.7027027027027027,6.130143455
8.0,32.0,0.7,0.9411764705882353,0.5925925925925926,0.7272727272727272,6.19995848
8.0,32.0,0.9,0.9411764705882353,0.5925925925925926,0.7272727272727272,6.01939062
16.0,1.0,0.1,0.5882352941176471,0.6666666666666666,0.625,6.054828646
16.0,1.0,0.9,0.9411764705882353,0.64,0.7619047619047621,5.998201181
16.0,1.0,0.3,0.5882352941176471,0.6666666666666666,0.625,5.922660673
16.0,1.0,,0.0,NaN,NaN,5.981131432
16.0,1.0,0.5,0.7647058823529411,0.7222222222222222,0.7428571428571428,5.920924415
16.0,2.0,0.7,0.9411764705882353,0.5925925925925926,0.7272727272727272,5.905530167
16.0,2.0,0.9,0.9411764705882353,0.5925925925925926,0.7272727272727272,5.875028595
16.0,2.0,,0.0,NaN,NaN,5.81336987
16.0,2.0,0.3,0.7058823529411765,0.631578947368421,0.6666666666666667,5.811942369
16.0,2.0,0.1,0.7058823529411765,0.631578947368421,0.6666666666666667,5.747828932
16.0,4.0,0.3,0.7647058823529411,0.6190476190476191,0.6842105263157895,5.823439563
16.0,2.0,0.5,0.7647058823529411,0.6190476190476191,0.6842105263157895,5.80125829
16.0,4.0,0.5,0.9411764705882353,0.5925925925925926,0.7272727272727272,5.836935108
16.0,4.0,,0.0,NaN,NaN,5.700198858
4.0,8.0,0.1,0.9411764705882353,0.5925925925925926,0.7272727272727272,6.486737246
16.0,4.0,0.1,0.7058823529411765,0.631578947368421,0.6666666666666667,5.70598675
16.0,4.0,0.7,0.9411764705882353,0.5925925925925926,0.7272727272727272,5.670899786
16.0,4.0,0.9,0.9411764705882353,0.5925925925925926,0.7272727272727272,5.716830194
16.0,8.0,0.3,0.9411764705882353,0.5925925925925926,0.7272727272727272,5.746722297
4.0,8.0,0.3,0.9411764705882353,0.5925925925925926,0.7272727272727272,6.530950095
16.0,8.0,0.9,0.9411764705882353,0.5925925925925926,0.7272727272727272,5.682715668
16.0,8.0,0.1,0.7058823529411765,0.631578947368421,0.6666666666666667,5.671358892
16.0,8.0,,0.0,NaN,NaN,5.633400845
16.0,16.0,0.5,0.9411764705882353,0.5925925925925926,0.7272727272727272,5.612294645
16.0,8.0,0.7,0.9411764705882353,0.5925925925925926,0.7272727272727272,5.667791593
16.0,8.0,0.5,0.9411764705882353,0.5925925925925926,0.7272727272727272,5.730909354
16.0,16.0,,0.0,NaN,NaN,5.729024413
4.0,8.0,0.5,0.9411764705882353,0.5925925925925926,0.7272727272727272,6.517957068
16.0,16.0,0.1,0.9411764705882353,0.5925925925925926,0.7272727272727272,5.647821357
16.0,16.0,0.3,0.9411764705882353,0.5925925925925926,0.7272727272727272,5.647229315
16.0,16.0,0.7,0.9411764705882353,0.5925925925925926,0.7272727272727272,5.766028117
16.0,16.0,0.9,0.9411764705882353,0.5925925925925926,0.7272727272727272,5.664749599
4.0,8.0,0.9,0.9411764705882353,0.5925925925925926,0.7272727272727272,6.789695544
4.0,8.0,,0.0,NaN,NaN,7.959288676
4.0,16.0,0.3,0.9411764705882353,0.5925925925925926,0.7272727272727272,6.334912255
4.0,16.0,0.1,0.9411764705882353,0.5925925925925926,0.7272727272727272,6.299231217
4.0,16.0,0.7,0.9411764705882353,0.5925925925925926,0.7272727272727272,6.403544704
4.0,16.0,0.5,0.9411764705882353,0.5925925925925926,0.7272727272727272,6.352299918
4.0,16.0,0.9,0.9411764705882353,0.5925925925925926,0.7272727272727272,6.244781438
4.0,16.0,,0.0,NaN,NaN,9.262375852
4.0,32.0,0.5,0.9411764705882353,0.5925925925925926,0.7272727272727272,6.383609125
16.0,32.0,0.1,0.9411764705882353,0.5925925925925926,0.7272727272727272,7.049956373
16.0,32.0,0.3,0.9411764705882353,0.5925925925925926,0.7272727272727272,6.189854774
16.0,32.0,0.5,0.9411764705882353,0.5925925925925926,0.7272727272727272,6.155885726
16.0,32.0,0.7,0.9411764705882353,0.5925925925925926,0.7272727272727272,6.975856453
16.0,32.0,0.9,0.9411764705882353,0.5925925925925926,0.7272727272727272,6.939487308
16.0,32.0,,0.0,NaN,NaN,6.195499576
32.0,1.0,0.3,0.5882352941176471,0.6666666666666666,0.625,5.441998619
32.0,1.0,0.1,0.5882352941176471,0.6666666666666666,0.625,5.488410535
32.0,1.0,0.9,0.7058823529411765,0.7058823529411765,0.7058823529411765,5.476080855
32.0,1.0,0.7,0.7058823529411765,0.7058823529411765,0.7058823529411765,5.490676191
32.0,1.0,,0.0,NaN,NaN,5.389034927
32.0,2.0,0.3,0.7058823529411765,0.631578947368421,0.6666666666666667,5.44388169
32.0,2.0,0.1,0.7058823529411765,0.631578947368421,0.6666666666666667,5.506861641
32.0,2.0,0.9,0.7647058823529411,0.6190476190476191,0.6842105263157895,5.340117315
32.0,1.0,0.5,0.5882352941176471,0.6666666666666666,0.625,5.413060466
32.0,2.0,0.5,0.7058823529411765,0.631578947368421,0.6666666666666667,5.308807304
32.0,2.0,,0.0,NaN,NaN,5.326777365
32.0,4.0,0.5,0.7647058823529411,0.6190476190476191,0.6842105263157895,5.349809639
32.0,4.0,0.1,0.7058823529411765,0.631578947368421,0.6666666666666667,5.399263228
32.0,4.0,,0.0,NaN,NaN,5.305627319
32.0,8.0,0.7,0.9411764705882353,0.5925925925925926,0.7272727272727272,5.408148105
32.0,8.0,,0.0,NaN,NaN,6.761114819
32.0,8.0,0.1,0.7058823529411765,0.631578947368421,0.6666666666666667,5.340315574
32.0,4.0,0.7,0.9411764705882353,0.5925925925925926,0.7272727272727272,5.384247058
32.0,2.0,0.7,0.7647058823529411,0.65,0.7027027027027027,5.419271628
32.0,8.0,0.3,0.7647058823529411,0.6190476190476191,0.6842105263157895,5.382073596
32.0,8.0,0.9,0.9411764705882353,0.5925925925925926,0.7272727272727272,5.385855404
32.0,4.0,0.3,0.7058823529411765,0.631578947368421,0.6666666666666667,5.459277012
32.0,4.0,0.9,0.9411764705882353,0.5925925925925926,0.7272727272727272,5.429888908
32.0,8.0,0.5,0.9411764705882353,0.5925925925925926,0.7272727272727272,5.420657613
32.0,16.0,0.5,0.9411764705882353,0.5925925925925926,0.7272727272727272,7.840515066
32.0,16.0,,0.0,NaN,NaN,7.113976885
32.0,32.0,0.7,0.9411764705882353,0.5925925925925926,0.7272727272727272,7.829458779
32.0,16.0,0.1,0.7058823529411765,0.631578947368421,0.6666666666666667,6.341998102
32.0,16.0,0.3,0.9411764705882353,0.5925925925925926,0.7272727272727272,6.222981503
32.0,16.0,0.7,0.9411764705882353,0.5925925925925926,0.7272727272727272,6.709956321
32.0,32.0,,0.0,NaN,NaN,6.96417166
32.0,16.0,0.9,0.9411764705882353,0.5925925925925926,0.7272727272727272,6.694603527
32.0,32.0,0.1,0.9411764705882353,0.5925925925925926,0.7272727272727272,6.705072552
32.0,32.0,0.3,0.9411764705882353,0.5925925925925926,0.7272727272727272,6.368565996
32.0,32.0,0.5,0.9411764705882353,0.5925925925925926,0.7272727272727272,7.07139011
32.0,32.0,0.9,0.9411764705882353,0.5925925925925926,0.7272727272727272,6.696784691
