gamma_s,gamma_h,alpha,sencitivity,ppv,fmeasure,time
1.0,2.0,0.5,0.7272727272727273,0.7272727272727273,0.7272727272727273,3.426292718
1.0,4.0,0.1,0.7272727272727273,0.7272727272727273,0.7272727272727273,3.226638266
1.0,4.0,,0.0,NaN,NaN,2.932123334
1.0,1.0,0.1,0.7272727272727273,0.7619047619047619,0.7441860465116279,2.582499517
1.0,1.0,0.3,0.7272727272727273,0.7619047619047619,0.7441860465116279,2.763990968
1.0,8.0,,0.0,NaN,NaN,3.455214068
1.0,16.0,0.7,0.7727272727272727,0.68,0.7234042553191491,2.992585072
1.0,32.0,0.3,0.7727272727272727,0.68,0.7234042553191491,2.92344405
1.0,1.0,,0.0,NaN,NaN,2.98114702
1.0,4.0,0.5,0.7272727272727273,0.7272727272727273,0.7272727272727273,3.655626507
1.0,2.0,0.9,0.7272727272727273,0.7272727272727273,0.7272727272727273,3.463958802
1.0,32.0,,0.0,NaN,NaN,2.809147145
1.0,1.0,0.9,0.7272727272727273,0.7619047619047619,0.7441860465116279,2.724275195
1.0,8.0,0.1,0.7272727272727273,0.6666666666666666,0.6956521739130435,3.386514015
2.0,1.0,,0.0,NaN,NaN,2.864634843
1.0,1.0,0.5,0.7272727272727273,0.7619047619047619,0.7441860465116279,2.681845168
1.0,2.0,,0.0,NaN,NaN,2.979168856
1.0,2.0,0.1,0.7272727272727273,0.7272727272727273,0.7272727272727273,3.438869214
1.0,1.0,0.7,0.7272727272727273,0.7619047619047619,0.7441860465116279,2.797405754
1.0,4.0,0.9,0.7272727272727273,0.7272727272727273,0.7272727272727273,2.961983215
1.0,4.0,0.7,0.7272727272727273,0.7272727272727273,0.7272727272727273,2.955498464
1.0,8.0,0.3,0.7272727272727273,0.6666666666666666,0.6956521739130435,3.122612073
1.0,8.0,0.7,0.7272727272727273,0.6666666666666666,0.6956521739130435,2.987535399
1.0,16.0,,0.0,NaN,NaN,3.006686202
1.0,8.0,0.5,0.7272727272727273,0.6666666666666666,0.6956521739130435,3.376492229
1.0,2.0,0.7,0.7272727272727273,0.7272727272727273,0.7272727272727273,2.999643144
1.0,4.0,0.3,0.7272727272727273,0.7272727272727273,0.7272727272727273,3.119408489
1.0,32.0,0.9,0.7727272727272727,0.68,0.7234042553191491,3.120422586
1.0,16.0,0.3,0.7727272727272727,0.68,0.7234042553191491,3.117318798
2.0,2.0,0.5,0.7272727272727273,0.7272727272727273,0.7272727272727273,2.803729909
2.0,1.0,0.9,0.7272727272727273,0.7619047619047619,0.7441860465116279,3.069609565
1.0,16.0,0.1,0.7727272727272727,0.68,0.7234042553191491,2.928354056
2.0,1.0,0.7,0.7272727272727273,0.7619047619047619,0.7441860465116279,2.87663548
1.0,2.0,0.3,0.7272727272727273,0.7272727272727273,0.7272727272727273,3.110535012
1.0,8.0,0.9,0.7272727272727273,0.6666666666666666,0.6956521739130435,2.987627376
1.0,16.0,0.5,0.7727272727272727,0.68,0.7234042553191491,2.836071398
1.0,32.0,0.1,0.7727272727272727,0.68,0.7234042553191491,2.789046988
2.0,1.0,0.1,0.7272727272727273,0.7619047619047619,0.7441860465116279,3.119857047
1.0,16.0,0.9,0.7727272727272727,0.68,0.7234042553191491,3.3304325
1.0,32.0,0.5,0.7727272727272727,0.68,0.7234042553191491,2.91239074
1.0,32.0,0.7,0.7727272727272727,0.68,0.7234042553191491,2.975068413
2.0,1.0,0.3,0.7272727272727273,0.7619047619047619,0.7441860465116279,3.329943122
2.0,1.0,0.5,0.7272727272727273,0.7619047619047619,0.7441860465116279,2.998539827
2.0,2.0,0.1,0.7272727272727273,0.7272727272727273,0.7272727272727273,2.974435506
2.0,2.0,0.9,0.7272727272727273,0.7272727272727273,0.7272727272727273,2.844686526
2.0,2.0,,0.0,NaN,NaN,2.854525041
2.0,2.0,0.3,0.7272727272727273,0.7272727272727273,0.7272727272727273,2.838518429
2.0,2.0,0.7,0.7272727272727273,0.7272727272727273,0.7272727272727273,2.870917105
2.0,16.0,0.1,0.7727272727272727,0.68,0.7234042553191491,2.692943541
2.0,16.0,,0.0,NaN,NaN,2.704646674
2.0,32.0,,0.0,NaN,NaN,2.790485366
4.0,2.0,0.3,0.7272727272727273,0.7272727272727273,0.7272727272727273,2.585028836
4.0,4.0,0.1,0.7272727272727273,0.7272727272727273,0.7272727272727273,2.465705118
4.0,4.0,,0.0,NaN,NaN,2.466038862
2.0,4.0,0.1,0.7272727272727273,0.7272727272727273,0.7272727272727273,2.837731143
4.0,2.0,0.1,0.7272727272727273,0.7272727272727273,0.7272727272727273,2.599222821
4.0,1.0,,0.0,NaN,NaN,2.584430867
2.0,32.0,0.1,0.7727272727272727,0.68,0.7234042553191491,2.74724295
4.0,2.0,,0.0,NaN,NaN,2.468359804
4.0,1.0,0.5,0.7272727272727273,0.7619047619047619,0.7441860465116279,2.759503992
2.0,4.0,0.3,0.7272727272727273,0.7272727272727273,0.7272727272727273,2.907789847
4.0,2.0,0.5,0.7272727272727273,0.7272727272727273,0.7272727272727273,2.429670994
4.0,1.0,0.7,0.7272727272727273,0.7619047619047619,0.7441860465116279,2.695714952
4.0,2.0,0.9,0.7272727272727273,0.7272727272727273,0.7272727272727273,2.493264873
4.0,2.0,0.7,0.7272727272727273,0.7272727272727273,0.7272727272727273,2.488889613
2.0,32.0,0.7,0.7727272727272727,0.68,0.7234042553191491,2.813253392
2.0,32.0,0.3,0.7727272727272727,0.68,0.7234042553191491,2.762453062
4.0,4.0,0.3,0.7272727272727273,0.7272727272727273,0.7272727272727273,2.485889746
2.0,4.0,0.5,0.7272727272727273,0.7272727272727273,0.7272727272727273,2.802684209
4.0,4.0,0.5,0.7272727272727273,0.7272727272727273,0.7272727272727273,2.49507681
4.0,4.0,0.7,0.7272727272727273,0.7272727272727273,0.7272727272727273,2.445848321
4.0,8.0,0.9,0.7272727272727273,0.6666666666666666,0.6956521739130435,2.484385675
4.0,4.0,0.9,0.7272727272727273,0.7272727272727273,0.7272727272727273,2.501809867
4.0,8.0,0.1,0.7272727272727273,0.6666666666666666,0.6956521739130435,2.506728894
4.0,8.0,0.7,0.7272727272727273,0.6666666666666666,0.6956521739130435,2.4792279
4.0,8.0,0.5,0.7272727272727273,0.6666666666666666,0.6956521739130435,2.485256736
4.0,16.0,0.5,0.7727272727272727,0.68,0.7234042553191491,3.852005354
4.0,8.0,0.3,0.7272727272727273,0.6666666666666666,0.6956521739130435,2.475541728
4.0,8.0,,0.0,NaN,NaN,2.473452944
2.0,4.0,0.7,0.7272727272727273,0.7272727272727273,0.7272727272727273,2.776621704
4.0,16.0,0.1,0.7727272727272727,0.68,0.7234042553191491,2.46662871
4.0,32.0,0.1,0.7727272727272727,0.68,0.7234042553191491,3.119770641
4.0,16.0,0.9,0.7727272727272727,0.68,0.7234042553191491,3.630372651
4.0,16.0,,0.0,NaN,NaN,3.482842214
4.0,16.0,0.3,0.7727272727272727,0.68,0.7234042553191491,2.481607183
4.0,16.0,0.7,0.7727272727272727,0.68,0.7234042553191491,3.365925239
2.0,4.0,0.9,0.7272727272727273,0.7272727272727273,0.7272727272727273,2.752422939
4.0,32.0,0.7,0.7727272727272727,0.68,0.7234042553191491,3.750157519
4.0,32.0,0.5,0.7727272727272727,0.68,0.7234042553191491,3.002654464
4.0,32.0,,0.0,NaN,NaN,3.757810828
4.0,32.0,0.3,0.7727272727272727,0.68,0.7234042553191491,3.180484094
8.0,1.0,0.1,0.5909090909090909,0.7647058823529411,0.6666666666666667,2.904683717
2.0,4.0,,0.0,NaN,NaN,2.900736817
8.0,1.0,0.3,0.5909090909090909,0.7647058823529411,0.6666666666666667,3.592083616
4.0,32.0,0.9,0.7727272727272727,0.68,0.7234042553191491,2.956314739
8.0,1.0,,0.0,NaN,NaN,2.990647526
8.0,1.0,0.9,0.7272727272727273,0.7619047619047619,0.7441860465116279,2.762885963
8.0,1.0,0.5,0.7272727272727273,0.7619047619047619,0.7441860465116279,3.449499259
8.0,1.0,0.7,0.7272727272727273,0.7619047619047619,0.7441860465116279,2.8966564
8.0,2.0,0.7,0.7272727272727273,0.7272727272727273,0.7272727272727273,2.763035569
8.0,2.0,,0.0,NaN,NaN,2.951717094
8.0,2.0,0.5,0.7272727272727273,0.7272727272727273,0.7272727272727273,2.879148645
8.0,2.0,0.1,0.5909090909090909,0.7222222222222222,0.65,2.817937561
8.0,2.0,0.3,0.7272727272727273,0.7272727272727273,0.7272727272727273,2.823217215
8.0,2.0,0.9,0.7272727272727273,0.7272727272727273,0.7272727272727273,3.578761474
8.0,4.0,0.3,0.7272727272727273,0.7272727272727273,0.7272727272727273,2.987684175
8.0,4.0,0.1,0.5909090909090909,0.7222222222222222,0.65,2.917610852
8.0,4.0,,0.0,NaN,NaN,2.942984799
8.0,4.0,0.9,0.7272727272727273,0.7272727272727273,0.7272727272727273,2.825527468
8.0,4.0,0.5,0.7272727272727273,0.7272727272727273,0.7272727272727273,2.864378124
8.0,8.0,0.5,0.7272727272727273,0.6666666666666666,0.6956521739130435,3.212574966
8.0,8.0,0.7,0.7272727272727273,0.6666666666666666,0.6956521739130435,2.752575169
8.0,8.0,,0.0,NaN,NaN,3.414345831
8.0,8.0,0.1,0.7272727272727273,0.6666666666666666,0.6956521739130435,2.817240707
8.0,4.0,0.7,0.7272727272727273,0.7272727272727273,0.7272727272727273,2.755160566
8.0,16.0,0.1,0.7272727272727273,0.6666666666666666,0.6956521739130435,2.921505956
8.0,8.0,0.3,0.7272727272727273,0.6666666666666666,0.6956521739130435,2.960959037
8.0,16.0,0.7,0.7272727272727273,0.6666666666666666,0.6956521739130435,2.916006211
8.0,16.0,,0.0,NaN,NaN,3.043682881
8.0,32.0,0.3,0.7272727272727273,0.6666666666666666,0.6956521739130435,2.682082923
8.0,16.0,0.3,0.7272727272727273,0.6666666666666666,0.6956521739130435,3.576211111
8.0,16.0,0.9,0.7272727272727273,0.6666666666666666,0.6956521739130435,2.707610119
2.0,8.0,0.1,0.7272727272727273,0.6666666666666666,0.6956521739130435,2.755403062
8.0,32.0,0.5,0.7272727272727273,0.6666666666666666,0.6956521739130435,3.040568338
2.0,8.0,0.3,0.7272727272727273,0.6666666666666666,0.6956521739130435,2.913948722
8.0,32.0,0.7,0.7272727272727273,0.6666666666666666,0.6956521739130435,2.807871789
8.0,16.0,0.5,0.7272727272727273,0.6666666666666666,0.6956521739130435,2.918703761
8.0,32.0,,0.0,NaN,NaN,2.995633626
8.0,32.0,0.9,0.7727272727272727,0.68,0.7234042553191491,3.579246953
8.0,8.0,0.9,0.7272727272727273,0.6666666666666666,0.6956521739130435,2.895490937
2.0,8.0,0.5,0.7272727272727273,0.6666666666666666,0.6956521739130435,2.943046699
2.0,8.0,0.7,0.7272727272727273,0.6666666666666666,0.6956521739130435,2.869531064
8.0,32.0,0.1,0.7272727272727273,0.6666666666666666,0.6956521739130435,2.741626249
2.0,8.0,0.9,0.7272727272727273,0.6666666666666666,0.6956521739130435,2.769921751
2.0,8.0,,0.0,NaN,NaN,2.847291933
2.0,16.0,0.3,0.7727272727272727,0.68,0.7234042553191491,2.670710365
2.0,16.0,0.7,0.7727272727272727,0.68,0.7234042553191491,2.877229591
2.0,16.0,0.5,0.7727272727272727,0.68,0.7234042553191491,2.730216804
4.0,1.0,0.3,0.7272727272727273,0.7619047619047619,0.7441860465116279,2.707313232
4.0,1.0,0.1,0.7272727272727273,0.7619047619047619,0.7441860465116279,2.733329871
4.0,1.0,0.9,0.7272727272727273,0.7619047619047619,0.7441860465116279,2.706721065
2.0,32.0,0.5,0.7727272727272727,0.68,0.7234042553191491,2.759131637
2.0,32.0,0.9,0.7727272727272727,0.68,0.7234042553191491,2.666555984
2.0,16.0,0.9,0.7727272727272727,0.68,0.7234042553191491,2.783563574
16.0,1.0,0.1,0.5909090909090909,0.7647058823529411,0.6666666666666667,3.069455886
16.0,2.0,,0.0,NaN,NaN,2.772821139
16.0,1.0,0.3,0.5909090909090909,0.7647058823529411,0.6666666666666667,2.99631768
16.0,1.0,0.5,0.5909090909090909,0.7647058823529411,0.6666666666666667,2.823559241
16.0,4.0,,0.0,NaN,NaN,2.785795046
16.0,8.0,,0.0,NaN,NaN,2.880264975
16.0,32.0,0.1,0.7272727272727273,0.6666666666666666,0.6956521739130435,2.539461197
16.0,32.0,,0.0,NaN,NaN,2.514324761
32.0,1.0,,0.0,NaN,NaN,2.48323696
16.0,4.0,0.9,0.7272727272727273,0.7272727272727273,0.7272727272727273,2.721650256
16.0,1.0,0.7,0.6363636363636364,0.7368421052631579,0.6829268292682926,2.850945292
16.0,8.0,0.1,0.5909090909090909,0.65,0.6190476190476191,2.77853765
16.0,8.0,0.3,0.7272727272727273,0.6666666666666666,0.6956521739130435,2.732581543
16.0,16.0,0.5,0.7272727272727273,0.6666666666666666,0.6956521739130435,2.807794872
16.0,8.0,0.9,0.7272727272727273,0.6666666666666666,0.6956521739130435,2.743944414
16.0,16.0,0.3,0.7272727272727273,0.6666666666666666,0.6956521739130435,2.597420168
16.0,16.0,0.7,0.7272727272727273,0.6666666666666666,0.6956521739130435,2.686786259
16.0,1.0,0.9,0.7272727272727273,0.7619047619047619,0.7441860465116279,2.909163979
16.0,16.0,,0.0,NaN,NaN,2.692123979
16.0,32.0,0.3,0.7272727272727273,0.6666666666666666,0.6956521739130435,2.485460856
16.0,1.0,,0.0,NaN,NaN,2.890646046
16.0,32.0,0.7,0.7272727272727273,0.6666666666666666,0.6956521739130435,2.495504506
16.0,32.0,0.9,0.7727272727272727,0.68,0.7234042553191491,2.493743696
16.0,32.0,0.5,0.7272727272727273,0.6666666666666666,0.6956521739130435,2.466805218
32.0,1.0,0.1,0.5909090909090909,0.7647058823529411,0.6666666666666667,2.481349845
32.0,1.0,0.7,0.5909090909090909,0.7647058823529411,0.6666666666666667,2.52182821
32.0,1.0,0.3,0.5909090909090909,0.7647058823529411,0.6666666666666667,2.513530177
32.0,1.0,0.9,0.5909090909090909,0.7647058823529411,0.6666666666666667,2.514383601
32.0,1.0,0.5,0.5909090909090909,0.7647058823529411,0.6666666666666667,2.503819144
32.0,2.0,0.1,0.5909090909090909,0.7222222222222222,0.65,2.49903292
32.0,2.0,0.9,0.6363636363636364,0.7,0.6666666666666666,2.476582702
32.0,2.0,0.5,0.5909090909090909,0.7222222222222222,0.65,2.458982187
32.0,2.0,0.7,0.5909090909090909,0.7222222222222222,0.65,2.519414293
32.0,2.0,0.3,0.5909090909090909,0.7222222222222222,0.65,2.493228407
32.0,2.0,,0.0,NaN,NaN,2.47161299
32.0,4.0,0.5,0.5909090909090909,0.7222222222222222,0.65,2.500634726
32.0,4.0,0.3,0.5909090909090909,0.7222222222222222,0.65,2.476279939
32.0,4.0,0.1,0.5909090909090909,0.7222222222222222,0.65,2.47844319
32.0,4.0,0.7,0.7272727272727273,0.7272727272727273,0.7272727272727273,2.469501419
32.0,4.0,0.9,0.7272727272727273,0.7272727272727273,0.7272727272727273,2.896834112
32.0,8.0,0.1,0.5909090909090909,0.65,0.6190476190476191,2.47037959
32.0,4.0,,0.0,NaN,NaN,2.447876459
16.0,2.0,0.1,0.5909090909090909,0.7222222222222222,0.65,2.909993223
32.0,8.0,0.7,0.7272727272727273,0.6666666666666666,0.6956521739130435,2.495188001
32.0,8.0,,0.0,NaN,NaN,2.425404933
32.0,8.0,0.3,0.6363636363636364,0.6363636363636364,0.6363636363636364,2.550208336
32.0,8.0,0.5,0.7272727272727273,0.6666666666666666,0.6956521739130435,2.849807423
32.0,8.0,0.9,0.7272727272727273,0.6666666666666666,0.6956521739130435,2.530603682
32.0,16.0,,0.0,NaN,NaN,2.508142459
32.0,16.0,0.1,0.5909090909090909,0.65,0.6190476190476191,2.504742421
32.0,16.0,0.3,0.7272727272727273,0.6666666666666666,0.6956521739130435,2.431938489
16.0,2.0,0.3,0.5909090909090909,0.7222222222222222,0.65,2.786207662
32.0,16.0,0.7,0.7272727272727273,0.6666666666666666,0.6956521739130435,3.171992545
32.0,16.0,0.9,0.7272727272727273,0.6666666666666666,0.6956521739130435,2.452429314
32.0,16.0,0.5,0.7272727272727273,0.6666666666666666,0.6956521739130435,3.139927703
32.0,32.0,0.7,0.7272727272727273,0.6666666666666666,0.6956521739130435,2.502841275
32.0,32.0,0.1,0.7272727272727273,0.6666666666666666,0.6956521739130435,3.202165169
32.0,32.0,0.5,0.7272727272727273,0.6666666666666666,0.6956521739130435,2.539771868
32.0,32.0,0.9,0.7272727272727273,0.6666666666666666,0.6956521739130435,2.57892655
32.0,32.0,0.3,0.7272727272727273,0.6666666666666666,0.6956521739130435,2.512532609
32.0,32.0,,0.0,NaN,NaN,3.114873884
16.0,2.0,0.5,0.6363636363636364,0.7,0.6666666666666666,2.8365011
16.0,2.0,0.7,0.7272727272727273,0.7272727272727273,0.7272727272727273,2.956720628
16.0,2.0,0.9,0.7272727272727273,0.7272727272727273,0.7272727272727273,2.956481324
16.0,4.0,0.1,0.5909090909090909,0.7222222222222222,0.65,2.849045121
16.0,4.0,0.3,0.6363636363636364,0.7,0.6666666666666666,2.795932114
16.0,4.0,0.5,0.7272727272727273,0.7272727272727273,0.7272727272727273,2.801578675
16.0,4.0,0.7,0.7272727272727273,0.7272727272727273,0.7272727272727273,2.813938559
16.0,8.0,0.5,0.7272727272727273,0.6666666666666666,0.6956521739130435,2.807504638
16.0,8.0,0.7,0.7272727272727273,0.6666666666666666,0.6956521739130435,2.847034058
16.0,16.0,0.1,0.7272727272727273,0.6666666666666666,0.6956521739130435,2.688302463
16.0,16.0,0.9,0.7272727272727273,0.6666666666666666,0.6956521739130435,2.530435513
1.0,2.0,0.5,1.0,1.0,1.0,3.426292718
1.0,4.0,0.1,1.0,1.0,1.0,3.226638266
1.0,4.0,,0.0,NaN,NaN,2.932123334
1.0,1.0,0.1,0.9545454545454546,1.0,0.9767441860465117,2.582499517
1.0,1.0,0.3,0.9545454545454546,1.0,0.9767441860465117,2.763990968
1.0,8.0,,0.0,NaN,NaN,3.455214068
1.0,16.0,0.7,1.0,0.88,0.9361702127659575,2.992585072
1.0,32.0,0.3,1.0,0.88,0.9361702127659575,2.92344405
1.0,1.0,,0.0,NaN,NaN,2.98114702
1.0,4.0,0.5,1.0,1.0,1.0,3.655626507
1.0,2.0,0.9,1.0,1.0,1.0,3.463958802
1.0,32.0,,0.0,NaN,NaN,2.809147145
1.0,1.0,0.9,0.9545454545454546,1.0,0.9767441860465117,2.724275195
1.0,8.0,0.1,1.0,0.9166666666666666,0.9565217391304348,3.386514015
2.0,1.0,,0.0,NaN,NaN,2.864634843
1.0,1.0,0.5,0.9545454545454546,1.0,0.9767441860465117,2.681845168
1.0,2.0,,0.0,NaN,NaN,2.979168856
1.0,2.0,0.1,1.0,1.0,1.0,3.438869214
1.0,1.0,0.7,0.9545454545454546,1.0,0.9767441860465117,2.797405754
1.0,4.0,0.9,1.0,1.0,1.0,2.961983215
1.0,4.0,0.7,1.0,1.0,1.0,2.955498464
1.0,8.0,0.3,1.0,0.9166666666666666,0.9565217391304348,3.122612073
1.0,8.0,0.7,1.0,0.9166666666666666,0.9565217391304348,2.987535399
1.0,16.0,,0.0,NaN,NaN,3.006686202
1.0,8.0,0.5,1.0,0.9166666666666666,0.9565217391304348,3.376492229
1.0,2.0,0.7,1.0,1.0,1.0,2.999643144
1.0,4.0,0.3,1.0,1.0,1.0,3.119408489
1.0,32.0,0.9,1.0,0.88,0.9361702127659575,3.120422586
1.0,16.0,0.3,1.0,0.88,0.9361702127659575,3.117318798
2.0,2.0,0.5,1.0,1.0,1.0,2.803729909
2.0,1.0,0.9,0.9545454545454546,1.0,0.9767441860465117,3.069609565
1.0,16.0,0.1,1.0,0.88,0.9361702127659575,2.928354056
2.0,1.0,0.7,0.9545454545454546,1.0,0.9767441860465117,2.87663548
1.0,2.0,0.3,1.0,1.0,1.0,3.110535012
1.0,8.0,0.9,1.0,0.9166666666666666,0.9565217391304348,2.987627376
1.0,16.0,0.5,1.0,0.88,0.9361702127659575,2.836071398
1.0,32.0,0.1,1.0,0.88,0.9361702127659575,2.789046988
2.0,1.0,0.1,0.9545454545454546,1.0,0.9767441860465117,3.119857047
1.0,16.0,0.9,1.0,0.88,0.9361702127659575,3.3304325
1.0,32.0,0.5,1.0,0.88,0.9361702127659575,2.91239074
1.0,32.0,0.7,1.0,0.88,0.9361702127659575,2.975068413
2.0,1.0,0.3,0.9545454545454546,1.0,0.9767441860465117,3.329943122
2.0,1.0,0.5,0.9545454545454546,1.0,0.9767441860465117,2.998539827
2.0,2.0,0.1,1.0,1.0,1.0,2.974435506
2.0,2.0,0.9,1.0,1.0,1.0,2.844686526
2.0,2.0,,0.0,NaN,NaN,2.854525041
2.0,2.0,0.3,1.0,1.0,1.0,2.838518429
2.0,2.0,0.7,1.0,1.0,1.0,2.870917105
2.0,16.0,0.1,1.0,0.88,0.9361702127659575,2.692943541
2.0,16.0,,0.0,NaN,NaN,2.704646674
2.0,32.0,,0.0,NaN,NaN,2.790485366
4.0,2.0,0.3,1.0,1.0,1.0,2.585028836
4.0,4.0,0.1,1.0,1.0,1.0,2.465705118
4.0,4.0,,0.0,NaN,NaN,2.466038862
2.0,4.0,0.1,1.0,1.0,1.0,2.837731143
4.0,2.0,0.1,1.0,1.0,1.0,2.599222821
4.0,1.0,,0.0,NaN,NaN,2.584430867
2.0,32.0,0.1,1.0,0.88,0.9361702127659575,2.74724295
4.0,2.0,,0.0,NaN,NaN,2.468359804
4.0,1.0,0.5,0.9545454545454546,1.0,0.9767441860465117,2.759503992
2.0,4.0,0.3,1.0,1.0,1.0,2.907789847
4.0,2.0,0.5,1.0,1.0,1.0,2.429670994
4.0,1.0,0.7,0.9545454545454546,1.0,0.9767441860465117,2.695714952
4.0,2.0,0.9,1.0,1.0,1.0,2.493264873
4.0,2.0,0.7,1.0,1.0,1.0,2.488889613
2.0,32.0,0.7,1.0,0.88,0.9361702127659575,2.813253392
2.0,32.0,0.3,1.0,0.88,0.9361702127659575,2.762453062
4.0,4.0,0.3,1.0,1.0,1.0,2.485889746
2.0,4.0,0.5,1.0,1.0,1.0,2.802684209
4.0,4.0,0.5,1.0,1.0,1.0,2.49507681
4.0,4.0,0.7,1.0,1.0,1.0,2.445848321
4.0,8.0,0.9,1.0,0.9166666666666666,0.9565217391304348,2.484385675
4.0,4.0,0.9,1.0,1.0,1.0,2.501809867
4.0,8.0,0.1,1.0,0.9166666666666666,0.9565217391304348,2.506728894
4.0,8.0,0.7,1.0,0.9166666666666666,0.9565217391304348,2.4792279
4.0,8.0,0.5,1.0,0.9166666666666666,0.9565217391304348,2.485256736
4.0,16.0,0.5,1.0,0.88,0.9361702127659575,3.852005354
4.0,8.0,0.3,1.0,0.9166666666666666,0.9565217391304348,2.475541728
4.0,8.0,,0.0,NaN,NaN,2.473452944
2.0,4.0,0.7,1.0,1.0,1.0,2.776621704
4.0,16.0,0.1,1.0,0.88,0.9361702127659575,2.46662871
4.0,32.0,0.1,1.0,0.88,0.9361702127659575,3.119770641
4.0,16.0,0.9,1.0,0.88,0.9361702127659575,3.630372651
4.0,16.0,,0.0,NaN,NaN,3.482842214
4.0,16.0,0.3,1.0,0.88,0.9361702127659575,2.481607183
4.0,16.0,0.7,1.0,0.88,0.9361702127659575,3.365925239
2.0,4.0,0.9,1.0,1.0,1.0,2.752422939
4.0,32.0,0.7,1.0,0.88,0.9361702127659575,3.750157519
4.0,32.0,0.5,1.0,0.88,0.9361702127659575,3.002654464
4.0,32.0,,0.0,NaN,NaN,3.757810828
4.0,32.0,0.3,1.0,0.88,0.9361702127659575,3.180484094
8.0,1.0,0.1,0.7727272727272727,1.0,0.8717948717948718,2.904683717
2.0,4.0,,0.0,NaN,NaN,2.900736817
8.0,1.0,0.3,0.7727272727272727,1.0,0.8717948717948718,3.592083616
4.0,32.0,0.9,1.0,0.88,0.9361702127659575,2.956314739
8.0,1.0,,0.0,NaN,NaN,2.990647526
8.0,1.0,0.9,0.9545454545454546,1.0,0.9767441860465117,2.762885963
8.0,1.0,0.5,0.9545454545454546,1.0,0.9767441860465117,3.449499259
8.0,1.0,0.7,0.9545454545454546,1.0,0.9767441860465117,2.8966564
8.0,2.0,0.7,1.0,1.0,1.0,2.763035569
8.0,2.0,,0.0,NaN,NaN,2.951717094
8.0,2.0,0.5,1.0,1.0,1.0,2.879148645
8.0,2.0,0.1,0.8181818181818182,1.0,0.9,2.817937561
8.0,2.0,0.3,1.0,1.0,1.0,2.823217215
8.0,2.0,0.9,1.0,1.0,1.0,3.578761474
8.0,4.0,0.3,1.0,1.0,1.0,2.987684175
8.0,4.0,0.1,0.8181818181818182,1.0,0.9,2.917610852
8.0,4.0,,0.0,NaN,NaN,2.942984799
8.0,4.0,0.9,1.0,1.0,1.0,2.825527468
8.0,4.0,0.5,1.0,1.0,1.0,2.864378124
8.0,8.0,0.5,1.0,0.9166666666666666,0.9565217391304348,3.212574966
8.0,8.0,0.7,1.0,0.9166666666666666,0.9565217391304348,2.752575169
8.0,8.0,,0.0,NaN,NaN,3.414345831
8.0,8.0,0.1,1.0,0.9166666666666666,0.9565217391304348,2.817240707
8.0,4.0,0.7,1.0,1.0,1.0,2.755160566
8.0,16.0,0.1,1.0,0.9166666666666666,0.9565217391304348,2.921505956
8.0,8.0,0.3,1.0,0.9166666666666666,0.9565217391304348,2.960959037
8.0,16.0,0.7,1.0,0.9166666666666666,0.9565217391304348,2.916006211
8.0,16.0,,0.0,NaN,NaN,3.043682881
8.0,32.0,0.3,1.0,0.9166666666666666,0.9565217391304348,2.682082923
8.0,16.0,0.3,1.0,0.9166666666666666,0.9565217391304348,3.576211111
8.0,16.0,0.9,1.0,0.9166666666666666,0.9565217391304348,2.707610119
2.0,8.0,0.1,1.0,0.9166666666666666,0.9565217391304348,2.755403062
8.0,32.0,0.5,1.0,0.9166666666666666,0.9565217391304348,3.040568338
2.0,8.0,0.3,1.0,0.9166666666666666,0.9565217391304348,2.913948722
8.0,32.0,0.7,1.0,0.9166666666666666,0.9565217391304348,2.807871789
8.0,16.0,0.5,1.0,0.9166666666666666,0.9565217391304348,2.918703761
8.0,32.0,,0.0,NaN,NaN,2.995633626
8.0,32.0,0.9,1.0,0.88,0.9361702127659575,3.579246953
8.0,8.0,0.9,1.0,0.9166666666666666,0.9565217391304348,2.895490937
2.0,8.0,0.5,1.0,0.9166666666666666,0.9565217391304348,2.943046699
2.0,8.0,0.7,1.0,0.9166666666666666,0.9565217391304348,2.869531064
8.0,32.0,0.1,1.0,0.9166666666666666,0.9565217391304348,2.741626249
2.0,8.0,0.9,1.0,0.9166666666666666,0.9565217391304348,2.769921751
2.0,8.0,,0.0,NaN,NaN,2.847291933
2.0,16.0,0.3,1.0,0.88,0.9361702127659575,2.670710365
2.0,16.0,0.7,1.0,0.88,0.9361702127659575,2.877229591
2.0,16.0,0.5,1.0,0.88,0.9361702127659575,2.730216804
4.0,1.0,0.3,0.9545454545454546,1.0,0.9767441860465117,2.707313232
4.0,1.0,0.1,0.9545454545454546,1.0,0.9767441860465117,2.733329871
4.0,1.0,0.9,0.9545454545454546,1.0,0.9767441860465117,2.706721065
2.0,32.0,0.5,1.0,0.88,0.9361702127659575,2.759131637
2.0,32.0,0.9,1.0,0.88,0.9361702127659575,2.666555984
2.0,16.0,0.9,1.0,0.88,0.9361702127659575,2.783563574
16.0,1.0,0.1,0.7727272727272727,1.0,0.8717948717948718,3.069455886
16.0,2.0,,0.0,NaN,NaN,2.772821139
16.0,1.0,0.3,0.7727272727272727,1.0,0.8717948717948718,2.99631768
16.0,1.0,0.5,0.7727272727272727,1.0,0.8717948717948718,2.823559241
16.0,4.0,,0.0,NaN,NaN,2.785795046
16.0,8.0,,0.0,NaN,NaN,2.880264975
16.0,32.0,0.1,1.0,0.9166666666666666,0.9565217391304348,2.539461197
16.0,32.0,,0.0,NaN,NaN,2.514324761
32.0,1.0,,0.0,NaN,NaN,2.48323696
16.0,4.0,0.9,1.0,1.0,1.0,2.721650256
16.0,1.0,0.7,0.8636363636363636,1.0,0.9268292682926829,2.850945292
16.0,8.0,0.1,0.8181818181818182,0.9,0.8571428571428572,2.77853765
16.0,8.0,0.3,1.0,0.9166666666666666,0.9565217391304348,2.732581543
16.0,16.0,0.5,1.0,0.9166666666666666,0.9565217391304348,2.807794872
16.0,8.0,0.9,1.0,0.9166666666666666,0.9565217391304348,2.743944414
16.0,16.0,0.3,1.0,0.9166666666666666,0.9565217391304348,2.597420168
16.0,16.0,0.7,1.0,0.9166666666666666,0.9565217391304348,2.686786259
16.0,1.0,0.9,0.9545454545454546,1.0,0.9767441860465117,2.909163979
16.0,16.0,,0.0,NaN,NaN,2.692123979
16.0,32.0,0.3,1.0,0.9166666666666666,0.9565217391304348,2.485460856
16.0,1.0,,0.0,NaN,NaN,2.890646046
16.0,32.0,0.7,1.0,0.9166666666666666,0.9565217391304348,2.495504506
16.0,32.0,0.9,1.0,0.88,0.9361702127659575,2.493743696
16.0,32.0,0.5,1.0,0.9166666666666666,0.9565217391304348,2.466805218
32.0,1.0,0.1,0.7727272727272727,1.0,0.8717948717948718,2.481349845
32.0,1.0,0.7,0.7727272727272727,1.0,0.8717948717948718,2.52182821
32.0,1.0,0.3,0.7727272727272727,1.0,0.8717948717948718,2.513530177
32.0,1.0,0.9,0.7727272727272727,1.0,0.8717948717948718,2.514383601
32.0,1.0,0.5,0.7727272727272727,1.0,0.8717948717948718,2.503819144
32.0,2.0,0.1,0.8181818181818182,1.0,0.9,2.49903292
32.0,2.0,0.9,0.9090909090909091,1.0,0.9523809523809523,2.476582702
32.0,2.0,0.5,0.8181818181818182,1.0,0.9,2.458982187
32.0,2.0,0.7,0.8181818181818182,1.0,0.9,2.519414293
32.0,2.0,0.3,0.8181818181818182,1.0,0.9,2.493228407
32.0,2.0,,0.0,NaN,NaN,2.47161299
32.0,4.0,0.5,0.8181818181818182,1.0,0.9,2.500634726
32.0,4.0,0.3,0.8181818181818182,1.0,0.9,2.476279939
32.0,4.0,0.1,0.8181818181818182,1.0,0.9,2.47844319
32.0,4.0,0.7,1.0,1.0,1.0,2.469501419
32.0,4.0,0.9,1.0,1.0,1.0,2.896834112
32.0,8.0,0.1,0.8181818181818182,0.9,0.8571428571428572,2.47037959
32.0,4.0,,0.0,NaN,NaN,2.447876459
16.0,2.0,0.1,0.8181818181818182,1.0,0.9,2.909993223
32.0,8.0,0.7,1.0,0.9166666666666666,0.9565217391304348,2.495188001
32.0,8.0,,0.0,NaN,NaN,2.425404933
32.0,8.0,0.3,0.9090909090909091,0.9090909090909091,0.9090909090909091,2.550208336
32.0,8.0,0.5,1.0,0.9166666666666666,0.9565217391304348,2.849807423
32.0,8.0,0.9,1.0,0.9166666666666666,0.9565217391304348,2.530603682
32.0,16.0,,0.0,NaN,NaN,2.508142459
32.0,16.0,0.1,0.8181818181818182,0.9,0.8571428571428572,2.504742421
32.0,16.0,0.3,1.0,0.9166666666666666,0.9565217391304348,2.431938489
16.0,2.0,0.3,0.8181818181818182,1.0,0.9,2.786207662
32.0,16.0,0.7,1.0,0.9166666666666666,0.9565217391304348,3.171992545
32.0,16.0,0.9,1.0,0.9166666666666666,0.9565217391304348,2.452429314
32.0,16.0,0.5,1.0,0.9166666666666666,0.9565217391304348,3.139927703
32.0,32.0,0.7,1.0,0.9166666666666666,0.9565217391304348,2.502841275
32.0,32.0,0.1,1.0,0.9166666666666666,0.9565217391304348,3.202165169
32.0,32.0,0.5,1.0,0.9166666666666666,0.9565217391304348,2.539771868
32.0,32.0,0.9,1.0,0.9166666666666666,0.9565217391304348,2.57892655
32.0,32.0,0.3,1.0,0.9166666666666666,0.9565217391304348,2.512532609
32.0,32.0,,0.0,NaN,NaN,3.114873884
16.0,2.0,0.5,0.9090909090909091,1.0,0.9523809523809523,2.8365011
16.0,2.0,0.7,1.0,1.0,1.0,2.956720628
16.0,2.0,0.9,1.0,1.0,1.0,2.956481324
16.0,4.0,0.1,0.8181818181818182,1.0,0.9,2.849045121
16.0,4.0,0.3,0.9090909090909091,1.0,0.9523809523809523,2.795932114
16.0,4.0,0.5,1.0,1.0,1.0,2.801578675
16.0,4.0,0.7,1.0,1.0,1.0,2.813938559
16.0,8.0,0.5,1.0,0.9166666666666666,0.9565217391304348,2.807504638
16.0,8.0,0.7,1.0,0.9166666666666666,0.9565217391304348,2.847034058
16.0,16.0,0.1,1.0,0.9166666666666666,0.9565217391304348,2.688302463
16.0,16.0,0.9,1.0,0.9166666666666666,0.9565217391304348,2.530435513
