gamma_s,gamma_h,alpha,sencitivity,ppv,fmeasure,time
1.0,1.0,0.7,0.7272727272727273,1.0,0.8421052631578948,4.448892701
1.0,1.0,0.9,0.7272727272727273,1.0,0.8421052631578948,4.453706787
1.0,1.0,,0.0,NaN,NaN,4.449306028
1.0,1.0,0.5,0.7272727272727273,1.0,0.8421052631578948,4.460903677
1.0,1.0,0.1,0.7272727272727273,1.0,0.8421052631578948,4.458143385
1.0,1.0,0.3,0.7272727272727273,1.0,0.8421052631578948,4.444031824
1.0,2.0,0.1,0.7272727272727273,0.8888888888888888,0.7999999999999999,4.428469307
1.0,8.0,0.7,1.0,0.9166666666666666,0.9565217391304348,4.470347468
1.0,8.0,,0.0,NaN,NaN,4.47110808
1.0,16.0,0.3,1.0,0.9166666666666666,0.9565217391304348,4.511515525
1.0,8.0,0.9,1.0,0.9166666666666666,0.9565217391304348,4.449521678
1.0,16.0,0.7,1.0,0.9166666666666666,0.9565217391304348,4.510468829
1.0,16.0,0.1,1.0,0.9166666666666666,0.9565217391304348,4.452100848
1.0,16.0,0.5,1.0,0.9166666666666666,0.9565217391304348,4.497073267
1.0,2.0,0.5,0.7272727272727273,0.8888888888888888,0.7999999999999999,4.674712966
1.0,2.0,0.3,0.7272727272727273,0.8888888888888888,0.7999999999999999,4.693442017
1.0,2.0,0.7,0.7272727272727273,0.8888888888888888,0.7999999999999999,4.708600414
1.0,2.0,0.9,0.7272727272727273,0.8888888888888888,0.7999999999999999,4.729711349
1.0,2.0,,0.0,NaN,NaN,4.663436127
1.0,4.0,0.1,1.0,0.9166666666666666,0.9565217391304348,4.666996154
1.0,4.0,0.3,1.0,0.9166666666666666,0.9565217391304348,4.647774031
1.0,4.0,0.5,1.0,0.9166666666666666,0.9565217391304348,4.657131522
1.0,4.0,0.7,1.0,0.9166666666666666,0.9565217391304348,4.667229818
1.0,4.0,0.9,1.0,0.9166666666666666,0.9565217391304348,4.642930505
1.0,4.0,,0.0,NaN,NaN,4.636759832
1.0,8.0,0.1,1.0,0.9166666666666666,0.9565217391304348,4.662322137
1.0,8.0,0.3,1.0,0.9166666666666666,0.9565217391304348,4.716755721
1.0,8.0,0.5,1.0,0.9166666666666666,0.9565217391304348,4.626676235
1.0,16.0,,0.0,NaN,NaN,4.648128898
1.0,32.0,,0.0,NaN,NaN,4.831417009
1.0,32.0,0.3,1.0,0.9166666666666666,0.9565217391304348,6.120932309
2.0,1.0,0.5,0.7272727272727273,1.0,0.8421052631578948,4.977188158
2.0,2.0,0.3,0.7272727272727273,0.8888888888888888,0.7999999999999999,4.953243206
2.0,4.0,0.7,1.0,0.9166666666666666,0.9565217391304348,6.088029257
2.0,2.0,0.1,0.7272727272727273,0.8888888888888888,0.7999999999999999,4.507428662
2.0,1.0,0.9,0.7272727272727273,1.0,0.8421052631578948,4.573184731
1.0,16.0,0.9,1.0,0.9166666666666666,0.9565217391304348,4.916548212
2.0,1.0,,0.0,NaN,NaN,4.691517858
2.0,2.0,,0.0,NaN,NaN,4.590372376
2.0,2.0,0.7,0.7272727272727273,0.8888888888888888,0.7999999999999999,4.555753897
2.0,2.0,0.9,0.7272727272727273,0.8888888888888888,0.7999999999999999,4.62655894
2.0,4.0,,0.0,NaN,NaN,4.705777713
2.0,4.0,0.5,1.0,0.9166666666666666,0.9565217391304348,4.610076985
2.0,4.0,0.3,1.0,0.9166666666666666,0.9565217391304348,4.59732803
2.0,8.0,,0.0,NaN,NaN,4.536607048
2.0,8.0,0.5,1.0,0.9166666666666666,0.9565217391304348,4.551574295
2.0,8.0,0.1,1.0,0.9166666666666666,0.9565217391304348,4.592264736
2.0,8.0,0.9,1.0,0.9166666666666666,0.9565217391304348,4.590710234
2.0,16.0,0.1,1.0,0.9166666666666666,0.9565217391304348,4.583361747
2.0,16.0,0.9,1.0,0.9166666666666666,0.9565217391304348,4.582760496
2.0,32.0,0.1,1.0,0.9166666666666666,0.9565217391304348,4.61656995
2.0,16.0,,0.0,NaN,NaN,4.584691431
2.0,16.0,0.5,1.0,0.9166666666666666,0.9565217391304348,4.801990422
2.0,32.0,0.5,1.0,0.9166666666666666,0.9565217391304348,4.599059955
2.0,32.0,,0.0,NaN,NaN,4.62974071
4.0,1.0,0.3,0.7272727272727273,1.0,0.8421052631578948,4.601491896
2.0,32.0,0.9,1.0,0.9166666666666666,0.9565217391304348,4.629451236
2.0,32.0,0.3,1.0,0.9166666666666666,0.9565217391304348,4.716575955
4.0,1.0,0.5,0.7272727272727273,1.0,0.8421052631578948,4.609649058
4.0,1.0,0.1,0.7272727272727273,1.0,0.8421052631578948,4.580348154
4.0,1.0,,0.0,NaN,NaN,4.498706765
4.0,1.0,0.7,0.7272727272727273,1.0,0.8421052631578948,4.512241607
4.0,1.0,0.9,0.7272727272727273,1.0,0.8421052631578948,4.580044359
4.0,2.0,0.3,0.7272727272727273,0.8888888888888888,0.7999999999999999,4.523375676
4.0,2.0,0.9,0.7272727272727273,0.8888888888888888,0.7999999999999999,4.515356419
4.0,2.0,0.1,0.7272727272727273,0.8888888888888888,0.7999999999999999,4.518259685
4.0,2.0,,0.0,NaN,NaN,4.532233713
4.0,2.0,0.7,0.7272727272727273,0.8888888888888888,0.7999999999999999,4.555958362
4.0,4.0,0.5,1.0,0.9166666666666666,0.9565217391304348,4.475353029
4.0,2.0,0.5,0.7272727272727273,0.8888888888888888,0.7999999999999999,4.524336538
4.0,4.0,,0.0,NaN,NaN,4.467872952
4.0,8.0,0.1,1.0,0.9166666666666666,0.9565217391304348,4.540533031
4.0,4.0,0.3,1.0,0.9166666666666666,0.9565217391304348,4.633077775
4.0,4.0,0.1,1.0,0.9166666666666666,0.9565217391304348,4.661342685
4.0,4.0,0.9,1.0,0.9166666666666666,0.9565217391304348,4.665317688
4.0,8.0,,0.0,NaN,NaN,4.665618928
4.0,4.0,0.7,1.0,0.9166666666666666,0.9565217391304348,4.761936839
4.0,8.0,0.9,1.0,0.9166666666666666,0.9565217391304348,4.635618226
4.0,8.0,0.5,1.0,0.9166666666666666,0.9565217391304348,4.539201768
4.0,8.0,0.7,1.0,0.9166666666666666,0.9565217391304348,4.574848876
4.0,16.0,0.5,1.0,0.9166666666666666,0.9565217391304348,4.58422348
4.0,8.0,0.3,1.0,0.9166666666666666,0.9565217391304348,4.562928667
4.0,16.0,0.1,1.0,0.9166666666666666,0.9565217391304348,4.43367079
4.0,16.0,0.3,1.0,0.9166666666666666,0.9565217391304348,4.437032127
4.0,16.0,0.9,1.0,0.9166666666666666,0.9565217391304348,4.432650202
4.0,16.0,,0.0,NaN,NaN,4.428069893
4.0,16.0,0.7,1.0,0.9166666666666666,0.9565217391304348,4.418569093
1.0,32.0,0.1,1.0,0.9166666666666666,0.9565217391304348,5.22387541
1.0,32.0,0.5,1.0,0.9166666666666666,0.9565217391304348,5.234719834
1.0,32.0,0.9,1.0,0.9166666666666666,0.9565217391304348,4.842008122
4.0,32.0,,0.0,NaN,NaN,4.425826045
4.0,32.0,0.5,1.0,0.9166666666666666,0.9565217391304348,4.413307331
1.0,32.0,0.7,1.0,0.9166666666666666,0.9565217391304348,4.762318095
4.0,32.0,0.3,1.0,0.9166666666666666,0.9565217391304348,4.338047101
4.0,32.0,0.7,1.0,0.9166666666666666,0.9565217391304348,4.357067757
4.0,32.0,0.9,1.0,0.9166666666666666,0.9565217391304348,4.404403132
8.0,1.0,0.7,0.7272727272727273,1.0,0.8421052631578948,4.345870637
4.0,32.0,0.1,1.0,0.9166666666666666,0.9565217391304348,4.367097163
8.0,1.0,0.3,0.7272727272727273,1.0,0.8421052631578948,4.369202183
8.0,1.0,0.9,0.7272727272727273,1.0,0.8421052631578948,4.385597952
8.0,1.0,0.1,0.7272727272727273,1.0,0.8421052631578948,4.406591214
8.0,1.0,0.5,0.7272727272727273,1.0,0.8421052631578948,4.394453598
8.0,1.0,,0.0,NaN,NaN,4.35566957
8.0,2.0,0.3,0.7272727272727273,0.8888888888888888,0.7999999999999999,4.306365349
8.0,2.0,0.7,0.7272727272727273,0.8888888888888888,0.7999999999999999,4.363349625
8.0,2.0,0.9,0.7272727272727273,0.8888888888888888,0.7999999999999999,4.323647813
8.0,2.0,0.5,0.7272727272727273,0.8888888888888888,0.7999999999999999,4.368691522
8.0,2.0,,0.0,NaN,NaN,4.283517181
8.0,4.0,0.1,1.0,0.9166666666666666,0.9565217391304348,4.354655928
2.0,1.0,0.1,0.7272727272727273,1.0,0.8421052631578948,4.861272891
8.0,2.0,0.1,0.7272727272727273,0.8888888888888888,0.7999999999999999,4.380441068
2.0,1.0,0.7,0.7272727272727273,1.0,0.8421052631578948,4.647790443
8.0,4.0,0.5,1.0,0.9166666666666666,0.9565217391304348,4.322836394
8.0,4.0,0.3,1.0,0.9166666666666666,0.9565217391304348,4.317996986
2.0,1.0,0.3,0.7272727272727273,1.0,0.8421052631578948,4.66163584
2.0,2.0,0.5,0.7272727272727273,0.8888888888888888,0.7999999999999999,4.599350391
2.0,4.0,0.1,1.0,0.9166666666666666,0.9565217391304348,4.605882741
2.0,4.0,0.9,1.0,0.9166666666666666,0.9565217391304348,4.682659636
2.0,8.0,0.3,1.0,0.9166666666666666,0.9565217391304348,4.659682516
2.0,8.0,0.7,1.0,0.9166666666666666,0.9565217391304348,4.690526238
2.0,16.0,0.3,1.0,0.9166666666666666,0.9565217391304348,4.526636516
2.0,16.0,0.7,1.0,0.9166666666666666,0.9565217391304348,4.574329058
2.0,32.0,0.7,1.0,0.9166666666666666,0.9565217391304348,4.557280814
8.0,4.0,0.9,1.0,0.9166666666666666,0.9565217391304348,5.103773105
8.0,8.0,0.1,1.0,0.9166666666666666,0.9565217391304348,5.05374955
8.0,8.0,,0.0,NaN,NaN,4.696086949
8.0,16.0,0.3,1.0,0.9166666666666666,0.9565217391304348,5.072738974
8.0,32.0,0.1,1.0,0.9166666666666666,0.9565217391304348,6.12150735
16.0,1.0,0.5,0.7272727272727273,1.0,0.8421052631578948,5.025784966
8.0,16.0,,0.0,NaN,NaN,4.49905091
8.0,4.0,,0.0,NaN,NaN,5.288802219
8.0,4.0,0.7,1.0,0.9166666666666666,0.9565217391304348,4.786820613
8.0,16.0,0.7,1.0,0.9166666666666666,0.9565217391304348,4.630510422
8.0,32.0,0.5,1.0,0.9166666666666666,0.9565217391304348,4.697825671
16.0,1.0,0.1,0.7272727272727273,1.0,0.8421052631578948,4.62575132
16.0,1.0,0.9,0.7272727272727273,1.0,0.8421052631578948,4.579653121
8.0,32.0,,0.0,NaN,NaN,4.5124217
8.0,32.0,0.7,1.0,0.9166666666666666,0.9565217391304348,4.498701726
16.0,1.0,0.3,0.7272727272727273,1.0,0.8421052631578948,4.569260354
16.0,1.0,,0.0,NaN,NaN,4.621431586
16.0,2.0,0.9,0.7272727272727273,0.8888888888888888,0.7999999999999999,4.592538865
16.0,2.0,0.7,0.7272727272727273,0.8888888888888888,0.7999999999999999,4.524803892
16.0,2.0,0.3,0.7272727272727273,0.8888888888888888,0.7999999999999999,4.672838605
16.0,2.0,,0.0,NaN,NaN,4.515218207
16.0,4.0,0.3,1.0,0.9166666666666666,0.9565217391304348,4.548674247
16.0,4.0,,0.0,NaN,NaN,4.554065649
16.0,4.0,0.7,1.0,0.9166666666666666,0.9565217391304348,4.571280877
16.0,8.0,,0.0,NaN,NaN,4.550873494
16.0,8.0,0.1,1.0,0.9166666666666666,0.9565217391304348,4.587416709
16.0,8.0,0.9,1.0,0.9166666666666666,0.9565217391304348,4.577498729
16.0,16.0,0.9,1.0,0.9166666666666666,0.9565217391304348,4.584703075
16.0,8.0,0.3,1.0,0.9166666666666666,0.9565217391304348,4.539174685
16.0,8.0,0.7,1.0,0.9166666666666666,0.9565217391304348,4.53956166
16.0,16.0,0.1,1.0,0.9166666666666666,0.9565217391304348,4.612171761
16.0,16.0,0.7,1.0,0.9166666666666666,0.9565217391304348,4.573939204
16.0,16.0,,0.0,NaN,NaN,4.535805079
16.0,16.0,0.3,1.0,0.9166666666666666,0.9565217391304348,4.572719328
16.0,16.0,0.5,1.0,0.9166666666666666,0.9565217391304348,4.510869845
8.0,8.0,0.3,1.0,0.9166666666666666,0.9565217391304348,4.55583613
8.0,8.0,0.5,1.0,0.9166666666666666,0.9565217391304348,5.061421516
8.0,8.0,0.7,1.0,0.9166666666666666,0.9565217391304348,4.47249873
16.0,32.0,0.1,1.0,0.9166666666666666,0.9565217391304348,4.649653368
16.0,32.0,0.7,1.0,0.9166666666666666,0.9565217391304348,4.519483164
16.0,32.0,0.5,1.0,0.9166666666666666,0.9565217391304348,4.493746199
16.0,32.0,0.3,1.0,0.9166666666666666,0.9565217391304348,4.644064377
16.0,32.0,,0.0,NaN,NaN,4.598049686
16.0,32.0,0.9,1.0,0.9166666666666666,0.9565217391304348,4.593759901
32.0,1.0,0.1,0.6363636363636364,1.0,0.7777777777777778,4.579340068
32.0,1.0,,0.0,NaN,NaN,4.572224552
32.0,1.0,0.3,0.6363636363636364,1.0,0.7777777777777778,4.651452045
32.0,1.0,0.5,0.6363636363636364,1.0,0.7777777777777778,4.68627484
32.0,1.0,0.9,0.7272727272727273,1.0,0.8421052631578948,4.681107239
32.0,1.0,0.7,0.6363636363636364,1.0,0.7777777777777778,4.603740209
32.0,2.0,0.7,0.7272727272727273,0.8888888888888888,0.7999999999999999,4.610690346
32.0,2.0,0.5,0.7272727272727273,0.8888888888888888,0.7999999999999999,4.438577878
32.0,2.0,0.1,0.6363636363636364,0.9333333333333333,0.7567567567567568,4.474446191
32.0,2.0,,0.0,NaN,NaN,4.55027915
32.0,2.0,0.9,0.7272727272727273,0.8888888888888888,0.7999999999999999,4.447608319
8.0,8.0,0.9,1.0,0.9166666666666666,0.9565217391304348,4.80268163
32.0,2.0,0.3,0.6363636363636364,0.9333333333333333,0.7567567567567568,4.595991614
32.0,4.0,0.5,1.0,0.9166666666666666,0.9565217391304348,4.485914335
32.0,4.0,0.7,1.0,0.9166666666666666,0.9565217391304348,4.483669008
32.0,8.0,0.1,0.9090909090909091,0.9523809523809523,0.9302325581395349,4.456973597
32.0,4.0,0.1,0.9090909090909091,0.9523809523809523,0.9302325581395349,4.491977248
32.0,8.0,0.3,1.0,0.9166666666666666,0.9565217391304348,4.430530541
32.0,4.0,0.9,1.0,0.9166666666666666,0.9565217391304348,4.394578504
32.0,4.0,0.3,1.0,0.9166666666666666,0.9565217391304348,4.440410887
32.0,4.0,,0.0,NaN,NaN,4.397456817
32.0,8.0,0.9,1.0,0.9166666666666666,0.9565217391304348,4.411232904
32.0,8.0,,0.0,NaN,NaN,4.438947899
32.0,8.0,0.5,1.0,0.9166666666666666,0.9565217391304348,4.415664643
32.0,8.0,0.7,1.0,0.9166666666666666,0.9565217391304348,4.417870011
32.0,16.0,0.1,1.0,0.9166666666666666,0.9565217391304348,4.410557574
32.0,16.0,0.5,1.0,0.9166666666666666,0.9565217391304348,4.372981562
32.0,16.0,0.3,1.0,0.9166666666666666,0.9565217391304348,4.422519684
32.0,16.0,0.7,1.0,0.9166666666666666,0.9565217391304348,4.381621157
32.0,16.0,,0.0,NaN,NaN,4.372509686
32.0,16.0,0.9,1.0,0.9166666666666666,0.9565217391304348,4.340036207
32.0,32.0,0.9,1.0,0.9166666666666666,0.9565217391304348,4.279389295
32.0,32.0,0.3,1.0,0.9166666666666666,0.9565217391304348,4.329005591
32.0,32.0,0.7,1.0,0.9166666666666666,0.9565217391304348,4.366967365
32.0,32.0,0.1,1.0,0.9166666666666666,0.9565217391304348,4.346232639
32.0,32.0,,0.0,NaN,NaN,4.383827913
32.0,32.0,0.5,1.0,0.9166666666666666,0.9565217391304348,4.331126812
8.0,16.0,0.1,1.0,0.9166666666666666,0.9565217391304348,4.578067093
8.0,16.0,0.5,1.0,0.9166666666666666,0.9565217391304348,4.638000603
8.0,16.0,0.9,1.0,0.9166666666666666,0.9565217391304348,4.648026284
8.0,32.0,0.3,1.0,0.9166666666666666,0.9565217391304348,4.601987668
8.0,32.0,0.9,1.0,0.9166666666666666,0.9565217391304348,4.68423812
16.0,1.0,0.7,0.7272727272727273,1.0,0.8421052631578948,4.598086036
16.0,2.0,0.1,0.7272727272727273,0.8888888888888888,0.7999999999999999,4.601667411
16.0,2.0,0.5,0.7272727272727273,0.8888888888888888,0.7999999999999999,4.514248035
16.0,4.0,0.1,1.0,0.9166666666666666,0.9565217391304348,4.512055171
16.0,4.0,0.5,1.0,0.9166666666666666,0.9565217391304348,4.422821099
16.0,4.0,0.9,1.0,0.9166666666666666,0.9565217391304348,4.456724976
16.0,8.0,0.5,1.0,0.9166666666666666,0.9565217391304348,4.452058208
