gamma_s,gamma_h,alpha,weight_h,sensitivity,ppv,fmeasure,time
1.0,1.0,0.1,0.3,0.4927536231884058,0.8292682926829268,0.6181818181818182,0.0
1.0,1.0,0.1,0.3,0.4927536231884058,0.8292682926829268,0.6181818181818182,142.862000642
1.0,1.0,0.5,0.3,0.4927536231884058,0.8292682926829268,0.6181818181818182,136.685885335
1.0,1.0,0.3,0.3,0.4927536231884058,0.8292682926829268,0.6181818181818182,139.546906234
1.0,1.0,0.4,0.3,0.4927536231884058,0.8292682926829268,0.6181818181818182,138.985514284
1.0,1.0,0.6,0.3,0.4927536231884058,0.8292682926829268,0.6181818181818182,138.720439353
1.0,1.0,0.2,0.3,0.4927536231884058,0.8292682926829268,0.6181818181818182,138.719885281
1.0,1.0,0.7,0.3,0.4927536231884058,0.8292682926829268,0.6181818181818182,138.918176136
1.0,2.0,0.2,0.3,0.5652173913043478,0.7358490566037735,0.6393442622950819,139.192274216
1.0,2.0,0.3,0.3,0.5652173913043478,0.7358490566037735,0.6393442622950819,136.84938084
1.0,2.0,0.1,0.3,0.5652173913043478,0.7358490566037735,0.6393442622950819,138.993705609
1.0,2.0,0.4,0.3,0.5652173913043478,0.7358490566037735,0.6393442622950819,138.865611804
1.0,4.0,0.2,0.3,0.5652173913043478,0.6610169491525424,0.6093750000000001,139.928562415
1.0,1.0,0.9,0.3,0.4927536231884058,0.8292682926829268,0.6181818181818182,139.193664288
1.0,2.0,0.5,0.3,0.5652173913043478,0.7222222222222222,0.6341463414634146,139.738169389
1.0,1.0,0.8,0.3,0.4927536231884058,0.8292682926829268,0.6181818181818182,139.026635994
1.0,2.0,0.9,0.3,0.4927536231884058,0.6296296296296297,0.5528455284552846,139.01080353
1.0,2.0,0.8,0.3,0.5507246376811594,0.7037037037037037,0.6178861788617886,139.088854144
1.0,4.0,0.1,0.3,0.5652173913043478,0.6964285714285714,0.6239999999999999,136.808832456
1.0,4.0,0.3,0.3,0.5797101449275363,0.6557377049180327,0.6153846153846154,139.392490516
1.0,4.0,0.8,0.3,0.463768115942029,0.5,0.48120300751879697,136.661219241
1.0,2.0,0.6,0.3,0.5652173913043478,0.7222222222222222,0.6341463414634146,138.842378702
1.0,2.0,0.7,0.3,0.5797101449275363,0.7407407407407407,0.6504065040650405,138.932179319
1.0,4.0,0.7,0.3,0.463768115942029,0.5,0.48120300751879697,138.854983034
1.0,8.0,0.1,0.3,0.5652173913043478,0.639344262295082,0.6000000000000001,138.913399566
1.0,4.0,0.6,0.3,0.5217391304347826,0.5625,0.5413533834586465,138.845145688
1.0,8.0,0.6,0.3,0.463768115942029,0.48484848484848486,0.47407407407407404,136.884979783
1.0,4.0,0.9,0.3,0.463768115942029,0.5,0.48120300751879697,138.92895668
1.0,4.0,0.4,0.3,0.5797101449275363,0.6557377049180327,0.6153846153846154,139.289035986
1.0,8.0,0.8,0.3,0.4492753623188406,0.4696969696969697,0.45925925925925926,138.899360036
1.0,8.0,0.5,0.3,0.463768115942029,0.48484848484848486,0.47407407407407404,138.89613025
1.0,4.0,0.5,0.3,0.5217391304347826,0.5625,0.5413533834586465,138.877153019
1.0,8.0,0.4,0.3,0.463768115942029,0.48484848484848486,0.47407407407407404,139.898902021
1.0,16.0,0.3,0.3,0.463768115942029,0.463768115942029,0.463768115942029,138.7573363
1.0,8.0,0.7,0.3,0.4492753623188406,0.4696969696969697,0.45925925925925926,138.787455709
1.0,8.0,0.2,0.3,0.5797101449275363,0.6451612903225806,0.6106870229007634,138.74803481
1.0,16.0,0.4,0.3,0.4492753623188406,0.4492753623188406,0.4492753623188406,136.492663159
1.0,8.0,0.3,0.3,0.4927536231884058,0.5230769230769231,0.5074626865671642,139.24653289
1.0,16.0,0.5,0.3,0.4492753623188406,0.4492753623188406,0.4492753623188406,138.621198298
1.0,32.0,0.3,0.3,0.4492753623188406,0.4492753623188406,0.4492753623188406,139.024616372
1.0,16.0,0.1,0.3,0.5797101449275363,0.625,0.6015037593984963,138.742136075
1.0,16.0,0.2,0.3,0.5217391304347826,0.5217391304347826,0.5217391304347826,139.117279398
2.0,1.0,0.1,0.3,0.6231884057971014,0.8431372549019608,0.7166666666666667,138.943746716
1.0,8.0,0.9,0.3,0.4492753623188406,0.4696969696969697,0.45925925925925926,138.785062436
1.0,32.0,0.2,0.3,0.4492753623188406,0.4492753623188406,0.4492753623188406,136.465086245
1.0,32.0,0.1,0.3,0.5217391304347826,0.5217391304347826,0.5217391304347826,138.981286385
2.0,1.0,0.8,0.3,0.6231884057971014,0.8431372549019608,0.7166666666666667,139.880624353
1.0,16.0,0.7,0.3,0.3188405797101449,0.3384615384615385,0.32835820895522383,138.73421224
1.0,16.0,0.8,0.3,0.3188405797101449,0.3384615384615385,0.32835820895522383,138.665755127
1.0,16.0,0.6,0.3,0.4492753623188406,0.4492753623188406,0.4492753623188406,139.101357684
1.0,32.0,0.8,0.3,0.3188405797101449,0.3384615384615385,0.32835820895522383,138.702295095
1.0,16.0,0.9,0.3,0.3188405797101449,0.3384615384615385,0.32835820895522383,138.757749498
1.0,32.0,0.6,0.3,0.3188405797101449,0.3384615384615385,0.32835820895522383,138.848836368
1.0,32.0,0.4,0.3,0.3188405797101449,0.3384615384615385,0.32835820895522383,140.361555765
1.0,32.0,0.5,0.3,0.3188405797101449,0.3384615384615385,0.32835820895522383,138.841492094
1.0,32.0,0.7,0.3,0.3188405797101449,0.3384615384615385,0.32835820895522383,138.614529189
2.0,1.0,0.2,0.3,0.6231884057971014,0.8431372549019608,0.7166666666666667,138.874961145
1.0,32.0,0.9,0.3,0.3188405797101449,0.3384615384615385,0.32835820895522383,137.108348553
2.0,1.0,0.6,0.3,0.6231884057971014,0.8431372549019608,0.7166666666666667,139.463899216
2.0,1.0,0.9,0.3,0.6231884057971014,0.8431372549019608,0.7166666666666667,138.79367817
2.0,1.0,0.5,0.3,0.6231884057971014,0.8431372549019608,0.7166666666666667,138.859810241
2.0,1.0,0.3,0.3,0.6231884057971014,0.8431372549019608,0.7166666666666667,139.532932323
2.0,2.0,0.7,0.3,0.6956521739130435,0.7741935483870968,0.732824427480916,138.767551165
2.0,1.0,0.7,0.3,0.6231884057971014,0.8431372549019608,0.7166666666666667,136.662560404
2.0,2.0,0.4,0.3,0.6956521739130435,0.7741935483870968,0.732824427480916,139.261094177
2.0,2.0,0.1,0.3,0.6956521739130435,0.7741935483870968,0.732824427480916,138.727200773
2.0,2.0,0.2,0.3,0.6956521739130435,0.7741935483870968,0.732824427480916,138.829624306
2.0,1.0,0.4,0.3,0.6231884057971014,0.8431372549019608,0.7166666666666667,139.382346791
2.0,2.0,0.6,0.3,0.6956521739130435,0.7741935483870968,0.732824427480916,138.628423142
2.0,2.0,0.9,0.3,0.6956521739130435,0.7741935483870968,0.732824427480916,138.679731586
2.0,4.0,0.2,0.3,0.6956521739130435,0.75,0.7218045112781954,138.757551567
2.0,4.0,0.3,0.3,0.6956521739130435,0.75,0.7218045112781954,136.378284223
2.0,4.0,0.1,0.3,0.6956521739130435,0.75,0.7218045112781954,136.551794981
2.0,2.0,0.5,0.3,0.6956521739130435,0.7741935483870968,0.732824427480916,136.885012324
2.0,2.0,0.3,0.3,0.6956521739130435,0.7741935483870968,0.732824427480916,138.792852436
2.0,2.0,0.8,0.3,0.6956521739130435,0.7741935483870968,0.732824427480916,139.544351334
2.0,4.0,0.4,0.3,0.7101449275362319,0.7424242424242424,0.725925925925926,154.363035776
2.0,4.0,0.5,0.3,0.7101449275362319,0.7424242424242424,0.725925925925926,155.746392919
2.0,4.0,0.6,0.3,0.7101449275362319,0.7424242424242424,0.725925925925926,154.13924703
2.0,4.0,0.7,0.3,0.6811594202898551,0.6811594202898551,0.6811594202898551,156.860529197
2.0,4.0,0.9,0.3,0.6376811594202898,0.6285714285714286,0.6330935251798562,155.455975606
2.0,4.0,0.8,0.3,0.6086956521739131,0.6,0.6043165467625898,154.360997746
2.0,8.0,0.1,0.3,0.6956521739130435,0.7384615384615385,0.7164179104477613,157.862634911
2.0,8.0,0.2,0.3,0.7101449275362319,0.7424242424242424,0.725925925925926,153.141108581
2.0,8.0,0.3,0.3,0.7101449275362319,0.7424242424242424,0.725925925925926,156.083989458
2.0,8.0,0.4,0.3,0.6811594202898551,0.6811594202898551,0.6811594202898551,155.649391161
2.0,8.0,0.5,0.3,0.6376811594202898,0.6285714285714286,0.6330935251798562,151.218478969
2.0,8.0,0.9,0.3,0.5362318840579711,0.5362318840579711,0.5362318840579711,157.154980313
2.0,16.0,0.1,0.3,0.7246376811594203,0.7246376811594203,0.7246376811594203,160.858067795
2.0,8.0,0.6,0.3,0.5942028985507246,0.5857142857142857,0.5899280575539567,156.820587777
2.0,8.0,0.8,0.3,0.5362318840579711,0.5362318840579711,0.5362318840579711,159.125870581
2.0,8.0,0.7,0.3,0.5362318840579711,0.5362318840579711,0.5362318840579711,158.099692176
2.0,16.0,0.2,0.3,0.6811594202898551,0.6527777777777778,0.6666666666666667,157.171977918
2.0,16.0,0.3,0.3,0.5942028985507246,0.5616438356164384,0.5774647887323944,158.995647724
2.0,16.0,0.4,0.3,0.5362318840579711,0.5138888888888888,0.524822695035461,157.737821033
2.0,16.0,0.5,0.3,0.5217391304347826,0.5,0.5106382978723404,155.082224285
2.0,16.0,0.6,0.3,0.5217391304347826,0.5,0.5106382978723404,154.355277362
2.0,16.0,0.7,0.3,0.5217391304347826,0.5,0.5106382978723404,152.927554313
2.0,16.0,0.8,0.3,0.42028985507246375,0.4264705882352941,0.4233576642335767,156.456823795
2.0,16.0,0.9,0.3,0.42028985507246375,0.4264705882352941,0.4233576642335767,156.955336798
2.0,32.0,0.1,0.3,0.7391304347826086,0.7285714285714285,0.7338129496402879,155.845859979
2.0,32.0,0.2,0.3,0.5362318840579711,0.5138888888888888,0.524822695035461,155.301745496
2.0,32.0,0.3,0.3,0.5217391304347826,0.5,0.5106382978723404,156.523684501
2.0,32.0,0.4,0.3,0.4927536231884058,0.4788732394366197,0.4857142857142857,154.40091476
2.0,32.0,0.5,0.3,0.42028985507246375,0.4264705882352941,0.4233576642335767,157.207586345
2.0,32.0,0.6,0.3,0.34782608695652173,0.3582089552238806,0.35294117647058826,157.012246469
2.0,32.0,0.7,0.3,0.34782608695652173,0.3582089552238806,0.35294117647058826,159.967162404
2.0,32.0,0.8,0.3,0.34782608695652173,0.3582089552238806,0.35294117647058826,145.828578183
2.0,32.0,0.9,0.3,0.34782608695652173,0.3582089552238806,0.35294117647058826,144.461460845
4.0,1.0,0.1,0.3,0.6666666666666666,0.7540983606557377,0.7076923076923076,145.644915421
4.0,1.0,0.2,0.3,0.6666666666666666,0.7540983606557377,0.7076923076923076,145.516331402
4.0,1.0,0.3,0.3,0.6666666666666666,0.7540983606557377,0.7076923076923076,144.427060848
4.0,1.0,0.4,0.3,0.6666666666666666,0.7540983606557377,0.7076923076923076,144.261776134
4.0,1.0,0.5,0.3,0.6666666666666666,0.7540983606557377,0.7076923076923076,138.749762728
4.0,1.0,0.6,0.3,0.6666666666666666,0.7540983606557377,0.7076923076923076,139.471424603
4.0,1.0,0.8,0.3,0.6666666666666666,0.7540983606557377,0.7076923076923076,139.11029363
4.0,2.0,0.2,0.3,0.7101449275362319,0.7424242424242424,0.725925925925926,139.024661183
4.0,1.0,0.9,0.3,0.6666666666666666,0.7540983606557377,0.7076923076923076,139.35127105
4.0,2.0,0.3,0.3,0.7101449275362319,0.7424242424242424,0.725925925925926,139.080346383
4.0,1.0,0.7,0.3,0.6666666666666666,0.7540983606557377,0.7076923076923076,139.396510551
4.0,2.0,0.7,0.3,0.7101449275362319,0.7424242424242424,0.725925925925926,140.12948816
4.0,2.0,0.1,0.3,0.7101449275362319,0.7424242424242424,0.725925925925926,139.276443836
4.0,2.0,0.5,0.3,0.7101449275362319,0.7424242424242424,0.725925925925926,139.18311233
4.0,2.0,0.6,0.3,0.7101449275362319,0.7424242424242424,0.725925925925926,137.819743067
4.0,2.0,0.4,0.3,0.7101449275362319,0.7424242424242424,0.725925925925926,138.884788772
4.0,2.0,0.9,0.3,0.7391304347826086,0.7727272727272727,0.7555555555555555,139.177230996
4.0,2.0,0.8,0.3,0.7246376811594203,0.7575757575757576,0.7407407407407408,138.903719878
4.0,4.0,0.4,0.3,0.7101449275362319,0.7313432835820896,0.7205882352941175,136.939011113
4.0,4.0,0.3,0.3,0.7101449275362319,0.7313432835820896,0.7205882352941175,138.734183192
4.0,4.0,0.1,0.3,0.7101449275362319,0.7424242424242424,0.725925925925926,138.900499535
4.0,4.0,0.2,0.3,0.7101449275362319,0.7424242424242424,0.725925925925926,139.831330752
4.0,4.0,0.8,0.3,0.7536231884057971,0.7428571428571429,0.748201438848921,138.940891141
4.0,4.0,0.7,0.3,0.7681159420289855,0.7571428571428571,0.762589928057554,139.852260471
4.0,4.0,0.5,0.3,0.7246376811594203,0.7352941176470589,0.7299270072992701,138.909329806
4.0,8.0,0.2,0.3,0.7101449275362319,0.7313432835820896,0.7205882352941175,136.81957493
4.0,4.0,0.6,0.3,0.7536231884057971,0.7428571428571429,0.748201438848921,139.024261039
4.0,4.0,0.9,0.3,0.7536231884057971,0.7428571428571429,0.748201438848921,138.962394578
4.0,8.0,0.3,0.3,0.7391304347826086,0.7391304347826086,0.7391304347826085,138.908096413
4.0,8.0,0.1,0.3,0.7101449275362319,0.7424242424242424,0.725925925925926,138.741245334
4.0,8.0,0.4,0.3,0.7681159420289855,0.7571428571428571,0.762589928057554,138.992332116
4.0,16.0,0.1,0.3,0.7391304347826086,0.7183098591549296,0.7285714285714284,138.92947222
4.0,8.0,0.6,0.3,0.7681159420289855,0.7361111111111112,0.7517730496453902,138.980050378
4.0,8.0,0.9,0.3,0.6666666666666666,0.6388888888888888,0.6524822695035462,136.626263184
4.0,8.0,0.8,0.3,0.6376811594202898,0.6111111111111112,0.624113475177305,138.813625045
4.0,8.0,0.7,0.3,0.7246376811594203,0.684931506849315,0.704225352112676,139.106893321
4.0,8.0,0.5,0.3,0.7536231884057971,0.7428571428571429,0.748201438848921,138.878029575
4.0,16.0,0.2,0.3,0.7971014492753623,0.7432432432432432,0.7692307692307693,139.052913453
4.0,16.0,0.4,0.3,0.6956521739130435,0.64,0.6666666666666666,138.945092819
4.0,16.0,0.3,0.3,0.782608695652174,0.7297297297297297,0.7552447552447553,138.782293993
4.0,16.0,0.7,0.3,0.5362318840579711,0.5138888888888888,0.524822695035461,136.936147462
4.0,16.0,0.8,0.3,0.5362318840579711,0.5138888888888888,0.524822695035461,138.804364441
4.0,16.0,0.5,0.3,0.6666666666666666,0.6133333333333333,0.638888888888889,138.907512571
4.0,16.0,0.6,0.3,0.5362318840579711,0.5138888888888888,0.524822695035461,139.013810117
4.0,16.0,0.9,0.3,0.5217391304347826,0.5,0.5106382978723404,138.898520057
4.0,32.0,0.2,0.3,0.6956521739130435,0.64,0.6666666666666666,138.765286496
4.0,32.0,0.1,0.3,0.782608695652174,0.7297297297297297,0.7552447552447553,139.24345069
4.0,32.0,0.6,0.3,0.5217391304347826,0.5,0.5106382978723404,138.96518725
4.0,32.0,0.3,0.3,0.5362318840579711,0.5138888888888888,0.524822695035461,139.020338352
4.0,32.0,0.5,0.3,0.5217391304347826,0.5,0.5106382978723404,136.85307393
4.0,32.0,0.8,0.3,0.42028985507246375,0.4264705882352941,0.4233576642335767,139.852135597
4.0,32.0,0.4,0.3,0.5362318840579711,0.5138888888888888,0.524822695035461,139.478477343
4.0,32.0,0.9,0.3,0.34782608695652173,0.3582089552238806,0.35294117647058826,138.892020644
8.0,1.0,0.3,0.3,0.6666666666666666,0.7301587301587301,0.696969696969697,136.938269467
8.0,1.0,0.4,0.3,0.6666666666666666,0.7301587301587301,0.696969696969697,138.850676069
4.0,32.0,0.7,0.3,0.42028985507246375,0.4264705882352941,0.4233576642335767,139.00342826
8.0,1.0,0.7,0.3,0.6666666666666666,0.7301587301587301,0.696969696969697,138.82024857
8.0,1.0,0.1,0.3,0.6666666666666666,0.7301587301587301,0.696969696969697,139.182200598
8.0,1.0,0.2,0.3,0.6666666666666666,0.7301587301587301,0.696969696969697,139.167749305
8.0,1.0,0.6,0.3,0.6666666666666666,0.7301587301587301,0.696969696969697,139.141918341
8.0,2.0,0.1,0.3,0.7101449275362319,0.7205882352941176,0.7153284671532847,136.59940957
8.0,2.0,0.2,0.3,0.7101449275362319,0.7205882352941176,0.7153284671532847,138.994775398
8.0,1.0,0.5,0.3,0.6666666666666666,0.7301587301587301,0.696969696969697,139.964945685
8.0,1.0,0.9,0.3,0.6666666666666666,0.7301587301587301,0.696969696969697,138.651202821
8.0,1.0,0.8,0.3,0.6666666666666666,0.7301587301587301,0.696969696969697,138.848779133
8.0,2.0,0.4,0.3,0.7101449275362319,0.7205882352941176,0.7153284671532847,138.574937773
8.0,2.0,0.5,0.3,0.7101449275362319,0.7205882352941176,0.7153284671532847,138.59281366
8.0,2.0,0.8,0.3,0.7101449275362319,0.7205882352941176,0.7153284671532847,136.708751054
8.0,2.0,0.6,0.3,0.7101449275362319,0.7205882352941176,0.7153284671532847,138.645601281
8.0,2.0,0.3,0.3,0.7101449275362319,0.7205882352941176,0.7153284671532847,139.083731056
8.0,2.0,0.9,0.3,0.7101449275362319,0.7205882352941176,0.7153284671532847,138.938611954
8.0,2.0,0.7,0.3,0.7101449275362319,0.7205882352941176,0.7153284671532847,138.809198214
8.0,4.0,0.3,0.3,0.7101449275362319,0.7205882352941176,0.7153284671532847,138.775282611
8.0,4.0,0.2,0.3,0.7101449275362319,0.7205882352941176,0.7153284671532847,138.773564764
8.0,4.0,0.5,0.3,0.7101449275362319,0.7205882352941176,0.7153284671532847,138.769371037
8.0,4.0,0.7,0.3,0.7101449275362319,0.7101449275362319,0.7101449275362319,138.604852434
8.0,4.0,0.6,0.3,0.7101449275362319,0.7101449275362319,0.7101449275362319,137.141367406
8.0,8.0,0.5,0.3,0.7246376811594203,0.704225352112676,0.7142857142857142,138.776631384
8.0,4.0,0.4,0.3,0.7101449275362319,0.7205882352941176,0.7153284671532847,138.952591353
8.0,4.0,0.9,0.3,0.7246376811594203,0.7142857142857143,0.7194244604316546,138.88787893
8.0,8.0,0.1,0.3,0.7101449275362319,0.7205882352941176,0.7153284671532847,138.752414227
8.0,4.0,0.1,0.3,0.7101449275362319,0.7205882352941176,0.7153284671532847,138.774046196
8.0,8.0,0.4,0.3,0.7246376811594203,0.7142857142857143,0.7194244604316546,136.70132972
8.0,8.0,0.7,0.3,0.7536231884057971,0.7222222222222222,0.7375886524822696,138.745749575
8.0,8.0,0.3,0.3,0.7101449275362319,0.7101449275362319,0.7101449275362319,139.3521422
8.0,16.0,0.3,0.3,0.7681159420289855,0.7066666666666667,0.736111111111111,138.583229083
8.0,8.0,0.8,0.3,0.7536231884057971,0.7323943661971831,0.7428571428571428,139.541026972
8.0,16.0,0.1,0.3,0.7391304347826086,0.7083333333333334,0.723404255319149,138.905612858
8.0,8.0,0.2,0.3,0.7101449275362319,0.7205882352941176,0.7153284671532847,139.726473411
8.0,16.0,0.8,0.3,0.6521739130434783,0.5921052631578947,0.6206896551724137,139.202849865
8.0,16.0,0.6,0.3,0.782608695652174,0.72,0.7499999999999999,138.737787557
8.0,16.0,0.5,0.3,0.782608695652174,0.72,0.7499999999999999,138.927281919
8.0,8.0,0.9,0.3,0.7536231884057971,0.7323943661971831,0.7428571428571428,138.557424067
8.0,32.0,0.1,0.3,0.7391304347826086,0.6986301369863014,0.7183098591549297,138.946243962
8.0,16.0,0.9,0.3,0.6666666666666666,0.6133333333333333,0.638888888888889,137.407900429
8.0,16.0,0.2,0.3,0.7391304347826086,0.6986301369863014,0.7183098591549297,136.719996035
8.0,4.0,0.8,0.3,0.7246376811594203,0.7246376811594203,0.7246376811594203,138.751445841
8.0,8.0,0.6,0.3,0.7536231884057971,0.7222222222222222,0.7375886524822696,138.749815472
8.0,32.0,0.3,0.3,0.782608695652174,0.72,0.7499999999999999,138.790466862
8.0,16.0,0.7,0.3,0.6956521739130435,0.631578947368421,0.6620689655172414,138.754333146
8.0,32.0,0.4,0.3,0.6521739130434783,0.5921052631578947,0.6206896551724137,138.902636966
8.0,16.0,0.4,0.3,0.782608695652174,0.72,0.7499999999999999,139.601934919
8.0,32.0,0.6,0.3,0.5362318840579711,0.5138888888888888,0.524822695035461,138.716873615
8.0,32.0,0.8,0.3,0.5217391304347826,0.5,0.5106382978723404,139.138019015
8.0,32.0,0.7,0.3,0.5362318840579711,0.5138888888888888,0.524822695035461,136.465731707
8.0,32.0,0.2,0.3,0.7971014492753623,0.7333333333333333,0.7638888888888887,138.880151474
16.0,1.0,0.1,0.3,0.6956521739130435,0.6857142857142857,0.6906474820143885,136.478674792
8.0,32.0,0.9,0.3,0.5217391304347826,0.5,0.5106382978723404,138.731750622
8.0,32.0,0.5,0.3,0.6666666666666666,0.6133333333333333,0.638888888888889,139.5749441
16.0,1.0,0.2,0.3,0.6956521739130435,0.6857142857142857,0.6906474820143885,136.497095492
16.0,1.0,0.3,0.3,0.6956521739130435,0.6857142857142857,0.6906474820143885,153.825812327
16.0,1.0,0.4,0.3,0.6956521739130435,0.6857142857142857,0.6906474820143885,157.103420894
16.0,1.0,0.5,0.3,0.6956521739130435,0.6857142857142857,0.6906474820143885,156.428885543
16.0,1.0,0.6,0.3,0.6956521739130435,0.6857142857142857,0.6906474820143885,155.173240711
16.0,1.0,0.7,0.3,0.6956521739130435,0.6857142857142857,0.6906474820143885,158.081911207
16.0,1.0,0.8,0.3,0.6956521739130435,0.6857142857142857,0.6906474820143885,153.9198539
16.0,1.0,0.9,0.3,0.6956521739130435,0.6857142857142857,0.6906474820143885,156.663453537
16.0,2.0,0.1,0.3,0.7391304347826086,0.68,0.7083333333333334,156.753884446
16.0,2.0,0.2,0.3,0.7391304347826086,0.68,0.7083333333333334,157.498204246
16.0,2.0,0.4,0.3,0.7391304347826086,0.68,0.7083333333333334,154.322255746
16.0,2.0,0.3,0.3,0.7391304347826086,0.68,0.7083333333333334,157.726521963
16.0,2.0,0.5,0.3,0.7391304347826086,0.68,0.7083333333333334,156.19221975
16.0,2.0,0.6,0.3,0.7391304347826086,0.68,0.7083333333333334,155.912970441
16.0,2.0,0.7,0.3,0.7391304347826086,0.68,0.7083333333333334,154.401086102
16.0,2.0,0.8,0.3,0.7391304347826086,0.68,0.7083333333333334,158.167696894
16.0,2.0,0.9,0.3,0.7391304347826086,0.68,0.7083333333333334,154.580046059
16.0,4.0,0.1,0.3,0.7391304347826086,0.68,0.7083333333333334,152.173551075
16.0,4.0,0.2,0.3,0.7391304347826086,0.68,0.7083333333333334,157.314578335
16.0,4.0,0.4,0.3,0.7391304347826086,0.68,0.7083333333333334,156.133403131
16.0,4.0,0.3,0.3,0.7391304347826086,0.68,0.7083333333333334,155.014777673
16.0,4.0,0.5,0.3,0.7391304347826086,0.68,0.7083333333333334,160.610323458
16.0,4.0,0.6,0.3,0.7391304347826086,0.68,0.7083333333333334,155.86661034
16.0,4.0,0.7,0.3,0.7391304347826086,0.68,0.7083333333333334,154.492014996
16.0,4.0,0.8,0.3,0.7391304347826086,0.68,0.7083333333333334,157.502739419
16.0,4.0,0.9,0.3,0.7391304347826086,0.68,0.7083333333333334,157.117305317
16.0,8.0,0.1,0.3,0.7391304347826086,0.68,0.7083333333333334,159.037531283
16.0,8.0,0.2,0.3,0.7391304347826086,0.68,0.7083333333333334,155.024470439
16.0,8.0,0.4,0.3,0.7391304347826086,0.68,0.7083333333333334,160.411606471
16.0,8.0,0.3,0.3,0.7391304347826086,0.68,0.7083333333333334,153.432510619
16.0,8.0,0.5,0.3,0.7391304347826086,0.68,0.7083333333333334,154.469979353
16.0,8.0,0.6,0.3,0.7391304347826086,0.6710526315789473,0.7034482758620689,156.661488668
16.0,8.0,0.7,0.3,0.7391304347826086,0.6710526315789473,0.7034482758620689,145.653787633
16.0,8.0,0.8,0.3,0.7391304347826086,0.6710526315789473,0.7034482758620689,144.941754595
16.0,8.0,0.9,0.3,0.7536231884057971,0.6842105263157895,0.7172413793103448,145.828510554
16.0,16.0,0.1,0.3,0.7681159420289855,0.6708860759493671,0.7162162162162162,145.43986588
16.0,16.0,0.2,0.3,0.7681159420289855,0.6708860759493671,0.7162162162162162,144.113281316
16.0,16.0,0.3,0.3,0.7681159420289855,0.6625,0.7114093959731543,144.248887469
16.0,16.0,0.4,0.3,0.7681159420289855,0.6625,0.7114093959731543,139.133904154
16.0,16.0,0.5,0.3,0.782608695652174,0.675,0.7248322147651006,139.324258514
16.0,16.0,0.8,0.3,0.7971014492753623,0.6962025316455697,0.7432432432432432,138.930370208
16.0,16.0,0.7,0.3,0.8115942028985508,0.7,0.7516778523489933,139.169951823
16.0,32.0,0.1,0.3,0.7681159420289855,0.6625,0.7114093959731543,139.104194747
16.0,16.0,0.9,0.3,0.7971014492753623,0.6962025316455697,0.7432432432432432,139.207122437
16.0,16.0,0.6,0.3,0.7971014492753623,0.6875,0.7382550335570469,139.15692962
16.0,32.0,0.4,0.3,0.7971014492753623,0.6875,0.7382550335570469,138.964193681
16.0,32.0,0.5,0.3,0.7971014492753623,0.6962025316455697,0.7432432432432432,139.012680405
16.0,32.0,0.2,0.3,0.7681159420289855,0.6625,0.7114093959731543,139.222098442
16.0,32.0,0.8,0.3,0.7101449275362319,0.6125,0.6577181208053692,138.900980988
16.0,32.0,0.3,0.3,0.7971014492753623,0.6875,0.7382550335570469,139.211328225
16.0,32.0,0.9,0.3,0.7101449275362319,0.6125,0.6577181208053692,139.057897073
16.0,32.0,0.6,0.3,0.782608695652174,0.6835443037974683,0.7297297297297297,139.152861553
16.0,32.0,0.7,0.3,0.6811594202898551,0.5875,0.6308724832214765,137.138090558
32.0,1.0,0.5,0.3,0.6956521739130435,0.6575342465753424,0.676056338028169,136.77425857
32.0,1.0,0.3,0.3,0.6956521739130435,0.6575342465753424,0.676056338028169,138.89029315
32.0,1.0,0.2,0.3,0.6956521739130435,0.6575342465753424,0.676056338028169,138.823375948
32.0,1.0,0.7,0.3,0.6956521739130435,0.6575342465753424,0.676056338028169,138.934820883
32.0,1.0,0.1,0.3,0.6956521739130435,0.6575342465753424,0.676056338028169,138.982151897
32.0,1.0,0.6,0.3,0.6956521739130435,0.6575342465753424,0.676056338028169,138.892977404
32.0,1.0,0.4,0.3,0.6956521739130435,0.6575342465753424,0.676056338028169,138.820821237
32.0,1.0,0.9,0.3,0.6956521739130435,0.6575342465753424,0.676056338028169,138.974995392
32.0,1.0,0.8,0.3,0.6956521739130435,0.6575342465753424,0.676056338028169,138.763983675
32.0,2.0,0.3,0.3,0.7391304347826086,0.6538461538461539,0.693877551020408,136.642451827
32.0,2.0,0.2,0.3,0.7391304347826086,0.6538461538461539,0.693877551020408,138.690619967
32.0,2.0,0.1,0.3,0.7391304347826086,0.6538461538461539,0.693877551020408,139.172139666
32.0,2.0,0.6,0.3,0.7391304347826086,0.6538461538461539,0.693877551020408,138.884898533
32.0,4.0,0.1,0.3,0.7391304347826086,0.6538461538461539,0.693877551020408,136.733917979
32.0,2.0,0.4,0.3,0.7391304347826086,0.6538461538461539,0.693877551020408,138.996036854
32.0,2.0,0.9,0.3,0.7391304347826086,0.6538461538461539,0.693877551020408,139.07112256
32.0,2.0,0.5,0.3,0.7391304347826086,0.6538461538461539,0.693877551020408,139.752490375
32.0,4.0,0.8,0.3,0.7391304347826086,0.6538461538461539,0.693877551020408,137.005735375
32.0,2.0,0.7,0.3,0.7391304347826086,0.6538461538461539,0.693877551020408,139.013039213
32.0,2.0,0.8,0.3,0.7391304347826086,0.6538461538461539,0.693877551020408,138.928006498
32.0,4.0,0.2,0.3,0.7391304347826086,0.6538461538461539,0.693877551020408,138.955207387
32.0,4.0,0.3,0.3,0.7391304347826086,0.6538461538461539,0.693877551020408,139.180906432
32.0,4.0,0.4,0.3,0.7391304347826086,0.6538461538461539,0.693877551020408,139.758938652
32.0,4.0,0.5,0.3,0.7391304347826086,0.6538461538461539,0.693877551020408,138.888308463
32.0,4.0,0.6,0.3,0.7391304347826086,0.6538461538461539,0.693877551020408,138.80882566
32.0,4.0,0.9,0.3,0.7391304347826086,0.6538461538461539,0.693877551020408,139.165887685
32.0,4.0,0.7,0.3,0.7391304347826086,0.6538461538461539,0.693877551020408,139.027126635
32.0,8.0,0.1,0.3,0.7391304347826086,0.6538461538461539,0.693877551020408,139.915927169
32.0,8.0,0.3,0.3,0.7391304347826086,0.6538461538461539,0.693877551020408,138.755196382
32.0,8.0,0.2,0.3,0.7391304347826086,0.6538461538461539,0.693877551020408,139.738846267
32.0,8.0,0.4,0.3,0.7391304347826086,0.6538461538461539,0.693877551020408,138.806667231
32.0,8.0,0.6,0.3,0.7391304347826086,0.6538461538461539,0.693877551020408,136.726929364
32.0,8.0,0.7,0.3,0.7391304347826086,0.6538461538461539,0.693877551020408,139.122850866
32.0,8.0,0.9,0.3,0.7391304347826086,0.6538461538461539,0.693877551020408,138.819940495
32.0,8.0,0.5,0.3,0.7391304347826086,0.6538461538461539,0.693877551020408,138.76046252
32.0,16.0,0.5,0.3,0.7681159420289855,0.6625,0.7114093959731543,138.740966139
32.0,16.0,0.1,0.3,0.7681159420289855,0.6625,0.7114093959731543,138.927788635
32.0,8.0,0.8,0.3,0.7391304347826086,0.6538461538461539,0.693877551020408,138.880154073
32.0,16.0,0.4,0.3,0.7681159420289855,0.6625,0.7114093959731543,136.551172501
32.0,16.0,0.3,0.3,0.7681159420289855,0.6625,0.7114093959731543,138.81868947
32.0,16.0,0.8,0.3,0.7681159420289855,0.654320987654321,0.7066666666666667,138.808006432
32.0,32.0,0.1,0.3,0.7681159420289855,0.6385542168674698,0.6973684210526315,139.325586301
32.0,16.0,0.2,0.3,0.7681159420289855,0.6625,0.7114093959731543,138.651111394
32.0,16.0,0.6,0.3,0.7681159420289855,0.654320987654321,0.7066666666666667,138.647089097
32.0,32.0,0.2,0.3,0.7681159420289855,0.6385542168674698,0.6973684210526315,137.309281491
32.0,16.0,0.7,0.3,0.7681159420289855,0.654320987654321,0.7066666666666667,138.688389679
32.0,32.0,0.3,0.3,0.7681159420289855,0.6385542168674698,0.6973684210526315,139.341207441
32.0,32.0,0.4,0.3,0.7681159420289855,0.654320987654321,0.7066666666666667,138.761653747
32.0,16.0,0.9,0.3,0.782608695652174,0.6666666666666666,0.72,138.620628518
32.0,32.0,0.9,0.3,0.7971014492753623,0.6962025316455697,0.7432432432432432,136.888730618
32.0,32.0,0.8,0.3,0.7971014492753623,0.6962025316455697,0.7432432432432432,138.9818684
32.0,32.0,0.5,0.3,0.782608695652174,0.6666666666666666,0.72,138.753707801
32.0,32.0,0.6,0.3,0.7971014492753623,0.6790123456790124,0.7333333333333334,138.704634733
32.0,32.0,0.7,0.3,0.8115942028985508,0.7,0.7516778523489933,138.757173513
