gamma_s,gamma_h,alpha,sencitivity,ppv,fmeasure,time
1.0,1.0,0.7,0.6363636363636364,1.0,0.7777777777777778,21.024296846
1.0,2.0,,0.0,NaN,NaN,20.935592359
1.0,4.0,,0.0,NaN,NaN,20.916724614
1.0,16.0,,0.0,NaN,NaN,21.189259512
1.0,8.0,0.5,0.7272727272727273,1.0,0.8421052631578948,20.988663545
1.0,1.0,,0.0,NaN,NaN,19.525148806
1.0,16.0,0.7,0.7272727272727273,0.8888888888888888,0.7999999999999999,20.976761143
1.0,1.0,0.3,0.6363636363636364,1.0,0.7777777777777778,20.964614344
1.0,1.0,0.5,0.6363636363636364,1.0,0.7777777777777778,20.949716028
1.0,1.0,0.9,0.6363636363636364,1.0,0.7777777777777778,20.980059497
1.0,32.0,,0.0,NaN,NaN,19.436299209
1.0,32.0,0.5,0.7272727272727273,0.8,0.761904761904762,21.025946375
1.0,16.0,0.1,0.7272727272727273,0.8888888888888888,0.7999999999999999,19.495035381
1.0,8.0,0.1,0.7272727272727273,1.0,0.8421052631578948,19.512179552
1.0,16.0,0.3,0.7272727272727273,0.8888888888888888,0.7999999999999999,20.933043817
1.0,32.0,0.7,0.7272727272727273,0.8,0.761904761904762,21.042389568
1.0,16.0,0.9,0.7272727272727273,0.8888888888888888,0.7999999999999999,20.956864622
1.0,2.0,0.7,0.6818181818181818,1.0,0.8108108108108109,19.468692235
1.0,2.0,0.9,0.6818181818181818,1.0,0.8108108108108109,20.87203152
1.0,16.0,0.5,0.7272727272727273,0.8888888888888888,0.7999999999999999,20.882159518
2.0,1.0,,0.0,NaN,NaN,19.438607844
2.0,2.0,0.3,0.6818181818181818,1.0,0.8108108108108109,20.87392821
2.0,2.0,0.5,0.6818181818181818,1.0,0.8108108108108109,20.865630301
1.0,32.0,0.9,0.7272727272727273,0.8,0.761904761904762,20.971088418
2.0,4.0,0.1,0.7272727272727273,1.0,0.8421052631578948,20.927457436
2.0,2.0,0.1,0.6818181818181818,1.0,0.8108108108108109,20.888806755
2.0,4.0,0.3,0.7272727272727273,1.0,0.8421052631578948,20.844898518
2.0,4.0,0.7,0.7272727272727273,1.0,0.8421052631578948,19.445940803
1.0,8.0,,0.0,NaN,NaN,20.923910688
2.0,8.0,0.5,0.7272727272727273,1.0,0.8421052631578948,19.392827432
2.0,8.0,,0.0,NaN,NaN,20.83317747
2.0,8.0,0.9,0.7272727272727273,1.0,0.8421052631578948,20.953674453
2.0,4.0,,0.0,NaN,NaN,20.926779443
2.0,4.0,0.5,0.7272727272727273,1.0,0.8421052631578948,20.91295326
2.0,2.0,,0.0,NaN,NaN,20.826218111
2.0,16.0,0.9,0.7272727272727273,0.8888888888888888,0.7999999999999999,20.858565749
2.0,16.0,0.7,0.7272727272727273,0.8888888888888888,0.7999999999999999,20.867388735
1.0,2.0,0.5,0.6818181818181818,1.0,0.8108108108108109,20.923895738
2.0,32.0,0.1,0.7272727272727273,0.8,0.761904761904762,20.831408273
1.0,8.0,0.3,0.7272727272727273,1.0,0.8421052631578948,20.896175587
2.0,16.0,,0.0,NaN,NaN,19.391357668
2.0,32.0,,0.0,NaN,NaN,20.825976254
2.0,8.0,0.7,0.7272727272727273,1.0,0.8421052631578948,20.833616446
4.0,1.0,0.3,0.6363636363636364,1.0,0.7777777777777778,20.813875408
4.0,1.0,,0.0,NaN,NaN,19.415300679
4.0,1.0,0.5,0.6363636363636364,1.0,0.7777777777777778,20.841939038
2.0,32.0,0.9,0.7272727272727273,0.8,0.761904761904762,20.901836296
2.0,32.0,0.7,0.7272727272727273,0.8,0.761904761904762,19.411428917
4.0,2.0,0.9,0.6818181818181818,1.0,0.8108108108108109,20.857252973
4.0,1.0,0.7,0.6363636363636364,1.0,0.7777777777777778,20.825282697
4.0,2.0,0.3,0.6818181818181818,1.0,0.8108108108108109,20.823518754
4.0,1.0,0.1,0.6363636363636364,1.0,0.7777777777777778,20.855633347
4.0,2.0,,0.0,NaN,NaN,20.821318434
4.0,4.0,0.5,0.7272727272727273,1.0,0.8421052631578948,20.849146105
4.0,2.0,0.7,0.6818181818181818,1.0,0.8108108108108109,20.835007447
4.0,1.0,0.9,0.6363636363636364,1.0,0.7777777777777778,19.384710825
4.0,2.0,0.1,0.6818181818181818,1.0,0.8108108108108109,20.828997803
4.0,2.0,0.5,0.6818181818181818,1.0,0.8108108108108109,20.871116704
4.0,8.0,0.1,0.7272727272727273,1.0,0.8421052631578948,20.879285555
4.0,4.0,,0.0,NaN,NaN,20.821433559
4.0,8.0,0.7,0.7272727272727273,1.0,0.8421052631578948,20.850592622
2.0,8.0,0.3,0.7272727272727273,1.0,0.8421052631578948,20.893875786
2.0,4.0,0.9,0.7272727272727273,1.0,0.8421052631578948,20.874749434
2.0,32.0,0.5,0.7272727272727273,0.8,0.761904761904762,20.892477366
4.0,8.0,,0.0,NaN,NaN,19.425370327
4.0,8.0,0.5,0.7272727272727273,1.0,0.8421052631578948,20.866709127
4.0,4.0,0.1,0.7272727272727273,1.0,0.8421052631578948,19.441313072
4.0,4.0,0.9,0.7272727272727273,1.0,0.8421052631578948,19.390086497
4.0,8.0,0.3,0.7272727272727273,1.0,0.8421052631578948,20.898758637
4.0,8.0,0.9,0.7272727272727273,1.0,0.8421052631578948,20.843741206
4.0,4.0,0.7,0.7272727272727273,1.0,0.8421052631578948,20.871218762
4.0,4.0,0.3,0.7272727272727273,1.0,0.8421052631578948,20.897311721
2.0,1.0,0.3,0.6363636363636364,1.0,0.7777777777777778,22.062226468
2.0,2.0,0.9,0.6818181818181818,1.0,0.8108108108108109,21.856279175
1.0,4.0,0.3,0.7272727272727273,1.0,0.8421052631578948,22.070335983
1.0,8.0,0.9,0.7272727272727273,1.0,0.8421052631578948,21.88835708
1.0,4.0,0.5,0.7272727272727273,1.0,0.8421052631578948,21.89369852
1.0,8.0,0.7,0.7272727272727273,1.0,0.8421052631578948,22.048459096
1.0,4.0,0.7,0.7272727272727273,1.0,0.8421052631578948,21.868236882
1.0,32.0,0.3,0.7272727272727273,0.8,0.761904761904762,21.868691595
1.0,2.0,0.3,0.6818181818181818,1.0,0.8108108108108109,21.885490853
2.0,16.0,0.1,0.7272727272727273,0.8888888888888888,0.7999999999999999,21.861939889
2.0,1.0,0.7,0.6363636363636364,1.0,0.7777777777777778,21.847958642
1.0,2.0,0.1,0.6818181818181818,1.0,0.8108108108108109,21.882472122
1.0,4.0,0.1,0.7272727272727273,1.0,0.8421052631578948,21.947589539
2.0,16.0,0.5,0.7272727272727273,0.8888888888888888,0.7999999999999999,21.839527441
2.0,1.0,0.1,0.6363636363636364,1.0,0.7777777777777778,21.895737647
2.0,2.0,0.7,0.6818181818181818,1.0,0.8108108108108109,21.851481102
2.0,1.0,0.9,0.6363636363636364,1.0,0.7777777777777778,21.869871836
1.0,4.0,0.9,0.7272727272727273,1.0,0.8421052631578948,21.978794509
2.0,1.0,0.5,0.6363636363636364,1.0,0.7777777777777778,29.194667948
2.0,16.0,0.3,0.7272727272727273,0.8888888888888888,0.7999999999999999,21.879190519
2.0,32.0,0.3,0.7272727272727273,0.8,0.761904761904762,21.847187031
1.0,32.0,0.1,0.7272727272727273,0.8,0.761904761904762,21.909399497
2.0,8.0,0.1,0.7272727272727273,1.0,0.8421052631578948,21.85048105
4.0,16.0,0.5,0.7272727272727273,0.8888888888888888,0.7999999999999999,21.876653967
4.0,16.0,,0.0,NaN,NaN,22.47762499
8.0,1.0,0.1,0.6363636363636364,1.0,0.7777777777777778,22.052226607
8.0,2.0,0.7,0.6818181818181818,1.0,0.8108108108108109,21.822909507
8.0,4.0,,0.0,NaN,NaN,21.927435974
8.0,16.0,0.1,0.7272727272727273,0.8888888888888888,0.7999999999999999,22.33487106
4.0,16.0,0.1,0.7272727272727273,0.8888888888888888,0.7999999999999999,20.881438955
4.0,32.0,0.1,0.7272727272727273,0.8,0.761904761904762,21.60766709
4.0,16.0,0.3,0.7272727272727273,0.8888888888888888,0.7999999999999999,20.881201354
4.0,16.0,0.7,0.7272727272727273,0.8888888888888888,0.7999999999999999,19.436612756
4.0,32.0,0.7,0.7272727272727273,0.8,0.761904761904762,21.602518962
4.0,32.0,,0.0,NaN,NaN,20.888072934
4.0,32.0,0.9,0.7272727272727273,0.8,0.761904761904762,20.980048458
4.0,16.0,0.9,0.7272727272727273,0.8888888888888888,0.7999999999999999,20.857186775
4.0,32.0,0.5,0.7272727272727273,0.8,0.761904761904762,19.436776285
8.0,1.0,0.5,0.6363636363636364,1.0,0.7777777777777778,20.876683944
4.0,32.0,0.3,0.7272727272727273,0.8,0.761904761904762,22.092817235
8.0,2.0,0.1,0.6818181818181818,1.0,0.8108108108108109,20.913852918
8.0,2.0,0.5,0.6818181818181818,1.0,0.8108108108108109,20.832735653
8.0,1.0,,0.0,NaN,NaN,19.40342246
8.0,2.0,,0.0,NaN,NaN,19.460092526
8.0,1.0,0.7,0.6363636363636364,1.0,0.7777777777777778,20.905214142
8.0,1.0,0.3,0.6363636363636364,1.0,0.7777777777777778,21.626316928
8.0,4.0,0.5,0.7272727272727273,1.0,0.8421052631578948,20.86185392
8.0,4.0,0.3,0.7272727272727273,1.0,0.8421052631578948,21.011989422
8.0,4.0,0.7,0.7272727272727273,1.0,0.8421052631578948,20.869654976
8.0,8.0,,0.0,NaN,NaN,20.865555128
8.0,8.0,0.9,0.7272727272727273,1.0,0.8421052631578948,20.846447085
8.0,8.0,0.1,0.7272727272727273,1.0,0.8421052631578948,20.884174905
8.0,16.0,0.5,0.7272727272727273,0.8888888888888888,0.7999999999999999,20.851467836
8.0,1.0,0.9,0.6363636363636364,1.0,0.7777777777777778,21.544144428
8.0,8.0,0.5,0.7272727272727273,1.0,0.8421052631578948,19.449377797
8.0,16.0,,0.0,NaN,NaN,19.421306826
8.0,16.0,0.7,0.7272727272727273,0.8888888888888888,0.7999999999999999,20.892765362
8.0,32.0,,0.0,NaN,NaN,19.494150192
8.0,32.0,0.9,0.7272727272727273,0.8,0.761904761904762,20.836063747
8.0,2.0,0.3,0.6818181818181818,1.0,0.8108108108108109,21.714404054
8.0,32.0,0.5,0.7272727272727273,0.8,0.761904761904762,20.888024899
16.0,1.0,,0.0,NaN,NaN,20.89018161
16.0,1.0,0.1,0.6363636363636364,1.0,0.7777777777777778,20.82266261
16.0,1.0,0.5,0.6363636363636364,1.0,0.7777777777777778,20.816516044
16.0,1.0,0.9,0.6363636363636364,1.0,0.7777777777777778,20.823394717
8.0,32.0,0.1,0.7272727272727273,0.8888888888888888,0.7999999999999999,20.841630662
16.0,2.0,0.7,0.6818181818181818,1.0,0.8108108108108109,20.80424564
16.0,2.0,0.5,0.6818181818181818,1.0,0.8108108108108109,20.847626257
16.0,1.0,0.3,0.6363636363636364,1.0,0.7777777777777778,20.841153125
16.0,8.0,0.1,0.7272727272727273,1.0,0.8421052631578948,20.832046274
16.0,4.0,0.7,0.7272727272727273,1.0,0.8421052631578948,20.829866214
16.0,4.0,0.3,0.7272727272727273,1.0,0.8421052631578948,20.898888334
16.0,2.0,,0.0,NaN,NaN,20.852240461
16.0,2.0,0.1,0.6818181818181818,1.0,0.8108108108108109,19.371952931
16.0,4.0,,0.0,NaN,NaN,19.406195696
16.0,2.0,0.9,0.6818181818181818,1.0,0.8108108108108109,20.819962139
16.0,4.0,0.9,0.7272727272727273,1.0,0.8421052631578948,20.837167169
16.0,8.0,0.5,0.7272727272727273,1.0,0.8421052631578948,20.830989857
16.0,8.0,,0.0,NaN,NaN,19.382385351
16.0,4.0,0.1,0.7272727272727273,1.0,0.8421052631578948,19.4715446
16.0,16.0,,0.0,NaN,NaN,20.846320233
16.0,8.0,0.7,0.7272727272727273,1.0,0.8421052631578948,20.867445131
16.0,4.0,0.5,0.7272727272727273,1.0,0.8421052631578948,20.822691061
16.0,16.0,0.9,0.7272727272727273,0.8888888888888888,0.7999999999999999,20.815452501
16.0,16.0,0.3,0.7272727272727273,0.8888888888888888,0.7999999999999999,20.850035545
16.0,32.0,0.9,0.7272727272727273,0.8888888888888888,0.7999999999999999,20.806414056
16.0,32.0,0.5,0.7272727272727273,0.8888888888888888,0.7999999999999999,20.894771348
16.0,16.0,0.7,0.7272727272727273,0.8888888888888888,0.7999999999999999,19.39806616
32.0,1.0,0.3,0.5454545454545454,1.0,0.7058823529411764,20.878431059
16.0,8.0,0.3,0.7272727272727273,1.0,0.8421052631578948,20.837632441
16.0,16.0,0.1,0.7272727272727273,0.8888888888888888,0.7999999999999999,20.806744665
16.0,32.0,,0.0,NaN,NaN,19.411706429
16.0,8.0,0.9,0.7272727272727273,1.0,0.8421052631578948,20.870497094
32.0,1.0,0.7,0.5454545454545454,1.0,0.7058823529411764,20.849156141
16.0,16.0,0.5,0.7272727272727273,0.8888888888888888,0.7999999999999999,20.880828192
16.0,32.0,0.7,0.7272727272727273,0.8888888888888888,0.7999999999999999,20.860438086
32.0,1.0,0.1,0.5454545454545454,1.0,0.7058823529411764,20.820766646
32.0,1.0,0.9,0.5454545454545454,1.0,0.7058823529411764,20.867373231
32.0,1.0,,0.0,NaN,NaN,19.394274751
32.0,1.0,0.5,0.5454545454545454,1.0,0.7058823529411764,20.855927975
32.0,2.0,0.1,0.5909090909090909,1.0,0.7428571428571429,20.849875949
32.0,2.0,0.9,0.6818181818181818,1.0,0.8108108108108109,20.817282098
32.0,2.0,0.7,0.6818181818181818,1.0,0.8108108108108109,20.854543492
32.0,2.0,0.5,0.5909090909090909,1.0,0.7428571428571429,19.598849399
16.0,32.0,0.1,0.7272727272727273,0.8888888888888888,0.7999999999999999,20.861540021
16.0,32.0,0.3,0.7272727272727273,0.8888888888888888,0.7999999999999999,19.454069863
32.0,2.0,,0.0,NaN,NaN,20.944361896
32.0,2.0,0.3,0.5909090909090909,1.0,0.7428571428571429,20.893785063
8.0,2.0,0.9,0.6818181818181818,1.0,0.8108108108108109,21.541642552
8.0,4.0,0.1,0.7272727272727273,1.0,0.8421052631578948,21.592083938
8.0,4.0,0.9,0.7272727272727273,1.0,0.8421052631578948,21.481039738
8.0,8.0,0.3,0.7272727272727273,1.0,0.8421052631578948,21.507879323
8.0,16.0,0.9,0.7272727272727273,0.8888888888888888,0.7999999999999999,21.457883868
8.0,8.0,0.7,0.7272727272727273,1.0,0.8421052631578948,21.493919556
8.0,16.0,0.3,0.7272727272727273,0.8888888888888888,0.7999999999999999,21.540770904
8.0,32.0,0.3,0.7272727272727273,0.8888888888888888,0.7999999999999999,21.490267328
16.0,1.0,0.7,0.6363636363636364,1.0,0.7777777777777778,21.465566225
16.0,2.0,0.3,0.6818181818181818,1.0,0.8108108108108109,21.576945009
8.0,32.0,0.7,0.7272727272727273,0.8,0.761904761904762,21.634792644
32.0,4.0,0.9,0.7272727272727273,1.0,0.8421052631578948,22.202405086
32.0,8.0,,0.0,NaN,NaN,23.1339965
32.0,16.0,,0.0,NaN,NaN,22.227844855
32.0,4.0,,0.0,NaN,NaN,20.986057293
32.0,4.0,0.1,0.6363636363636364,1.0,0.7777777777777778,21.310076053
32.0,8.0,0.1,0.6363636363636364,1.0,0.7777777777777778,21.734752076
32.0,8.0,0.3,0.7272727272727273,1.0,0.8421052631578948,21.760633891
32.0,4.0,0.3,0.6363636363636364,1.0,0.7777777777777778,21.134786752
32.0,4.0,0.5,0.7272727272727273,1.0,0.8421052631578948,20.971350136
32.0,8.0,0.5,0.7272727272727273,1.0,0.8421052631578948,20.967844243
32.0,8.0,0.9,0.7272727272727273,1.0,0.8421052631578948,21.288413934
32.0,4.0,0.7,0.7272727272727273,1.0,0.8421052631578948,21.253239568
32.0,16.0,0.3,0.7272727272727273,0.8888888888888888,0.7999999999999999,20.994261281
32.0,16.0,0.1,0.7272727272727273,0.8888888888888888,0.7999999999999999,21.020204227
32.0,8.0,0.7,0.7272727272727273,1.0,0.8421052631578948,21.081049622
32.0,16.0,0.5,0.7272727272727273,0.8888888888888888,0.7999999999999999,21.023939205
32.0,32.0,0.9,0.7272727272727273,0.8888888888888888,0.7999999999999999,20.988311307
32.0,32.0,0.1,0.7272727272727273,0.8888888888888888,0.7999999999999999,19.547104476
32.0,32.0,0.7,0.7272727272727273,0.8888888888888888,0.7999999999999999,20.953235422
32.0,32.0,,0.0,NaN,NaN,20.996631601
32.0,16.0,0.7,0.7272727272727273,0.8888888888888888,0.7999999999999999,21.972310216
32.0,16.0,0.9,0.7272727272727273,0.8888888888888888,0.7999999999999999,21.578504343
32.0,32.0,0.3,0.7272727272727273,0.8888888888888888,0.7999999999999999,21.635566278
32.0,32.0,0.5,0.7272727272727273,0.8888888888888888,0.7999999999999999,21.609764042
1.0,1.0,0.1,0.6363636363636364,1.0,0.7777777777777778,20.066585042
