gamma_s,gamma_h,alpha,sencitivity,ppv,fmeasure,time
0.5,0.5,0.7.fa,0.9411764705882353,0.5925925925925926,0.7272727272727272,0.0
0.5,0.5,0.3.fa,0.9411764705882353,0.5925925925925926,0.7272727272727272,0.0
0.5,0.5,0.5.fa,0.9411764705882353,0.5925925925925926,0.7272727272727272,0.0
0.5,0.3333333333333333,0.9.fa,0.9411764705882353,0.5925925925925926,0.7272727272727272,0.0
0.5,0.3333333333333333,0.3.fa,0.9411764705882353,0.5925925925925926,0.7272727272727272,0.0
0.5,0.3333333333333333,0.7.fa,0.9411764705882353,0.5925925925925926,0.7272727272727272,0.0
0.5,0.5,0.9.fa,0.9411764705882353,0.5925925925925926,0.7272727272727272,0.0
0.5,0.3333333333333333,0.5.fa,0.9411764705882353,0.5925925925925926,0.7272727272727272,0.0
0.5,0.3333333333333333,0.1.fa,0.9411764705882353,0.5925925925925926,0.7272727272727272,0.0
0.5,0.2,0.1.fa,0.9411764705882353,0.5925925925925926,0.7272727272727272,0.0
0.5,0.1111111111111111,0.5.fa,0.9411764705882353,0.5925925925925926,0.7272727272727272,0.0
0.5,0.2,0.5.fa,0.9411764705882353,0.5925925925925926,0.7272727272727272,0.0
0.5,0.1111111111111111,0.3.fa,0.9411764705882353,0.5925925925925926,0.7272727272727272,0.0
0.5,0.2,0.3.fa,0.9411764705882353,0.5925925925925926,0.7272727272727272,0.0
0.5,0.2,0.7.fa,0.9411764705882353,0.5925925925925926,0.7272727272727272,0.0
0.5,0.2,0.9.fa,0.9411764705882353,0.5925925925925926,0.7272727272727272,0.0
0.5,0.058823529411764705,0.3.fa,0.9411764705882353,0.5925925925925926,0.7272727272727272,0.0
0.5,0.058823529411764705,0.9.fa,0.9411764705882353,0.5925925925925926,0.7272727272727272,0.0
0.5,0.058823529411764705,0.1.fa,0.9411764705882353,0.5925925925925926,0.7272727272727272,0.0
0.5,0.1111111111111111,0.1.fa,0.9411764705882353,0.5925925925925926,0.7272727272727272,0.0
0.5,0.058823529411764705,0.7.fa,0.9411764705882353,0.5925925925925926,0.7272727272727272,0.0
0.5,0.058823529411764705,0.5.fa,0.9411764705882353,0.5925925925925926,0.7272727272727272,0.0
0.5,0.030303030303030304,0.7.fa,0.9411764705882353,0.5925925925925926,0.7272727272727272,0.0
0.5,0.1111111111111111,0.7.fa,0.9411764705882353,0.5925925925925926,0.7272727272727272,0.0
0.5,0.1111111111111111,0.9.fa,0.9411764705882353,0.5925925925925926,0.7272727272727272,0.0
0.3333333333333333,0.5,0.3.fa,0.9411764705882353,0.5925925925925926,0.7272727272727272,0.0
0.3333333333333333,0.3333333333333333,0.1.fa,0.9411764705882353,0.5925925925925926,0.7272727272727272,0.0
0.3333333333333333,0.3333333333333333,0.7.fa,0.9411764705882353,0.5925925925925926,0.7272727272727272,0.0
0.5,0.030303030303030304,0.5.fa,0.9411764705882353,0.5925925925925926,0.7272727272727272,0.0
0.5,0.030303030303030304,0.1.fa,0.9411764705882353,0.5925925925925926,0.7272727272727272,0.0
0.3333333333333333,0.5,0.1.fa,0.9411764705882353,0.5925925925925926,0.7272727272727272,0.0
0.3333333333333333,0.1111111111111111,0.1.fa,0.9411764705882353,0.5925925925925926,0.7272727272727272,0.0
0.5,0.030303030303030304,0.9.fa,0.9411764705882353,0.5925925925925926,0.7272727272727272,0.0
0.5,0.030303030303030304,0.3.fa,0.9411764705882353,0.5925925925925926,0.7272727272727272,0.0
0.3333333333333333,0.2,0.5.fa,0.9411764705882353,0.5925925925925926,0.7272727272727272,0.0
0.3333333333333333,0.5,0.5.fa,0.9411764705882353,0.5925925925925926,0.7272727272727272,0.0
0.3333333333333333,0.3333333333333333,0.3.fa,0.9411764705882353,0.5925925925925926,0.7272727272727272,0.0
0.3333333333333333,0.3333333333333333,0.9.fa,0.9411764705882353,0.5925925925925926,0.7272727272727272,0.0
0.3333333333333333,0.2,0.7.fa,0.9411764705882353,0.5925925925925926,0.7272727272727272,0.0
0.3333333333333333,0.1111111111111111,0.3.fa,0.9411764705882353,0.5925925925925926,0.7272727272727272,0.0
0.3333333333333333,0.5,0.9.fa,0.9411764705882353,0.5925925925925926,0.7272727272727272,0.0
0.3333333333333333,0.2,0.1.fa,0.9411764705882353,0.5925925925925926,0.7272727272727272,0.0
0.3333333333333333,0.3333333333333333,0.5.fa,0.9411764705882353,0.5925925925925926,0.7272727272727272,0.0
0.3333333333333333,0.2,0.9.fa,0.9411764705882353,0.5925925925925926,0.7272727272727272,0.0
0.3333333333333333,0.1111111111111111,0.9.fa,0.9411764705882353,0.5925925925925926,0.7272727272727272,0.0
0.3333333333333333,0.5,0.7.fa,0.9411764705882353,0.5925925925925926,0.7272727272727272,0.0
0.3333333333333333,0.058823529411764705,0.5.fa,0.9411764705882353,0.5925925925925926,0.7272727272727272,0.0
0.3333333333333333,0.058823529411764705,0.1.fa,0.9411764705882353,0.5925925925925926,0.7272727272727272,0.0
0.3333333333333333,0.058823529411764705,0.3.fa,0.9411764705882353,0.5925925925925926,0.7272727272727272,0.0
0.3333333333333333,0.030303030303030304,0.9.fa,0.9411764705882353,0.5925925925925926,0.7272727272727272,0.0
0.3333333333333333,0.058823529411764705,0.7.fa,0.9411764705882353,0.5925925925925926,0.7272727272727272,0.0
0.3333333333333333,0.1111111111111111,0.7.fa,0.9411764705882353,0.5925925925925926,0.7272727272727272,0.0
0.3333333333333333,0.1111111111111111,0.5.fa,0.9411764705882353,0.5925925925925926,0.7272727272727272,0.0
0.2,0.3333333333333333,0.3.fa,0.9411764705882353,0.5925925925925926,0.7272727272727272,0.0
0.3333333333333333,0.030303030303030304,0.3.fa,0.9411764705882353,0.5925925925925926,0.7272727272727272,0.0
0.3333333333333333,0.2,0.3.fa,0.9411764705882353,0.5925925925925926,0.7272727272727272,0.0
0.2,0.5,0.1.fa,0.9411764705882353,0.5925925925925926,0.7272727272727272,0.0
0.2,0.3333333333333333,0.5.fa,0.9411764705882353,0.5925925925925926,0.7272727272727272,0.0
0.3333333333333333,0.030303030303030304,0.7.fa,0.9411764705882353,0.5925925925925926,0.7272727272727272,0.0
0.3333333333333333,0.058823529411764705,0.9.fa,0.9411764705882353,0.5925925925925926,0.7272727272727272,0.0
0.2,0.5,0.7.fa,0.9411764705882353,0.5925925925925926,0.7272727272727272,0.0
0.3333333333333333,0.030303030303030304,0.1.fa,0.9411764705882353,0.5925925925925926,0.7272727272727272,0.0
0.3333333333333333,0.030303030303030304,0.5.fa,0.9411764705882353,0.5925925925925926,0.7272727272727272,0.0
0.2,0.5,0.3.fa,0.9411764705882353,0.5925925925925926,0.7272727272727272,0.0
0.2,0.5,0.9.fa,0.9411764705882353,0.5925925925925926,0.7272727272727272,0.0
0.2,0.3333333333333333,0.1.fa,0.9411764705882353,0.5925925925925926,0.7272727272727272,0.0
0.2,0.5,0.5.fa,0.9411764705882353,0.5925925925925926,0.7272727272727272,0.0
0.2,0.1111111111111111,0.1.fa,0.9411764705882353,0.5925925925925926,0.7272727272727272,0.0
0.2,0.058823529411764705,0.7.fa,0.9411764705882353,0.5925925925925926,0.7272727272727272,0.0
0.1111111111111111,0.5,0.3.fa,0.9411764705882353,0.5925925925925926,0.7272727272727272,0.0
0.1111111111111111,0.3333333333333333,0.9.fa,0.9411764705882353,0.5925925925925926,0.7272727272727272,0.0
0.1111111111111111,0.1111111111111111,0.5.fa,0.9411764705882353,0.5925925925925926,0.7272727272727272,0.0
0.1111111111111111,0.030303030303030304,0.1.fa,0.7647058823529411,0.5652173913043478,0.65,0.0
0.2,0.3333333333333333,0.9.fa,0.9411764705882353,0.5925925925925926,0.7272727272727272,0.0
0.2,0.2,0.9.fa,0.9411764705882353,0.5925925925925926,0.7272727272727272,0.0
0.2,0.2,0.3.fa,0.9411764705882353,0.5925925925925926,0.7272727272727272,0.0
0.2,0.2,0.7.fa,0.9411764705882353,0.5925925925925926,0.7272727272727272,0.0
0.2,0.2,0.1.fa,0.9411764705882353,0.5925925925925926,0.7272727272727272,0.0
0.2,0.3333333333333333,0.7.fa,0.9411764705882353,0.5925925925925926,0.7272727272727272,0.0
0.2,0.1111111111111111,0.7.fa,0.9411764705882353,0.5925925925925926,0.7272727272727272,0.0
0.2,0.1111111111111111,0.5.fa,0.9411764705882353,0.5925925925925926,0.7272727272727272,0.0
0.2,0.1111111111111111,0.9.fa,0.9411764705882353,0.5925925925925926,0.7272727272727272,0.0
0.2,0.030303030303030304,0.9.fa,0.9411764705882353,0.5925925925925926,0.7272727272727272,0.0
0.2,0.2,0.5.fa,0.9411764705882353,0.5925925925925926,0.7272727272727272,0.0
0.2,0.058823529411764705,0.3.fa,0.9411764705882353,0.5925925925925926,0.7272727272727272,0.0
0.2,0.1111111111111111,0.3.fa,0.9411764705882353,0.5925925925925926,0.7272727272727272,0.0
0.2,0.058823529411764705,0.5.fa,0.9411764705882353,0.5925925925925926,0.7272727272727272,0.0
0.2,0.030303030303030304,0.1.fa,0.9411764705882353,0.5925925925925926,0.7272727272727272,0.0
0.2,0.058823529411764705,0.9.fa,0.9411764705882353,0.5925925925925926,0.7272727272727272,0.0
0.2,0.030303030303030304,0.3.fa,0.9411764705882353,0.5925925925925926,0.7272727272727272,0.0
0.2,0.030303030303030304,0.5.fa,0.9411764705882353,0.5925925925925926,0.7272727272727272,0.0
0.2,0.058823529411764705,0.1.fa,0.9411764705882353,0.5925925925925926,0.7272727272727272,0.0
0.2,0.030303030303030304,0.7.fa,0.9411764705882353,0.5925925925925926,0.7272727272727272,0.0
0.1111111111111111,0.3333333333333333,0.5.fa,0.9411764705882353,0.5925925925925926,0.7272727272727272,0.0
0.1111111111111111,0.5,0.7.fa,0.9411764705882353,0.5925925925925926,0.7272727272727272,0.0
0.1111111111111111,0.5,0.5.fa,0.9411764705882353,0.5925925925925926,0.7272727272727272,0.0
0.1111111111111111,0.5,0.1.fa,0.7647058823529411,0.5652173913043478,0.65,0.0
0.1111111111111111,0.5,0.9.fa,0.9411764705882353,0.5925925925925926,0.7272727272727272,0.0
0.1111111111111111,0.2,0.3.fa,0.9411764705882353,0.5925925925925926,0.7272727272727272,0.0
0.1111111111111111,0.3333333333333333,0.1.fa,0.7647058823529411,0.5652173913043478,0.65,0.0
0.1111111111111111,0.1111111111111111,0.1.fa,0.7647058823529411,0.5652173913043478,0.65,0.0
0.1111111111111111,0.2,0.1.fa,0.7647058823529411,0.5652173913043478,0.65,0.0
0.1111111111111111,0.2,0.7.fa,0.9411764705882353,0.5925925925925926,0.7272727272727272,0.0
0.1111111111111111,0.1111111111111111,0.7.fa,0.9411764705882353,0.5925925925925926,0.7272727272727272,0.0
0.1111111111111111,0.1111111111111111,0.9.fa,0.9411764705882353,0.5925925925925926,0.7272727272727272,0.0
0.1111111111111111,0.3333333333333333,0.7.fa,0.9411764705882353,0.5925925925925926,0.7272727272727272,0.0
0.1111111111111111,0.2,0.5.fa,0.9411764705882353,0.5925925925925926,0.7272727272727272,0.0
0.1111111111111111,0.3333333333333333,0.3.fa,0.9411764705882353,0.5925925925925926,0.7272727272727272,0.0
0.1111111111111111,0.058823529411764705,0.7.fa,0.9411764705882353,0.5925925925925926,0.7272727272727272,0.0
0.1111111111111111,0.058823529411764705,0.1.fa,0.7647058823529411,0.5652173913043478,0.65,0.0
0.1111111111111111,0.2,0.9.fa,0.9411764705882353,0.5925925925925926,0.7272727272727272,0.0
0.1111111111111111,0.058823529411764705,0.3.fa,0.9411764705882353,0.5925925925925926,0.7272727272727272,0.0
0.1111111111111111,0.1111111111111111,0.3.fa,0.9411764705882353,0.5925925925925926,0.7272727272727272,0.0
0.1111111111111111,0.058823529411764705,0.9.fa,0.9411764705882353,0.5925925925925926,0.7272727272727272,0.0
0.1111111111111111,0.058823529411764705,0.5.fa,0.9411764705882353,0.5925925925925926,0.7272727272727272,0.0
0.1111111111111111,0.030303030303030304,0.5.fa,0.9411764705882353,0.5925925925925926,0.7272727272727272,0.0
0.058823529411764705,0.5,0.1.fa,0.7647058823529411,0.5652173913043478,0.65,0.0
0.058823529411764705,0.5,0.5.fa,0.9411764705882353,0.5925925925925926,0.7272727272727272,0.0
0.058823529411764705,0.5,0.3.fa,0.9411764705882353,0.5925925925925926,0.7272727272727272,0.0
0.1111111111111111,0.030303030303030304,0.3.fa,0.9411764705882353,0.5925925925925926,0.7272727272727272,0.0
0.058823529411764705,0.5,0.7.fa,0.9411764705882353,0.5925925925925926,0.7272727272727272,0.0
0.058823529411764705,0.5,0.9.fa,0.9411764705882353,0.5925925925925926,0.7272727272727272,0.0
0.058823529411764705,0.3333333333333333,0.9.fa,0.9411764705882353,0.5925925925925926,0.7272727272727272,0.0
0.1111111111111111,0.030303030303030304,0.7.fa,0.9411764705882353,0.5925925925925926,0.7272727272727272,0.0
0.058823529411764705,0.2,0.1.fa,0.7647058823529411,0.5652173913043478,0.65,0.0
0.058823529411764705,0.3333333333333333,0.7.fa,0.9411764705882353,0.5925925925925926,0.7272727272727272,0.0
0.058823529411764705,0.2,0.3.fa,0.9411764705882353,0.5925925925925926,0.7272727272727272,0.0
0.058823529411764705,0.3333333333333333,0.1.fa,0.7647058823529411,0.5652173913043478,0.65,0.0
0.058823529411764705,0.1111111111111111,0.3.fa,0.9411764705882353,0.5925925925925926,0.7272727272727272,0.0
0.058823529411764705,0.3333333333333333,0.5.fa,0.9411764705882353,0.5925925925925926,0.7272727272727272,0.0
0.1111111111111111,0.030303030303030304,0.9.fa,0.9411764705882353,0.5925925925925926,0.7272727272727272,0.0
0.058823529411764705,0.1111111111111111,0.1.fa,0.7647058823529411,0.5652173913043478,0.65,0.0
0.058823529411764705,0.1111111111111111,0.5.fa,0.9411764705882353,0.5925925925925926,0.7272727272727272,0.0
0.058823529411764705,0.3333333333333333,0.3.fa,0.9411764705882353,0.5925925925925926,0.7272727272727272,0.0
0.058823529411764705,0.2,0.5.fa,0.9411764705882353,0.5925925925925926,0.7272727272727272,0.0
0.058823529411764705,0.1111111111111111,0.7.fa,0.9411764705882353,0.5925925925925926,0.7272727272727272,0.0
0.058823529411764705,0.058823529411764705,0.9.fa,0.9411764705882353,0.5925925925925926,0.7272727272727272,0.0
0.058823529411764705,0.058823529411764705,0.7.fa,0.9411764705882353,0.5925925925925926,0.7272727272727272,0.0
0.058823529411764705,0.2,0.9.fa,0.9411764705882353,0.5925925925925926,0.7272727272727272,0.0
0.058823529411764705,0.1111111111111111,0.9.fa,0.9411764705882353,0.5925925925925926,0.7272727272727272,0.0
0.058823529411764705,0.030303030303030304,0.1.fa,0.7647058823529411,0.5652173913043478,0.65,0.0
0.058823529411764705,0.030303030303030304,0.3.fa,0.9411764705882353,0.5925925925925926,0.7272727272727272,0.0
0.030303030303030304,0.5,0.1.fa,0.7647058823529411,0.5652173913043478,0.65,0.0
0.030303030303030304,0.5,0.3.fa,0.9411764705882353,0.5925925925925926,0.7272727272727272,0.0
0.058823529411764705,0.2,0.7.fa,0.9411764705882353,0.5925925925925926,0.7272727272727272,0.0
0.030303030303030304,0.5,0.5.fa,0.9411764705882353,0.5925925925925926,0.7272727272727272,0.0
0.058823529411764705,0.058823529411764705,0.3.fa,0.9411764705882353,0.5925925925925926,0.7272727272727272,0.0
0.058823529411764705,0.030303030303030304,0.7.fa,0.9411764705882353,0.5925925925925926,0.7272727272727272,0.0
0.058823529411764705,0.058823529411764705,0.1.fa,0.7647058823529411,0.5652173913043478,0.65,0.0
0.030303030303030304,0.3333333333333333,0.5.fa,0.9411764705882353,0.5925925925925926,0.7272727272727272,0.0
0.030303030303030304,0.5,0.7.fa,0.9411764705882353,0.5925925925925926,0.7272727272727272,0.0
0.058823529411764705,0.058823529411764705,0.5.fa,0.9411764705882353,0.5925925925925926,0.7272727272727272,0.0
0.030303030303030304,0.2,0.1.fa,0.7647058823529411,0.5652173913043478,0.65,0.0
0.058823529411764705,0.030303030303030304,0.5.fa,0.9411764705882353,0.5925925925925926,0.7272727272727272,0.0
0.030303030303030304,0.5,0.9.fa,0.9411764705882353,0.5925925925925926,0.7272727272727272,0.0
0.030303030303030304,0.3333333333333333,0.1.fa,0.7647058823529411,0.5652173913043478,0.65,0.0
0.030303030303030304,0.3333333333333333,0.9.fa,0.9411764705882353,0.5925925925925926,0.7272727272727272,0.0
0.030303030303030304,0.3333333333333333,0.7.fa,0.9411764705882353,0.5925925925925926,0.7272727272727272,0.0
0.030303030303030304,0.2,0.3.fa,0.9411764705882353,0.5925925925925926,0.7272727272727272,0.0
0.058823529411764705,0.030303030303030304,0.9.fa,0.9411764705882353,0.5925925925925926,0.7272727272727272,0.0
0.030303030303030304,0.3333333333333333,0.3.fa,0.9411764705882353,0.5925925925925926,0.7272727272727272,0.0
0.030303030303030304,0.2,0.7.fa,0.9411764705882353,0.5925925925925926,0.7272727272727272,0.0
0.030303030303030304,0.1111111111111111,0.1.fa,0.7647058823529411,0.5652173913043478,0.65,0.0
0.030303030303030304,0.1111111111111111,0.7.fa,0.9411764705882353,0.5925925925925926,0.7272727272727272,0.0
0.030303030303030304,0.1111111111111111,0.5.fa,0.9411764705882353,0.5925925925925926,0.7272727272727272,0.0
0.030303030303030304,0.1111111111111111,0.3.fa,0.9411764705882353,0.5925925925925926,0.7272727272727272,0.0
0.030303030303030304,0.058823529411764705,0.3.fa,0.9411764705882353,0.5925925925925926,0.7272727272727272,0.0
0.030303030303030304,0.2,0.9.fa,0.9411764705882353,0.5925925925925926,0.7272727272727272,0.0
0.030303030303030304,0.058823529411764705,0.5.fa,0.9411764705882353,0.5925925925925926,0.7272727272727272,0.0
0.030303030303030304,0.058823529411764705,0.1.fa,0.7647058823529411,0.5652173913043478,0.65,0.0
0.030303030303030304,0.058823529411764705,0.7.fa,0.9411764705882353,0.5925925925925926,0.7272727272727272,0.0
0.030303030303030304,0.1111111111111111,0.9.fa,0.9411764705882353,0.5925925925925926,0.7272727272727272,0.0
0.030303030303030304,0.030303030303030304,0.7.fa,0.9411764705882353,0.5925925925925926,0.7272727272727272,0.0
0.030303030303030304,0.030303030303030304,0.3.fa,0.9411764705882353,0.5925925925925926,0.7272727272727272,0.0
0.030303030303030304,0.2,0.5.fa,0.9411764705882353,0.5925925925925926,0.7272727272727272,0.0
0.030303030303030304,0.030303030303030304,0.9.fa,0.9411764705882353,0.5925925925925926,0.7272727272727272,0.0
0.030303030303030304,0.030303030303030304,0.1.fa,0.7647058823529411,0.5652173913043478,0.65,0.0
0.030303030303030304,0.058823529411764705,0.9.fa,0.9411764705882353,0.5925925925925926,0.7272727272727272,0.0
0.030303030303030304,0.030303030303030304,0.5.fa,0.9411764705882353,0.5925925925925926,0.7272727272727272,0.0
0.5,0.5,0.1.fa,0.9411764705882353,0.5925925925925926,0.7272727272727272,0.0
