GcvB.fa - STM4351.fa
GcvB.fa - STM4351.fa
GcvB.fa - STM4351.fa
GcvB.fa - STM4351.fa
GcvB.fa - STM4351.fa
GcvB.fa - STM4351.fa
GcvB.fa - STM4351.fa
GcvB.fa - STM4351.fa
GcvB.fa - STM4351.fa
GcvB.fa - STM4351.fa
GcvB.fa - STM4351.fa
GcvB.fa - STM4351.fa
GcvB.fa - STM4351.fa
GcvB.fa - STM4351.fa
GcvB.fa - STM4351.fa
GcvB.fa - STM4351.fa
GcvB.fa - STM4351.fa
GcvB.fa - STM4351.fa
GcvB.fa - STM4351.fa
GcvB.fa - STM4351.fa
GcvB.fa - STM4351.fa
GcvB.fa - STM4351.fa
GcvB.fa - STM4351.fa
GcvB.fa - STM4351.fa
GcvB.fa - STM4351.fa
GcvB.fa - STM4351.fa
GcvB.fa - STM4351.fa
GcvB.fa - STM4351.fa
GcvB.fa - STM4351.fa
GcvB.fa - STM4351.fa
GcvB.fa - STM4351.fa
GcvB.fa - STM4351.fa
GcvB.fa - STM4351.fa
GcvB.fa - STM4351.fa
GcvB.fa - STM4351.fa
GcvB.fa - STM4351.fa
GcvB.fa - STM4351.fa
GcvB.fa - STM4351.fa
GcvB.fa - STM4351.fa
GcvB.fa - STM4351.fa
GcvB.fa - STM4351.fa
GcvB.fa - STM4351.fa
GcvB.fa - STM4351.fa
GcvB.fa - STM4351.fa
GcvB.fa - STM4351.fa
GcvB.fa - STM4351.fa
GcvB.fa - STM4351.fa
GcvB.fa - STM4351.fa
GcvB.fa - STM4351.fa
GcvB.fa - STM4351.fa
GcvB.fa - STM4351.fa
GcvB.fa - STM4351.fa
GcvB.fa - STM4351.fa
GcvB.fa - STM4351.fa
GcvB.fa - STM4351.fa
GcvB.fa - STM4351.fa
GcvB.fa - STM4351.fa
GcvB.fa - STM4351.fa
GcvB.fa - STM4351.fa
GcvB.fa - STM4351.fa
GcvB.fa - STM4351.fa
GcvB.fa - STM4351.fa
GcvB.fa - STM4351.fa
GcvB.fa - STM4351.fa
GcvB.fa - STM4351.fa
GcvB.fa - STM4351.fa
GcvB.fa - STM4351.fa
GcvB.fa - STM4351.fa
GcvB.fa - STM4351.fa
GcvB.fa - STM4351.fa
GcvB.fa - STM4351.fa
GcvB.fa - STM4351.fa
GcvB.fa - STM4351.fa
GcvB.fa - STM4351.fa
GcvB.fa - STM4351.fa
GcvB.fa - STM4351.fa
GcvB.fa - STM4351.fa
GcvB.fa - STM4351.fa
GcvB.fa - STM4351.fa
GcvB.fa - STM4351.fa
GcvB.fa - STM4351.fa
GcvB.fa - STM4351.fa
GcvB.fa - STM4351.fa
GcvB.fa - STM4351.fa
GcvB.fa - STM4351.fa
GcvB.fa - STM4351.fa
GcvB.fa - STM4351.fa
GcvB.fa - STM4351.fa
GcvB.fa - STM4351.fa
GcvB.fa - STM4351.fa
GcvB.fa - STM4351.fa
GcvB.fa - STM4351.fa
GcvB.fa - STM4351.fa
GcvB.fa - STM4351.fa
GcvB.fa - STM4351.fa
GcvB.fa - STM4351.fa
GcvB.fa - STM4351.fa
GcvB.fa - STM4351.fa
GcvB.fa - STM4351.fa
GcvB.fa - STM4351.fa
GcvB.fa - STM4351.fa
GcvB.fa - STM4351.fa
GcvB.fa - STM4351.fa
GcvB.fa - STM4351.fa
GcvB.fa - STM4351.fa
GcvB.fa - STM4351.fa
GcvB.fa - STM4351.fa
GcvB.fa - STM4351.fa
GcvB.fa - STM4351.fa
GcvB.fa - STM4351.fa
GcvB.fa - STM4351.fa
GcvB.fa - STM4351.fa
GcvB.fa - STM4351.fa
GcvB.fa - STM4351.fa
GcvB.fa - STM4351.fa
GcvB.fa - STM4351.fa
GcvB.fa - STM4351.fa
GcvB.fa - STM4351.fa
GcvB.fa - STM4351.fa
GcvB.fa - STM4351.fa
GcvB.fa - STM4351.fa
GcvB.fa - STM4351.fa
GcvB.fa - STM4351.fa
GcvB.fa - STM4351.fa
GcvB.fa - STM4351.fa
GcvB.fa - STM4351.fa
GcvB.fa - STM4351.fa
GcvB.fa - STM4351.fa
GcvB.fa - STM4351.fa
GcvB.fa - STM4351.fa
GcvB.fa - STM4351.fa
GcvB.fa - STM4351.fa
GcvB.fa - STM4351.fa
GcvB.fa - STM4351.fa
GcvB.fa - STM4351.fa
GcvB.fa - STM4351.fa
GcvB.fa - STM4351.fa
GcvB.fa - STM4351.fa
GcvB.fa - STM4351.fa
GcvB.fa - STM4351.fa
GcvB.fa - STM4351.fa
GcvB.fa - STM4351.fa
GcvB.fa - STM4351.fa
GcvB.fa - STM4351.fa
GcvB.fa - STM4351.fa
GcvB.fa - STM4351.fa
GcvB.fa - STM4351.fa
GcvB.fa - STM4351.fa
GcvB.fa - STM4351.fa
GcvB.fa - STM4351.fa
GcvB.fa - STM4351.fa
GcvB.fa - STM4351.fa
GcvB.fa - STM4351.fa
GcvB.fa - STM4351.fa
GcvB.fa - STM4351.fa
GcvB.fa - STM4351.fa
GcvB.fa - STM4351.fa
GcvB.fa - STM4351.fa
GcvB.fa - STM4351.fa
GcvB.fa - STM4351.fa
GcvB.fa - STM4351.fa
GcvB.fa - STM4351.fa
GcvB.fa - STM4351.fa
GcvB.fa - STM4351.fa
GcvB.fa - STM4351.fa
GcvB.fa - STM4351.fa
GcvB.fa - STM4351.fa
GcvB.fa - STM4351.fa
GcvB.fa - STM4351.fa
GcvB.fa - STM4351.fa
GcvB.fa - STM4351.fa
GcvB.fa - STM4351.fa
GcvB.fa - STM4351.fa
GcvB.fa - STM4351.fa
GcvB.fa - STM4351.fa
GcvB.fa - STM4351.fa
GcvB.fa - STM4351.fa
GcvB.fa - STM4351.fa
GcvB.fa - STM4351.fa
GcvB.fa - STM4351.fa
GcvB.fa - STM4351.fa
GcvB.fa - STM4351.fa
GcvB.fa - STM4351.fa
GcvB.fa - STM4351.fa
GcvB.fa - STM4351.fa
GcvB.fa - STM4351.fa
GcvB.fa - STM4351.fa
GcvB.fa - STM4351.fa
GcvB.fa - STM4351.fa
GcvB.fa - STM4351.fa
GcvB.fa - STM4351.fa
GcvB.fa - STM4351.fa
GcvB.fa - STM4351.fa
GcvB.fa - STM4351.fa
GcvB.fa - STM4351.fa
GcvB.fa - STM4351.fa
GcvB.fa - STM4351.fa
GcvB.fa - STM4351.fa
GcvB.fa - STM4351.fa
GcvB.fa - STM4351.fa
GcvB.fa - STM4351.fa
GcvB.fa - STM4351.fa
GcvB.fa - STM4351.fa
GcvB.fa - STM4351.fa
GcvB.fa - STM4351.fa
GcvB.fa - STM4351.fa
GcvB.fa - STM4351.fa
GcvB.fa - STM4351.fa
GcvB.fa - STM4351.fa
GcvB.fa - STM4351.fa
GcvB.fa - STM4351.fa
GcvB.fa - STM4351.fa
GcvB.fa - STM4351.fa
GcvB.fa - STM4351.fa
GcvB.fa - STM4351.fa
GcvB.fa - STM4351.fa
GcvB.fa - STM4351.fa
GcvB.fa - STM4351.fa
GcvB.fa - STM4351.fa
GcvB.fa - STM4351.fa
GcvB.fa - STM4351.fa
GcvB.fa - STM4351.fa
GcvB.fa - STM4351.fa
GcvB.fa - STM4351.fa
GcvB.fa - STM4351.fa
GcvB.fa - STM4351.fa
GcvB.fa - STM4351.fa
GcvB.fa - STM4351.fa
GcvB.fa - STM4351.fa
GcvB.fa - STM4351.fa
GcvB.fa - STM4351.fa
GcvB.fa - STM4351.fa
GcvB.fa - STM4351.fa
GcvB.fa - STM4351.fa
GcvB.fa - STM4351.fa
GcvB.fa - STM4351.fa
GcvB.fa - STM4351.fa
GcvB.fa - STM4351.fa
GcvB.fa - STM4351.fa
GcvB.fa - STM4351.fa
GcvB.fa - STM4351.fa
GcvB.fa - STM4351.fa
GcvB.fa - STM4351.fa
GcvB.fa - STM4351.fa
GcvB.fa - STM4351.fa
GcvB.fa - STM4351.fa
GcvB.fa - STM4351.fa
GcvB.fa - STM4351.fa
GcvB.fa - STM4351.fa
GcvB.fa - STM4351.fa
GcvB.fa - STM4351.fa
GcvB.fa - STM4351.fa
GcvB.fa - STM4351.fa
GcvB.fa - STM4351.fa
GcvB.fa - STM4351.fa
GcvB.fa - STM4351.fa
GcvB.fa - STM4351.fa
GcvB.fa - STM4351.fa
GcvB.fa - STM4351.fa
GcvB.fa - STM4351.fa
GcvB.fa - STM4351.fa
GcvB.fa - STM4351.fa
GcvB.fa - STM4351.fa
GcvB.fa - STM4351.fa
GcvB.fa - STM4351.fa
GcvB.fa - STM4351.fa
GcvB.fa - STM4351.fa
GcvB.fa - STM4351.fa
GcvB.fa - STM4351.fa
GcvB.fa - STM4351.fa
GcvB.fa - STM4351.fa
GcvB.fa - STM4351.fa
GcvB.fa - STM4351.fa
GcvB.fa - STM4351.fa
GcvB.fa - STM4351.fa
GcvB.fa - STM4351.fa
GcvB.fa - STM4351.fa
GcvB.fa - STM4351.fa
GcvB.fa - STM4351.fa
GcvB.fa - STM4351.fa
GcvB.fa - STM4351.fa
GcvB.fa - STM4351.fa
GcvB.fa - STM4351.fa
GcvB.fa - STM4351.fa
GcvB.fa - STM4351.fa
GcvB.fa - STM4351.fa
GcvB.fa - STM4351.fa
GcvB.fa - STM4351.fa
GcvB.fa - STM4351.fa
GcvB.fa - STM4351.fa
GcvB.fa - STM4351.fa
GcvB.fa - STM4351.fa
GcvB.fa - STM4351.fa
GcvB.fa - STM4351.fa
GcvB.fa - STM4351.fa
GcvB.fa - STM4351.fa
GcvB.fa - STM4351.fa
GcvB.fa - STM4351.fa
GcvB.fa - STM4351.fa
GcvB.fa - STM4351.fa
GcvB.fa - STM4351.fa
GcvB.fa - STM4351.fa
GcvB.fa - STM4351.fa
GcvB.fa - STM4351.fa
GcvB.fa - STM4351.fa
GcvB.fa - STM4351.fa
GcvB.fa - STM4351.fa
GcvB.fa - STM4351.fa
GcvB.fa - STM4351.fa
GcvB.fa - STM4351.fa
GcvB.fa - STM4351.fa
GcvB.fa - STM4351.fa
GcvB.fa - STM4351.fa
GcvB.fa - STM4351.fa
GcvB.fa - STM4351.fa
GcvB.fa - STM4351.fa
GcvB.fa - STM4351.fa
GcvB.fa - STM4351.fa
GcvB.fa - STM4351.fa
GcvB.fa - STM4351.fa
GcvB.fa - STM4351.fa
GcvB.fa - STM4351.fa
GcvB.fa - STM4351.fa
GcvB.fa - STM4351.fa
GcvB.fa - STM4351.fa
GcvB.fa - STM4351.fa
GcvB.fa - STM4351.fa
GcvB.fa - STM4351.fa
GcvB.fa - STM4351.fa
GcvB.fa - STM4351.fa
GcvB.fa - STM4351.fa
GcvB.fa - STM4351.fa
GcvB.fa - STM4351.fa
GcvB.fa - STM4351.fa
GcvB.fa - STM4351.fa
GcvB.fa - STM4351.fa
GcvB.fa - STM4351.fa
GcvB.fa - STM4351.fa
GcvB.fa - STM4351.fa
GcvB.fa - STM4351.fa
GcvB.fa - STM4351.fa
GcvB.fa - STM4351.fa
GcvB.fa - STM4351.fa
GcvB.fa - STM4351.fa
GcvB.fa - STM4351.fa
GcvB.fa - STM4351.fa
GcvB.fa - STM4351.fa
GcvB.fa - STM4351.fa
GcvB.fa - STM4351.fa
GcvB.fa - STM4351.fa
GcvB.fa - STM4351.fa
GcvB.fa - STM4351.fa
GcvB.fa - STM4351.fa
GcvB.fa - STM4351.fa
GcvB.fa - STM4351.fa
GcvB.fa - STM4351.fa
GcvB.fa - STM4351.fa
GcvB.fa - STM4351.fa
GcvB.fa - STM4351.fa
GcvB.fa - STM4351.fa
GcvB.fa - STM4351.fa
GcvB.fa - STM4351.fa
GcvB.fa - STM4351.fa
GcvB.fa - STM4351.fa
GcvB.fa - STM4351.fa
GcvB.fa - STM4351.fa
GcvB.fa - STM4351.fa
GcvB.fa - STM4351.fa
GcvB.fa - STM4351.fa
GcvB.fa - STM4351.fa
GcvB.fa - STM4351.fa
GcvB.fa - STM4351.fa
GcvB.fa - STM4351.fa
GcvB.fa - STM4351.fa
GcvB.fa - STM4351.fa
GcvB.fa - STM4351.fa
GcvB.fa - STM4351.fa
GcvB.fa - STM4351.fa
GcvB.fa - STM4351.fa
GcvB.fa - STM4351.fa
GcvB.fa - STM4351.fa
GcvB.fa - STM4351.fa
GcvB.fa - STM4351.fa
GcvB.fa - STM4351.fa
GcvB.fa - STM4351.fa
GcvB.fa - STM4351.fa
GcvB.fa - STM4351.fa
GcvB.fa - STM4351.fa
GcvB.fa - STM4351.fa
GcvB.fa - STM4351.fa
GcvB.fa - STM4351.fa
GcvB.fa - STM4351.fa
GcvB.fa - STM4351.fa
GcvB.fa - STM4351.fa
GcvB.fa - STM4351.fa
GcvB.fa - STM4351.fa
GcvB.fa - STM4351.fa
GcvB.fa - STM4351.fa
GcvB.fa - STM4351.fa
GcvB.fa - STM4351.fa
GcvB.fa - STM4351.fa
GcvB.fa - STM4351.fa
GcvB.fa - STM4351.fa
GcvB.fa - STM4351.fa
GcvB.fa - STM4351.fa
GcvB.fa - STM4351.fa
GcvB.fa - STM4351.fa
GcvB.fa - STM4351.fa
GcvB.fa - STM4351.fa
GcvB.fa - STM4351.fa
GcvB.fa - STM4351.fa
GcvB.fa - STM4351.fa
GcvB.fa - STM4351.fa
GcvB.fa - STM4351.fa
GcvB.fa - STM4351.fa
GcvB.fa - STM4351.fa
GcvB.fa - STM4351.fa
GcvB.fa - STM4351.fa
GcvB.fa - STM4351.fa
GcvB.fa - STM4351.fa
GcvB.fa - STM4351.fa
GcvB.fa - STM4351.fa
GcvB.fa - STM4351.fa
GcvB.fa - STM4351.fa
GcvB.fa - STM4351.fa
GcvB.fa - STM4351.fa
GcvB.fa - STM4351.fa
GcvB.fa - STM4351.fa
GcvB.fa - STM4351.fa
GcvB.fa - STM4351.fa
GcvB.fa - STM4351.fa
GcvB.fa - STM4351.fa
GcvB.fa - STM4351.fa
GcvB.fa - STM4351.fa
GcvB.fa - STM4351.fa
GcvB.fa - STM4351.fa
GcvB.fa - STM4351.fa
GcvB.fa - STM4351.fa
GcvB.fa - STM4351.fa
GcvB.fa - STM4351.fa
GcvB.fa - STM4351.fa
GcvB.fa - STM4351.fa
GcvB.fa - STM4351.fa
GcvB.fa - STM4351.fa
GcvB.fa - STM4351.fa
GcvB.fa - STM4351.fa
GcvB.fa - STM4351.fa
GcvB.fa - STM4351.fa
GcvB.fa - STM4351.fa
GcvB.fa - STM4351.fa
GcvB.fa - STM4351.fa
GcvB.fa - STM4351.fa
GcvB.fa - STM4351.fa
GcvB.fa - STM4351.fa
GcvB.fa - STM4351.fa
GcvB.fa - STM4351.fa
GcvB.fa - STM4351.fa
GcvB.fa - STM4351.fa
GcvB.fa - STM4351.fa
GcvB.fa - STM4351.fa
GcvB.fa - STM4351.fa
GcvB.fa - STM4351.fa
GcvB.fa - STM4351.fa
GcvB.fa - STM4351.fa
GcvB.fa - STM4351.fa
GcvB.fa - STM4351.fa
GcvB.fa - STM4351.fa
GcvB.fa - STM4351.fa
GcvB.fa - STM4351.fa
GcvB.fa - STM4351.fa
GcvB.fa - STM4351.fa
GcvB.fa - STM4351.fa
GcvB.fa - STM4351.fa
GcvB.fa - STM4351.fa
GcvB.fa - STM4351.fa
GcvB.fa - STM4351.fa
GcvB.fa - STM4351.fa
GcvB.fa - STM4351.fa
GcvB.fa - STM4351.fa
GcvB.fa - STM4351.fa
GcvB.fa - STM4351.fa
GcvB.fa - STM4351.fa
GcvB.fa - STM4351.fa
GcvB.fa - STM4351.fa
GcvB.fa - STM4351.fa
GcvB.fa - STM4351.fa
GcvB.fa - STM4351.fa
GcvB.fa - STM4351.fa
GcvB.fa - STM4351.fa
GcvB.fa - STM4351.fa
GcvB.fa - STM4351.fa
GcvB.fa - STM4351.fa
GcvB.fa - STM4351.fa
GcvB.fa - STM4351.fa
GcvB.fa - STM4351.fa
GcvB.fa - STM4351.fa
GcvB.fa - STM4351.fa
GcvB.fa - STM4351.fa
GcvB.fa - STM4351.fa
GcvB.fa - STM4351.fa
GcvB.fa - STM4351.fa
GcvB.fa - STM4351.fa
GcvB.fa - STM4351.fa
GcvB.fa - STM4351.fa
GcvB.fa - STM4351.fa
GcvB.fa - STM4351.fa
GcvB.fa - STM4351.fa
GcvB.fa - STM4351.fa
GcvB.fa - STM4351.fa
GcvB.fa - STM4351.fa
GcvB.fa - STM4351.fa
GcvB.fa - STM4351.fa
GcvB.fa - STM4351.fa
GcvB.fa - STM4351.fa
GcvB.fa - STM4351.fa
GcvB.fa - STM4351.fa
GcvB.fa - STM4351.fa
GcvB.fa - STM4351.fa
GcvB.fa - STM4351.fa
GcvB.fa - STM4351.fa
GcvB.fa - STM4351.fa
GcvB.fa - STM4351.fa
GcvB.fa - STM4351.fa
GcvB.fa - STM4351.fa
GcvB.fa - STM4351.fa
GcvB.fa - STM4351.fa
GcvB.fa - STM4351.fa
GcvB.fa - STM4351.fa
GcvB.fa - STM4351.fa
GcvB.fa - STM4351.fa
GcvB.fa - STM4351.fa
GcvB.fa - STM4351.fa
GcvB.fa - STM4351.fa
GcvB.fa - STM4351.fa
GcvB.fa - STM4351.fa
GcvB.fa - STM4351.fa
GcvB.fa - STM4351.fa
GcvB.fa - STM4351.fa
GcvB.fa - STM4351.fa
GcvB.fa - STM4351.fa
GcvB.fa - STM4351.fa
GcvB.fa - STM4351.fa
GcvB.fa - STM4351.fa
GcvB.fa - STM4351.fa
GcvB.fa - STM4351.fa
GcvB.fa - STM4351.fa
GcvB.fa - STM4351.fa
GcvB.fa - STM4351.fa
GcvB.fa - STM4351.fa
GcvB.fa - STM4351.fa
GcvB.fa - STM4351.fa
GcvB.fa - STM4351.fa
GcvB.fa - STM4351.fa
GcvB.fa - STM4351.fa
GcvB.fa - STM4351.fa
GcvB.fa - STM4351.fa
GcvB.fa - STM4351.fa
GcvB.fa - STM4351.fa
GcvB.fa - STM4351.fa
GcvB.fa - STM4351.fa
GcvB.fa - STM4351.fa
GcvB.fa - STM4351.fa
GcvB.fa - STM4351.fa
GcvB.fa - STM4351.fa
GcvB.fa - STM4351.fa
GcvB.fa - STM4351.fa
