gamma_s,gamma_h,alpha,weight_h,sensitivity,ppv,fmeasure,time
1.0,1.0,0.1,0.5,0.3,0.6923076923076923,0.41860465116279066,80.57922951
1.0,1.0,0.6,0.5,0.3,0.6923076923076923,0.41860465116279066,80.994403175
1.0,1.0,0.5,0.5,0.3,0.6923076923076923,0.41860465116279066,80.709468152
1.0,1.0,0.4,0.5,0.3,0.6923076923076923,0.41860465116279066,80.824527716
1.0,1.0,0.9,0.5,0.31666666666666665,0.7307692307692307,0.44186046511627913,80.70644852
1.0,2.0,0.1,0.5,0.3333333333333333,0.6451612903225806,0.4395604395604395,80.683900354
1.0,1.0,0.2,0.5,0.3,0.6923076923076923,0.41860465116279066,79.422588545
1.0,1.0,0.3,0.5,0.3,0.6923076923076923,0.41860465116279066,81.346223593
1.0,1.0,0.7,0.5,0.3,0.6923076923076923,0.41860465116279066,79.218076177
1.0,2.0,0.2,0.5,0.3333333333333333,0.6451612903225806,0.4395604395604395,78.961950909
1.0,1.0,0.8,0.5,0.3,0.6923076923076923,0.41860465116279066,81.168486889
1.0,2.0,0.3,0.5,0.3333333333333333,0.6451612903225806,0.4395604395604395,79.537015741
1.0,2.0,0.4,0.5,0.36666666666666664,0.6666666666666666,0.47311827956989244,85.103566945
1.0,2.0,0.5,0.5,0.36666666666666664,0.6666666666666666,0.47311827956989244,84.501120786
1.0,2.0,0.6,0.5,0.35,0.6,0.4421052631578947,84.60846468
1.0,2.0,0.7,0.5,0.35,0.6,0.4421052631578947,84.35100073
1.0,2.0,0.8,0.5,0.35,0.6,0.4421052631578947,84.354747306
1.0,2.0,0.9,0.5,0.35,0.6,0.4421052631578947,84.491427463
1.0,8.0,0.9,0.5,0.26666666666666666,0.2962962962962963,0.28070175438596495,80.308501771
1.0,4.0,0.3,0.5,0.36666666666666664,0.5945945945945946,0.4536082474226804,80.483725275
1.0,4.0,0.4,0.5,0.35,0.5121951219512195,0.4158415841584158,80.536539484
1.0,4.0,0.2,0.5,0.35,0.5833333333333334,0.4375,80.251819707
1.0,4.0,0.5,0.5,0.35,0.4883720930232558,0.4077669902912621,80.370394292
1.0,4.0,0.6,0.5,0.3,0.4,0.34285714285714286,80.351645237
1.0,4.0,0.1,0.5,0.3333333333333333,0.5882352941176471,0.42553191489361697,90.763593513
1.0,4.0,0.7,0.5,0.3,0.4,0.34285714285714286,80.240365148
1.0,4.0,0.8,0.5,0.26666666666666666,0.35555555555555557,0.3047619047619048,80.393654722
1.0,4.0,0.9,0.5,0.26666666666666666,0.35555555555555557,0.3047619047619048,80.335634279
1.0,8.0,0.2,0.5,0.35,0.4117647058823529,0.37837837837837834,80.4221084
1.0,8.0,0.1,0.5,0.3333333333333333,0.45454545454545453,0.3846153846153846,80.349096752
1.0,8.0,0.3,0.5,0.3,0.3157894736842105,0.3076923076923077,81.00408823
1.0,8.0,0.4,0.5,0.3,0.3157894736842105,0.3076923076923077,80.248820875
1.0,8.0,0.6,0.5,0.2833333333333333,0.29310344827586204,0.288135593220339,80.425663201
1.0,8.0,0.5,0.5,0.2833333333333333,0.29310344827586204,0.288135593220339,80.241028808
1.0,8.0,0.8,0.5,0.26666666666666666,0.2962962962962963,0.28070175438596495,80.261917719
1.0,8.0,0.7,0.5,0.26666666666666666,0.2962962962962963,0.28070175438596495,80.45786689
1.0,16.0,0.1,0.5,0.35,0.40384615384615385,0.375,89.209536473
1.0,16.0,0.2,0.5,0.3,0.3103448275862069,0.3050847457627119,94.997131592
1.0,16.0,0.3,0.5,0.2833333333333333,0.288135593220339,0.2857142857142857,91.02012053
1.0,16.0,0.4,0.5,0.26666666666666666,0.2909090909090909,0.2782608695652174,95.324962858
1.0,16.0,0.6,0.5,0.26666666666666666,0.2909090909090909,0.2782608695652174,92.550499134
1.0,16.0,0.5,0.5,0.26666666666666666,0.2909090909090909,0.2782608695652174,89.022833349
1.0,16.0,0.7,0.5,0.26666666666666666,0.2909090909090909,0.2782608695652174,91.253111276
1.0,16.0,0.8,0.5,0.26666666666666666,0.2909090909090909,0.2782608695652174,92.582385243
1.0,16.0,0.9,0.5,0.26666666666666666,0.2909090909090909,0.2782608695652174,97.771553418
1.0,32.0,0.2,0.5,0.26666666666666666,0.2909090909090909,0.2782608695652174,80.361665021
1.0,32.0,0.1,0.5,0.3,0.3103448275862069,0.3050847457627119,90.088881127
1.0,32.0,0.3,0.5,0.26666666666666666,0.2909090909090909,0.2782608695652174,88.648814108
1.0,32.0,0.4,0.5,0.26666666666666666,0.2909090909090909,0.2782608695652174,90.783669812
1.0,32.0,0.5,0.5,0.26666666666666666,0.2909090909090909,0.2782608695652174,89.837511968
2.0,2.0,0.4,0.5,0.48333333333333334,0.7073170731707317,0.5742574257425742,81.16728976
2.0,2.0,0.9,0.5,0.5,0.6666666666666666,0.5714285714285715,80.814879305
1.0,32.0,0.6,0.5,0.26666666666666666,0.2909090909090909,0.2782608695652174,92.429656742
2.0,16.0,0.9,0.5,0.3,0.3157894736842105,0.3076923076923077,80.353994542
2.0,2.0,0.1,0.5,0.48333333333333334,0.7073170731707317,0.5742574257425742,81.164041912
2.0,16.0,0.7,0.5,0.3,0.3157894736842105,0.3076923076923077,80.483622812
2.0,4.0,0.5,0.5,0.5,0.6521739130434783,0.5660377358490566,80.862231165
2.0,32.0,0.7,0.5,0.3,0.3157894736842105,0.3076923076923077,80.308164992
2.0,2.0,0.3,0.5,0.48333333333333334,0.7073170731707317,0.5742574257425742,81.247643802
1.0,32.0,0.7,0.5,0.26666666666666666,0.2909090909090909,0.2782608695652174,91.384990533
4.0,1.0,0.5,0.5,0.7166666666666667,0.7678571428571429,0.7413793103448276,80.529005276
2.0,2.0,0.6,0.5,0.5166666666666667,0.7209302325581395,0.6019417475728156,81.177580976
2.0,2.0,0.2,0.5,0.48333333333333334,0.7073170731707317,0.5742574257425742,81.222094496
2.0,32.0,0.5,0.5,0.3,0.3157894736842105,0.3076923076923077,80.306191182
2.0,2.0,0.5,0.5,0.48333333333333334,0.7073170731707317,0.5742574257425742,81.619783826
2.0,8.0,0.1,0.5,0.48333333333333334,0.5686274509803921,0.5225225225225224,80.729444251
1.0,32.0,0.8,0.5,0.26666666666666666,0.2909090909090909,0.2782608695652174,94.816026393
2.0,4.0,0.2,0.5,0.48333333333333334,0.6904761904761905,0.5686274509803921,79.53047435
2.0,2.0,0.7,0.5,0.5166666666666667,0.7209302325581395,0.6019417475728156,79.402798812
2.0,2.0,0.8,0.5,0.5166666666666667,0.7209302325581395,0.6019417475728156,81.052859847
4.0,2.0,0.3,0.5,0.75,0.7758620689655172,0.7627118644067795,80.254816687
4.0,1.0,0.3,0.5,0.7166666666666667,0.7678571428571429,0.7413793103448276,80.313574457
2.0,4.0,0.1,0.5,0.48333333333333334,0.6904761904761905,0.5686274509803921,80.88991042
4.0,2.0,0.1,0.5,0.75,0.7758620689655172,0.7627118644067795,80.216801667
2.0,4.0,0.3,0.5,0.5,0.6818181818181818,0.576923076923077,81.062242637
4.0,4.0,0.1,0.5,0.75,0.7758620689655172,0.7627118644067795,80.360059731
2.0,4.0,0.4,0.5,0.5166666666666667,0.6888888888888889,0.5904761904761905,80.847384012
2.0,8.0,0.6,0.5,0.5,0.4918032786885246,0.49586776859504134,80.747969412
2.0,4.0,0.8,0.5,0.48333333333333334,0.5686274509803921,0.5225225225225224,79.262924494
2.0,4.0,0.7,0.5,0.48333333333333334,0.5686274509803921,0.5225225225225224,81.008181653
1.0,32.0,0.9,0.5,0.26666666666666666,0.2909090909090909,0.2782608695652174,92.079149138
2.0,4.0,0.6,0.5,0.5,0.6382978723404256,0.5607476635514019,81.082195732
4.0,2.0,0.8,0.5,0.7666666666666667,0.7931034482758621,0.7796610169491527,80.430040509
2.0,4.0,0.9,0.5,0.48333333333333334,0.5686274509803921,0.5225225225225224,81.317695471
4.0,4.0,0.8,0.5,0.7,0.7241379310344828,0.711864406779661,80.414131422
2.0,8.0,0.3,0.5,0.5,0.5172413793103449,0.5084745762711865,79.167002622
4.0,4.0,0.6,0.5,0.7666666666666667,0.7931034482758621,0.7796610169491527,81.34334117
2.0,8.0,0.9,0.5,0.31666666666666665,0.3333333333333333,0.3247863247863248,79.45781618
2.0,16.0,0.2,0.5,0.5,0.4918032786885246,0.49586776859504134,81.403205671
2.0,8.0,0.4,0.5,0.5,0.4918032786885246,0.49586776859504134,81.020569297
2.0,8.0,0.2,0.5,0.5166666666666667,0.5849056603773585,0.5486725663716815,81.400459532
4.0,8.0,0.4,0.5,0.7,0.6461538461538462,0.6719999999999999,80.461966565
2.0,8.0,0.5,0.5,0.5,0.4918032786885246,0.49586776859504134,80.885912467
2.0,8.0,0.7,0.5,0.4,0.4067796610169492,0.40336134453781514,80.8339841
2.0,16.0,0.8,0.5,0.3,0.3157894736842105,0.3076923076923077,80.720161208
2.0,8.0,0.8,0.5,0.38333333333333336,0.3898305084745763,0.3865546218487395,80.69485534
2.0,32.0,0.6,0.5,0.3,0.3157894736842105,0.3076923076923077,80.708161829
2.0,16.0,0.1,0.5,0.5166666666666667,0.5849056603773585,0.5486725663716815,81.135532965
2.0,16.0,0.4,0.5,0.38333333333333336,0.3898305084745763,0.3865546218487395,79.052485525
2.0,16.0,0.3,0.5,0.5,0.4918032786885246,0.49586776859504134,80.755867268
2.0,1.0,0.1,0.5,0.45,0.75,0.5625000000000001,88.805332099
2.0,32.0,0.3,0.5,0.3,0.3157894736842105,0.3076923076923077,79.170190148
2.0,16.0,0.6,0.5,0.3,0.3157894736842105,0.3076923076923077,80.78701796
2.0,16.0,0.5,0.5,0.31666666666666665,0.3333333333333333,0.3247863247863248,81.042926792
4.0,1.0,0.4,0.5,0.7166666666666667,0.7678571428571429,0.7413793103448276,80.823345021
2.0,32.0,0.9,0.5,0.3,0.3157894736842105,0.3076923076923077,79.149830525
4.0,2.0,0.2,0.5,0.75,0.7758620689655172,0.7627118644067795,80.785626791
2.0,1.0,0.2,0.5,0.45,0.75,0.5625000000000001,88.795409812
4.0,1.0,0.8,0.5,0.7166666666666667,0.7678571428571429,0.7413793103448276,79.278897828
2.0,32.0,0.1,0.5,0.5,0.4918032786885246,0.49586776859504134,80.772670901
4.0,2.0,0.9,0.5,0.7666666666666667,0.7931034482758621,0.7796610169491527,80.736743025
2.0,32.0,0.4,0.5,0.3,0.3157894736842105,0.3076923076923077,81.117223946
2.0,32.0,0.2,0.5,0.38333333333333336,0.3898305084745763,0.3865546218487395,80.908990219
2.0,1.0,0.3,0.5,0.45,0.75,0.5625000000000001,91.806025357
4.0,1.0,0.1,0.5,0.7166666666666667,0.7678571428571429,0.7413793103448276,80.788099057
4.0,2.0,0.5,0.5,0.75,0.7758620689655172,0.7627118644067795,79.040760971
2.0,32.0,0.8,0.5,0.3,0.3157894736842105,0.3076923076923077,80.948473567
4.0,1.0,0.6,0.5,0.7166666666666667,0.7678571428571429,0.7413793103448276,80.646052369
4.0,1.0,0.2,0.5,0.7166666666666667,0.7678571428571429,0.7413793103448276,80.731978934
2.0,1.0,0.4,0.5,0.45,0.75,0.5625000000000001,97.401308842
4.0,4.0,0.7,0.5,0.7,0.7241379310344828,0.711864406779661,80.762737002
4.0,8.0,0.5,0.5,0.7,0.6461538461538462,0.6719999999999999,80.72784089
4.0,1.0,0.7,0.5,0.7166666666666667,0.7678571428571429,0.7413793103448276,80.744392125
4.0,16.0,0.1,0.5,0.75,0.6818181818181818,0.7142857142857143,80.933904842
2.0,1.0,0.5,0.5,0.45,0.75,0.5625000000000001,95.538827637
4.0,2.0,0.6,0.5,0.75,0.7758620689655172,0.7627118644067795,80.799988939
4.0,1.0,0.9,0.5,0.7166666666666667,0.7678571428571429,0.7413793103448276,80.641627228
4.0,2.0,0.4,0.5,0.75,0.7758620689655172,0.7627118644067795,80.72114943
4.0,4.0,0.4,0.5,0.75,0.7758620689655172,0.7627118644067795,79.380638605
4.0,4.0,0.2,0.5,0.75,0.7758620689655172,0.7627118644067795,81.198987328
4.0,8.0,0.1,0.5,0.75,0.6923076923076923,0.7199999999999999,79.439710692
2.0,1.0,0.6,0.5,0.45,0.75,0.5625000000000001,90.232926844
4.0,4.0,0.5,0.5,0.7666666666666667,0.7931034482758621,0.7796610169491527,80.909880608
4.0,2.0,0.7,0.5,0.75,0.7758620689655172,0.7627118644067795,80.744136408
4.0,8.0,0.2,0.5,0.75,0.6923076923076923,0.7199999999999999,81.194916899
4.0,4.0,0.9,0.5,0.7,0.7241379310344828,0.711864406779661,80.771106515
4.0,4.0,0.3,0.5,0.75,0.7758620689655172,0.7627118644067795,80.701939549
4.0,8.0,0.8,0.5,0.5833333333333334,0.5223880597014925,0.5511811023622046,79.070477784
2.0,1.0,0.7,0.5,0.45,0.75,0.5625000000000001,88.651373056
4.0,8.0,0.7,0.5,0.6333333333333333,0.5671641791044776,0.5984251968503937,80.611208256
4.0,16.0,0.3,0.5,0.6666666666666666,0.5970149253731343,0.6299212598425197,79.022549649
4.0,8.0,0.6,0.5,0.6333333333333333,0.5671641791044776,0.5984251968503937,80.620890093
4.0,16.0,0.2,0.5,0.7,0.6363636363636364,0.6666666666666666,80.622962935
4.0,8.0,0.3,0.5,0.7666666666666667,0.7076923076923077,0.736,81.026788482
4.0,8.0,0.9,0.5,0.5833333333333334,0.5223880597014925,0.5511811023622046,80.685618544
4.0,16.0,0.7,0.5,0.43333333333333335,0.3939393939393939,0.4126984126984127,79.16577096
4.0,16.0,0.6,0.5,0.5166666666666667,0.4626865671641791,0.4881889763779528,79.131960995
2.0,1.0,0.8,0.5,0.45,0.75,0.5625000000000001,102.747644605
2.0,1.0,0.9,0.5,0.45,0.75,0.5625000000000001,91.154130695
4.0,16.0,0.4,0.5,0.6333333333333333,0.5588235294117647,0.59375,80.692451251
4.0,16.0,0.5,0.5,0.5833333333333334,0.5223880597014925,0.5511811023622046,80.706675911
4.0,16.0,0.8,0.5,0.4166666666666667,0.3787878787878788,0.3968253968253969,84.071404026
4.0,32.0,0.3,0.5,0.5166666666666667,0.4626865671641791,0.4881889763779528,84.318087296
4.0,32.0,0.1,0.5,0.7333333333333333,0.6666666666666666,0.6984126984126984,84.076756389
4.0,16.0,0.9,0.5,0.4166666666666667,0.3787878787878788,0.3968253968253969,84.300856082
4.0,32.0,0.2,0.5,0.6333333333333333,0.5588235294117647,0.59375,84.057070164
4.0,32.0,0.4,0.5,0.4166666666666667,0.3787878787878788,0.3968253968253969,84.505556704
8.0,2.0,0.5,0.5,0.8,0.7868852459016393,0.7933884297520661,80.580378182
4.0,32.0,0.9,0.5,0.31666666666666665,0.3275862068965517,0.3220338983050847,80.531265635
8.0,1.0,0.1,0.5,0.7666666666666667,0.7796610169491526,0.773109243697479,80.415750987
8.0,1.0,0.2,0.5,0.7666666666666667,0.7796610169491526,0.773109243697479,80.133271532
8.0,1.0,0.3,0.5,0.7666666666666667,0.7796610169491526,0.773109243697479,80.199164951
8.0,1.0,0.4,0.5,0.7666666666666667,0.7796610169491526,0.773109243697479,80.395296367
8.0,1.0,0.5,0.5,0.7666666666666667,0.7796610169491526,0.773109243697479,80.86998914
8.0,1.0,0.6,0.5,0.7666666666666667,0.7796610169491526,0.773109243697479,80.618635849
8.0,1.0,0.7,0.5,0.7666666666666667,0.7796610169491526,0.773109243697479,80.388878001
8.0,1.0,0.8,0.5,0.7666666666666667,0.7796610169491526,0.773109243697479,80.23415947
8.0,1.0,0.9,0.5,0.7666666666666667,0.7796610169491526,0.773109243697479,80.258503041
8.0,2.0,0.1,0.5,0.8,0.7868852459016393,0.7933884297520661,80.252250003
4.0,32.0,0.5,0.5,0.36666666666666664,0.3384615384615385,0.35200000000000004,92.853692539
8.0,2.0,0.2,0.5,0.8,0.7868852459016393,0.7933884297520661,80.213491566
8.0,2.0,0.3,0.5,0.8,0.7868852459016393,0.7933884297520661,80.525085736
8.0,2.0,0.4,0.5,0.8,0.7868852459016393,0.7933884297520661,80.392729363
4.0,32.0,0.7,0.5,0.31666666666666665,0.3275862068965517,0.3220338983050847,93.270956852
4.0,32.0,0.6,0.5,0.31666666666666665,0.3275862068965517,0.3220338983050847,96.765785843
8.0,2.0,0.6,0.5,0.8,0.7868852459016393,0.7933884297520661,80.244584617
8.0,2.0,0.7,0.5,0.8,0.7868852459016393,0.7933884297520661,80.900723216
4.0,32.0,0.8,0.5,0.31666666666666665,0.3275862068965517,0.3220338983050847,91.757025047
8.0,2.0,0.8,0.5,0.8,0.7868852459016393,0.7933884297520661,91.006414459
8.0,2.0,0.9,0.5,0.8,0.7868852459016393,0.7933884297520661,90.833603138
8.0,4.0,0.1,0.5,0.8,0.7868852459016393,0.7933884297520661,92.394399968
8.0,4.0,0.9,0.5,0.8166666666666667,0.8032786885245902,0.8099173553719008,79.868497923
8.0,4.0,0.2,0.5,0.8,0.7868852459016393,0.7933884297520661,91.230996847
8.0,4.0,0.3,0.5,0.8,0.7868852459016393,0.7933884297520661,95.1355526
8.0,4.0,0.4,0.5,0.8,0.7868852459016393,0.7933884297520661,94.511785422
8.0,4.0,0.5,0.5,0.8,0.7868852459016393,0.7933884297520661,89.88914972
8.0,4.0,0.6,0.5,0.8,0.7868852459016393,0.7933884297520661,92.523745899
8.0,4.0,0.7,0.5,0.8,0.7868852459016393,0.7933884297520661,94.438154385
8.0,4.0,0.8,0.5,0.8,0.7868852459016393,0.7933884297520661,92.277734445
8.0,8.0,0.1,0.5,0.8,0.7272727272727273,0.761904761904762,91.408207352
8.0,8.0,0.5,0.5,0.8166666666666667,0.7424242424242424,0.7777777777777778,81.114433421
8.0,16.0,0.1,0.5,0.8,0.7164179104477612,0.7559055118110236,80.703606952
16.0,2.0,0.3,0.5,0.7,0.6885245901639344,0.6942148760330578,80.483916162
16.0,1.0,0.8,0.5,0.7333333333333333,0.7096774193548387,0.7213114754098361,80.41440275
16.0,4.0,0.1,0.5,0.7,0.6885245901639344,0.6942148760330578,80.316485167
16.0,2.0,0.6,0.5,0.7333333333333333,0.7096774193548387,0.7213114754098361,80.99753791
8.0,8.0,0.4,0.5,0.8,0.7272727272727273,0.761904761904762,80.919840137
8.0,8.0,0.3,0.5,0.8,0.7272727272727273,0.761904761904762,81.080195146
8.0,8.0,0.9,0.5,0.7333333333333333,0.6567164179104478,0.6929133858267716,81.25256377
8.0,8.0,0.2,0.5,0.8,0.7272727272727273,0.761904761904762,80.947397642
16.0,4.0,0.8,0.5,0.8,0.7741935483870968,0.7868852459016393,80.365522819
16.0,4.0,0.4,0.5,0.7333333333333333,0.7096774193548387,0.7213114754098361,80.24560191
8.0,8.0,0.6,0.5,0.8166666666666667,0.7424242424242424,0.7777777777777778,80.995023236
8.0,16.0,0.3,0.5,0.8166666666666667,0.7313432835820896,0.7716535433070867,79.468874908
8.0,8.0,0.7,0.5,0.75,0.6818181818181818,0.7142857142857143,79.295523837
8.0,16.0,0.6,0.5,0.65,0.5652173913043478,0.6046511627906976,80.821240544
8.0,8.0,0.8,0.5,0.75,0.6818181818181818,0.7142857142857143,81.640349379
16.0,8.0,0.2,0.5,0.7333333333333333,0.6666666666666666,0.6984126984126984,80.222601416
16.0,8.0,0.6,0.5,0.8,0.7164179104477612,0.7559055118110236,80.263777217
8.0,32.0,0.2,0.5,0.75,0.6716417910447762,0.7086614173228347,81.4194098
8.0,16.0,0.2,0.5,0.8,0.7164179104477612,0.7559055118110236,80.926458362
16.0,8.0,0.9,0.5,0.8166666666666667,0.7313432835820896,0.7716535433070867,80.825260574
16.0,16.0,0.4,0.5,0.8,0.7058823529411765,0.7500000000000001,80.264614485
8.0,16.0,0.5,0.5,0.7333333333333333,0.6470588235294118,0.6875,80.800439335
16.0,16.0,0.7,0.5,0.75,0.6617647058823529,0.7031250000000001,80.288820664
8.0,16.0,0.4,0.5,0.75,0.6716417910447762,0.7086614173228347,81.37290369
8.0,16.0,0.8,0.5,0.6166666666666667,0.5362318840579711,0.5736434108527132,79.174493603
8.0,32.0,0.7,0.5,0.43333333333333335,0.3880597014925373,0.4094488188976378,80.857305936
8.0,16.0,0.7,0.5,0.65,0.5652173913043478,0.6046511627906976,80.791832641
16.0,32.0,0.2,0.5,0.8,0.7058823529411765,0.7500000000000001,80.15140425
16.0,32.0,0.5,0.5,0.7333333333333333,0.6376811594202898,0.6821705426356589,80.500242767
8.0,32.0,0.1,0.5,0.8,0.7164179104477612,0.7559055118110236,80.955735953
8.0,16.0,0.9,0.5,0.6,0.5294117647058824,0.5625,80.874428404
8.0,32.0,0.4,0.5,0.6166666666666667,0.5362318840579711,0.5736434108527132,79.035593791
8.0,32.0,0.3,0.5,0.65,0.5652173913043478,0.6046511627906976,80.80200843
8.0,32.0,0.5,0.5,0.6,0.5294117647058824,0.5625,81.192843986
8.0,32.0,0.9,0.5,0.38333333333333336,0.3484848484848485,0.3650793650793651,79.628111355
8.0,32.0,0.6,0.5,0.5333333333333333,0.47058823529411764,0.5,80.95213227
16.0,1.0,0.3,0.5,0.7,0.6885245901639344,0.6942148760330578,80.932202963
8.0,32.0,0.8,0.5,0.43333333333333335,0.3880597014925373,0.4094488188976378,80.910058394
16.0,1.0,0.1,0.5,0.7,0.6885245901639344,0.6942148760330578,81.255642227
16.0,1.0,0.2,0.5,0.7,0.6885245901639344,0.6942148760330578,81.26927502
16.0,1.0,0.5,0.5,0.7,0.6885245901639344,0.6942148760330578,79.285152589
16.0,1.0,0.9,0.5,0.7333333333333333,0.7096774193548387,0.7213114754098361,81.264447669
16.0,2.0,0.7,0.5,0.7333333333333333,0.7096774193548387,0.7213114754098361,80.840060277
16.0,1.0,0.6,0.5,0.7333333333333333,0.7096774193548387,0.7213114754098361,80.729712829
16.0,2.0,0.2,0.5,0.7,0.6885245901639344,0.6942148760330578,79.12718884
16.0,1.0,0.4,0.5,0.7,0.6885245901639344,0.6942148760330578,80.744575066
16.0,1.0,0.7,0.5,0.7333333333333333,0.7096774193548387,0.7213114754098361,80.91506173
16.0,4.0,0.5,0.5,0.7666666666666667,0.7419354838709677,0.7540983606557377,81.024038516
16.0,2.0,0.4,0.5,0.7333333333333333,0.7096774193548387,0.7213114754098361,80.801202326
16.0,2.0,0.9,0.5,0.7666666666666667,0.7419354838709677,0.7540983606557377,79.079383568
16.0,2.0,0.1,0.5,0.7,0.6885245901639344,0.6942148760330578,80.649102214
16.0,4.0,0.2,0.5,0.7,0.6885245901639344,0.6942148760330578,80.989660914
16.0,2.0,0.8,0.5,0.7666666666666667,0.7419354838709677,0.7540983606557377,80.613873846
16.0,4.0,0.7,0.5,0.8,0.7741935483870968,0.7868852459016393,78.989861014
16.0,2.0,0.5,0.5,0.7333333333333333,0.7096774193548387,0.7213114754098361,80.720668155
16.0,4.0,0.3,0.5,0.7333333333333333,0.7096774193548387,0.7213114754098361,80.667961793
16.0,4.0,0.9,0.5,0.8,0.7741935483870968,0.7868852459016393,80.703420053
16.0,4.0,0.6,0.5,0.7666666666666667,0.7419354838709677,0.7540983606557377,80.61702998
16.0,8.0,0.3,0.5,0.7666666666666667,0.6865671641791045,0.7244094488188977,80.926634193
16.0,8.0,0.5,0.5,0.8,0.7164179104477612,0.7559055118110236,79.219284364
16.0,8.0,0.7,0.5,0.8,0.7164179104477612,0.7559055118110236,80.933437183
16.0,16.0,0.1,0.5,0.7333333333333333,0.6666666666666666,0.6984126984126984,80.617462478
16.0,8.0,0.4,0.5,0.8,0.7164179104477612,0.7559055118110236,81.028468649
16.0,16.0,0.8,0.5,0.75,0.6617647058823529,0.7031250000000001,80.670449181
16.0,16.0,0.5,0.5,0.8166666666666667,0.7205882352941176,0.7656250000000001,80.819640769
16.0,8.0,0.1,0.5,0.7,0.6666666666666666,0.6829268292682926,80.982444926
16.0,16.0,0.3,0.5,0.8,0.7058823529411765,0.7500000000000001,79.045401226
16.0,32.0,0.3,0.5,0.8166666666666667,0.7205882352941176,0.7656250000000001,80.766379202
16.0,16.0,0.2,0.5,0.8,0.7058823529411765,0.7500000000000001,80.736889674
16.0,32.0,0.6,0.5,0.65,0.5652173913043478,0.6046511627906976,80.684072047
32.0,1.0,0.2,0.5,0.65,0.6,0.624,80.800447207
16.0,32.0,0.1,0.5,0.8,0.7058823529411765,0.7500000000000001,79.460422517
16.0,32.0,0.9,0.5,0.6,0.5294117647058824,0.5625,80.693877102
16.0,16.0,0.9,0.5,0.7333333333333333,0.6376811594202898,0.6821705426356589,80.594539565
16.0,32.0,0.8,0.5,0.6166666666666667,0.5362318840579711,0.5736434108527132,79.09930087
16.0,8.0,0.8,0.5,0.8,0.7164179104477612,0.7559055118110236,80.71355485
16.0,32.0,0.7,0.5,0.65,0.5652173913043478,0.6046511627906976,80.766300483
32.0,1.0,0.5,0.5,0.7166666666666667,0.6417910447761194,0.6771653543307087,80.876062979
32.0,1.0,0.3,0.5,0.65,0.6,0.624,80.704704731
16.0,16.0,0.6,0.5,0.8166666666666667,0.7205882352941176,0.7656250000000001,80.838507129
32.0,1.0,0.4,0.5,0.65,0.6,0.624,79.059132327
32.0,1.0,0.7,0.5,0.7166666666666667,0.6417910447761194,0.6771653543307087,79.004624395
32.0,1.0,0.8,0.5,0.7166666666666667,0.6417910447761194,0.6771653543307087,79.221111315
16.0,32.0,0.4,0.5,0.75,0.6617647058823529,0.7031250000000001,80.725750183
32.0,1.0,0.1,0.5,0.65,0.6,0.624,81.028375117
32.0,1.0,0.6,0.5,0.7166666666666667,0.6417910447761194,0.6771653543307087,80.771492525
32.0,1.0,0.9,0.5,0.7166666666666667,0.6417910447761194,0.6771653543307087,84.574684791
32.0,2.0,0.4,0.5,0.7166666666666667,0.6417910447761194,0.6771653543307087,84.747883908
32.0,2.0,0.1,0.5,0.65,0.6,0.624,83.934155268
32.0,2.0,0.3,0.5,0.7166666666666667,0.6417910447761194,0.6771653543307087,84.53174169
32.0,2.0,0.2,0.5,0.65,0.6,0.624,84.008514032
32.0,2.0,0.5,0.5,0.7166666666666667,0.6417910447761194,0.6771653543307087,85.25660606
32.0,16.0,0.8,0.5,0.8166666666666667,0.6805555555555556,0.7424242424242424,80.052329291
32.0,8.0,0.3,0.5,0.7166666666666667,0.6231884057971014,0.6666666666666667,80.241578808
32.0,8.0,0.4,0.5,0.7166666666666667,0.6231884057971014,0.6666666666666667,80.885564707
32.0,8.0,0.6,0.5,0.7833333333333333,0.6619718309859155,0.717557251908397,80.274186818
32.0,2.0,0.6,0.5,0.7166666666666667,0.6417910447761194,0.6771653543307087,90.128024927
32.0,8.0,0.5,0.5,0.7833333333333333,0.6619718309859155,0.717557251908397,80.224510617
32.0,8.0,0.8,0.5,0.8166666666666667,0.6901408450704225,0.748091603053435,80.407340671
32.0,8.0,0.7,0.5,0.8166666666666667,0.6901408450704225,0.748091603053435,80.480405258
32.0,8.0,0.9,0.5,0.8166666666666667,0.6901408450704225,0.748091603053435,81.018598364
32.0,2.0,0.7,0.5,0.7166666666666667,0.6417910447761194,0.6771653543307087,86.929433843
32.0,16.0,0.2,0.5,0.7166666666666667,0.6231884057971014,0.6666666666666667,80.113380066
32.0,16.0,0.1,0.5,0.7166666666666667,0.6231884057971014,0.6666666666666667,80.252913848
32.0,16.0,0.4,0.5,0.8166666666666667,0.6805555555555556,0.7424242424242424,80.312609763
32.0,16.0,0.3,0.5,0.7833333333333333,0.6527777777777778,0.7121212121212122,80.428285616
32.0,2.0,0.8,0.5,0.7166666666666667,0.6417910447761194,0.6771653543307087,89.677941099
32.0,16.0,0.5,0.5,0.8166666666666667,0.6805555555555556,0.7424242424242424,80.463375136
32.0,2.0,0.9,0.5,0.7166666666666667,0.6417910447761194,0.6771653543307087,92.140163378
32.0,16.0,0.6,0.5,0.8166666666666667,0.6805555555555556,0.7424242424242424,80.503365763
32.0,16.0,0.7,0.5,0.8166666666666667,0.6805555555555556,0.7424242424242424,80.383742117
32.0,16.0,0.9,0.5,0.8333333333333334,0.6944444444444444,0.7575757575757577,80.201937288
32.0,4.0,0.2,0.5,0.7166666666666667,0.6417910447761194,0.6771653543307087,104.394746522
32.0,4.0,0.1,0.5,0.65,0.6,0.624,94.149861224
32.0,32.0,0.1,0.5,0.7166666666666667,0.6231884057971014,0.6666666666666667,80.377314542
32.0,4.0,0.3,0.5,0.7166666666666667,0.6417910447761194,0.6771653543307087,99.687737735
32.0,4.0,0.4,0.5,0.7166666666666667,0.6417910447761194,0.6771653543307087,98.121992113
32.0,4.0,0.5,0.5,0.7166666666666667,0.6417910447761194,0.6771653543307087,96.077155864
32.0,4.0,0.6,0.5,0.7166666666666667,0.6417910447761194,0.6771653543307087,90.971293292
32.0,4.0,0.8,0.5,0.7166666666666667,0.6417910447761194,0.6771653543307087,94.449420164
32.0,4.0,0.7,0.5,0.7166666666666667,0.6417910447761194,0.6771653543307087,93.447370644
32.0,4.0,0.9,0.5,0.7166666666666667,0.6417910447761194,0.6771653543307087,94.117157609
32.0,8.0,0.2,0.5,0.7166666666666667,0.6231884057971014,0.6666666666666667,87.612332176
32.0,8.0,0.1,0.5,0.7166666666666667,0.6231884057971014,0.6666666666666667,94.521343854
32.0,32.0,0.2,0.5,0.8166666666666667,0.6805555555555556,0.7424242424242424,93.135783302
32.0,32.0,0.3,0.5,0.8166666666666667,0.6805555555555556,0.7424242424242424,92.568565386
32.0,32.0,0.5,0.5,0.8333333333333334,0.6944444444444444,0.7575757575757577,91.030333528
32.0,32.0,0.6,0.5,0.8333333333333334,0.6944444444444444,0.7575757575757577,104.723155166
32.0,32.0,0.4,0.5,0.8166666666666667,0.6805555555555556,0.7424242424242424,94.714876564
32.0,32.0,0.7,0.5,0.75,0.6338028169014085,0.6870229007633588,91.357570121
32.0,32.0,0.9,0.5,0.7333333333333333,0.6111111111111112,0.6666666666666666,89.391164418
32.0,32.0,0.8,0.5,0.75,0.6338028169014085,0.6870229007633588,89.660351599
1.0,1.0,0.1,0.5,0.3,0.6923076923076923,0.41860465116279066,80.57922951
1.0,1.0,0.6,0.5,0.3,0.6923076923076923,0.41860465116279066,80.994403175
1.0,1.0,0.5,0.5,0.3,0.6923076923076923,0.41860465116279066,80.709468152
1.0,1.0,0.4,0.5,0.3,0.6923076923076923,0.41860465116279066,80.824527716
1.0,1.0,0.9,0.5,0.31666666666666665,0.7307692307692307,0.44186046511627913,80.70644852
1.0,2.0,0.1,0.5,0.3333333333333333,0.6451612903225806,0.4395604395604395,80.683900354
1.0,1.0,0.2,0.5,0.3,0.6923076923076923,0.41860465116279066,79.422588545
1.0,1.0,0.3,0.5,0.3,0.6923076923076923,0.41860465116279066,81.346223593
1.0,1.0,0.7,0.5,0.3,0.6923076923076923,0.41860465116279066,79.218076177
1.0,2.0,0.2,0.5,0.3333333333333333,0.6451612903225806,0.4395604395604395,78.961950909
1.0,1.0,0.8,0.5,0.3,0.6923076923076923,0.41860465116279066,81.168486889
1.0,2.0,0.3,0.5,0.3333333333333333,0.6451612903225806,0.4395604395604395,79.537015741
1.0,2.0,0.4,0.5,0.36666666666666664,0.6666666666666666,0.47311827956989244,85.103566945
1.0,2.0,0.5,0.5,0.36666666666666664,0.6666666666666666,0.47311827956989244,84.501120786
1.0,2.0,0.6,0.5,0.35,0.6,0.4421052631578947,84.60846468
1.0,2.0,0.7,0.5,0.35,0.6,0.4421052631578947,84.35100073
1.0,2.0,0.8,0.5,0.35,0.6,0.4421052631578947,84.354747306
1.0,2.0,0.9,0.5,0.35,0.6,0.4421052631578947,84.491427463
1.0,8.0,0.9,0.5,0.26666666666666666,0.2962962962962963,0.28070175438596495,80.308501771
1.0,4.0,0.3,0.5,0.36666666666666664,0.5945945945945946,0.4536082474226804,80.483725275
1.0,4.0,0.4,0.5,0.35,0.5121951219512195,0.4158415841584158,80.536539484
1.0,4.0,0.2,0.5,0.35,0.5833333333333334,0.4375,80.251819707
1.0,4.0,0.5,0.5,0.35,0.4883720930232558,0.4077669902912621,80.370394292
1.0,4.0,0.6,0.5,0.3,0.4,0.34285714285714286,80.351645237
1.0,4.0,0.1,0.5,0.3333333333333333,0.5882352941176471,0.42553191489361697,90.763593513
1.0,4.0,0.7,0.5,0.3,0.4,0.34285714285714286,80.240365148
1.0,4.0,0.8,0.5,0.26666666666666666,0.35555555555555557,0.3047619047619048,80.393654722
1.0,4.0,0.9,0.5,0.26666666666666666,0.35555555555555557,0.3047619047619048,80.335634279
1.0,8.0,0.2,0.5,0.35,0.4117647058823529,0.37837837837837834,80.4221084
1.0,8.0,0.1,0.5,0.3333333333333333,0.45454545454545453,0.3846153846153846,80.349096752
1.0,8.0,0.3,0.5,0.3,0.3157894736842105,0.3076923076923077,81.00408823
1.0,8.0,0.4,0.5,0.3,0.3157894736842105,0.3076923076923077,80.248820875
1.0,8.0,0.6,0.5,0.2833333333333333,0.29310344827586204,0.288135593220339,80.425663201
1.0,8.0,0.5,0.5,0.2833333333333333,0.29310344827586204,0.288135593220339,80.241028808
1.0,8.0,0.8,0.5,0.26666666666666666,0.2962962962962963,0.28070175438596495,80.261917719
1.0,8.0,0.7,0.5,0.26666666666666666,0.2962962962962963,0.28070175438596495,80.45786689
1.0,16.0,0.1,0.5,0.35,0.40384615384615385,0.375,89.209536473
1.0,16.0,0.2,0.5,0.3,0.3103448275862069,0.3050847457627119,94.997131592
1.0,16.0,0.3,0.5,0.2833333333333333,0.288135593220339,0.2857142857142857,91.02012053
1.0,16.0,0.4,0.5,0.26666666666666666,0.2909090909090909,0.2782608695652174,95.324962858
1.0,16.0,0.6,0.5,0.26666666666666666,0.2909090909090909,0.2782608695652174,92.550499134
1.0,16.0,0.5,0.5,0.26666666666666666,0.2909090909090909,0.2782608695652174,89.022833349
1.0,16.0,0.7,0.5,0.26666666666666666,0.2909090909090909,0.2782608695652174,91.253111276
1.0,16.0,0.8,0.5,0.26666666666666666,0.2909090909090909,0.2782608695652174,92.582385243
1.0,16.0,0.9,0.5,0.26666666666666666,0.2909090909090909,0.2782608695652174,97.771553418
1.0,32.0,0.2,0.5,0.26666666666666666,0.2909090909090909,0.2782608695652174,80.361665021
1.0,32.0,0.1,0.5,0.3,0.3103448275862069,0.3050847457627119,90.088881127
1.0,32.0,0.3,0.5,0.26666666666666666,0.2909090909090909,0.2782608695652174,88.648814108
1.0,32.0,0.4,0.5,0.26666666666666666,0.2909090909090909,0.2782608695652174,90.783669812
1.0,32.0,0.5,0.5,0.26666666666666666,0.2909090909090909,0.2782608695652174,89.837511968
2.0,2.0,0.4,0.5,0.48333333333333334,0.7073170731707317,0.5742574257425742,81.16728976
2.0,2.0,0.9,0.5,0.5,0.6666666666666666,0.5714285714285715,80.814879305
1.0,32.0,0.6,0.5,0.26666666666666666,0.2909090909090909,0.2782608695652174,92.429656742
2.0,16.0,0.9,0.5,0.3,0.3157894736842105,0.3076923076923077,80.353994542
2.0,2.0,0.1,0.5,0.48333333333333334,0.7073170731707317,0.5742574257425742,81.164041912
2.0,16.0,0.7,0.5,0.3,0.3157894736842105,0.3076923076923077,80.483622812
2.0,4.0,0.5,0.5,0.5,0.6521739130434783,0.5660377358490566,80.862231165
2.0,32.0,0.7,0.5,0.3,0.3157894736842105,0.3076923076923077,80.308164992
2.0,2.0,0.3,0.5,0.48333333333333334,0.7073170731707317,0.5742574257425742,81.247643802
1.0,32.0,0.7,0.5,0.26666666666666666,0.2909090909090909,0.2782608695652174,91.384990533
4.0,1.0,0.5,0.5,0.7166666666666667,0.7678571428571429,0.7413793103448276,80.529005276
2.0,2.0,0.6,0.5,0.5166666666666667,0.7209302325581395,0.6019417475728156,81.177580976
2.0,2.0,0.2,0.5,0.48333333333333334,0.7073170731707317,0.5742574257425742,81.222094496
2.0,32.0,0.5,0.5,0.3,0.3157894736842105,0.3076923076923077,80.306191182
2.0,2.0,0.5,0.5,0.48333333333333334,0.7073170731707317,0.5742574257425742,81.619783826
2.0,8.0,0.1,0.5,0.48333333333333334,0.5686274509803921,0.5225225225225224,80.729444251
1.0,32.0,0.8,0.5,0.26666666666666666,0.2909090909090909,0.2782608695652174,94.816026393
2.0,4.0,0.2,0.5,0.48333333333333334,0.6904761904761905,0.5686274509803921,79.53047435
2.0,2.0,0.7,0.5,0.5166666666666667,0.7209302325581395,0.6019417475728156,79.402798812
2.0,2.0,0.8,0.5,0.5166666666666667,0.7209302325581395,0.6019417475728156,81.052859847
4.0,2.0,0.3,0.5,0.75,0.7758620689655172,0.7627118644067795,80.254816687
4.0,1.0,0.3,0.5,0.7166666666666667,0.7678571428571429,0.7413793103448276,80.313574457
2.0,4.0,0.1,0.5,0.48333333333333334,0.6904761904761905,0.5686274509803921,80.88991042
4.0,2.0,0.1,0.5,0.75,0.7758620689655172,0.7627118644067795,80.216801667
2.0,4.0,0.3,0.5,0.5,0.6818181818181818,0.576923076923077,81.062242637
4.0,4.0,0.1,0.5,0.75,0.7758620689655172,0.7627118644067795,80.360059731
2.0,4.0,0.4,0.5,0.5166666666666667,0.6888888888888889,0.5904761904761905,80.847384012
2.0,8.0,0.6,0.5,0.5,0.4918032786885246,0.49586776859504134,80.747969412
2.0,4.0,0.8,0.5,0.48333333333333334,0.5686274509803921,0.5225225225225224,79.262924494
2.0,4.0,0.7,0.5,0.48333333333333334,0.5686274509803921,0.5225225225225224,81.008181653
1.0,32.0,0.9,0.5,0.26666666666666666,0.2909090909090909,0.2782608695652174,92.079149138
2.0,4.0,0.6,0.5,0.5,0.6382978723404256,0.5607476635514019,81.082195732
4.0,2.0,0.8,0.5,0.7666666666666667,0.7931034482758621,0.7796610169491527,80.430040509
2.0,4.0,0.9,0.5,0.48333333333333334,0.5686274509803921,0.5225225225225224,81.317695471
4.0,4.0,0.8,0.5,0.7,0.7241379310344828,0.711864406779661,80.414131422
2.0,8.0,0.3,0.5,0.5,0.5172413793103449,0.5084745762711865,79.167002622
4.0,4.0,0.6,0.5,0.7666666666666667,0.7931034482758621,0.7796610169491527,81.34334117
2.0,8.0,0.9,0.5,0.31666666666666665,0.3333333333333333,0.3247863247863248,79.45781618
2.0,16.0,0.2,0.5,0.5,0.4918032786885246,0.49586776859504134,81.403205671
2.0,8.0,0.4,0.5,0.5,0.4918032786885246,0.49586776859504134,81.020569297
2.0,8.0,0.2,0.5,0.5166666666666667,0.5849056603773585,0.5486725663716815,81.400459532
4.0,8.0,0.4,0.5,0.7,0.6461538461538462,0.6719999999999999,80.461966565
2.0,8.0,0.5,0.5,0.5,0.4918032786885246,0.49586776859504134,80.885912467
2.0,8.0,0.7,0.5,0.4,0.4067796610169492,0.40336134453781514,80.8339841
2.0,16.0,0.8,0.5,0.3,0.3157894736842105,0.3076923076923077,80.720161208
2.0,8.0,0.8,0.5,0.38333333333333336,0.3898305084745763,0.3865546218487395,80.69485534
2.0,32.0,0.6,0.5,0.3,0.3157894736842105,0.3076923076923077,80.708161829
2.0,16.0,0.1,0.5,0.5166666666666667,0.5849056603773585,0.5486725663716815,81.135532965
2.0,16.0,0.4,0.5,0.38333333333333336,0.3898305084745763,0.3865546218487395,79.052485525
2.0,16.0,0.3,0.5,0.5,0.4918032786885246,0.49586776859504134,80.755867268
2.0,1.0,0.1,0.5,0.45,0.75,0.5625000000000001,88.805332099
2.0,32.0,0.3,0.5,0.3,0.3157894736842105,0.3076923076923077,79.170190148
2.0,16.0,0.6,0.5,0.3,0.3157894736842105,0.3076923076923077,80.78701796
2.0,16.0,0.5,0.5,0.31666666666666665,0.3333333333333333,0.3247863247863248,81.042926792
4.0,1.0,0.4,0.5,0.7166666666666667,0.7678571428571429,0.7413793103448276,80.823345021
2.0,32.0,0.9,0.5,0.3,0.3157894736842105,0.3076923076923077,79.149830525
4.0,2.0,0.2,0.5,0.75,0.7758620689655172,0.7627118644067795,80.785626791
2.0,1.0,0.2,0.5,0.45,0.75,0.5625000000000001,88.795409812
4.0,1.0,0.8,0.5,0.7166666666666667,0.7678571428571429,0.7413793103448276,79.278897828
2.0,32.0,0.1,0.5,0.5,0.4918032786885246,0.49586776859504134,80.772670901
4.0,2.0,0.9,0.5,0.7666666666666667,0.7931034482758621,0.7796610169491527,80.736743025
2.0,32.0,0.4,0.5,0.3,0.3157894736842105,0.3076923076923077,81.117223946
2.0,32.0,0.2,0.5,0.38333333333333336,0.3898305084745763,0.3865546218487395,80.908990219
2.0,1.0,0.3,0.5,0.45,0.75,0.5625000000000001,91.806025357
4.0,1.0,0.1,0.5,0.7166666666666667,0.7678571428571429,0.7413793103448276,80.788099057
4.0,2.0,0.5,0.5,0.75,0.7758620689655172,0.7627118644067795,79.040760971
2.0,32.0,0.8,0.5,0.3,0.3157894736842105,0.3076923076923077,80.948473567
4.0,1.0,0.6,0.5,0.7166666666666667,0.7678571428571429,0.7413793103448276,80.646052369
4.0,1.0,0.2,0.5,0.7166666666666667,0.7678571428571429,0.7413793103448276,80.731978934
2.0,1.0,0.4,0.5,0.45,0.75,0.5625000000000001,97.401308842
4.0,4.0,0.7,0.5,0.7,0.7241379310344828,0.711864406779661,80.762737002
4.0,8.0,0.5,0.5,0.7,0.6461538461538462,0.6719999999999999,80.72784089
4.0,1.0,0.7,0.5,0.7166666666666667,0.7678571428571429,0.7413793103448276,80.744392125
4.0,16.0,0.1,0.5,0.75,0.6818181818181818,0.7142857142857143,80.933904842
2.0,1.0,0.5,0.5,0.45,0.75,0.5625000000000001,95.538827637
4.0,2.0,0.6,0.5,0.75,0.7758620689655172,0.7627118644067795,80.799988939
4.0,1.0,0.9,0.5,0.7166666666666667,0.7678571428571429,0.7413793103448276,80.641627228
4.0,2.0,0.4,0.5,0.75,0.7758620689655172,0.7627118644067795,80.72114943
4.0,4.0,0.4,0.5,0.75,0.7758620689655172,0.7627118644067795,79.380638605
4.0,4.0,0.2,0.5,0.75,0.7758620689655172,0.7627118644067795,81.198987328
4.0,8.0,0.1,0.5,0.75,0.6923076923076923,0.7199999999999999,79.439710692
2.0,1.0,0.6,0.5,0.45,0.75,0.5625000000000001,90.232926844
4.0,4.0,0.5,0.5,0.7666666666666667,0.7931034482758621,0.7796610169491527,80.909880608
4.0,2.0,0.7,0.5,0.75,0.7758620689655172,0.7627118644067795,80.744136408
4.0,8.0,0.2,0.5,0.75,0.6923076923076923,0.7199999999999999,81.194916899
4.0,4.0,0.9,0.5,0.7,0.7241379310344828,0.711864406779661,80.771106515
4.0,4.0,0.3,0.5,0.75,0.7758620689655172,0.7627118644067795,80.701939549
4.0,8.0,0.8,0.5,0.5833333333333334,0.5223880597014925,0.5511811023622046,79.070477784
2.0,1.0,0.7,0.5,0.45,0.75,0.5625000000000001,88.651373056
4.0,8.0,0.7,0.5,0.6333333333333333,0.5671641791044776,0.5984251968503937,80.611208256
4.0,16.0,0.3,0.5,0.6666666666666666,0.5970149253731343,0.6299212598425197,79.022549649
4.0,8.0,0.6,0.5,0.6333333333333333,0.5671641791044776,0.5984251968503937,80.620890093
4.0,16.0,0.2,0.5,0.7,0.6363636363636364,0.6666666666666666,80.622962935
4.0,8.0,0.3,0.5,0.7666666666666667,0.7076923076923077,0.736,81.026788482
4.0,8.0,0.9,0.5,0.5833333333333334,0.5223880597014925,0.5511811023622046,80.685618544
4.0,16.0,0.7,0.5,0.43333333333333335,0.3939393939393939,0.4126984126984127,79.16577096
4.0,16.0,0.6,0.5,0.5166666666666667,0.4626865671641791,0.4881889763779528,79.131960995
2.0,1.0,0.8,0.5,0.45,0.75,0.5625000000000001,102.747644605
2.0,1.0,0.9,0.5,0.45,0.75,0.5625000000000001,91.154130695
4.0,16.0,0.4,0.5,0.6333333333333333,0.5588235294117647,0.59375,80.692451251
4.0,16.0,0.5,0.5,0.5833333333333334,0.5223880597014925,0.5511811023622046,80.706675911
4.0,16.0,0.8,0.5,0.4166666666666667,0.3787878787878788,0.3968253968253969,84.071404026
4.0,32.0,0.3,0.5,0.5166666666666667,0.4626865671641791,0.4881889763779528,84.318087296
4.0,32.0,0.1,0.5,0.7333333333333333,0.6666666666666666,0.6984126984126984,84.076756389
4.0,16.0,0.9,0.5,0.4166666666666667,0.3787878787878788,0.3968253968253969,84.300856082
4.0,32.0,0.2,0.5,0.6333333333333333,0.5588235294117647,0.59375,84.057070164
4.0,32.0,0.4,0.5,0.4166666666666667,0.3787878787878788,0.3968253968253969,84.505556704
8.0,2.0,0.5,0.5,0.8,0.7868852459016393,0.7933884297520661,80.580378182
4.0,32.0,0.9,0.5,0.31666666666666665,0.3275862068965517,0.3220338983050847,80.531265635
8.0,1.0,0.1,0.5,0.7666666666666667,0.7796610169491526,0.773109243697479,80.415750987
8.0,1.0,0.2,0.5,0.7666666666666667,0.7796610169491526,0.773109243697479,80.133271532
8.0,1.0,0.3,0.5,0.7666666666666667,0.7796610169491526,0.773109243697479,80.199164951
8.0,1.0,0.4,0.5,0.7666666666666667,0.7796610169491526,0.773109243697479,80.395296367
8.0,1.0,0.5,0.5,0.7666666666666667,0.7796610169491526,0.773109243697479,80.86998914
8.0,1.0,0.6,0.5,0.7666666666666667,0.7796610169491526,0.773109243697479,80.618635849
8.0,1.0,0.7,0.5,0.7666666666666667,0.7796610169491526,0.773109243697479,80.388878001
8.0,1.0,0.8,0.5,0.7666666666666667,0.7796610169491526,0.773109243697479,80.23415947
8.0,1.0,0.9,0.5,0.7666666666666667,0.7796610169491526,0.773109243697479,80.258503041
8.0,2.0,0.1,0.5,0.8,0.7868852459016393,0.7933884297520661,80.252250003
4.0,32.0,0.5,0.5,0.36666666666666664,0.3384615384615385,0.35200000000000004,92.853692539
8.0,2.0,0.2,0.5,0.8,0.7868852459016393,0.7933884297520661,80.213491566
8.0,2.0,0.3,0.5,0.8,0.7868852459016393,0.7933884297520661,80.525085736
8.0,2.0,0.4,0.5,0.8,0.7868852459016393,0.7933884297520661,80.392729363
4.0,32.0,0.7,0.5,0.31666666666666665,0.3275862068965517,0.3220338983050847,93.270956852
4.0,32.0,0.6,0.5,0.31666666666666665,0.3275862068965517,0.3220338983050847,96.765785843
8.0,2.0,0.6,0.5,0.8,0.7868852459016393,0.7933884297520661,80.244584617
8.0,2.0,0.7,0.5,0.8,0.7868852459016393,0.7933884297520661,80.900723216
4.0,32.0,0.8,0.5,0.31666666666666665,0.3275862068965517,0.3220338983050847,91.757025047
8.0,2.0,0.8,0.5,0.8,0.7868852459016393,0.7933884297520661,91.006414459
8.0,2.0,0.9,0.5,0.8,0.7868852459016393,0.7933884297520661,90.833603138
8.0,4.0,0.1,0.5,0.8,0.7868852459016393,0.7933884297520661,92.394399968
8.0,4.0,0.9,0.5,0.8166666666666667,0.8032786885245902,0.8099173553719008,79.868497923
8.0,4.0,0.2,0.5,0.8,0.7868852459016393,0.7933884297520661,91.230996847
8.0,4.0,0.3,0.5,0.8,0.7868852459016393,0.7933884297520661,95.1355526
8.0,4.0,0.4,0.5,0.8,0.7868852459016393,0.7933884297520661,94.511785422
8.0,4.0,0.5,0.5,0.8,0.7868852459016393,0.7933884297520661,89.88914972
8.0,4.0,0.6,0.5,0.8,0.7868852459016393,0.7933884297520661,92.523745899
8.0,4.0,0.7,0.5,0.8,0.7868852459016393,0.7933884297520661,94.438154385
8.0,4.0,0.8,0.5,0.8,0.7868852459016393,0.7933884297520661,92.277734445
8.0,8.0,0.1,0.5,0.8,0.7272727272727273,0.761904761904762,91.408207352
8.0,8.0,0.5,0.5,0.8166666666666667,0.7424242424242424,0.7777777777777778,81.114433421
8.0,16.0,0.1,0.5,0.8,0.7164179104477612,0.7559055118110236,80.703606952
16.0,2.0,0.3,0.5,0.7,0.6885245901639344,0.6942148760330578,80.483916162
16.0,1.0,0.8,0.5,0.7333333333333333,0.7096774193548387,0.7213114754098361,80.41440275
16.0,4.0,0.1,0.5,0.7,0.6885245901639344,0.6942148760330578,80.316485167
16.0,2.0,0.6,0.5,0.7333333333333333,0.7096774193548387,0.7213114754098361,80.99753791
8.0,8.0,0.4,0.5,0.8,0.7272727272727273,0.761904761904762,80.919840137
8.0,8.0,0.3,0.5,0.8,0.7272727272727273,0.761904761904762,81.080195146
8.0,8.0,0.9,0.5,0.7333333333333333,0.6567164179104478,0.6929133858267716,81.25256377
8.0,8.0,0.2,0.5,0.8,0.7272727272727273,0.761904761904762,80.947397642
16.0,4.0,0.8,0.5,0.8,0.7741935483870968,0.7868852459016393,80.365522819
16.0,4.0,0.4,0.5,0.7333333333333333,0.7096774193548387,0.7213114754098361,80.24560191
8.0,8.0,0.6,0.5,0.8166666666666667,0.7424242424242424,0.7777777777777778,80.995023236
8.0,16.0,0.3,0.5,0.8166666666666667,0.7313432835820896,0.7716535433070867,79.468874908
8.0,8.0,0.7,0.5,0.75,0.6818181818181818,0.7142857142857143,79.295523837
8.0,16.0,0.6,0.5,0.65,0.5652173913043478,0.6046511627906976,80.821240544
8.0,8.0,0.8,0.5,0.75,0.6818181818181818,0.7142857142857143,81.640349379
16.0,8.0,0.2,0.5,0.7333333333333333,0.6666666666666666,0.6984126984126984,80.222601416
16.0,8.0,0.6,0.5,0.8,0.7164179104477612,0.7559055118110236,80.263777217
8.0,32.0,0.2,0.5,0.75,0.6716417910447762,0.7086614173228347,81.4194098
8.0,16.0,0.2,0.5,0.8,0.7164179104477612,0.7559055118110236,80.926458362
16.0,8.0,0.9,0.5,0.8166666666666667,0.7313432835820896,0.7716535433070867,80.825260574
16.0,16.0,0.4,0.5,0.8,0.7058823529411765,0.7500000000000001,80.264614485
8.0,16.0,0.5,0.5,0.7333333333333333,0.6470588235294118,0.6875,80.800439335
16.0,16.0,0.7,0.5,0.75,0.6617647058823529,0.7031250000000001,80.288820664
8.0,16.0,0.4,0.5,0.75,0.6716417910447762,0.7086614173228347,81.37290369
8.0,16.0,0.8,0.5,0.6166666666666667,0.5362318840579711,0.5736434108527132,79.174493603
8.0,32.0,0.7,0.5,0.43333333333333335,0.3880597014925373,0.4094488188976378,80.857305936
8.0,16.0,0.7,0.5,0.65,0.5652173913043478,0.6046511627906976,80.791832641
16.0,32.0,0.2,0.5,0.8,0.7058823529411765,0.7500000000000001,80.15140425
16.0,32.0,0.5,0.5,0.7333333333333333,0.6376811594202898,0.6821705426356589,80.500242767
8.0,32.0,0.1,0.5,0.8,0.7164179104477612,0.7559055118110236,80.955735953
8.0,16.0,0.9,0.5,0.6,0.5294117647058824,0.5625,80.874428404
8.0,32.0,0.4,0.5,0.6166666666666667,0.5362318840579711,0.5736434108527132,79.035593791
8.0,32.0,0.3,0.5,0.65,0.5652173913043478,0.6046511627906976,80.80200843
8.0,32.0,0.5,0.5,0.6,0.5294117647058824,0.5625,81.192843986
8.0,32.0,0.9,0.5,0.38333333333333336,0.3484848484848485,0.3650793650793651,79.628111355
8.0,32.0,0.6,0.5,0.5333333333333333,0.47058823529411764,0.5,80.95213227
16.0,1.0,0.3,0.5,0.7,0.6885245901639344,0.6942148760330578,80.932202963
8.0,32.0,0.8,0.5,0.43333333333333335,0.3880597014925373,0.4094488188976378,80.910058394
16.0,1.0,0.1,0.5,0.7,0.6885245901639344,0.6942148760330578,81.255642227
16.0,1.0,0.2,0.5,0.7,0.6885245901639344,0.6942148760330578,81.26927502
16.0,1.0,0.5,0.5,0.7,0.6885245901639344,0.6942148760330578,79.285152589
16.0,1.0,0.9,0.5,0.7333333333333333,0.7096774193548387,0.7213114754098361,81.264447669
16.0,2.0,0.7,0.5,0.7333333333333333,0.7096774193548387,0.7213114754098361,80.840060277
16.0,1.0,0.6,0.5,0.7333333333333333,0.7096774193548387,0.7213114754098361,80.729712829
16.0,2.0,0.2,0.5,0.7,0.6885245901639344,0.6942148760330578,79.12718884
16.0,1.0,0.4,0.5,0.7,0.6885245901639344,0.6942148760330578,80.744575066
16.0,1.0,0.7,0.5,0.7333333333333333,0.7096774193548387,0.7213114754098361,80.91506173
16.0,4.0,0.5,0.5,0.7666666666666667,0.7419354838709677,0.7540983606557377,81.024038516
16.0,2.0,0.4,0.5,0.7333333333333333,0.7096774193548387,0.7213114754098361,80.801202326
16.0,2.0,0.9,0.5,0.7666666666666667,0.7419354838709677,0.7540983606557377,79.079383568
16.0,2.0,0.1,0.5,0.7,0.6885245901639344,0.6942148760330578,80.649102214
16.0,4.0,0.2,0.5,0.7,0.6885245901639344,0.6942148760330578,80.989660914
16.0,2.0,0.8,0.5,0.7666666666666667,0.7419354838709677,0.7540983606557377,80.613873846
16.0,4.0,0.7,0.5,0.8,0.7741935483870968,0.7868852459016393,78.989861014
16.0,2.0,0.5,0.5,0.7333333333333333,0.7096774193548387,0.7213114754098361,80.720668155
16.0,4.0,0.3,0.5,0.7333333333333333,0.7096774193548387,0.7213114754098361,80.667961793
16.0,4.0,0.9,0.5,0.8,0.7741935483870968,0.7868852459016393,80.703420053
16.0,4.0,0.6,0.5,0.7666666666666667,0.7419354838709677,0.7540983606557377,80.61702998
16.0,8.0,0.3,0.5,0.7666666666666667,0.6865671641791045,0.7244094488188977,80.926634193
16.0,8.0,0.5,0.5,0.8,0.7164179104477612,0.7559055118110236,79.219284364
16.0,8.0,0.7,0.5,0.8,0.7164179104477612,0.7559055118110236,80.933437183
16.0,16.0,0.1,0.5,0.7333333333333333,0.6666666666666666,0.6984126984126984,80.617462478
16.0,8.0,0.4,0.5,0.8,0.7164179104477612,0.7559055118110236,81.028468649
16.0,16.0,0.8,0.5,0.75,0.6617647058823529,0.7031250000000001,80.670449181
16.0,16.0,0.5,0.5,0.8166666666666667,0.7205882352941176,0.7656250000000001,80.819640769
16.0,8.0,0.1,0.5,0.7,0.6666666666666666,0.6829268292682926,80.982444926
16.0,16.0,0.3,0.5,0.8,0.7058823529411765,0.7500000000000001,79.045401226
16.0,32.0,0.3,0.5,0.8166666666666667,0.7205882352941176,0.7656250000000001,80.766379202
16.0,16.0,0.2,0.5,0.8,0.7058823529411765,0.7500000000000001,80.736889674
16.0,32.0,0.6,0.5,0.65,0.5652173913043478,0.6046511627906976,80.684072047
32.0,1.0,0.2,0.5,0.65,0.6,0.624,80.800447207
16.0,32.0,0.1,0.5,0.8,0.7058823529411765,0.7500000000000001,79.460422517
16.0,32.0,0.9,0.5,0.6,0.5294117647058824,0.5625,80.693877102
16.0,16.0,0.9,0.5,0.7333333333333333,0.6376811594202898,0.6821705426356589,80.594539565
16.0,32.0,0.8,0.5,0.6166666666666667,0.5362318840579711,0.5736434108527132,79.09930087
16.0,8.0,0.8,0.5,0.8,0.7164179104477612,0.7559055118110236,80.71355485
16.0,32.0,0.7,0.5,0.65,0.5652173913043478,0.6046511627906976,80.766300483
32.0,1.0,0.5,0.5,0.7166666666666667,0.6417910447761194,0.6771653543307087,80.876062979
32.0,1.0,0.3,0.5,0.65,0.6,0.624,80.704704731
16.0,16.0,0.6,0.5,0.8166666666666667,0.7205882352941176,0.7656250000000001,80.838507129
32.0,1.0,0.4,0.5,0.65,0.6,0.624,79.059132327
32.0,1.0,0.7,0.5,0.7166666666666667,0.6417910447761194,0.6771653543307087,79.004624395
32.0,1.0,0.8,0.5,0.7166666666666667,0.6417910447761194,0.6771653543307087,79.221111315
16.0,32.0,0.4,0.5,0.75,0.6617647058823529,0.7031250000000001,80.725750183
32.0,1.0,0.1,0.5,0.65,0.6,0.624,81.028375117
32.0,1.0,0.6,0.5,0.7166666666666667,0.6417910447761194,0.6771653543307087,80.771492525
32.0,1.0,0.9,0.5,0.7166666666666667,0.6417910447761194,0.6771653543307087,84.574684791
32.0,2.0,0.4,0.5,0.7166666666666667,0.6417910447761194,0.6771653543307087,84.747883908
32.0,2.0,0.1,0.5,0.65,0.6,0.624,83.934155268
32.0,2.0,0.3,0.5,0.7166666666666667,0.6417910447761194,0.6771653543307087,84.53174169
32.0,2.0,0.2,0.5,0.65,0.6,0.624,84.008514032
32.0,2.0,0.5,0.5,0.7166666666666667,0.6417910447761194,0.6771653543307087,85.25660606
32.0,16.0,0.8,0.5,0.8166666666666667,0.6805555555555556,0.7424242424242424,80.052329291
32.0,8.0,0.3,0.5,0.7166666666666667,0.6231884057971014,0.6666666666666667,80.241578808
32.0,8.0,0.4,0.5,0.7166666666666667,0.6231884057971014,0.6666666666666667,80.885564707
32.0,8.0,0.6,0.5,0.7833333333333333,0.6619718309859155,0.717557251908397,80.274186818
32.0,2.0,0.6,0.5,0.7166666666666667,0.6417910447761194,0.6771653543307087,90.128024927
32.0,8.0,0.5,0.5,0.7833333333333333,0.6619718309859155,0.717557251908397,80.224510617
32.0,8.0,0.8,0.5,0.8166666666666667,0.6901408450704225,0.748091603053435,80.407340671
32.0,8.0,0.7,0.5,0.8166666666666667,0.6901408450704225,0.748091603053435,80.480405258
32.0,8.0,0.9,0.5,0.8166666666666667,0.6901408450704225,0.748091603053435,81.018598364
32.0,2.0,0.7,0.5,0.7166666666666667,0.6417910447761194,0.6771653543307087,86.929433843
32.0,16.0,0.2,0.5,0.7166666666666667,0.6231884057971014,0.6666666666666667,80.113380066
32.0,16.0,0.1,0.5,0.7166666666666667,0.6231884057971014,0.6666666666666667,80.252913848
32.0,16.0,0.4,0.5,0.8166666666666667,0.6805555555555556,0.7424242424242424,80.312609763
32.0,16.0,0.3,0.5,0.7833333333333333,0.6527777777777778,0.7121212121212122,80.428285616
32.0,2.0,0.8,0.5,0.7166666666666667,0.6417910447761194,0.6771653543307087,89.677941099
32.0,16.0,0.5,0.5,0.8166666666666667,0.6805555555555556,0.7424242424242424,80.463375136
32.0,2.0,0.9,0.5,0.7166666666666667,0.6417910447761194,0.6771653543307087,92.140163378
32.0,16.0,0.6,0.5,0.8166666666666667,0.6805555555555556,0.7424242424242424,80.503365763
32.0,16.0,0.7,0.5,0.8166666666666667,0.6805555555555556,0.7424242424242424,80.383742117
32.0,16.0,0.9,0.5,0.8333333333333334,0.6944444444444444,0.7575757575757577,80.201937288
32.0,4.0,0.2,0.5,0.7166666666666667,0.6417910447761194,0.6771653543307087,104.394746522
32.0,4.0,0.1,0.5,0.65,0.6,0.624,94.149861224
32.0,32.0,0.1,0.5,0.7166666666666667,0.6231884057971014,0.6666666666666667,80.377314542
32.0,4.0,0.3,0.5,0.7166666666666667,0.6417910447761194,0.6771653543307087,99.687737735
32.0,4.0,0.4,0.5,0.7166666666666667,0.6417910447761194,0.6771653543307087,98.121992113
32.0,4.0,0.5,0.5,0.7166666666666667,0.6417910447761194,0.6771653543307087,96.077155864
32.0,4.0,0.6,0.5,0.7166666666666667,0.6417910447761194,0.6771653543307087,90.971293292
32.0,4.0,0.8,0.5,0.7166666666666667,0.6417910447761194,0.6771653543307087,94.449420164
32.0,4.0,0.7,0.5,0.7166666666666667,0.6417910447761194,0.6771653543307087,93.447370644
32.0,4.0,0.9,0.5,0.7166666666666667,0.6417910447761194,0.6771653543307087,94.117157609
32.0,8.0,0.2,0.5,0.7166666666666667,0.6231884057971014,0.6666666666666667,87.612332176
32.0,8.0,0.1,0.5,0.7166666666666667,0.6231884057971014,0.6666666666666667,94.521343854
32.0,32.0,0.2,0.5,0.8166666666666667,0.6805555555555556,0.7424242424242424,93.135783302
32.0,32.0,0.3,0.5,0.8166666666666667,0.6805555555555556,0.7424242424242424,92.568565386
32.0,32.0,0.5,0.5,0.8333333333333334,0.6944444444444444,0.7575757575757577,91.030333528
32.0,32.0,0.6,0.5,0.8333333333333334,0.6944444444444444,0.7575757575757577,104.723155166
32.0,32.0,0.4,0.5,0.8166666666666667,0.6805555555555556,0.7424242424242424,94.714876564
32.0,32.0,0.7,0.5,0.75,0.6338028169014085,0.6870229007633588,91.357570121
32.0,32.0,0.9,0.5,0.7333333333333333,0.6111111111111112,0.6666666666666666,89.391164418
32.0,32.0,0.8,0.5,0.75,0.6338028169014085,0.6870229007633588,89.660351599
