gamma_s,gamma_h,alpha,sencitivity,ppv,fmeasure,time
1.0,1.0,0.5,0.96,1.0,0.9795918367346939,5.197006326
1.0,2.0,0.1,1.0,1.0,1.0,5.016813906
1.0,1.0,0.7,0.96,1.0,0.9795918367346939,5.12193537
1.0,1.0,0.3,0.96,1.0,0.9795918367346939,5.367478176
1.0,1.0,,0.0,NaN,NaN,4.492424298
1.0,1.0,0.9,0.96,1.0,0.9795918367346939,5.816666897
1.0,1.0,0.1,0.96,1.0,0.9795918367346939,4.923269297
1.0,2.0,0.3,1.0,1.0,1.0,5.282232548
1.0,8.0,0.1,1.0,1.0,1.0,5.35545911
1.0,2.0,,0.0,NaN,NaN,4.73146831
1.0,2.0,0.7,1.0,1.0,1.0,4.982254037
1.0,4.0,0.9,1.0,1.0,1.0,5.017465264
1.0,2.0,0.5,1.0,1.0,1.0,4.960701879
1.0,16.0,0.5,1.0,1.0,1.0,5.365106698
1.0,2.0,0.9,1.0,1.0,1.0,4.765043067
1.0,16.0,,0.0,NaN,NaN,4.485000548
1.0,8.0,,0.0,NaN,NaN,4.907005018
1.0,16.0,0.7,1.0,1.0,1.0,5.603482822
1.0,16.0,0.3,1.0,1.0,1.0,5.463219448
2.0,1.0,0.3,0.96,1.0,0.9795918367346939,4.524079632
1.0,32.0,0.3,1.0,0.9259259259259259,0.9615384615384615,4.437446345
1.0,32.0,0.9,1.0,0.9259259259259259,0.9615384615384615,4.725603782
1.0,32.0,0.7,1.0,0.9259259259259259,0.9615384615384615,4.482721032
1.0,32.0,,0.0,NaN,NaN,4.824309816
2.0,2.0,0.1,1.0,1.0,1.0,4.442129669
2.0,1.0,0.7,0.96,1.0,0.9795918367346939,4.4797089
2.0,1.0,,0.0,NaN,NaN,4.776536931
2.0,2.0,0.7,1.0,1.0,1.0,4.551246194
2.0,2.0,,0.0,NaN,NaN,4.99960772
2.0,2.0,0.3,1.0,1.0,1.0,4.160851102
2.0,4.0,0.3,1.0,1.0,1.0,4.471224582
2.0,4.0,0.1,1.0,1.0,1.0,4.240639378
2.0,4.0,0.5,1.0,1.0,1.0,4.201931263
1.0,4.0,0.1,1.0,1.0,1.0,5.179475619
2.0,4.0,0.9,1.0,1.0,1.0,4.559978703
1.0,4.0,0.3,1.0,1.0,1.0,4.729525456
2.0,4.0,,0.0,NaN,NaN,4.606570442
2.0,4.0,0.7,1.0,1.0,1.0,4.488058578
2.0,8.0,0.1,1.0,1.0,1.0,4.382537432
2.0,8.0,,0.0,NaN,NaN,4.470894225
2.0,8.0,0.5,1.0,1.0,1.0,4.370800783
2.0,8.0,0.3,1.0,1.0,1.0,4.304742907
2.0,8.0,0.7,1.0,1.0,1.0,4.613352222
2.0,8.0,0.9,1.0,1.0,1.0,4.206236533
2.0,16.0,0.7,1.0,1.0,1.0,4.493271322
2.0,16.0,0.1,1.0,1.0,1.0,4.400564021
2.0,16.0,0.9,1.0,1.0,1.0,4.281086282
2.0,16.0,,0.0,NaN,NaN,4.270645211
2.0,16.0,0.3,1.0,1.0,1.0,4.29168125
2.0,16.0,0.5,1.0,1.0,1.0,4.301783585
1.0,4.0,0.5,1.0,1.0,1.0,5.032039133
2.0,32.0,0.5,1.0,0.9259259259259259,0.9615384615384615,4.299543613
2.0,32.0,0.1,1.0,0.9259259259259259,0.9615384615384615,4.481601821
2.0,32.0,0.7,1.0,0.9259259259259259,0.9615384615384615,4.263838976
2.0,32.0,0.3,1.0,0.9259259259259259,0.9615384615384615,4.314493402
1.0,4.0,0.7,1.0,1.0,1.0,4.762503509
2.0,32.0,,0.0,NaN,NaN,4.219712952
2.0,32.0,0.9,1.0,0.9259259259259259,0.9615384615384615,4.29458235
4.0,1.0,0.3,0.96,1.0,0.9795918367346939,4.309204977
4.0,1.0,0.1,0.96,1.0,0.9795918367346939,4.386041964
4.0,1.0,0.5,0.96,1.0,0.9795918367346939,4.33738084
4.0,1.0,,0.0,NaN,NaN,4.275830087
1.0,4.0,,0.0,NaN,NaN,5.340058911
4.0,1.0,0.9,0.96,1.0,0.9795918367346939,4.230423502
4.0,1.0,0.7,0.96,1.0,0.9795918367346939,4.164777861
4.0,2.0,0.1,1.0,1.0,1.0,4.166931012
4.0,2.0,,0.0,NaN,NaN,4.179427054
4.0,2.0,0.5,1.0,1.0,1.0,4.393357622
4.0,2.0,0.7,1.0,1.0,1.0,4.100861664
4.0,2.0,0.3,1.0,1.0,1.0,4.111486109
4.0,2.0,0.9,1.0,1.0,1.0,4.157518431
4.0,4.0,0.5,1.0,1.0,1.0,4.311540393
4.0,4.0,0.1,1.0,1.0,1.0,4.257272095
4.0,4.0,0.9,1.0,1.0,1.0,4.287964119
4.0,4.0,0.7,1.0,1.0,1.0,4.047517408
4.0,4.0,0.3,1.0,1.0,1.0,4.127546953
4.0,8.0,0.1,1.0,1.0,1.0,4.174815952
4.0,4.0,,0.0,NaN,NaN,4.41774301
4.0,8.0,0.5,1.0,1.0,1.0,4.278954859
4.0,8.0,0.3,1.0,1.0,1.0,4.463511374
4.0,8.0,,0.0,NaN,NaN,4.117613791
1.0,8.0,0.3,1.0,1.0,1.0,5.381926461
4.0,8.0,0.9,1.0,1.0,1.0,4.080379921
4.0,16.0,0.1,1.0,1.0,1.0,3.943952424
4.0,8.0,0.7,1.0,1.0,1.0,4.082760372
4.0,16.0,,0.0,NaN,NaN,3.890003814
4.0,16.0,0.3,1.0,1.0,1.0,3.850944508
4.0,16.0,0.7,1.0,1.0,1.0,3.888816898
4.0,16.0,0.5,1.0,1.0,1.0,3.991077579
4.0,16.0,0.9,1.0,1.0,1.0,3.926243699
1.0,8.0,0.5,1.0,1.0,1.0,5.57726349
1.0,8.0,0.7,1.0,1.0,1.0,5.207402833
1.0,8.0,0.9,1.0,1.0,1.0,5.544418607
1.0,16.0,0.1,1.0,1.0,1.0,4.713743949
1.0,16.0,0.9,1.0,1.0,1.0,4.730776367
1.0,32.0,0.1,1.0,0.9259259259259259,0.9615384615384615,4.564735944
1.0,32.0,0.5,1.0,0.9259259259259259,0.9615384615384615,4.85364447
2.0,1.0,0.1,0.96,1.0,0.9795918367346939,4.643321516
2.0,1.0,0.5,0.96,1.0,0.9795918367346939,4.519024861
2.0,1.0,0.9,0.96,1.0,0.9795918367346939,4.380608888
2.0,2.0,0.5,1.0,1.0,1.0,4.640955363
2.0,2.0,0.9,1.0,1.0,1.0,4.181147832
4.0,32.0,0.1,1.0,0.9259259259259259,0.9615384615384615,3.97630541
4.0,32.0,0.7,1.0,0.9259259259259259,0.9615384615384615,4.030061666
8.0,1.0,0.9,0.96,1.0,0.9795918367346939,3.954760763
8.0,2.0,0.1,0.84,1.0,0.9130434782608696,5.191373331
4.0,32.0,,0.0,NaN,NaN,3.900405575
4.0,32.0,0.3,1.0,0.9259259259259259,0.9615384615384615,3.881624936
8.0,2.0,,0.0,NaN,NaN,4.472328461
8.0,4.0,0.3,0.88,1.0,0.9361702127659575,3.914916982
8.0,4.0,0.9,1.0,1.0,1.0,3.891375082
8.0,4.0,,0.0,NaN,NaN,3.869527855
8.0,4.0,0.7,1.0,1.0,1.0,3.916447461
8.0,2.0,0.9,1.0,1.0,1.0,4.623854177
8.0,8.0,0.1,0.84,1.0,0.9130434782608696,3.866942483
8.0,8.0,0.3,1.0,1.0,1.0,3.860552277
8.0,8.0,0.7,1.0,1.0,1.0,5.641621779
8.0,8.0,,0.0,NaN,NaN,4.7183411
8.0,16.0,0.1,1.0,1.0,1.0,4.632948482
8.0,16.0,,0.0,NaN,NaN,4.940100464
8.0,32.0,0.9,1.0,0.9259259259259259,0.9615384615384615,5.370951172
8.0,16.0,0.5,1.0,1.0,1.0,5.149565879
8.0,16.0,0.7,1.0,1.0,1.0,4.865904258
8.0,32.0,0.5,1.0,0.9259259259259259,0.9615384615384615,4.569318902
16.0,1.0,0.5,0.76,1.0,0.8636363636363636,4.3122532
8.0,32.0,,0.0,NaN,NaN,4.579659282
4.0,32.0,0.5,1.0,0.9259259259259259,0.9615384615384615,3.889913964
4.0,32.0,0.9,1.0,0.9259259259259259,0.9615384615384615,3.901438002
8.0,32.0,0.1,1.0,0.9259259259259259,0.9615384615384615,5.048305085
16.0,1.0,0.1,0.56,1.0,0.717948717948718,4.914531454
16.0,1.0,0.9,0.8,1.0,0.888888888888889,4.470850409
16.0,1.0,0.3,0.64,1.0,0.7804878048780487,4.257309138
16.0,1.0,0.7,0.8,1.0,0.888888888888889,5.145868033
16.0,1.0,,0.0,NaN,NaN,4.717073546
16.0,2.0,0.1,0.6,1.0,0.7499999999999999,4.427166265
8.0,1.0,0.1,0.8,1.0,0.888888888888889,4.06100513
16.0,2.0,0.5,0.84,1.0,0.9130434782608696,4.390434677
16.0,2.0,0.3,0.68,1.0,0.8095238095238095,4.429868284
16.0,2.0,,0.0,NaN,NaN,4.489918875
16.0,2.0,0.7,0.84,1.0,0.9130434782608696,4.691792109
16.0,2.0,0.9,0.88,1.0,0.9361702127659575,4.307026103
16.0,4.0,0.1,0.6,1.0,0.7499999999999999,4.692351502
16.0,4.0,,0.0,NaN,NaN,4.579827922
8.0,1.0,0.3,0.8,1.0,0.888888888888889,4.131225559
16.0,4.0,0.3,0.84,1.0,0.9130434782608696,4.260646185
16.0,4.0,0.5,0.84,1.0,0.9130434782608696,4.557318377
16.0,4.0,0.7,1.0,1.0,1.0,4.54155558
8.0,1.0,0.5,0.8,1.0,0.888888888888889,4.034748511
16.0,4.0,0.9,1.0,1.0,1.0,4.321815078
16.0,8.0,0.7,1.0,1.0,1.0,4.294987853
16.0,8.0,0.3,0.88,1.0,0.9361702127659575,4.605505173
16.0,8.0,0.1,0.68,1.0,0.8095238095238095,4.432882197
8.0,1.0,0.7,0.84,1.0,0.9130434782608696,3.925015811
16.0,8.0,0.9,1.0,1.0,1.0,4.511064349
16.0,8.0,,0.0,NaN,NaN,5.061016156
16.0,16.0,0.3,1.0,1.0,1.0,4.669090133
16.0,8.0,0.5,1.0,1.0,1.0,4.728140386
16.0,16.0,0.5,1.0,1.0,1.0,4.380841995
16.0,16.0,0.9,1.0,1.0,1.0,4.302061252
16.0,16.0,,0.0,NaN,NaN,4.341673439
16.0,16.0,0.7,1.0,1.0,1.0,4.459237779
16.0,16.0,0.1,0.84,1.0,0.9130434782608696,4.405100575
16.0,32.0,0.3,1.0,0.9259259259259259,0.9615384615384615,4.210808992
16.0,32.0,0.1,1.0,0.9259259259259259,0.9615384615384615,4.242330657
16.0,32.0,,0.0,NaN,NaN,4.452980479
16.0,32.0,0.7,1.0,0.9259259259259259,0.9615384615384615,4.451063468
16.0,32.0,0.5,1.0,0.9259259259259259,0.9615384615384615,4.246059892
16.0,32.0,0.9,1.0,0.9259259259259259,0.9615384615384615,4.452035424
32.0,1.0,0.9,0.64,1.0,0.7804878048780487,4.231341311
32.0,1.0,0.3,0.44,1.0,0.6111111111111112,4.352985923
8.0,1.0,,0.0,NaN,NaN,5.022418794
32.0,1.0,0.1,0.44,1.0,0.6111111111111112,4.136337037
32.0,1.0,,0.0,NaN,NaN,4.23855644
32.0,1.0,0.7,0.64,1.0,0.7804878048780487,4.237527778
32.0,2.0,0.5,0.68,1.0,0.8095238095238095,4.336428045
32.0,2.0,0.3,0.6,1.0,0.7499999999999999,4.323085834
32.0,2.0,0.9,0.84,1.0,0.9130434782608696,4.340944347
32.0,2.0,,0.0,NaN,NaN,4.155674999
32.0,2.0,0.7,0.8,1.0,0.888888888888889,4.375306963
32.0,4.0,0.5,0.84,1.0,0.9130434782608696,4.179773754
32.0,4.0,0.1,0.48,1.0,0.6486486486486487,4.135438568
32.0,4.0,0.9,0.84,1.0,0.9130434782608696,4.33004738
32.0,4.0,,0.0,NaN,NaN,4.125767928
32.0,4.0,0.3,0.68,1.0,0.8095238095238095,4.179228572
32.0,1.0,0.5,0.56,1.0,0.717948717948718,4.349065559
32.0,4.0,0.7,0.84,1.0,0.9130434782608696,4.187512956
32.0,2.0,0.1,0.48,1.0,0.6486486486486487,4.256479322
8.0,2.0,0.3,0.84,1.0,0.9130434782608696,4.980804329
8.0,2.0,0.5,0.88,1.0,0.9361702127659575,5.151165889
8.0,2.0,0.7,1.0,1.0,1.0,4.931773899
8.0,4.0,0.1,0.84,1.0,0.9130434782608696,4.531296193
8.0,4.0,0.5,1.0,1.0,1.0,3.949264161
8.0,8.0,0.5,1.0,1.0,1.0,5.571450595
8.0,8.0,0.9,1.0,1.0,1.0,5.09259847
8.0,16.0,0.3,1.0,1.0,1.0,5.569494567
8.0,32.0,0.7,1.0,0.9259259259259259,0.9615384615384615,4.613978745
8.0,32.0,0.3,1.0,0.9259259259259259,0.9615384615384615,5.238731949
8.0,16.0,0.9,1.0,1.0,1.0,5.165224607
32.0,8.0,,0.0,NaN,NaN,4.340066907
32.0,8.0,0.5,0.84,1.0,0.9130434782608696,4.176368047
32.0,16.0,,0.0,NaN,NaN,3.94210827
32.0,16.0,0.7,1.0,1.0,1.0,3.970886455
32.0,8.0,0.1,0.6,1.0,0.7499999999999999,4.128994434
32.0,32.0,,0.0,NaN,NaN,4.011886103
32.0,32.0,0.7,1.0,0.9259259259259259,0.9615384615384615,4.062448253
32.0,8.0,0.3,0.84,1.0,0.9130434782608696,4.312097193
32.0,8.0,0.7,1.0,1.0,1.0,4.325017248
32.0,8.0,0.9,1.0,1.0,1.0,4.43499123
32.0,16.0,0.1,0.68,1.0,0.8095238095238095,3.954489346
32.0,16.0,0.3,0.88,1.0,0.9361702127659575,3.947801544
32.0,16.0,0.5,1.0,1.0,1.0,3.932366698
32.0,16.0,0.9,1.0,1.0,1.0,3.9172709
32.0,32.0,0.1,0.84,0.9130434782608695,0.8749999999999999,3.941205839
32.0,32.0,0.3,1.0,0.9259259259259259,0.9615384615384615,4.018133578
32.0,32.0,0.5,1.0,0.9259259259259259,0.9615384615384615,4.08089428
32.0,32.0,0.9,1.0,0.9259259259259259,0.9615384615384615,4.012259922
