gamma_s,gamma_h,alpha,weight_h,sensitivity,ppv,fmeasure,time
1.0,1.0,0.2,0.0,0.4927536231884058,0.8292682926829268,0.6181818181818182,138.651233605
1.0,1.0,0.4,0.0,0.4927536231884058,0.8292682926829268,0.6181818181818182,138.52264887
1.0,1.0,0.5,0.0,0.4927536231884058,0.8292682926829268,0.6181818181818182,138.63608818
1.0,1.0,0.3,0.0,0.4927536231884058,0.8292682926829268,0.6181818181818182,137.341108679
1.0,2.0,0.2,0.0,0.4927536231884058,0.8292682926829268,0.6181818181818182,138.594176625
1.0,1.0,0.6,0.0,0.4927536231884058,0.8292682926829268,0.6181818181818182,138.401246222
1.0,1.0,0.7,0.0,0.4927536231884058,0.8292682926829268,0.6181818181818182,138.430267007
1.0,1.0,0.8,0.0,0.4927536231884058,0.8292682926829268,0.6181818181818182,138.509616281
1.0,1.0,0.9,0.0,0.4927536231884058,0.8292682926829268,0.6181818181818182,138.699291026
1.0,2.0,0.1,0.0,0.4927536231884058,0.8292682926829268,0.6181818181818182,136.268434246
1.0,2.0,0.4,0.0,0.4927536231884058,0.8292682926829268,0.6181818181818182,138.512275851
1.0,2.0,0.5,0.0,0.4927536231884058,0.8292682926829268,0.6181818181818182,138.138183424
1.0,2.0,0.6,0.0,0.4927536231884058,0.8292682926829268,0.6181818181818182,138.415641373
1.0,2.0,0.3,0.0,0.4927536231884058,0.8292682926829268,0.6181818181818182,138.797081881
1.0,2.0,0.8,0.0,0.5072463768115942,0.8536585365853658,0.6363636363636365,136.92122361
1.0,4.0,0.1,0.0,0.5652173913043478,0.7090909090909091,0.6290322580645161,138.528590456
1.0,2.0,0.9,0.0,0.5072463768115942,0.8536585365853658,0.6363636363636365,138.648422686
1.0,4.0,0.3,0.0,0.5652173913043478,0.7090909090909091,0.6290322580645161,139.108087026
1.0,4.0,0.2,0.0,0.5652173913043478,0.7090909090909091,0.6290322580645161,138.536232379
1.0,2.0,0.7,0.0,0.4927536231884058,0.8292682926829268,0.6181818181818182,138.593697464
1.0,4.0,0.4,0.0,0.5652173913043478,0.6964285714285714,0.6239999999999999,138.550804066
1.0,4.0,0.7,0.0,0.4927536231884058,0.6071428571428571,0.5439999999999999,138.659341114
1.0,4.0,0.6,0.0,0.5797101449275363,0.7142857142857143,0.64,136.80073449
1.0,4.0,0.8,0.0,0.4782608695652174,0.5892857142857143,0.5279999999999999,138.617598592
1.0,4.0,0.5,0.0,0.5797101449275363,0.7142857142857143,0.64,138.529342652
1.0,8.0,0.2,0.0,0.5797101449275363,0.6451612903225806,0.6106870229007634,138.771116549
1.0,4.0,0.9,0.0,0.4927536231884058,0.6071428571428571,0.5439999999999999,138.452962112
1.0,8.0,0.4,0.0,0.4927536231884058,0.5483870967741935,0.5190839694656489,136.28168056
1.0,8.0,0.1,0.0,0.5652173913043478,0.6724137931034483,0.6141732283464567,138.947758035
1.0,8.0,0.3,0.0,0.5797101449275363,0.6451612903225806,0.6106870229007634,138.64211558
1.0,8.0,0.7,0.0,0.43478260869565216,0.4838709677419355,0.45801526717557256,138.356725753
1.0,8.0,0.6,0.0,0.43478260869565216,0.4838709677419355,0.45801526717557256,138.458293492
1.0,8.0,0.9,0.0,0.43478260869565216,0.4838709677419355,0.45801526717557256,138.392553838
1.0,8.0,0.5,0.0,0.4927536231884058,0.5396825396825397,0.515151515151515,138.436097384
1.0,8.0,0.8,0.0,0.43478260869565216,0.4838709677419355,0.45801526717557256,138.363492441
1.0,16.0,0.6,0.0,0.463768115942029,0.48484848484848486,0.47407407407407404,139.336263157
1.0,16.0,0.3,0.0,0.4927536231884058,0.5151515151515151,0.5037037037037038,138.546630488
1.0,16.0,0.4,0.0,0.463768115942029,0.49230769230769234,0.47761194029850745,139.186830613
1.0,16.0,0.1,0.0,0.5797101449275363,0.6451612903225806,0.6106870229007634,138.458752993
1.0,16.0,0.2,0.0,0.5072463768115942,0.5555555555555556,0.5303030303030303,136.222653848
1.0,32.0,0.4,0.0,0.18840579710144928,0.21311475409836064,0.2,138.215171665
1.0,16.0,0.5,0.0,0.463768115942029,0.48484848484848486,0.47407407407407404,138.4693946
1.0,32.0,0.1,0.0,0.5072463768115942,0.5384615384615384,0.5223880597014926,138.232710103
1.0,16.0,0.8,0.0,0.18840579710144928,0.22413793103448276,0.2047244094488189,138.515619066
1.0,16.0,0.7,0.0,0.2463768115942029,0.2833333333333333,0.26356589147286824,138.255802491
1.0,16.0,0.9,0.0,0.13043478260869565,0.16363636363636364,0.14516129032258066,136.096531904
1.0,32.0,0.2,0.0,0.463768115942029,0.47058823529411764,0.4671532846715329,138.392421694
2.0,1.0,0.2,0.0,0.6231884057971014,0.8431372549019608,0.7166666666666667,138.944489901
2.0,1.0,0.1,0.0,0.6231884057971014,0.8431372549019608,0.7166666666666667,138.172608137
1.0,32.0,0.7,0.0,0.13043478260869565,0.15517241379310345,0.14173228346456693,136.201888018
1.0,32.0,0.3,0.0,0.463768115942029,0.463768115942029,0.463768115942029,138.768589228
1.0,32.0,0.9,0.0,0.13043478260869565,0.15517241379310345,0.14173228346456693,138.462619334
1.0,32.0,0.5,0.0,0.13043478260869565,0.15517241379310345,0.14173228346456693,138.73268927
2.0,1.0,0.7,0.0,0.6231884057971014,0.8431372549019608,0.7166666666666667,138.329775717
2.0,1.0,0.5,0.0,0.6231884057971014,0.8431372549019608,0.7166666666666667,136.356547214
2.0,1.0,0.3,0.0,0.6231884057971014,0.8431372549019608,0.7166666666666667,138.288963199
2.0,1.0,0.9,0.0,0.6231884057971014,0.8431372549019608,0.7166666666666667,137.986638379
2.0,2.0,0.5,0.0,0.6231884057971014,0.8431372549019608,0.7166666666666667,138.311218825
1.0,32.0,0.8,0.0,0.13043478260869565,0.15517241379310345,0.14173228346456693,138.753114298
2.0,2.0,0.6,0.0,0.6231884057971014,0.8431372549019608,0.7166666666666667,138.314079557
1.0,32.0,0.6,0.0,0.13043478260869565,0.15517241379310345,0.14173228346456693,138.413200161
2.0,1.0,0.6,0.0,0.6231884057971014,0.8431372549019608,0.7166666666666667,138.238238788
2.0,1.0,0.4,0.0,0.6231884057971014,0.8431372549019608,0.7166666666666667,138.834525001
2.0,2.0,0.1,0.0,0.6231884057971014,0.8431372549019608,0.7166666666666667,138.367915788
2.0,2.0,0.3,0.0,0.6231884057971014,0.8431372549019608,0.7166666666666667,136.436205266
2.0,1.0,0.8,0.0,0.6231884057971014,0.8431372549019608,0.7166666666666667,138.652235548
2.0,2.0,0.9,0.0,0.6231884057971014,0.8431372549019608,0.7166666666666667,137.038501779
2.0,4.0,0.2,0.0,0.6956521739130435,0.7619047619047619,0.7272727272727272,138.532434448
2.0,2.0,0.2,0.0,0.6231884057971014,0.8431372549019608,0.7166666666666667,138.413269433
2.0,2.0,0.4,0.0,0.6231884057971014,0.8431372549019608,0.7166666666666667,139.22619821
2.0,2.0,0.7,0.0,0.6231884057971014,0.8431372549019608,0.7166666666666667,138.22751094
2.0,4.0,0.1,0.0,0.6956521739130435,0.7619047619047619,0.7272727272727272,138.490987999
2.0,2.0,0.8,0.0,0.6231884057971014,0.8431372549019608,0.7166666666666667,139.106680053
2.0,4.0,0.3,0.0,0.6956521739130435,0.7619047619047619,0.7272727272727272,138.383697576
2.0,4.0,0.4,0.0,0.6956521739130435,0.7619047619047619,0.7272727272727272,166.502768795
2.0,4.0,0.6,0.0,0.6956521739130435,0.7619047619047619,0.7272727272727272,166.502845217
2.0,4.0,0.5,0.0,0.6956521739130435,0.7619047619047619,0.7272727272727272,187.652567274
2.0,4.0,0.7,0.0,0.6956521739130435,0.7619047619047619,0.7272727272727272,171.56009441
2.0,4.0,0.8,0.0,0.7101449275362319,0.7777777777777778,0.7424242424242424,171.707637105
2.0,4.0,0.9,0.0,0.7101449275362319,0.7777777777777778,0.7424242424242424,185.788946114
2.0,8.0,0.2,0.0,0.6956521739130435,0.7384615384615385,0.7164179104477613,167.86292592
2.0,8.0,0.3,0.0,0.7101449275362319,0.7424242424242424,0.725925925925926,160.026908392
2.0,8.0,0.1,0.0,0.6956521739130435,0.7384615384615385,0.7164179104477613,161.766063113
2.0,8.0,0.4,0.0,0.7101449275362319,0.7424242424242424,0.725925925925926,161.059919056
2.0,8.0,0.5,0.0,0.7101449275362319,0.7424242424242424,0.725925925925926,172.571512945
2.0,8.0,0.7,0.0,0.5507246376811594,0.5671641791044776,0.5588235294117646,166.282166742
2.0,8.0,0.6,0.0,0.6086956521739131,0.6268656716417911,0.6176470588235294,161.593538737
2.0,8.0,0.9,0.0,0.5652173913043478,0.5735294117647058,0.5693430656934305,156.163208937
2.0,8.0,0.8,0.0,0.5652173913043478,0.5735294117647058,0.5693430656934305,168.219516018
2.0,16.0,0.1,0.0,0.7246376811594203,0.746268656716418,0.7352941176470589,189.422655235
2.0,16.0,0.2,0.0,0.7391304347826086,0.75,0.7445255474452556,168.428488786
2.0,16.0,0.4,0.0,0.5652173913043478,0.5492957746478874,0.5571428571428572,181.190838422
2.0,16.0,0.5,0.0,0.5072463768115942,0.5072463768115942,0.5072463768115942,158.95358538
2.0,16.0,0.3,0.0,0.6956521739130435,0.7058823529411765,0.7007299270072992,169.001576448
2.0,16.0,0.6,0.0,0.5362318840579711,0.5362318840579711,0.5362318840579711,168.534849997
2.0,16.0,0.7,0.0,0.5362318840579711,0.5285714285714286,0.5323741007194245,175.565413544
2.0,32.0,0.2,0.0,0.5652173913043478,0.5342465753424658,0.5492957746478874,188.371653366
2.0,16.0,0.8,0.0,0.5362318840579711,0.5285714285714286,0.5323741007194245,190.554895432
2.0,32.0,0.3,0.0,0.5362318840579711,0.5211267605633803,0.5285714285714286,188.864660625
2.0,32.0,0.1,0.0,0.7391304347826086,0.7285714285714285,0.7338129496402879,189.56542128
2.0,16.0,0.9,0.0,0.5362318840579711,0.5285714285714286,0.5323741007194245,161.46372533
2.0,32.0,0.4,0.0,0.5362318840579711,0.5138888888888888,0.524822695035461,178.133446716
2.0,32.0,0.6,0.0,0.18840579710144928,0.21311475409836064,0.2,166.938955732
2.0,32.0,0.7,0.0,0.18840579710144928,0.21311475409836064,0.2,176.033914723
2.0,32.0,0.5,0.0,0.4927536231884058,0.4857142857142857,0.4892086330935252,158.041575471
2.0,32.0,0.8,0.0,0.18840579710144928,0.21311475409836064,0.2,145.740600231
2.0,32.0,0.9,0.0,0.18840579710144928,0.21311475409836064,0.2,145.683627809
4.0,1.0,0.1,0.0,0.6666666666666666,0.7540983606557377,0.7076923076923076,144.760201706
4.0,1.0,0.2,0.0,0.6666666666666666,0.7540983606557377,0.7076923076923076,144.797418835
4.0,1.0,0.3,0.0,0.6666666666666666,0.7540983606557377,0.7076923076923076,145.133659786
4.0,1.0,0.4,0.0,0.6666666666666666,0.7540983606557377,0.7076923076923076,144.961238448
4.0,2.0,0.1,0.0,0.6666666666666666,0.7540983606557377,0.7076923076923076,138.211602722
4.0,2.0,0.2,0.0,0.6666666666666666,0.7540983606557377,0.7076923076923076,138.360312704
4.0,1.0,0.5,0.0,0.6666666666666666,0.7540983606557377,0.7076923076923076,138.379843623
4.0,1.0,0.8,0.0,0.6666666666666666,0.7540983606557377,0.7076923076923076,138.594661066
4.0,2.0,0.8,0.0,0.6666666666666666,0.7540983606557377,0.7076923076923076,138.493668441
4.0,1.0,0.9,0.0,0.6666666666666666,0.7540983606557377,0.7076923076923076,136.180581829
4.0,2.0,0.5,0.0,0.6666666666666666,0.7540983606557377,0.7076923076923076,138.395788264
4.0,2.0,0.7,0.0,0.6666666666666666,0.7540983606557377,0.7076923076923076,136.083291011
4.0,2.0,0.9,0.0,0.6811594202898551,0.7704918032786885,0.7230769230769231,138.247838568
4.0,4.0,0.4,0.0,0.7101449275362319,0.7313432835820896,0.7205882352941175,138.269062184
4.0,2.0,0.6,0.0,0.6666666666666666,0.7540983606557377,0.7076923076923076,138.404606081
4.0,1.0,0.6,0.0,0.6666666666666666,0.7540983606557377,0.7076923076923076,138.294697791
4.0,8.0,0.2,0.0,0.7101449275362319,0.7424242424242424,0.725925925925926,138.4839802
4.0,4.0,0.5,0.0,0.7101449275362319,0.7313432835820896,0.7205882352941175,136.013418523
4.0,4.0,0.7,0.0,0.7246376811594203,0.746268656716418,0.7352941176470589,138.341373745
4.0,4.0,0.6,0.0,0.7246376811594203,0.746268656716418,0.7352941176470589,138.315450908
4.0,8.0,0.3,0.0,0.7246376811594203,0.7352941176470589,0.7299270072992701,136.430686014
4.0,4.0,0.2,0.0,0.7101449275362319,0.7424242424242424,0.725925925925926,138.285530543
4.0,1.0,0.7,0.0,0.6666666666666666,0.7540983606557377,0.7076923076923076,138.461103091
4.0,2.0,0.4,0.0,0.6666666666666666,0.7540983606557377,0.7076923076923076,139.619087651
4.0,8.0,0.4,0.0,0.7391304347826086,0.7285714285714285,0.7338129496402879,138.601016694
4.0,4.0,0.3,0.0,0.7101449275362319,0.7424242424242424,0.725925925925926,138.344345484
4.0,2.0,0.3,0.0,0.6666666666666666,0.7540983606557377,0.7076923076923076,138.28482705
4.0,8.0,0.1,0.0,0.7101449275362319,0.7424242424242424,0.725925925925926,138.418232705
4.0,8.0,0.5,0.0,0.7536231884057971,0.7428571428571429,0.748201438848921,138.26567782
4.0,8.0,0.8,0.0,0.7536231884057971,0.7428571428571429,0.748201438848921,138.597837271
4.0,8.0,0.7,0.0,0.7536231884057971,0.7428571428571429,0.748201438848921,138.517091102
4.0,4.0,0.9,0.0,0.7391304347826086,0.7611940298507462,0.75,138.220814593
4.0,4.0,0.1,0.0,0.7101449275362319,0.7424242424242424,0.725925925925926,139.386010685
4.0,8.0,0.9,0.0,0.7391304347826086,0.7285714285714285,0.7338129496402879,136.099635448
4.0,8.0,0.6,0.0,0.7536231884057971,0.7428571428571429,0.748201438848921,139.368332046
4.0,4.0,0.8,0.0,0.7246376811594203,0.746268656716418,0.7352941176470589,138.295897542
4.0,16.0,0.1,0.0,0.7391304347826086,0.75,0.7445255474452556,138.464306654
4.0,16.0,0.2,0.0,0.7536231884057971,0.7323943661971831,0.7428571428571428,138.581600341
4.0,32.0,0.2,0.0,0.782608695652174,0.7297297297297297,0.7552447552447553,138.472876732
4.0,32.0,0.3,0.0,0.7101449275362319,0.6621621621621622,0.6853146853146853,138.711247821
4.0,32.0,0.4,0.0,0.5652173913043478,0.5342465753424658,0.5492957746478874,136.545141785
4.0,16.0,0.5,0.0,0.7391304347826086,0.7083333333333334,0.723404255319149,138.703087216
4.0,16.0,0.3,0.0,0.7681159420289855,0.7361111111111112,0.7517730496453902,138.654518392
8.0,1.0,0.1,0.0,0.6666666666666666,0.7301587301587301,0.696969696969697,138.662626791
4.0,16.0,0.4,0.0,0.782608695652174,0.75,0.7659574468085107,138.627428484
4.0,32.0,0.5,0.0,0.5362318840579711,0.5211267605633803,0.5285714285714286,138.884022456
4.0,16.0,0.6,0.0,0.7101449275362319,0.6805555555555556,0.6950354609929078,139.822436291
4.0,16.0,0.7,0.0,0.6376811594202898,0.6027397260273972,0.6197183098591549,138.563604537
4.0,32.0,0.9,0.0,0.2463768115942029,0.2698412698412698,0.2575757575757575,138.978954914
4.0,16.0,0.9,0.0,0.5362318840579711,0.5362318840579711,0.5362318840579711,138.592998573
4.0,16.0,0.8,0.0,0.5072463768115942,0.5072463768115942,0.5072463768115942,138.774765943
8.0,1.0,0.2,0.0,0.6666666666666666,0.7301587301587301,0.696969696969697,136.468742393
4.0,32.0,0.1,0.0,0.7536231884057971,0.7123287671232876,0.732394366197183,138.813967624
8.0,1.0,0.8,0.0,0.6666666666666666,0.7301587301587301,0.696969696969697,138.854950236
4.0,32.0,0.6,0.0,0.5362318840579711,0.5138888888888888,0.524822695035461,138.889645979
8.0,1.0,0.3,0.0,0.6666666666666666,0.7301587301587301,0.696969696969697,138.727381283
4.0,32.0,0.7,0.0,0.5362318840579711,0.5138888888888888,0.524822695035461,138.930989736
8.0,1.0,0.9,0.0,0.6666666666666666,0.7301587301587301,0.696969696969697,136.848662867
8.0,1.0,0.7,0.0,0.6666666666666666,0.7301587301587301,0.696969696969697,138.350412114
8.0,2.0,0.6,0.0,0.6666666666666666,0.7301587301587301,0.696969696969697,138.72379202
4.0,32.0,0.8,0.0,0.5362318840579711,0.5138888888888888,0.524822695035461,139.052931144
8.0,2.0,0.5,0.0,0.6666666666666666,0.7301587301587301,0.696969696969697,138.411620956
8.0,2.0,0.1,0.0,0.6666666666666666,0.7301587301587301,0.696969696969697,139.130961441
8.0,1.0,0.4,0.0,0.6666666666666666,0.7301587301587301,0.696969696969697,138.523963399
8.0,2.0,0.7,0.0,0.6666666666666666,0.7301587301587301,0.696969696969697,136.408588557
8.0,1.0,0.5,0.0,0.6666666666666666,0.7301587301587301,0.696969696969697,138.638086796
8.0,2.0,0.8,0.0,0.6666666666666666,0.7301587301587301,0.696969696969697,138.750015578
8.0,4.0,0.4,0.0,0.7101449275362319,0.7205882352941176,0.7153284671532847,138.729176649
8.0,1.0,0.6,0.0,0.6666666666666666,0.7301587301587301,0.696969696969697,138.743928824
8.0,2.0,0.3,0.0,0.6666666666666666,0.7301587301587301,0.696969696969697,138.474295138
8.0,4.0,0.3,0.0,0.7101449275362319,0.7205882352941176,0.7153284671532847,138.482835457
8.0,4.0,0.6,0.0,0.7101449275362319,0.7205882352941176,0.7153284671532847,138.55877695
8.0,4.0,0.5,0.0,0.7101449275362319,0.7205882352941176,0.7153284671532847,137.162959655
8.0,2.0,0.2,0.0,0.6666666666666666,0.7301587301587301,0.696969696969697,138.490494124
8.0,2.0,0.4,0.0,0.6666666666666666,0.7301587301587301,0.696969696969697,138.626380628
8.0,8.0,0.1,0.0,0.7101449275362319,0.7205882352941176,0.7153284671532847,138.325774241
8.0,2.0,0.9,0.0,0.6666666666666666,0.7301587301587301,0.696969696969697,138.338209029
8.0,8.0,0.3,0.0,0.7101449275362319,0.7205882352941176,0.7153284671532847,136.138889686
8.0,4.0,0.2,0.0,0.7101449275362319,0.7205882352941176,0.7153284671532847,138.617135138
8.0,8.0,0.4,0.0,0.7101449275362319,0.7101449275362319,0.7101449275362319,138.557246183
8.0,4.0,0.1,0.0,0.7101449275362319,0.7205882352941176,0.7153284671532847,138.426348255
8.0,8.0,0.8,0.0,0.7391304347826086,0.7083333333333334,0.723404255319149,139.38447335
8.0,8.0,0.2,0.0,0.7101449275362319,0.7205882352941176,0.7153284671532847,138.908864159
8.0,16.0,0.1,0.0,0.7391304347826086,0.7285714285714285,0.7338129496402879,136.205388777
8.0,4.0,0.8,0.0,0.7101449275362319,0.7101449275362319,0.7101449275362319,138.447631209
8.0,16.0,0.6,0.0,0.7681159420289855,0.7162162162162162,0.7412587412587412,138.386262762
8.0,4.0,0.7,0.0,0.7101449275362319,0.7205882352941176,0.7153284671532847,138.328204164
8.0,16.0,0.2,0.0,0.7391304347826086,0.7285714285714285,0.7338129496402879,138.49930748
8.0,4.0,0.9,0.0,0.7101449275362319,0.7101449275362319,0.7101449275362319,138.462273076
8.0,8.0,0.9,0.0,0.7536231884057971,0.7222222222222222,0.7375886524822696,138.4777824
8.0,8.0,0.6,0.0,0.7246376811594203,0.704225352112676,0.7142857142857142,138.453943554
8.0,32.0,0.4,0.0,0.782608695652174,0.72,0.7499999999999999,138.382379235
8.0,16.0,0.7,0.0,0.782608695652174,0.7397260273972602,0.7605633802816901,138.341980333
8.0,16.0,0.9,0.0,0.7391304347826086,0.6986301369863014,0.7183098591549297,138.907107191
8.0,16.0,0.8,0.0,0.782608695652174,0.7397260273972602,0.7605633802816901,136.255517397
8.0,8.0,0.5,0.0,0.7246376811594203,0.7142857142857143,0.7194244604316546,138.554332301
8.0,32.0,0.6,0.0,0.6521739130434783,0.6,0.6250000000000001,136.190452426
8.0,16.0,0.4,0.0,0.7681159420289855,0.7162162162162162,0.7412587412587412,138.409015063
8.0,8.0,0.7,0.0,0.7391304347826086,0.7083333333333334,0.723404255319149,138.645455681
8.0,32.0,0.7,0.0,0.5797101449275363,0.547945205479452,0.563380281690141,138.608444383
8.0,16.0,0.3,0.0,0.7536231884057971,0.7222222222222222,0.7375886524822696,138.401730127
8.0,16.0,0.5,0.0,0.782608695652174,0.7297297297297297,0.7552447552447553,138.533232516
8.0,32.0,0.5,0.0,0.7101449275362319,0.6533333333333333,0.6805555555555556,138.375945149
8.0,32.0,0.8,0.0,0.5217391304347826,0.5070422535211268,0.5142857142857142,138.487964966
16.0,1.0,0.1,0.0,0.6956521739130435,0.6857142857142857,0.6906474820143885,138.648649967
8.0,32.0,0.2,0.0,0.7681159420289855,0.6973684210526315,0.7310344827586206,138.559411475
8.0,32.0,0.1,0.0,0.7391304347826086,0.7083333333333334,0.723404255319149,138.540619831
8.0,32.0,0.3,0.0,0.7681159420289855,0.6973684210526315,0.7310344827586206,138.336599636
8.0,32.0,0.9,0.0,0.5362318840579711,0.5211267605633803,0.5285714285714286,136.298624829
16.0,1.0,0.2,0.0,0.6956521739130435,0.6857142857142857,0.6906474820143885,136.15866172
16.0,1.0,0.4,0.0,0.6956521739130435,0.6857142857142857,0.6906474820143885,164.412006265
16.0,1.0,0.3,0.0,0.6956521739130435,0.6857142857142857,0.6906474820143885,164.917334863
16.0,1.0,0.5,0.0,0.6956521739130435,0.6857142857142857,0.6906474820143885,164.052923404
16.0,1.0,0.6,0.0,0.6956521739130435,0.6857142857142857,0.6906474820143885,163.708380293
16.0,1.0,0.7,0.0,0.6956521739130435,0.6857142857142857,0.6906474820143885,164.746587141
16.0,1.0,0.8,0.0,0.6956521739130435,0.6857142857142857,0.6906474820143885,161.739764996
16.0,1.0,0.9,0.0,0.6956521739130435,0.6857142857142857,0.6906474820143885,164.910214222
16.0,2.0,0.2,0.0,0.6956521739130435,0.6857142857142857,0.6906474820143885,166.77807341
16.0,2.0,0.1,0.0,0.6956521739130435,0.6857142857142857,0.6906474820143885,166.327408497
16.0,2.0,0.3,0.0,0.6956521739130435,0.6857142857142857,0.6906474820143885,180.082924319
16.0,2.0,0.4,0.0,0.6956521739130435,0.6857142857142857,0.6906474820143885,167.202940291
16.0,2.0,0.5,0.0,0.6956521739130435,0.6857142857142857,0.6906474820143885,183.323007822
16.0,2.0,0.6,0.0,0.6956521739130435,0.6857142857142857,0.6906474820143885,163.847248556
16.0,2.0,0.7,0.0,0.6956521739130435,0.6857142857142857,0.6906474820143885,167.692821142
16.0,2.0,0.8,0.0,0.6956521739130435,0.6857142857142857,0.6906474820143885,170.380177654
16.0,2.0,0.9,0.0,0.6956521739130435,0.6857142857142857,0.6906474820143885,165.604253683
16.0,4.0,0.1,0.0,0.7391304347826086,0.68,0.7083333333333334,199.728956103
16.0,4.0,0.2,0.0,0.7391304347826086,0.68,0.7083333333333334,162.92757391
16.0,4.0,0.3,0.0,0.7391304347826086,0.68,0.7083333333333334,165.336635205
16.0,4.0,0.5,0.0,0.7391304347826086,0.68,0.7083333333333334,170.389052851
16.0,4.0,0.4,0.0,0.7391304347826086,0.68,0.7083333333333334,177.79869833
16.0,4.0,0.6,0.0,0.7391304347826086,0.68,0.7083333333333334,165.78312569
16.0,4.0,0.7,0.0,0.7391304347826086,0.68,0.7083333333333334,179.074502316
16.0,4.0,0.8,0.0,0.7391304347826086,0.68,0.7083333333333334,144.480889157
16.0,4.0,0.9,0.0,0.7391304347826086,0.68,0.7083333333333334,144.506698879
16.0,8.0,0.1,0.0,0.7391304347826086,0.68,0.7083333333333334,144.559427462
16.0,8.0,0.2,0.0,0.7391304347826086,0.68,0.7083333333333334,144.589650354
16.0,8.0,0.3,0.0,0.7391304347826086,0.68,0.7083333333333334,144.780761383
16.0,8.0,0.4,0.0,0.7391304347826086,0.68,0.7083333333333334,144.643710986
16.0,16.0,0.7,0.0,0.782608695652174,0.6923076923076923,0.7346938775510203,136.077880089
16.0,16.0,0.6,0.0,0.782608695652174,0.6923076923076923,0.7346938775510203,136.304893471
16.0,32.0,0.7,0.0,0.7971014492753623,0.6962025316455697,0.7432432432432432,133.819436189
16.0,32.0,0.4,0.0,0.782608695652174,0.675,0.7248322147651006,135.943735755
32.0,1.0,0.2,0.0,0.6956521739130435,0.6575342465753424,0.676056338028169,136.041672779
16.0,16.0,0.8,0.0,0.782608695652174,0.6923076923076923,0.7346938775510203,136.149329969
16.0,16.0,0.4,0.0,0.7681159420289855,0.6794871794871795,0.7210884353741496,136.420985491
16.0,16.0,0.9,0.0,0.7971014492753623,0.7051282051282052,0.7482993197278911,137.350229982
16.0,32.0,0.2,0.0,0.7681159420289855,0.6708860759493671,0.7162162162162162,135.947287369
16.0,32.0,0.3,0.0,0.782608695652174,0.675,0.7248322147651006,136.729115742
32.0,1.0,0.1,0.0,0.6956521739130435,0.6575342465753424,0.676056338028169,136.052929317
16.0,32.0,0.6,0.0,0.7971014492753623,0.6962025316455697,0.7432432432432432,136.344342537
16.0,32.0,0.5,0.0,0.7971014492753623,0.6962025316455697,0.7432432432432432,136.061922449
16.0,32.0,0.9,0.0,0.7536231884057971,0.6582278481012658,0.7027027027027026,136.150326251
32.0,1.0,0.5,0.0,0.6956521739130435,0.6575342465753424,0.676056338028169,132.324317008
32.0,1.0,0.9,0.0,0.6956521739130435,0.6575342465753424,0.676056338028169,136.012133884
32.0,1.0,0.3,0.0,0.6956521739130435,0.6575342465753424,0.676056338028169,136.07990502
32.0,1.0,0.7,0.0,0.6956521739130435,0.6575342465753424,0.676056338028169,135.910140404
32.0,2.0,0.3,0.0,0.6956521739130435,0.6575342465753424,0.676056338028169,134.091051011
32.0,1.0,0.4,0.0,0.6956521739130435,0.6575342465753424,0.676056338028169,136.399288512
32.0,2.0,0.1,0.0,0.6956521739130435,0.6575342465753424,0.676056338028169,135.888829296
16.0,16.0,0.5,0.0,0.7681159420289855,0.6794871794871795,0.7210884353741496,136.213312728
32.0,1.0,0.8,0.0,0.6956521739130435,0.6575342465753424,0.676056338028169,135.926229642
32.0,2.0,0.5,0.0,0.6956521739130435,0.6575342465753424,0.676056338028169,136.661598328
32.0,2.0,0.7,0.0,0.6956521739130435,0.6575342465753424,0.676056338028169,132.412553642
16.0,8.0,0.5,0.0,0.7391304347826086,0.68,0.7083333333333334,169.385739289
32.0,2.0,0.2,0.0,0.6956521739130435,0.6575342465753424,0.676056338028169,136.452827684
16.0,32.0,0.1,0.0,0.7681159420289855,0.6708860759493671,0.7162162162162162,136.40953918
32.0,2.0,0.6,0.0,0.6956521739130435,0.6575342465753424,0.676056338028169,136.365562445
16.0,32.0,0.8,0.0,0.782608695652174,0.6835443037974683,0.7297297297297297,136.09350179
32.0,1.0,0.6,0.0,0.6956521739130435,0.6575342465753424,0.676056338028169,136.215583725
16.0,8.0,0.6,0.0,0.7391304347826086,0.68,0.7083333333333334,176.324513509
32.0,2.0,0.8,0.0,0.6956521739130435,0.6575342465753424,0.676056338028169,133.919426797
16.0,8.0,0.7,0.0,0.7391304347826086,0.68,0.7083333333333334,175.856743925
16.0,8.0,0.8,0.0,0.7391304347826086,0.6710526315789473,0.7034482758620689,176.641044789
32.0,2.0,0.4,0.0,0.6956521739130435,0.6575342465753424,0.676056338028169,136.299449808
16.0,8.0,0.9,0.0,0.7391304347826086,0.6710526315789473,0.7034482758620689,161.652843083
16.0,16.0,0.1,0.0,0.7681159420289855,0.6883116883116883,0.726027397260274,195.080305797
16.0,16.0,0.2,0.0,0.7681159420289855,0.6883116883116883,0.726027397260274,177.160454878
16.0,16.0,0.3,0.0,0.7681159420289855,0.6883116883116883,0.726027397260274,171.285152949
32.0,4.0,0.1,0.0,0.7391304347826086,0.6538461538461539,0.693877551020408,132.105688232
32.0,8.0,0.5,0.0,0.7391304347826086,0.6538461538461539,0.693877551020408,130.950459707
32.0,16.0,0.1,0.0,0.7681159420289855,0.6625,0.7114093959731543,130.188071204
32.0,4.0,0.3,0.0,0.7391304347826086,0.6538461538461539,0.693877551020408,132.026588385
32.0,32.0,0.1,0.0,0.7681159420289855,0.6463414634146342,0.7019867549668874,130.971071592
32.0,8.0,0.7,0.0,0.7391304347826086,0.6538461538461539,0.693877551020408,126.666924344
32.0,4.0,0.4,0.0,0.7391304347826086,0.6538461538461539,0.693877551020408,132.547478829
32.0,4.0,0.6,0.0,0.7391304347826086,0.6538461538461539,0.693877551020408,132.188081235
32.0,4.0,0.2,0.0,0.7391304347826086,0.6538461538461539,0.693877551020408,132.431755715
32.0,16.0,0.5,0.0,0.7681159420289855,0.6625,0.7114093959731543,129.094253225
32.0,8.0,0.2,0.0,0.7391304347826086,0.6538461538461539,0.693877551020408,132.360096353
32.0,4.0,0.5,0.0,0.7391304347826086,0.6538461538461539,0.693877551020408,132.342198478
32.0,2.0,0.9,0.0,0.6956521739130435,0.6575342465753424,0.676056338028169,132.32889749
32.0,4.0,0.8,0.0,0.7391304347826086,0.6538461538461539,0.693877551020408,132.035806743
32.0,32.0,0.6,0.0,0.782608695652174,0.6666666666666666,0.72,130.178819768
32.0,4.0,0.9,0.0,0.7391304347826086,0.6538461538461539,0.693877551020408,132.448102173
32.0,32.0,0.3,0.0,0.7681159420289855,0.6463414634146342,0.7019867549668874,126.608786377
32.0,4.0,0.7,0.0,0.7391304347826086,0.6538461538461539,0.693877551020408,132.096041982
32.0,8.0,0.4,0.0,0.7391304347826086,0.6538461538461539,0.693877551020408,132.904843686
32.0,8.0,0.1,0.0,0.7391304347826086,0.6538461538461539,0.693877551020408,131.979452994
32.0,8.0,0.9,0.0,0.7391304347826086,0.6538461538461539,0.693877551020408,132.152809533
32.0,8.0,0.6,0.0,0.7391304347826086,0.6538461538461539,0.693877551020408,132.118952152
32.0,8.0,0.3,0.0,0.7391304347826086,0.6538461538461539,0.693877551020408,132.255885726
32.0,8.0,0.8,0.0,0.7391304347826086,0.6538461538461539,0.693877551020408,132.035677456
32.0,16.0,0.7,0.0,0.7681159420289855,0.6625,0.7114093959731543,132.234856848
32.0,32.0,0.5,0.0,0.7681159420289855,0.654320987654321,0.7066666666666667,132.279997461
32.0,16.0,0.3,0.0,0.7681159420289855,0.6625,0.7114093959731543,133.124124688
32.0,16.0,0.4,0.0,0.7681159420289855,0.6625,0.7114093959731543,132.156772801
32.0,16.0,0.6,0.0,0.7681159420289855,0.6625,0.7114093959731543,132.040415363
32.0,16.0,0.8,0.0,0.7681159420289855,0.654320987654321,0.7066666666666667,132.179769058
32.0,16.0,0.9,0.0,0.7681159420289855,0.654320987654321,0.7066666666666667,132.022016936
32.0,32.0,0.2,0.0,0.7681159420289855,0.6463414634146342,0.7019867549668874,132.297138275
32.0,16.0,0.2,0.0,0.7681159420289855,0.6625,0.7114093959731543,132.316836228
32.0,32.0,0.4,0.0,0.7681159420289855,0.6463414634146342,0.7019867549668874,132.092867023
32.0,32.0,0.8,0.0,0.782608695652174,0.6666666666666666,0.72,132.021072028
32.0,32.0,0.7,0.0,0.782608695652174,0.6666666666666666,0.72,132.14085458
32.0,32.0,0.9,0.0,0.7971014492753623,0.6875,0.7382550335570469,132.12065914
