gamma_s,gamma_h,alpha,weight_h,sensitivity,ppv,fmeasure,time
1.0,1.0,0.3,1.0,0.32558139534883723,0.7,0.44444444444444453,7.159928879
1.0,1.0,0.1,1.0,0.32558139534883723,0.7,0.44444444444444453,7.165551305
1.0,1.0,0.5,1.0,0.32558139534883723,0.7,0.44444444444444453,7.146812218
1.0,1.0,0.2,1.0,0.32558139534883723,0.7,0.44444444444444453,7.160891989
1.0,1.0,0.4,1.0,0.32558139534883723,0.7,0.44444444444444453,7.195552873
1.0,1.0,0.6,1.0,0.3023255813953488,0.6190476190476191,0.40625,7.990801633
1.0,1.0,0.7,1.0,0.3023255813953488,0.6190476190476191,0.40625,7.80892272
1.0,1.0,0.8,1.0,0.3023255813953488,0.6190476190476191,0.40625,8.370024002
1.0,4.0,0.9,1.0,0.20930232558139536,0.19148936170212766,0.2,7.183156196
1.0,8.0,0.2,1.0,0.3023255813953488,0.24074074074074073,0.2680412371134021,7.201264387
1.0,4.0,0.8,1.0,0.27906976744186046,0.2553191489361702,0.26666666666666666,7.180756321
1.0,8.0,0.1,1.0,0.32558139534883723,0.2641509433962264,0.29166666666666663,7.216049769
1.0,8.0,0.3,1.0,0.27906976744186046,0.21818181818181817,0.24489795918367344,7.213107368
1.0,1.0,0.9,1.0,0.3023255813953488,0.6190476190476191,0.40625,7.805455988
1.0,2.0,0.1,1.0,0.32558139534883723,0.5,0.3943661971830986,8.050811594
1.0,2.0,0.2,1.0,0.32558139534883723,0.5,0.3943661971830986,7.620913582
1.0,2.0,0.3,1.0,0.3023255813953488,0.43333333333333335,0.35616438356164387,7.812369655
1.0,2.0,0.4,1.0,0.3023255813953488,0.43333333333333335,0.35616438356164387,8.003993669
1.0,2.0,0.7,1.0,0.3023255813953488,0.43333333333333335,0.35616438356164387,7.633501145
1.0,2.0,0.5,1.0,0.3023255813953488,0.43333333333333335,0.35616438356164387,8.299013281
1.0,2.0,0.6,1.0,0.3023255813953488,0.43333333333333335,0.35616438356164387,7.887654122
1.0,2.0,0.8,1.0,0.3023255813953488,0.43333333333333335,0.35616438356164387,8.26757343
1.0,2.0,0.9,1.0,0.3023255813953488,0.43333333333333335,0.35616438356164387,7.810885167
1.0,4.0,0.1,1.0,0.32558139534883723,0.2978723404255319,0.3111111111111111,7.921309477
1.0,4.0,0.2,1.0,0.32558139534883723,0.2978723404255319,0.3111111111111111,7.904364536
1.0,4.0,0.3,1.0,0.32558139534883723,0.2978723404255319,0.3111111111111111,7.823103899
1.0,4.0,0.5,1.0,0.3023255813953488,0.2765957446808511,0.2888888888888889,7.736034064
1.0,4.0,0.4,1.0,0.32558139534883723,0.2978723404255319,0.3111111111111111,8.476565825
1.0,4.0,0.6,1.0,0.3023255813953488,0.2765957446808511,0.2888888888888889,8.359599597
1.0,4.0,0.7,1.0,0.27906976744186046,0.2553191489361702,0.26666666666666666,8.319743728
2.0,1.0,0.1,1.0,0.3488372093023256,0.7142857142857143,0.46875,7.17578978
2.0,1.0,0.2,1.0,0.3488372093023256,0.7142857142857143,0.46875,7.216569082
1.0,32.0,0.9,1.0,0.20930232558139536,0.16071428571428573,0.18181818181818182,7.188906148
1.0,32.0,0.8,1.0,0.20930232558139536,0.16071428571428573,0.18181818181818182,7.264938509
2.0,1.0,0.3,1.0,0.3488372093023256,0.7142857142857143,0.46875,7.200768169
1.0,8.0,0.4,1.0,0.27906976744186046,0.21818181818181817,0.24489795918367344,8.073979998
1.0,8.0,0.5,1.0,0.20930232558139536,0.16363636363636364,0.1836734693877551,8.081770572
1.0,8.0,0.6,1.0,0.20930232558139536,0.16363636363636364,0.1836734693877551,8.068663105
1.0,8.0,0.9,1.0,0.20930232558139536,0.16363636363636364,0.1836734693877551,7.803835648
1.0,8.0,0.7,1.0,0.20930232558139536,0.16363636363636364,0.1836734693877551,7.839729606
1.0,8.0,0.8,1.0,0.20930232558139536,0.16363636363636364,0.1836734693877551,8.002764018
1.0,16.0,0.1,1.0,0.32558139534883723,0.25925925925925924,0.288659793814433,7.988787963
1.0,16.0,0.2,1.0,0.27906976744186046,0.21428571428571427,0.24242424242424243,8.864790099
1.0,16.0,0.3,1.0,0.20930232558139536,0.16071428571428573,0.18181818181818182,8.119154229
1.0,16.0,0.4,1.0,0.20930232558139536,0.16071428571428573,0.18181818181818182,7.745611047
1.0,16.0,0.5,1.0,0.20930232558139536,0.16071428571428573,0.18181818181818182,8.862957811
1.0,16.0,0.6,1.0,0.20930232558139536,0.16071428571428573,0.18181818181818182,7.87241512
1.0,16.0,0.7,1.0,0.20930232558139536,0.16071428571428573,0.18181818181818182,7.681505925
1.0,16.0,0.8,1.0,0.20930232558139536,0.16071428571428573,0.18181818181818182,7.960137471
1.0,16.0,0.9,1.0,0.20930232558139536,0.16071428571428573,0.18181818181818182,8.097531975
1.0,32.0,0.1,1.0,0.27906976744186046,0.21428571428571427,0.24242424242424243,8.284432397
1.0,32.0,0.2,1.0,0.20930232558139536,0.16071428571428573,0.18181818181818182,7.940901877
1.0,32.0,0.3,1.0,0.20930232558139536,0.16071428571428573,0.18181818181818182,8.008508799
1.0,32.0,0.4,1.0,0.20930232558139536,0.16071428571428573,0.18181818181818182,9.407966039
1.0,32.0,0.6,1.0,0.20930232558139536,0.16071428571428573,0.18181818181818182,8.370531035
1.0,32.0,0.5,1.0,0.20930232558139536,0.16071428571428573,0.18181818181818182,8.312481988
1.0,32.0,0.7,1.0,0.20930232558139536,0.16071428571428573,0.18181818181818182,8.04659692
2.0,8.0,0.2,1.0,0.32558139534883723,0.2641509433962264,0.29166666666666663,6.99071967
2.0,8.0,0.3,1.0,0.3023255813953488,0.24074074074074073,0.2680412371134021,6.99686456
2.0,4.0,0.8,1.0,0.32558139534883723,0.30434782608695654,0.31460674157303375,6.958776202
2.0,8.0,0.1,1.0,0.3488372093023256,0.29411764705882354,0.3191489361702128,7.029429059
2.0,4.0,0.9,1.0,0.32558139534883723,0.30434782608695654,0.31460674157303375,6.920299222
2.0,1.0,0.5,1.0,0.3488372093023256,0.7142857142857143,0.46875,8.033041431
2.0,1.0,0.4,1.0,0.3488372093023256,0.7142857142857143,0.46875,7.924456124
2.0,1.0,0.6,1.0,0.3488372093023256,0.7142857142857143,0.46875,8.097261911
2.0,1.0,0.7,1.0,0.3488372093023256,0.7142857142857143,0.46875,8.033258878
2.0,1.0,0.8,1.0,0.3488372093023256,0.7142857142857143,0.46875,7.902306388
2.0,1.0,0.9,1.0,0.3488372093023256,0.7142857142857143,0.46875,8.189479659
2.0,2.0,0.1,1.0,0.3488372093023256,0.5172413793103449,0.41666666666666663,8.005213036
2.0,2.0,0.2,1.0,0.3488372093023256,0.5172413793103449,0.41666666666666663,8.746660203
2.0,2.0,0.3,1.0,0.3488372093023256,0.5172413793103449,0.41666666666666663,7.828976102
2.0,2.0,0.4,1.0,0.3488372093023256,0.5172413793103449,0.41666666666666663,8.802401593
2.0,2.0,0.5,1.0,0.32558139534883723,0.45161290322580644,0.3783783783783784,7.892620452
2.0,2.0,0.6,1.0,0.32558139534883723,0.45161290322580644,0.3783783783783784,7.83481045
2.0,2.0,0.7,1.0,0.32558139534883723,0.45161290322580644,0.3783783783783784,7.761316021
2.0,2.0,0.8,1.0,0.32558139534883723,0.45161290322580644,0.3783783783783784,8.557135374
2.0,2.0,0.9,1.0,0.32558139534883723,0.45161290322580644,0.3783783783783784,8.855129249
2.0,4.0,0.1,1.0,0.3488372093023256,0.3409090909090909,0.3448275862068966,7.798449272
2.0,4.0,0.2,1.0,0.3488372093023256,0.3409090909090909,0.3448275862068966,7.956369358
2.0,4.0,0.3,1.0,0.32558139534883723,0.30434782608695654,0.31460674157303375,8.066148084
2.0,4.0,0.5,1.0,0.32558139534883723,0.30434782608695654,0.31460674157303375,8.6218693
2.0,4.0,0.6,1.0,0.32558139534883723,0.30434782608695654,0.31460674157303375,7.788530935
2.0,4.0,0.4,1.0,0.32558139534883723,0.30434782608695654,0.31460674157303375,8.818831961
2.0,4.0,0.7,1.0,0.32558139534883723,0.30434782608695654,0.31460674157303375,8.754524326
4.0,1.0,0.5,1.0,0.5581395348837209,0.75,0.6399999999999999,7.452533573
4.0,1.0,0.9,1.0,0.5581395348837209,0.75,0.6399999999999999,7.17331097
4.0,1.0,0.6,1.0,0.5581395348837209,0.75,0.6399999999999999,7.280518487
4.0,1.0,0.8,1.0,0.5581395348837209,0.75,0.6399999999999999,7.374696742
4.0,2.0,0.3,1.0,0.5581395348837209,0.6153846153846154,0.5853658536585366,7.216157783
4.0,2.0,0.7,1.0,0.5581395348837209,0.6153846153846154,0.5853658536585366,7.198222602
2.0,8.0,0.4,1.0,0.27906976744186046,0.21818181818181817,0.24489795918367344,8.759124867
2.0,8.0,0.5,1.0,0.27906976744186046,0.21818181818181817,0.24489795918367344,8.123195864
4.0,1.0,0.4,1.0,0.5581395348837209,0.75,0.6399999999999999,7.331355772
2.0,32.0,0.9,1.0,0.20930232558139536,0.16071428571428573,0.18181818181818182,7.4081951
4.0,2.0,0.6,1.0,0.5581395348837209,0.6153846153846154,0.5853658536585366,7.042863338
4.0,2.0,0.4,1.0,0.5581395348837209,0.6153846153846154,0.5853658536585366,7.30821191
4.0,1.0,0.1,1.0,0.5581395348837209,0.75,0.6399999999999999,7.098006025
2.0,8.0,0.6,1.0,0.27906976744186046,0.21818181818181817,0.24489795918367344,8.317088607
4.0,4.0,0.5,1.0,0.5581395348837209,0.4444444444444444,0.49484536082474234,7.096302055
4.0,1.0,0.2,1.0,0.5581395348837209,0.75,0.6399999999999999,7.138370574
4.0,2.0,0.2,1.0,0.5581395348837209,0.6153846153846154,0.5853658536585366,7.244106295
4.0,1.0,0.7,1.0,0.5581395348837209,0.75,0.6399999999999999,7.330748564
2.0,8.0,0.7,1.0,0.2558139534883721,0.2,0.22448979591836737,8.179600291
4.0,4.0,0.1,1.0,0.5581395348837209,0.4444444444444444,0.49484536082474234,7.212950789
4.0,1.0,0.3,1.0,0.5581395348837209,0.75,0.6399999999999999,7.435362886
4.0,2.0,0.1,1.0,0.5581395348837209,0.6153846153846154,0.5853658536585366,7.408395979
4.0,2.0,0.9,1.0,0.5581395348837209,0.6153846153846154,0.5853658536585366,7.259766077
4.0,2.0,0.5,1.0,0.5581395348837209,0.6153846153846154,0.5853658536585366,7.31124059
4.0,2.0,0.8,1.0,0.5581395348837209,0.6153846153846154,0.5853658536585366,7.370161665
2.0,8.0,0.8,1.0,0.20930232558139536,0.16363636363636364,0.1836734693877551,8.247593985
4.0,4.0,0.2,1.0,0.5581395348837209,0.4444444444444444,0.49484536082474234,7.296009104
2.0,8.0,0.9,1.0,0.20930232558139536,0.16363636363636364,0.1836734693877551,8.211947955
4.0,4.0,0.4,1.0,0.5581395348837209,0.4444444444444444,0.49484536082474234,7.172763313
4.0,4.0,0.8,1.0,0.5581395348837209,0.4444444444444444,0.49484536082474234,7.307642453
4.0,4.0,0.7,1.0,0.5581395348837209,0.4444444444444444,0.49484536082474234,7.156785387
4.0,8.0,0.3,1.0,0.5581395348837209,0.4067796610169492,0.47058823529411764,7.2013962
4.0,4.0,0.6,1.0,0.5581395348837209,0.4444444444444444,0.49484536082474234,7.234853299
4.0,8.0,0.4,1.0,0.5581395348837209,0.4067796610169492,0.47058823529411764,7.299601746
4.0,8.0,0.6,1.0,0.5581395348837209,0.4067796610169492,0.47058823529411764,7.280711563
4.0,4.0,0.9,1.0,0.5581395348837209,0.4444444444444444,0.49484536082474234,7.260123867
4.0,8.0,0.5,1.0,0.5581395348837209,0.4067796610169492,0.47058823529411764,7.249134136
2.0,16.0,0.1,1.0,0.32558139534883723,0.25925925925925924,0.288659793814433,8.213523982
4.0,16.0,0.2,1.0,0.5581395348837209,0.4,0.4660194174757281,7.165307768
4.0,16.0,0.1,1.0,0.5581395348837209,0.41379310344827586,0.4752475247524752,7.164253498
4.0,16.0,0.3,1.0,0.5581395348837209,0.4,0.4660194174757281,7.181564017
4.0,8.0,0.2,1.0,0.5581395348837209,0.42105263157894735,0.48,7.176460549
4.0,8.0,0.7,1.0,0.4418604651162791,0.31666666666666665,0.3689320388349514,7.239549475
4.0,16.0,0.4,1.0,0.4418604651162791,0.3114754098360656,0.3653846153846154,7.208928752
4.0,32.0,0.2,1.0,0.4418604651162791,0.3114754098360656,0.3653846153846154,7.178548586
4.0,16.0,0.8,1.0,0.37209302325581395,0.26229508196721313,0.30769230769230765,7.09513845
4.0,8.0,0.9,1.0,0.4418604651162791,0.31666666666666665,0.3689320388349514,7.136044976
4.0,32.0,0.3,1.0,0.3953488372093023,0.2786885245901639,0.3269230769230769,7.294044801
4.0,32.0,0.6,1.0,0.3023255813953488,0.22033898305084745,0.25490196078431376,7.171600379
4.0,32.0,0.1,1.0,0.5581395348837209,0.4,0.4660194174757281,7.164466098
4.0,16.0,0.5,1.0,0.4418604651162791,0.3114754098360656,0.3653846153846154,7.112312422
4.0,16.0,0.7,1.0,0.37209302325581395,0.26229508196721313,0.30769230769230765,7.062294487
4.0,4.0,0.3,1.0,0.5581395348837209,0.4444444444444444,0.49484536082474234,7.349548097
4.0,32.0,0.5,1.0,0.3023255813953488,0.22033898305084745,0.25490196078431376,7.081255125
8.0,1.0,0.4,1.0,0.627906976744186,0.7714285714285715,0.6923076923076923,7.014723166
4.0,32.0,0.9,1.0,0.2558139534883721,0.1896551724137931,0.21782178217821782,7.051920577
4.0,16.0,0.9,1.0,0.37209302325581395,0.26229508196721313,0.30769230769230765,7.035834129
4.0,8.0,0.1,1.0,0.5581395348837209,0.42105263157894735,0.48,7.127895285
4.0,32.0,0.8,1.0,0.2558139534883721,0.1896551724137931,0.21782178217821782,6.945306943
4.0,8.0,0.8,1.0,0.4418604651162791,0.31666666666666665,0.3689320388349514,7.099653235
8.0,1.0,0.1,1.0,0.627906976744186,0.7714285714285715,0.6923076923076923,6.890652064
8.0,1.0,0.3,1.0,0.627906976744186,0.7714285714285715,0.6923076923076923,6.889630733
4.0,16.0,0.6,1.0,0.37209302325581395,0.26229508196721313,0.30769230769230765,7.116752022
2.0,16.0,0.2,1.0,0.3023255813953488,0.23636363636363636,0.26530612244897955,8.371809894
4.0,32.0,0.7,1.0,0.2558139534883721,0.1896551724137931,0.21782178217821782,7.030249806
8.0,2.0,0.1,1.0,0.627906976744186,0.6585365853658537,0.6428571428571429,6.921597164
8.0,2.0,0.2,1.0,0.627906976744186,0.6585365853658537,0.6428571428571429,6.851115233
8.0,1.0,0.8,1.0,0.627906976744186,0.7714285714285715,0.6923076923076923,6.909494352
8.0,1.0,0.7,1.0,0.627906976744186,0.7714285714285715,0.6923076923076923,6.95298189
2.0,16.0,0.3,1.0,0.27906976744186046,0.21428571428571427,0.24242424242424243,8.236134619
8.0,1.0,0.5,1.0,0.627906976744186,0.7714285714285715,0.6923076923076923,6.90171855
8.0,2.0,0.9,1.0,0.627906976744186,0.6585365853658537,0.6428571428571429,6.841106956
8.0,1.0,0.6,1.0,0.627906976744186,0.7714285714285715,0.6923076923076923,6.927020731
8.0,2.0,0.5,1.0,0.627906976744186,0.6585365853658537,0.6428571428571429,6.884065359
8.0,2.0,0.8,1.0,0.627906976744186,0.6585365853658537,0.6428571428571429,6.855381871
8.0,2.0,0.6,1.0,0.627906976744186,0.6585365853658537,0.6428571428571429,6.908721345
4.0,32.0,0.4,1.0,0.37209302325581395,0.26229508196721313,0.30769230769230765,7.056363694
2.0,16.0,0.4,1.0,0.20930232558139536,0.16071428571428573,0.18181818181818182,8.385130384
8.0,2.0,0.3,1.0,0.627906976744186,0.6585365853658537,0.6428571428571429,6.938739849
8.0,2.0,0.4,1.0,0.627906976744186,0.6585365853658537,0.6428571428571429,6.848860843
2.0,16.0,0.5,1.0,0.20930232558139536,0.16071428571428573,0.18181818181818182,8.162831485
8.0,4.0,0.3,1.0,0.627906976744186,0.48214285714285715,0.5454545454545454,6.898578623
8.0,4.0,0.2,1.0,0.627906976744186,0.48214285714285715,0.5454545454545454,6.874601783
8.0,4.0,0.4,1.0,0.627906976744186,0.48214285714285715,0.5454545454545454,6.901171342
8.0,4.0,0.1,1.0,0.627906976744186,0.48214285714285715,0.5454545454545454,6.873345448
8.0,1.0,0.2,1.0,0.627906976744186,0.7714285714285715,0.6923076923076923,7.046965125
8.0,1.0,0.9,1.0,0.627906976744186,0.7714285714285715,0.6923076923076923,7.022918601
8.0,2.0,0.7,1.0,0.627906976744186,0.6585365853658537,0.6428571428571429,6.996612922
8.0,4.0,0.5,1.0,0.627906976744186,0.48214285714285715,0.5454545454545454,7.011427343
2.0,16.0,0.6,1.0,0.20930232558139536,0.16071428571428573,0.18181818181818182,7.994212779
8.0,4.0,0.6,1.0,0.6046511627906976,0.4642857142857143,0.5252525252525253,7.031006089
8.0,4.0,0.7,1.0,0.6046511627906976,0.4642857142857143,0.5252525252525253,6.99396881
2.0,16.0,0.7,1.0,0.20930232558139536,0.16071428571428573,0.18181818181818182,7.97334327
2.0,16.0,0.8,1.0,0.20930232558139536,0.16071428571428573,0.18181818181818182,7.886912917
2.0,16.0,0.9,1.0,0.20930232558139536,0.16071428571428573,0.18181818181818182,8.102938475
2.0,32.0,0.1,1.0,0.3023255813953488,0.23636363636363636,0.26530612244897955,8.053711613
2.0,32.0,0.2,1.0,0.20930232558139536,0.16071428571428573,0.18181818181818182,8.02455469
2.0,32.0,0.3,1.0,0.20930232558139536,0.16071428571428573,0.18181818181818182,8.113901254
2.0,32.0,0.4,1.0,0.20930232558139536,0.16071428571428573,0.18181818181818182,7.872944847
2.0,32.0,0.6,1.0,0.20930232558139536,0.16071428571428573,0.18181818181818182,7.8935372
2.0,32.0,0.5,1.0,0.20930232558139536,0.16071428571428573,0.18181818181818182,8.116270633
2.0,32.0,0.7,1.0,0.20930232558139536,0.16071428571428573,0.18181818181818182,8.129415825
2.0,32.0,0.8,1.0,0.20930232558139536,0.16071428571428573,0.18181818181818182,7.876298423
8.0,8.0,0.1,1.0,0.627906976744186,0.4576271186440678,0.5294117647058824,7.852460483
8.0,4.0,0.9,1.0,0.6046511627906976,0.4642857142857143,0.5252525252525253,7.896824135
8.0,8.0,0.3,1.0,0.627906976744186,0.4576271186440678,0.5294117647058824,7.813406514
8.0,8.0,0.4,1.0,0.6046511627906976,0.4262295081967213,0.4999999999999999,9.014018654
8.0,4.0,0.8,1.0,0.6046511627906976,0.4642857142857143,0.5252525252525253,9.021320431
8.0,8.0,0.2,1.0,0.627906976744186,0.4576271186440678,0.5294117647058824,7.812328792
8.0,32.0,0.7,1.0,0.4186046511627907,0.2857142857142857,0.339622641509434,7.230427513
8.0,32.0,0.9,1.0,0.3488372093023256,0.2459016393442623,0.28846153846153844,7.523704921
8.0,32.0,0.4,1.0,0.4883720930232558,0.3333333333333333,0.39622641509433965,7.401503637
8.0,32.0,0.2,1.0,0.6046511627906976,0.41935483870967744,0.49523809523809514,7.417712917
8.0,32.0,0.5,1.0,0.4418604651162791,0.30158730158730157,0.3584905660377358,7.489304504
16.0,1.0,0.1,1.0,0.6046511627906976,0.7428571428571429,0.6666666666666666,7.517209998
16.0,1.0,0.6,1.0,0.6046511627906976,0.7428571428571429,0.6666666666666666,7.377889773
16.0,1.0,0.4,1.0,0.6046511627906976,0.7428571428571429,0.6666666666666666,7.244780265
8.0,32.0,0.3,1.0,0.6046511627906976,0.41935483870967744,0.49523809523809514,7.601224239
8.0,32.0,0.8,1.0,0.4186046511627907,0.2857142857142857,0.339622641509434,7.434517287
8.0,32.0,0.6,1.0,0.4186046511627907,0.2857142857142857,0.339622641509434,7.316483351
16.0,1.0,0.2,1.0,0.6046511627906976,0.7428571428571429,0.6666666666666666,7.265182414
16.0,2.0,0.1,1.0,0.6046511627906976,0.6341463414634146,0.6190476190476191,7.325270088
16.0,1.0,0.7,1.0,0.6511627906976745,0.8,0.7179487179487181,7.298214986
16.0,1.0,0.5,1.0,0.6046511627906976,0.7428571428571429,0.6666666666666666,7.332546343
16.0,2.0,0.3,1.0,0.6046511627906976,0.6341463414634146,0.6190476190476191,7.194882383
16.0,2.0,0.4,1.0,0.6046511627906976,0.6341463414634146,0.6190476190476191,7.186622314
16.0,2.0,0.9,1.0,0.6511627906976745,0.6666666666666666,0.6588235294117646,7.11981679
16.0,2.0,0.7,1.0,0.6511627906976745,0.6666666666666666,0.6588235294117646,7.16888356
16.0,2.0,0.2,1.0,0.6046511627906976,0.6341463414634146,0.6190476190476191,7.132375322
16.0,1.0,0.8,1.0,0.6511627906976745,0.7777777777777778,0.7088607594936709,7.167679031
16.0,1.0,0.3,1.0,0.6046511627906976,0.7428571428571429,0.6666666666666666,7.198429024
16.0,8.0,0.1,1.0,0.6046511627906976,0.45614035087719296,0.52,6.997378419
16.0,2.0,0.5,1.0,0.6511627906976745,0.6666666666666666,0.6588235294117646,7.115899881
16.0,4.0,0.1,1.0,0.6046511627906976,0.48148148148148145,0.5360824742268042,7.104358074
16.0,1.0,0.9,1.0,0.6511627906976745,0.7777777777777778,0.7088607594936709,7.113454902
16.0,8.0,0.8,1.0,0.627906976744186,0.43548387096774194,0.5142857142857142,7.048930585
16.0,2.0,0.8,1.0,0.6511627906976745,0.6666666666666666,0.6588235294117646,7.227052126
16.0,4.0,0.4,1.0,0.6511627906976745,0.5,0.5656565656565656,7.123573662
16.0,4.0,0.6,1.0,0.6511627906976745,0.49122807017543857,0.5599999999999999,7.096434029
16.0,4.0,0.2,1.0,0.6511627906976745,0.5,0.5656565656565656,7.220580752
16.0,4.0,0.7,1.0,0.6511627906976745,0.49122807017543857,0.5599999999999999,7.116634318
16.0,16.0,0.6,1.0,0.627906976744186,0.42857142857142855,0.5094339622641509,6.954502425
16.0,8.0,0.4,1.0,0.6511627906976745,0.4666666666666667,0.5436893203883496,7.092940892
16.0,4.0,0.8,1.0,0.6511627906976745,0.49122807017543857,0.5599999999999999,7.193204678
16.0,2.0,0.6,1.0,0.6511627906976745,0.6666666666666666,0.6588235294117646,7.261769853
16.0,8.0,0.2,1.0,0.6511627906976745,0.4745762711864407,0.5490196078431372,7.135663999
16.0,32.0,0.4,1.0,0.627906976744186,0.42857142857142855,0.5094339622641509,6.814637349
16.0,4.0,0.5,1.0,0.6511627906976745,0.49122807017543857,0.5599999999999999,7.353203185
16.0,4.0,0.3,1.0,0.6511627906976745,0.5,0.5656565656565656,7.318185002
16.0,16.0,0.2,1.0,0.6511627906976745,0.45901639344262296,0.5384615384615384,7.141221309
16.0,8.0,0.9,1.0,0.627906976744186,0.43548387096774194,0.5142857142857142,7.127625415
16.0,8.0,0.3,1.0,0.6511627906976745,0.4666666666666667,0.5436893203883496,7.174505089
32.0,1.0,0.2,1.0,0.6511627906976745,0.6511627906976745,0.6511627906976745,7.091164201
16.0,8.0,0.5,1.0,0.6511627906976745,0.4666666666666667,0.5436893203883496,7.081079229
16.0,8.0,0.6,1.0,0.627906976744186,0.45,0.5242718446601942,7.28898008
16.0,16.0,0.3,1.0,0.6511627906976745,0.45901639344262296,0.5384615384615384,7.167830122
16.0,4.0,0.9,1.0,0.6511627906976745,0.49122807017543857,0.5599999999999999,7.230919646
16.0,16.0,0.9,1.0,0.627906976744186,0.42857142857142855,0.5094339622641509,7.042905723
16.0,16.0,0.7,1.0,0.627906976744186,0.42857142857142855,0.5094339622641509,7.027617355
32.0,1.0,0.9,1.0,0.6976744186046512,0.6818181818181818,0.6896551724137931,6.853910289
16.0,16.0,0.1,1.0,0.6511627906976745,0.4666666666666667,0.5436893203883496,7.256764806
16.0,8.0,0.7,1.0,0.627906976744186,0.45,0.5242718446601942,7.218826853
32.0,2.0,0.7,1.0,0.6976744186046512,0.625,0.6593406593406593,6.960036662
16.0,32.0,0.7,1.0,0.5116279069767442,0.34375,0.411214953271028,7.084348813
8.0,8.0,0.5,1.0,0.6046511627906976,0.4262295081967213,0.4999999999999999,8.32535073
8.0,8.0,0.6,1.0,0.6046511627906976,0.4262295081967213,0.4999999999999999,8.379233029
16.0,16.0,0.4,1.0,0.627906976744186,0.42857142857142855,0.5094339622641509,7.222784691
16.0,32.0,0.5,1.0,0.627906976744186,0.42857142857142855,0.5094339622641509,7.045143451
16.0,16.0,0.8,1.0,0.627906976744186,0.42857142857142855,0.5094339622641509,7.229016028
16.0,32.0,0.1,1.0,0.6511627906976745,0.45901639344262296,0.5384615384615384,7.070996111
16.0,32.0,0.8,1.0,0.5116279069767442,0.34375,0.411214953271028,7.053718766
16.0,32.0,0.2,1.0,0.627906976744186,0.42857142857142855,0.5094339622641509,7.04771436
32.0,1.0,0.3,1.0,0.6511627906976745,0.6511627906976745,0.6511627906976745,7.032337636
32.0,1.0,0.5,1.0,0.6744186046511628,0.6590909090909091,0.6666666666666666,7.024405878
32.0,2.0,0.3,1.0,0.6744186046511628,0.6041666666666666,0.6373626373626373,7.019260127
32.0,4.0,0.4,1.0,0.6976744186046512,0.5084745762711864,0.5882352941176471,6.89060005
32.0,4.0,0.1,1.0,0.6511627906976745,0.4827586206896552,0.5544554455445545,6.988951283
32.0,2.0,0.1,1.0,0.6511627906976745,0.5957446808510638,0.6222222222222222,7.010757524
16.0,32.0,0.6,1.0,0.5581395348837209,0.375,0.4485981308411215,7.028780274
16.0,16.0,0.5,1.0,0.627906976744186,0.42857142857142855,0.5094339622641509,7.13923668
32.0,4.0,0.5,1.0,0.7209302325581395,0.5081967213114754,0.5961538461538461,6.758529302
16.0,32.0,0.3,1.0,0.627906976744186,0.42857142857142855,0.5094339622641509,7.140203756
32.0,1.0,0.6,1.0,0.6744186046511628,0.6590909090909091,0.6666666666666666,7.012392483
32.0,2.0,0.8,1.0,0.6976744186046512,0.625,0.6593406593406593,6.989910129
32.0,1.0,0.4,1.0,0.6511627906976745,0.6511627906976745,0.6511627906976745,7.12111484
32.0,2.0,0.2,1.0,0.6511627906976745,0.5957446808510638,0.6222222222222222,7.011582466
16.0,32.0,0.9,1.0,0.46511627906976744,0.3125,0.3738317757009346,7.114965796
32.0,2.0,0.4,1.0,0.6744186046511628,0.6041666666666666,0.6373626373626373,6.999765208
32.0,1.0,0.1,1.0,0.6511627906976745,0.6511627906976745,0.6511627906976745,7.114931149
32.0,1.0,0.7,1.0,0.6744186046511628,0.6590909090909091,0.6666666666666666,6.977677772
8.0,8.0,0.7,1.0,0.6046511627906976,0.4262295081967213,0.4999999999999999,8.351963357
32.0,1.0,0.8,1.0,0.6976744186046512,0.6818181818181818,0.6896551724137931,7.098465739
32.0,2.0,0.9,1.0,0.6744186046511628,0.5918367346938775,0.6304347826086958,6.967455383
32.0,4.0,0.3,1.0,0.6744186046511628,0.4915254237288136,0.5686274509803922,7.056093932
32.0,2.0,0.5,1.0,0.6744186046511628,0.6041666666666666,0.6373626373626373,6.978094865
32.0,4.0,0.2,1.0,0.6744186046511628,0.4915254237288136,0.5686274509803922,6.966942625
32.0,2.0,0.6,1.0,0.6976744186046512,0.625,0.6593406593406593,7.124674731
8.0,8.0,0.8,1.0,0.6046511627906976,0.4262295081967213,0.4999999999999999,7.980542197
8.0,8.0,0.9,1.0,0.6046511627906976,0.4262295081967213,0.4999999999999999,8.14496787
8.0,16.0,0.1,1.0,0.627906976744186,0.45,0.5242718446601942,8.217582604
8.0,16.0,0.3,1.0,0.6046511627906976,0.41935483870967744,0.49523809523809514,8.127347311
8.0,16.0,0.2,1.0,0.6046511627906976,0.43333333333333335,0.5048543689320388,7.726139587
8.0,16.0,0.4,1.0,0.6046511627906976,0.41935483870967744,0.49523809523809514,8.213133996
8.0,16.0,0.6,1.0,0.5348837209302325,0.36507936507936506,0.4339622641509434,7.965963397
8.0,16.0,0.7,1.0,0.4883720930232558,0.3333333333333333,0.39622641509433965,8.343086896
8.0,16.0,0.8,1.0,0.4883720930232558,0.3333333333333333,0.39622641509433965,8.026930009
8.0,16.0,0.9,1.0,0.4883720930232558,0.3333333333333333,0.39622641509433965,8.300288406
8.0,16.0,0.5,1.0,0.6046511627906976,0.41935483870967744,0.49523809523809514,8.20418022
8.0,32.0,0.1,1.0,0.6046511627906976,0.43333333333333335,0.5048543689320388,8.252065598
32.0,4.0,0.6,1.0,0.7209302325581395,0.5081967213114754,0.5961538461538461,9.557088114
32.0,4.0,0.7,1.0,0.7209302325581395,0.5081967213114754,0.5961538461538461,9.540187666
32.0,8.0,0.1,1.0,0.6744186046511628,0.4915254237288136,0.5686274509803922,9.545767012
32.0,4.0,0.8,1.0,0.7209302325581395,0.5081967213114754,0.5961538461538461,9.535331434
32.0,16.0,0.2,1.0,0.7209302325581395,0.47692307692307695,0.5740740740740741,9.542407011
32.0,8.0,0.6,1.0,0.7209302325581395,0.484375,0.5794392523364486,9.525304799
32.0,32.0,0.9,1.0,0.6744186046511628,0.4461538461538462,0.537037037037037,7.136356335
32.0,4.0,0.9,1.0,0.7209302325581395,0.5081967213114754,0.5961538461538461,8.150056606
32.0,8.0,0.2,1.0,0.6744186046511628,0.4603174603174603,0.5471698113207547,8.321703794
32.0,8.0,0.3,1.0,0.7209302325581395,0.484375,0.5794392523364486,8.034786921
32.0,8.0,0.4,1.0,0.7209302325581395,0.484375,0.5794392523364486,8.67431514
32.0,8.0,0.5,1.0,0.7209302325581395,0.484375,0.5794392523364486,8.20216809
32.0,8.0,0.7,1.0,0.7209302325581395,0.484375,0.5794392523364486,8.085169609
32.0,8.0,0.8,1.0,0.7209302325581395,0.484375,0.5794392523364486,8.024543224
32.0,8.0,0.9,1.0,0.7209302325581395,0.484375,0.5794392523364486,7.788617842
32.0,16.0,0.1,1.0,0.6744186046511628,0.453125,0.5420560747663552,7.75475386
32.0,16.0,0.3,1.0,0.7209302325581395,0.47692307692307695,0.5740740740740741,7.816180447
32.0,16.0,0.4,1.0,0.7209302325581395,0.47692307692307695,0.5740740740740741,7.973007057
32.0,16.0,0.5,1.0,0.7209302325581395,0.47692307692307695,0.5740740740740741,7.804612227
32.0,16.0,0.6,1.0,0.7209302325581395,0.47692307692307695,0.5740740740740741,7.642979102
32.0,16.0,0.7,1.0,0.7209302325581395,0.47692307692307695,0.5740740740740741,7.686488326
32.0,16.0,0.8,1.0,0.7209302325581395,0.4626865671641791,0.5636363636363636,7.818161134
32.0,16.0,0.9,1.0,0.6744186046511628,0.4461538461538462,0.537037037037037,8.00016256
32.0,32.0,0.1,1.0,0.7209302325581395,0.47692307692307695,0.5740740740740741,7.697394185
32.0,32.0,0.2,1.0,0.7209302325581395,0.47692307692307695,0.5740740740740741,7.830783906
32.0,32.0,0.3,1.0,0.7209302325581395,0.47692307692307695,0.5740740740740741,7.939545557
32.0,32.0,0.8,1.0,0.6744186046511628,0.4461538461538462,0.537037037037037,7.920842193
32.0,32.0,0.5,1.0,0.6744186046511628,0.4461538461538462,0.537037037037037,7.830453639
32.0,32.0,0.4,1.0,0.7209302325581395,0.4626865671641791,0.5636363636363636,7.605297181
32.0,32.0,0.7,1.0,0.6744186046511628,0.4461538461538462,0.537037037037037,7.822017441
32.0,32.0,0.6,1.0,0.6744186046511628,0.4461538461538462,0.537037037037037,7.949683024
