gamma_s,gamma_h,alpha,weight_h,sensitivity,ppv,fmeasure,time
1.0,1.0,0.1,0.5,0.32558139534883723,1.0,0.49122807017543857,61.561026253
1.0,1.0,0.2,0.5,0.32558139534883723,1.0,0.49122807017543857,61.507973511
1.0,1.0,0.3,0.5,0.32558139534883723,1.0,0.49122807017543857,61.454702362
1.0,1.0,0.4,0.5,0.32558139534883723,1.0,0.49122807017543857,70.549018675
1.0,1.0,0.5,0.5,0.32558139534883723,1.0,0.49122807017543857,66.353310168
1.0,1.0,0.6,0.5,0.32558139534883723,1.0,0.49122807017543857,66.9818044
1.0,2.0,0.5,0.5,0.32558139534883723,0.875,0.47457627118644063,57.711969571
1.0,16.0,0.8,0.5,0.20930232558139536,0.16071428571428573,0.18181818181818182,56.380883279
1.0,4.0,0.2,0.5,0.32558139534883723,0.4827586206896552,0.38888888888888895,57.854553355
1.0,2.0,0.9,0.5,0.32558139534883723,0.875,0.47457627118644063,58.19558073
1.0,4.0,0.3,0.5,0.32558139534883723,0.4827586206896552,0.38888888888888895,57.892249474
1.0,2.0,0.4,0.5,0.32558139534883723,0.875,0.47457627118644063,58.060449764
1.0,2.0,0.7,0.5,0.32558139534883723,0.875,0.47457627118644063,58.146065055
1.0,4.0,0.8,0.5,0.20930232558139536,0.2903225806451613,0.24324324324324326,57.928926481
1.0,2.0,0.8,0.5,0.32558139534883723,0.875,0.47457627118644063,57.935574041
1.0,2.0,0.6,0.5,0.32558139534883723,0.875,0.47457627118644063,57.763708285
1.0,1.0,0.7,0.5,0.32558139534883723,1.0,0.49122807017543857,65.49052994
1.0,4.0,0.1,0.5,0.32558139534883723,0.4827586206896552,0.38888888888888895,57.854189369
1.0,4.0,0.4,0.5,0.3023255813953488,0.41935483870967744,0.3513513513513513,57.95264251
1.0,4.0,0.6,0.5,0.3023255813953488,0.41935483870967744,0.3513513513513513,58.350585263
1.0,8.0,0.5,0.5,0.3023255813953488,0.2708333333333333,0.2857142857142857,57.95033487
1.0,8.0,0.3,0.5,0.32558139534883723,0.2916666666666667,0.30769230769230776,58.299101512
1.0,8.0,0.1,0.5,0.32558139534883723,0.2916666666666667,0.30769230769230776,58.938774441
1.0,4.0,0.9,0.5,0.20930232558139536,0.2903225806451613,0.24324324324324326,57.90138896
1.0,4.0,0.7,0.5,0.3023255813953488,0.41935483870967744,0.3513513513513513,57.823369268
1.0,4.0,0.5,0.5,0.3023255813953488,0.41935483870967744,0.3513513513513513,58.003976385
1.0,8.0,0.8,0.5,0.20930232558139536,0.20454545454545456,0.20689655172413796,57.793726678
1.0,8.0,0.4,0.5,0.32558139534883723,0.2916666666666667,0.30769230769230776,58.05912838
1.0,8.0,0.7,0.5,0.20930232558139536,0.20454545454545456,0.20689655172413796,58.240106145
1.0,8.0,0.2,0.5,0.32558139534883723,0.2916666666666667,0.30769230769230776,57.791208912
1.0,8.0,0.6,0.5,0.27906976744186046,0.25,0.2637362637362637,57.841377178
1.0,16.0,0.2,0.5,0.3023255813953488,0.23636363636363636,0.26530612244897955,58.09576129
1.0,16.0,0.4,0.5,0.27906976744186046,0.21428571428571427,0.24242424242424243,57.943063875
1.0,16.0,0.6,0.5,0.20930232558139536,0.16071428571428573,0.18181818181818182,57.829280455
1.0,16.0,0.1,0.5,0.32558139534883723,0.25925925925925924,0.288659793814433,57.847647744
1.0,1.0,0.8,0.5,0.32558139534883723,1.0,0.49122807017543857,76.959686183
1.0,8.0,0.9,0.5,0.20930232558139536,0.20454545454545456,0.20689655172413796,57.811737417
1.0,16.0,0.3,0.5,0.27906976744186046,0.21428571428571427,0.24242424242424243,57.808980462
1.0,16.0,0.7,0.5,0.20930232558139536,0.16071428571428573,0.18181818181818182,57.803580463
1.0,16.0,0.5,0.5,0.20930232558139536,0.16071428571428573,0.18181818181818182,57.840807358
1.0,1.0,0.9,0.5,0.32558139534883723,1.0,0.49122807017543857,67.283359429
1.0,2.0,0.1,0.5,0.32558139534883723,0.875,0.47457627118644063,67.434181865
1.0,2.0,0.2,0.5,0.32558139534883723,0.875,0.47457627118644063,64.831085193
1.0,2.0,0.3,0.5,0.32558139534883723,0.875,0.47457627118644063,65.248650848
1.0,16.0,0.9,0.5,0.20930232558139536,0.16071428571428573,0.18181818181818182,65.521191151
1.0,32.0,0.1,0.5,0.3023255813953488,0.23214285714285715,0.26262626262626265,70.123139338
1.0,32.0,0.2,0.5,0.27906976744186046,0.21052631578947367,0.24,65.940884732
1.0,32.0,0.4,0.5,0.20930232558139536,0.15789473684210525,0.18,66.452224371
1.0,32.0,0.3,0.5,0.20930232558139536,0.15789473684210525,0.18,65.820964731
1.0,32.0,0.5,0.5,0.20930232558139536,0.15789473684210525,0.18,67.25756669
1.0,32.0,0.6,0.5,0.20930232558139536,0.15789473684210525,0.18,66.020727231
1.0,32.0,0.7,0.5,0.20930232558139536,0.15789473684210525,0.18,65.167585776
1.0,32.0,0.8,0.5,0.20930232558139536,0.15789473684210525,0.18,64.454153063
1.0,32.0,0.9,0.5,0.20930232558139536,0.15789473684210525,0.18,67.560786941
2.0,1.0,0.1,0.5,0.3488372093023256,1.0,0.5172413793103449,67.21944791
2.0,1.0,0.2,0.5,0.3488372093023256,1.0,0.5172413793103449,64.868555462
2.0,1.0,0.4,0.5,0.3488372093023256,1.0,0.5172413793103449,66.348344988
2.0,1.0,0.5,0.5,0.3488372093023256,1.0,0.5172413793103449,66.768706539
2.0,1.0,0.7,0.5,0.3488372093023256,1.0,0.5172413793103449,64.931923054
2.0,1.0,0.8,0.5,0.3488372093023256,1.0,0.5172413793103449,66.206692893
2.0,1.0,0.9,0.5,0.3488372093023256,1.0,0.5172413793103449,66.687108323
2.0,1.0,0.6,0.5,0.3488372093023256,1.0,0.5172413793103449,65.648486727
2.0,1.0,0.3,0.5,0.3488372093023256,1.0,0.5172413793103449,65.176805435
2.0,2.0,0.1,0.5,0.3488372093023256,0.8823529411764706,0.5,65.08018521
2.0,2.0,0.2,0.5,0.3488372093023256,0.8823529411764706,0.5,66.99954785
2.0,2.0,0.3,0.5,0.3488372093023256,0.8823529411764706,0.5,65.876837145
2.0,4.0,0.2,0.5,0.3488372093023256,0.5,0.4109589041095891,58.890956311
2.0,4.0,0.9,0.5,0.32558139534883723,0.4375,0.37333333333333335,58.718498281
2.0,2.0,0.8,0.5,0.3488372093023256,0.8823529411764706,0.5,59.189369578
2.0,4.0,0.1,0.5,0.3488372093023256,0.5,0.4109589041095891,58.799847351
2.0,4.0,0.5,0.5,0.32558139534883723,0.4375,0.37333333333333335,58.443996219
2.0,8.0,0.7,0.5,0.32558139534883723,0.2978723404255319,0.3111111111111111,57.846582614
2.0,2.0,0.4,0.5,0.3488372093023256,0.8823529411764706,0.5,57.865238544
2.0,2.0,0.9,0.5,0.3488372093023256,0.8823529411764706,0.5,58.713480168
2.0,2.0,0.5,0.5,0.3488372093023256,0.8823529411764706,0.5,57.541692068
2.0,4.0,0.7,0.5,0.32558139534883723,0.4375,0.37333333333333335,58.948554559
2.0,4.0,0.8,0.5,0.32558139534883723,0.4375,0.37333333333333335,58.511918113
2.0,2.0,0.6,0.5,0.3488372093023256,0.8823529411764706,0.5,57.456843006
2.0,8.0,0.3,0.5,0.32558139534883723,0.2978723404255319,0.3111111111111111,58.560203206
2.0,4.0,0.6,0.5,0.32558139534883723,0.4375,0.37333333333333335,58.390258499
2.0,4.0,0.4,0.5,0.3488372093023256,0.5,0.4109589041095891,58.498123723
2.0,8.0,0.5,0.5,0.32558139534883723,0.2978723404255319,0.3111111111111111,58.604032802
2.0,2.0,0.7,0.5,0.3488372093023256,0.8823529411764706,0.5,57.428026068
2.0,16.0,0.5,0.5,0.27906976744186046,0.21428571428571427,0.24242424242424243,58.075057092
2.0,8.0,0.2,0.5,0.3488372093023256,0.3333333333333333,0.3409090909090909,58.720540206
2.0,8.0,0.6,0.5,0.32558139534883723,0.2978723404255319,0.3111111111111111,58.358564092
2.0,8.0,0.4,0.5,0.32558139534883723,0.2978723404255319,0.3111111111111111,58.375734532
2.0,16.0,0.4,0.5,0.27906976744186046,0.21428571428571427,0.24242424242424243,58.741144318
2.0,16.0,0.1,0.5,0.3488372093023256,0.28846153846153844,0.3157894736842105,58.517487635
2.0,16.0,0.3,0.5,0.3023255813953488,0.23636363636363636,0.26530612244897955,58.519373531
2.0,32.0,0.3,0.5,0.27906976744186046,0.21052631578947367,0.24,58.897227064
2.0,8.0,0.9,0.5,0.32558139534883723,0.2978723404255319,0.3111111111111111,58.506174987
2.0,32.0,0.2,0.5,0.27906976744186046,0.21052631578947367,0.24,58.661339328
2.0,16.0,0.2,0.5,0.32558139534883723,0.25925925925925924,0.288659793814433,58.491911059
2.0,32.0,0.1,0.5,0.32558139534883723,0.2545454545454545,0.2857142857142857,58.655765109
4.0,1.0,0.1,0.5,0.5581395348837209,0.9230769230769231,0.6956521739130436,58.210267459
2.0,16.0,0.7,0.5,0.20930232558139536,0.16071428571428573,0.18181818181818182,58.67708644
2.0,16.0,0.8,0.5,0.20930232558139536,0.16071428571428573,0.18181818181818182,58.762960953
2.0,4.0,0.3,0.5,0.3488372093023256,0.5,0.4109589041095891,57.605810586
2.0,16.0,0.9,0.5,0.20930232558139536,0.16071428571428573,0.18181818181818182,58.643869319
2.0,32.0,0.6,0.5,0.20930232558139536,0.15789473684210525,0.18,58.732119406
2.0,32.0,0.9,0.5,0.20930232558139536,0.15789473684210525,0.18,59.704548241
2.0,32.0,0.8,0.5,0.20930232558139536,0.15789473684210525,0.18,58.786528415
2.0,32.0,0.5,0.5,0.20930232558139536,0.15789473684210525,0.18,58.786208758
4.0,1.0,0.8,0.5,0.5581395348837209,0.9230769230769231,0.6956521739130436,58.641246696
4.0,2.0,0.6,0.5,0.5581395348837209,0.8571428571428571,0.676056338028169,58.492303641
2.0,8.0,0.1,0.5,0.3488372093023256,0.3333333333333333,0.3409090909090909,57.640146787
4.0,1.0,0.7,0.5,0.5581395348837209,0.9230769230769231,0.6956521739130436,58.699907439
2.0,32.0,0.7,0.5,0.20930232558139536,0.15789473684210525,0.18,58.962931144
4.0,1.0,0.6,0.5,0.5581395348837209,0.9230769230769231,0.6956521739130436,58.45351368
4.0,1.0,0.4,0.5,0.5581395348837209,0.9230769230769231,0.6956521739130436,58.46626302
4.0,1.0,0.3,0.5,0.5581395348837209,0.9230769230769231,0.6956521739130436,58.31634159
4.0,1.0,0.5,0.5,0.5581395348837209,0.9230769230769231,0.6956521739130436,58.297077279
4.0,2.0,0.2,0.5,0.5581395348837209,0.8571428571428571,0.676056338028169,58.33632769
2.0,8.0,0.8,0.5,0.32558139534883723,0.2978723404255319,0.3111111111111111,57.401098567
2.0,16.0,0.6,0.5,0.27906976744186046,0.21428571428571427,0.24242424242424243,57.433842433
4.0,4.0,0.4,0.5,0.5581395348837209,0.6153846153846154,0.5853658536585366,57.957793557
4.0,2.0,0.4,0.5,0.5581395348837209,0.8571428571428571,0.676056338028169,58.538495325
4.0,2.0,0.1,0.5,0.5581395348837209,0.8571428571428571,0.676056338028169,58.350725266
4.0,2.0,0.5,0.5,0.5581395348837209,0.8571428571428571,0.676056338028169,58.319484726
4.0,2.0,0.3,0.5,0.5581395348837209,0.8571428571428571,0.676056338028169,58.212358551
4.0,8.0,0.2,0.5,0.5581395348837209,0.43636363636363634,0.48979591836734687,58.357315855
4.0,4.0,0.2,0.5,0.5581395348837209,0.6153846153846154,0.5853658536585366,58.254591135
4.0,4.0,0.3,0.5,0.5581395348837209,0.6153846153846154,0.5853658536585366,58.335895507
4.0,2.0,0.9,0.5,0.5581395348837209,0.8571428571428571,0.676056338028169,58.242531409
4.0,2.0,0.8,0.5,0.5581395348837209,0.8571428571428571,0.676056338028169,58.228733186
2.0,32.0,0.4,0.5,0.20930232558139536,0.15789473684210525,0.18,57.585616478
4.0,4.0,0.1,0.5,0.5581395348837209,0.6153846153846154,0.5853658536585366,58.295486612
4.0,8.0,0.1,0.5,0.5581395348837209,0.43636363636363634,0.48979591836734687,58.262103444
4.0,4.0,0.9,0.5,0.5581395348837209,0.6,0.5783132530120482,58.266612206
4.0,4.0,0.6,0.5,0.5581395348837209,0.6153846153846154,0.5853658536585366,58.425687997
4.0,1.0,0.2,0.5,0.5581395348837209,0.9230769230769231,0.6956521739130436,57.319786693
4.0,4.0,0.8,0.5,0.5581395348837209,0.6,0.5783132530120482,58.457275684
4.0,4.0,0.7,0.5,0.5581395348837209,0.6,0.5783132530120482,58.268504596
4.0,8.0,0.4,0.5,0.5581395348837209,0.43636363636363634,0.48979591836734687,58.44903003
4.0,1.0,0.9,0.5,0.5581395348837209,0.9230769230769231,0.6956521739130436,57.372261755
4.0,2.0,0.7,0.5,0.5581395348837209,0.8571428571428571,0.676056338028169,57.699835166
4.0,4.0,0.5,0.5,0.5581395348837209,0.6153846153846154,0.5853658536585366,57.235890657
4.0,8.0,0.3,0.5,0.5581395348837209,0.43636363636363634,0.48979591836734687,57.47491788
4.0,8.0,0.5,0.5,0.5581395348837209,0.43636363636363634,0.48979591836734687,57.216461621
4.0,8.0,0.6,0.5,0.5581395348837209,0.43636363636363634,0.48979591836734687,57.24284697
4.0,8.0,0.7,0.5,0.5581395348837209,0.43636363636363634,0.48979591836734687,61.739809938
4.0,8.0,0.8,0.5,0.5581395348837209,0.43636363636363634,0.48979591836734687,61.857526662
4.0,8.0,0.9,0.5,0.5581395348837209,0.43636363636363634,0.48979591836734687,61.620487275
4.0,16.0,0.1,0.5,0.5581395348837209,0.41379310344827586,0.4752475247524752,61.783583271
4.0,16.0,0.2,0.5,0.5581395348837209,0.41379310344827586,0.4752475247524752,61.55169316
4.0,16.0,0.3,0.5,0.5581395348837209,0.4,0.4660194174757281,61.831109668
4.0,16.0,0.4,0.5,0.5581395348837209,0.4,0.4660194174757281,65.321259243
4.0,16.0,0.5,0.5,0.5581395348837209,0.4,0.4660194174757281,65.487732981
4.0,32.0,0.3,0.5,0.4883720930232558,0.3387096774193548,0.4,58.064029841
4.0,32.0,0.5,0.5,0.3953488372093023,0.27419354838709675,0.32380952380952377,58.030005549
4.0,32.0,0.9,0.5,0.3023255813953488,0.22033898305084745,0.25490196078431376,57.934163057
4.0,32.0,0.6,0.5,0.37209302325581395,0.25806451612903225,0.30476190476190473,58.094799759
4.0,32.0,0.7,0.5,0.37209302325581395,0.25806451612903225,0.30476190476190473,58.320860473
4.0,16.0,0.6,0.5,0.4883720930232558,0.3442622950819672,0.40384615384615385,65.004624046
8.0,1.0,0.3,0.5,0.627906976744186,0.9310344827586207,0.7499999999999999,58.127344002
8.0,1.0,0.1,0.5,0.627906976744186,0.9310344827586207,0.7499999999999999,58.019325517
8.0,1.0,0.4,0.5,0.627906976744186,0.9310344827586207,0.7499999999999999,58.08083414
8.0,1.0,0.9,0.5,0.627906976744186,0.9310344827586207,0.7499999999999999,57.868502713
8.0,2.0,0.3,0.5,0.627906976744186,0.8709677419354839,0.7297297297297297,57.932713082
8.0,2.0,0.6,0.5,0.627906976744186,0.8709677419354839,0.7297297297297297,57.826617531
8.0,1.0,0.5,0.5,0.627906976744186,0.9310344827586207,0.7499999999999999,57.801560246
8.0,2.0,0.1,0.5,0.627906976744186,0.8709677419354839,0.7297297297297297,58.160205964
8.0,1.0,0.7,0.5,0.627906976744186,0.9310344827586207,0.7499999999999999,57.823805377
8.0,2.0,0.4,0.5,0.627906976744186,0.8709677419354839,0.7297297297297297,57.891134789
4.0,32.0,0.4,0.5,0.4418604651162791,0.3064516129032258,0.3619047619047619,57.88964564
4.0,16.0,0.7,0.5,0.4418604651162791,0.3114754098360656,0.3653846153846154,65.752334807
4.0,32.0,0.8,0.5,0.37209302325581395,0.25806451612903225,0.30476190476190473,58.167503583
8.0,1.0,0.2,0.5,0.627906976744186,0.9310344827586207,0.7499999999999999,58.110712779
8.0,2.0,0.8,0.5,0.627906976744186,0.8709677419354839,0.7297297297297297,57.971560049
8.0,2.0,0.7,0.5,0.627906976744186,0.8709677419354839,0.7297297297297297,57.819349473
8.0,4.0,0.4,0.5,0.627906976744186,0.6585365853658537,0.6428571428571429,57.997443744
8.0,1.0,0.6,0.5,0.627906976744186,0.9310344827586207,0.7499999999999999,58.042283104
8.0,4.0,0.3,0.5,0.627906976744186,0.6585365853658537,0.6428571428571429,58.144963464
4.0,16.0,0.8,0.5,0.4418604651162791,0.3114754098360656,0.3653846153846154,65.49654469
8.0,2.0,0.2,0.5,0.627906976744186,0.8709677419354839,0.7297297297297297,57.748221768
8.0,4.0,0.1,0.5,0.627906976744186,0.6585365853658537,0.6428571428571429,58.73543252
8.0,4.0,0.5,0.5,0.627906976744186,0.6585365853658537,0.6428571428571429,58.082470952
8.0,1.0,0.8,0.5,0.627906976744186,0.9310344827586207,0.7499999999999999,57.842138438
8.0,2.0,0.9,0.5,0.627906976744186,0.8709677419354839,0.7297297297297297,57.843055509
4.0,16.0,0.9,0.5,0.3953488372093023,0.2786885245901639,0.3269230769230769,67.512600288
8.0,2.0,0.5,0.5,0.627906976744186,0.8709677419354839,0.7297297297297297,58.163999224
4.0,32.0,0.1,0.5,0.5581395348837209,0.4067796610169492,0.47058823529411764,67.841501499
4.0,32.0,0.2,0.5,0.5581395348837209,0.39344262295081966,0.4615384615384615,65.644599469
8.0,4.0,0.6,0.5,0.627906976744186,0.6585365853658537,0.6428571428571429,57.92370938
8.0,4.0,0.2,0.5,0.627906976744186,0.6585365853658537,0.6428571428571429,57.887711529
8.0,4.0,0.7,0.5,0.627906976744186,0.6585365853658537,0.6428571428571429,67.274175161
8.0,4.0,0.8,0.5,0.627906976744186,0.6585365853658537,0.6428571428571429,65.154873859
8.0,4.0,0.9,0.5,0.627906976744186,0.6585365853658537,0.6428571428571429,67.702701126
8.0,8.0,0.1,0.5,0.627906976744186,0.46551724137931033,0.5346534653465347,65.929438712
8.0,8.0,0.2,0.5,0.627906976744186,0.46551724137931033,0.5346534653465347,65.065205066
8.0,8.0,0.3,0.5,0.627906976744186,0.46551724137931033,0.5346534653465347,66.249711953
8.0,8.0,0.4,0.5,0.627906976744186,0.46551724137931033,0.5346534653465347,65.026867121
8.0,8.0,0.5,0.5,0.627906976744186,0.46551724137931033,0.5346534653465347,65.923960866
8.0,8.0,0.6,0.5,0.627906976744186,0.46551724137931033,0.5346534653465347,65.584001989
8.0,8.0,0.7,0.5,0.627906976744186,0.46551724137931033,0.5346534653465347,66.46485901
8.0,8.0,0.9,0.5,0.627906976744186,0.46551724137931033,0.5346534653465347,64.20481488
8.0,8.0,0.8,0.5,0.627906976744186,0.46551724137931033,0.5346534653465347,64.894504838
8.0,16.0,0.1,0.5,0.627906976744186,0.4426229508196721,0.5192307692307692,67.422159695
8.0,16.0,0.2,0.5,0.627906976744186,0.4426229508196721,0.5192307692307692,66.799297395
8.0,16.0,0.3,0.5,0.627906976744186,0.4426229508196721,0.5192307692307692,65.483658652
8.0,16.0,0.4,0.5,0.627906976744186,0.4426229508196721,0.5192307692307692,64.205143802
8.0,16.0,0.5,0.5,0.627906976744186,0.42857142857142855,0.5094339622641509,66.348432812
8.0,16.0,0.7,0.5,0.627906976744186,0.42857142857142855,0.5094339622641509,67.368050023
8.0,16.0,0.6,0.5,0.627906976744186,0.42857142857142855,0.5094339622641509,66.060163063
8.0,16.0,0.8,0.5,0.627906976744186,0.42857142857142855,0.5094339622641509,66.528857998
8.0,16.0,0.9,0.5,0.627906976744186,0.42857142857142855,0.5094339622641509,66.738714591
8.0,32.0,0.1,0.5,0.627906976744186,0.43548387096774194,0.5142857142857142,65.641002477
8.0,32.0,0.2,0.5,0.627906976744186,0.43548387096774194,0.5142857142857142,66.761100926
8.0,32.0,0.3,0.5,0.627906976744186,0.421875,0.5046728971962616,57.58886816
8.0,32.0,0.4,0.5,0.627906976744186,0.421875,0.5046728971962616,57.500290353
8.0,32.0,0.9,0.5,0.4418604651162791,0.296875,0.3551401869158879,59.050345408
16.0,1.0,0.8,0.5,0.6046511627906976,0.8387096774193549,0.7027027027027026,58.594785236
8.0,32.0,0.8,0.5,0.4883720930232558,0.328125,0.39252336448598124,58.94413754
8.0,32.0,0.5,0.5,0.627906976744186,0.421875,0.5046728971962616,57.921301452
16.0,1.0,0.1,0.5,0.6046511627906976,0.8387096774193549,0.7027027027027026,58.702341337
16.0,1.0,0.2,0.5,0.6046511627906976,0.8387096774193549,0.7027027027027026,58.744408653
16.0,1.0,0.5,0.5,0.6046511627906976,0.8387096774193549,0.7027027027027026,58.738661221
16.0,1.0,0.6,0.5,0.6046511627906976,0.8387096774193549,0.7027027027027026,58.658969376
8.0,32.0,0.6,0.5,0.5116279069767442,0.3384615384615385,0.40740740740740744,57.876471884
16.0,2.0,0.6,0.5,0.6511627906976745,0.8484848484848485,0.736842105263158,58.512122517
16.0,1.0,0.7,0.5,0.6046511627906976,0.8387096774193549,0.7027027027027026,58.307383407
8.0,32.0,0.7,0.5,0.4883720930232558,0.328125,0.39252336448598124,58.674035153
16.0,1.0,0.3,0.5,0.6046511627906976,0.8387096774193549,0.7027027027027026,57.910655396
16.0,1.0,0.4,0.5,0.6046511627906976,0.8387096774193549,0.7027027027027026,58.972981683
16.0,2.0,0.3,0.5,0.6046511627906976,0.7878787878787878,0.6842105263157895,58.407231076
16.0,4.0,0.4,0.5,0.6511627906976745,0.6829268292682927,0.6666666666666667,57.575424121
16.0,1.0,0.9,0.5,0.6511627906976745,0.9032258064516129,0.7567567567567568,58.706425057
16.0,8.0,0.2,0.5,0.6511627906976745,0.4827586206896552,0.5544554455445545,58.456783687
16.0,4.0,0.8,0.5,0.6511627906976745,0.6666666666666666,0.6588235294117646,58.316605809
16.0,4.0,0.1,0.5,0.6046511627906976,0.6341463414634146,0.6190476190476191,58.432180021
16.0,8.0,0.9,0.5,0.6511627906976745,0.4745762711864407,0.5490196078431372,57.472584131
16.0,2.0,0.4,0.5,0.6046511627906976,0.7878787878787878,0.6842105263157895,58.491058638
16.0,4.0,0.2,0.5,0.6046511627906976,0.6341463414634146,0.6190476190476191,58.476550253
16.0,2.0,0.2,0.5,0.6046511627906976,0.7878787878787878,0.6842105263157895,58.586823988
16.0,2.0,0.5,0.5,0.6046511627906976,0.7878787878787878,0.6842105263157895,58.556025075
16.0,4.0,0.9,0.5,0.6511627906976745,0.6666666666666666,0.6588235294117646,58.431026369
16.0,4.0,0.3,0.5,0.6046511627906976,0.6341463414634146,0.6190476190476191,58.670086474
16.0,2.0,0.9,0.5,0.6511627906976745,0.8484848484848485,0.736842105263158,58.480679983
16.0,2.0,0.7,0.5,0.6511627906976745,0.8484848484848485,0.736842105263158,58.61349767
16.0,4.0,0.7,0.5,0.6511627906976745,0.6666666666666666,0.6588235294117646,58.473984281
16.0,4.0,0.5,0.5,0.6511627906976745,0.6829268292682927,0.6666666666666667,58.534666549
16.0,8.0,0.7,0.5,0.6511627906976745,0.4745762711864407,0.5490196078431372,58.6327242
16.0,8.0,0.1,0.5,0.6046511627906976,0.4642857142857143,0.5252525252525253,58.421539905
16.0,8.0,0.3,0.5,0.6511627906976745,0.4827586206896552,0.5544554455445545,58.518424823
16.0,8.0,0.5,0.5,0.6511627906976745,0.4745762711864407,0.5490196078431372,58.456613994
16.0,2.0,0.1,0.5,0.6046511627906976,0.7878787878787878,0.6842105263157895,57.459511515
16.0,8.0,0.8,0.5,0.6511627906976745,0.4745762711864407,0.5490196078431372,58.46826771
16.0,16.0,0.7,0.5,0.6511627906976745,0.45161290322580644,0.5333333333333333,57.6126516
16.0,16.0,0.1,0.5,0.6511627906976745,0.45901639344262296,0.5384615384615384,59.198692774
16.0,8.0,0.6,0.5,0.6511627906976745,0.4745762711864407,0.5490196078431372,58.342763362
16.0,16.0,0.5,0.5,0.6511627906976745,0.45161290322580644,0.5333333333333333,58.57690061
16.0,16.0,0.3,0.5,0.6511627906976745,0.45161290322580644,0.5333333333333333,58.38829329
16.0,2.0,0.8,0.5,0.6511627906976745,0.8484848484848485,0.736842105263158,57.402643621
16.0,16.0,0.6,0.5,0.6511627906976745,0.45161290322580644,0.5333333333333333,58.357421075
16.0,32.0,0.5,0.5,0.6511627906976745,0.4307692307692308,0.5185185185185186,57.4663316
16.0,16.0,0.8,0.5,0.6511627906976745,0.4375,0.5233644859813084,58.431897674
16.0,4.0,0.6,0.5,0.6511627906976745,0.6666666666666666,0.6588235294117646,57.36959508
16.0,16.0,0.4,0.5,0.6511627906976745,0.45161290322580644,0.5333333333333333,58.342262623
32.0,1.0,0.3,0.5,0.6511627906976745,0.6829268292682927,0.6666666666666667,58.232797811
16.0,32.0,0.3,0.5,0.6511627906976745,0.4444444444444444,0.5283018867924528,58.629033915
32.0,2.0,0.1,0.5,0.6046511627906976,0.6666666666666666,0.6341463414634145,58.381190596
16.0,8.0,0.4,0.5,0.6511627906976745,0.4827586206896552,0.5544554455445545,57.476941963
16.0,32.0,0.2,0.5,0.6511627906976745,0.4444444444444444,0.5283018867924528,58.278348761
16.0,32.0,0.1,0.5,0.6511627906976745,0.45161290322580644,0.5333333333333333,58.35423356
16.0,32.0,0.4,0.5,0.6511627906976745,0.4444444444444444,0.5283018867924528,58.497331901
16.0,32.0,0.8,0.5,0.6511627906976745,0.4307692307692308,0.5185185185185186,58.670670237
16.0,32.0,0.6,0.5,0.6511627906976745,0.4307692307692308,0.5185185185185186,58.355799689
16.0,16.0,0.2,0.5,0.6511627906976745,0.45901639344262296,0.5384615384615384,57.305454212
32.0,1.0,0.2,0.5,0.6511627906976745,0.6829268292682927,0.6666666666666667,58.769437716
32.0,1.0,0.1,0.5,0.6046511627906976,0.6666666666666666,0.6341463414634145,58.249008091
16.0,32.0,0.9,0.5,0.6511627906976745,0.4307692307692308,0.5185185185185186,58.312897492
32.0,1.0,0.6,0.5,0.6511627906976745,0.6829268292682927,0.6666666666666667,58.242396297
32.0,1.0,0.7,0.5,0.6511627906976745,0.6829268292682927,0.6666666666666667,58.595460741
32.0,1.0,0.8,0.5,0.6511627906976745,0.6829268292682927,0.6666666666666667,58.450444454
32.0,1.0,0.4,0.5,0.6511627906976745,0.6829268292682927,0.6666666666666667,58.283047968
32.0,1.0,0.9,0.5,0.6744186046511628,0.7073170731707317,0.6904761904761904,58.314846591
16.0,16.0,0.9,0.5,0.6511627906976745,0.4375,0.5233644859813084,57.28687889
32.0,2.0,0.2,0.5,0.6511627906976745,0.6829268292682927,0.6666666666666667,58.349757067
16.0,32.0,0.7,0.5,0.6511627906976745,0.4307692307692308,0.5185185185185186,57.308979564
32.0,1.0,0.5,0.5,0.6511627906976745,0.6829268292682927,0.6666666666666667,57.27898088
32.0,2.0,0.3,0.5,0.6511627906976745,0.6829268292682927,0.6666666666666667,57.318379521
32.0,2.0,0.4,0.5,0.6511627906976745,0.6829268292682927,0.6666666666666667,57.205773465
32.0,2.0,0.5,0.5,0.6511627906976745,0.6829268292682927,0.6666666666666667,57.308538862
32.0,2.0,0.6,0.5,0.6744186046511628,0.7073170731707317,0.6904761904761904,61.964012283
32.0,2.0,0.7,0.5,0.6976744186046512,0.7317073170731707,0.7142857142857143,61.949827725
32.0,2.0,0.8,0.5,0.6976744186046512,0.7317073170731707,0.7142857142857143,61.520256749
32.0,2.0,0.9,0.5,0.6976744186046512,0.7317073170731707,0.7142857142857143,62.008601724
32.0,4.0,0.1,0.5,0.6511627906976745,0.5714285714285714,0.6086956521739131,61.321503453
32.0,4.0,0.2,0.5,0.6511627906976745,0.5714285714285714,0.6086956521739131,61.277044828
32.0,4.0,0.3,0.5,0.6744186046511628,0.58,0.6236559139784946,63.95699527
32.0,4.0,0.4,0.5,0.6976744186046512,0.6,0.6451612903225806,63.926979756
32.0,8.0,0.2,0.5,0.6744186046511628,0.4915254237288136,0.5686274509803922,57.770342198
32.0,8.0,0.6,0.5,0.7209302325581395,0.5081967213114754,0.5961538461538461,57.5987198
32.0,4.0,0.5,0.5,0.6976744186046512,0.6,0.6451612903225806,63.738752813
32.0,8.0,0.8,0.5,0.7209302325581395,0.5081967213114754,0.5961538461538461,57.97787894
32.0,8.0,0.4,0.5,0.7441860465116279,0.5333333333333333,0.6213592233009709,57.186360791
32.0,16.0,0.3,0.5,0.7209302325581395,0.484375,0.5794392523364486,57.758470529
32.0,8.0,0.5,0.5,0.7441860465116279,0.5333333333333333,0.6213592233009709,57.968844699
32.0,16.0,0.5,0.5,0.7209302325581395,0.484375,0.5794392523364486,57.7799722
32.0,16.0,0.1,0.5,0.6744186046511628,0.4915254237288136,0.5686274509803922,57.601489069
32.0,16.0,0.9,0.5,0.6976744186046512,0.46875,0.5607476635514019,57.767613687
32.0,16.0,0.7,0.5,0.7209302325581395,0.484375,0.5794392523364486,57.644957146
32.0,32.0,0.2,0.5,0.7209302325581395,0.47692307692307695,0.5740740740740741,57.933631771
32.0,4.0,0.6,0.5,0.6976744186046512,0.6,0.6451612903225806,64.483231998
32.0,32.0,0.6,0.5,0.6976744186046512,0.46153846153846156,0.5555555555555556,57.867652144
32.0,16.0,0.2,0.5,0.7209302325581395,0.484375,0.5794392523364486,57.739644158
32.0,32.0,0.4,0.5,0.7209302325581395,0.47692307692307695,0.5740740740740741,57.232601389
32.0,8.0,0.7,0.5,0.7209302325581395,0.5081967213114754,0.5961538461538461,57.769287346
32.0,8.0,0.3,0.5,0.6976744186046512,0.5084745762711864,0.5882352941176471,57.781449064
32.0,8.0,0.9,0.5,0.7209302325581395,0.5081967213114754,0.5961538461538461,58.545719555
32.0,32.0,0.8,0.5,0.6976744186046512,0.44776119402985076,0.5454545454545455,57.844436223
32.0,32.0,0.5,0.5,0.6976744186046512,0.46153846153846156,0.5555555555555556,57.773996311
32.0,16.0,0.8,0.5,0.7209302325581395,0.484375,0.5794392523364486,57.660235039
32.0,16.0,0.6,0.5,0.7209302325581395,0.484375,0.5794392523364486,57.92056472
32.0,32.0,0.3,0.5,0.7209302325581395,0.47692307692307695,0.5740740740740741,58.000965112
32.0,32.0,0.1,0.5,0.7209302325581395,0.47692307692307695,0.5740740740740741,57.997051247
32.0,32.0,0.9,0.5,0.6976744186046512,0.44776119402985076,0.5454545454545455,57.799218481
32.0,4.0,0.7,0.5,0.6976744186046512,0.6,0.6451612903225806,63.834208177
32.0,16.0,0.4,0.5,0.7209302325581395,0.484375,0.5794392523364486,57.799519106
32.0,4.0,0.8,0.5,0.7441860465116279,0.6530612244897959,0.6956521739130435,65.56626266
32.0,32.0,0.7,0.5,0.6976744186046512,0.46153846153846156,0.5555555555555556,57.945001237
32.0,4.0,0.9,0.5,0.7441860465116279,0.6530612244897959,0.6956521739130435,65.365486968
32.0,8.0,0.1,0.5,0.6511627906976745,0.4827586206896552,0.5544554455445545,63.46990346
