gamma_s,gamma_h,alpha,weight_h,sensitivity,ppv,fmeasure,time
1.0,1.0,0.1,1.0,0.5652173913043478,0.7222222222222222,0.6341463414634146,0.0
1.0,1.0,0.2,1.0,0.5652173913043478,0.7222222222222222,0.6341463414634146,0.0
1.0,1.0,0.3,1.0,0.5652173913043478,0.7222222222222222,0.6341463414634146,0.0
1.0,1.0,0.6,1.0,0.5797101449275363,0.6896551724137931,0.6299212598425198,0.0
1.0,1.0,0.7,1.0,0.6086956521739131,0.7241379310344828,0.6614173228346457,0.0
1.0,1.0,0.4,1.0,0.5652173913043478,0.7090909090909091,0.6290322580645161,0.0
1.0,1.0,0.5,1.0,0.5797101449275363,0.7017543859649122,0.634920634920635,0.0
1.0,1.0,0.1,1.0,0.5652173913043478,0.7222222222222222,0.6341463414634146,9.626093001
1.0,1.0,0.2,1.0,0.5652173913043478,0.7222222222222222,0.6341463414634146,9.710967276
1.0,1.0,0.3,1.0,0.5652173913043478,0.7222222222222222,0.6341463414634146,9.457367862
1.0,1.0,0.6,1.0,0.5797101449275363,0.6896551724137931,0.6299212598425198,9.957888093
1.0,1.0,0.7,1.0,0.6086956521739131,0.7241379310344828,0.6614173228346457,11.224622558
1.0,1.0,0.4,1.0,0.5652173913043478,0.7090909090909091,0.6290322580645161,9.486902123
1.0,1.0,0.5,1.0,0.5797101449275363,0.7017543859649122,0.634920634920635,9.719531353
1.0,1.0,0.8,1.0,0.5217391304347826,0.6206896551724138,0.5669291338582677,10.435233193
1.0,1.0,0.9,1.0,0.5217391304347826,0.6206896551724138,0.5669291338582677,10.49836725
1.0,2.0,0.1,1.0,0.5652173913043478,0.6964285714285714,0.6239999999999999,9.88451052
1.0,2.0,0.2,1.0,0.5652173913043478,0.6610169491525424,0.6093750000000001,9.452999712
1.0,2.0,0.3,1.0,0.5797101449275363,0.6557377049180327,0.6153846153846154,10.006193801
1.0,2.0,0.4,1.0,0.5797101449275363,0.6451612903225806,0.6106870229007634,9.543055735
1.0,2.0,0.5,1.0,0.5507246376811594,0.6031746031746031,0.5757575757575758,9.847191625
1.0,2.0,0.6,1.0,0.5217391304347826,0.5714285714285714,0.5454545454545454,10.462427899
1.0,2.0,0.7,1.0,0.4927536231884058,0.5396825396825397,0.515151515151515,9.802183783
1.0,2.0,0.8,1.0,0.4492753623188406,0.49206349206349204,0.46969696969696967,9.657409351
1.0,2.0,0.9,1.0,0.4492753623188406,0.49206349206349204,0.46969696969696967,9.413731771
1.0,4.0,0.1,1.0,0.5652173913043478,0.65,0.6046511627906976,9.84553601
1.0,4.0,0.2,1.0,0.5942028985507246,0.640625,0.6165413533834587,9.804233909
1.0,4.0,0.3,1.0,0.5652173913043478,0.5909090909090909,0.5777777777777778,10.813442647
1.0,4.0,0.4,1.0,0.4927536231884058,0.5151515151515151,0.5037037037037038,10.663576691
1.0,4.0,0.5,1.0,0.4492753623188406,0.4696969696969697,0.45925925925925926,9.77509514
1.0,4.0,0.6,1.0,0.4492753623188406,0.4696969696969697,0.45925925925925926,10.116786673
1.0,4.0,0.7,1.0,0.4492753623188406,0.4696969696969697,0.45925925925925926,10.127311701
1.0,4.0,0.9,1.0,0.4492753623188406,0.4696969696969697,0.45925925925925926,10.009293314
1.0,8.0,0.2,1.0,0.5217391304347826,0.5454545454545454,0.5333333333333332,9.853197436
1.0,4.0,0.8,1.0,0.4492753623188406,0.4696969696969697,0.45925925925925926,9.891350669
1.0,8.0,0.1,1.0,0.5942028985507246,0.640625,0.6165413533834587,9.596327826
1.0,8.0,0.3,1.0,0.4492753623188406,0.4696969696969697,0.45925925925925926,9.550586746
1.0,8.0,0.4,1.0,0.4492753623188406,0.4696969696969697,0.45925925925925926,9.384501436
1.0,8.0,0.5,1.0,0.4492753623188406,0.4696969696969697,0.45925925925925926,9.073249842
1.0,8.0,0.6,1.0,0.4057971014492754,0.4307692307692308,0.417910447761194,9.447189575
1.0,8.0,0.8,1.0,0.37681159420289856,0.4,0.3880597014925373,9.296178555
1.0,8.0,0.7,1.0,0.4057971014492754,0.4307692307692308,0.417910447761194,9.401589293
1.0,8.0,0.9,1.0,0.37681159420289856,0.4,0.3880597014925373,9.507972725
1.0,16.0,0.3,1.0,0.4057971014492754,0.417910447761194,0.411764705882353,9.38662211
1.0,16.0,0.2,1.0,0.4492753623188406,0.45588235294117646,0.45255474452554745,9.580453175
1.0,16.0,0.1,1.0,0.5217391304347826,0.5294117647058824,0.5255474452554744,9.328585772
1.0,16.0,0.5,1.0,0.3188405797101449,0.34375,0.3308270676691729,9.302837699
1.0,16.0,0.4,1.0,0.4057971014492754,0.417910447761194,0.411764705882353,9.106574033
1.0,16.0,0.6,1.0,0.3188405797101449,0.34375,0.3308270676691729,9.166006498
1.0,32.0,0.1,1.0,0.4492753623188406,0.45588235294117646,0.45255474452554745,9.0865912
1.0,16.0,0.9,1.0,0.3188405797101449,0.34375,0.3308270676691729,9.645388202
1.0,32.0,0.2,1.0,0.4057971014492754,0.417910447761194,0.411764705882353,9.517313405
1.0,16.0,0.8,1.0,0.3188405797101449,0.34375,0.3308270676691729,9.415986064
1.0,16.0,0.7,1.0,0.3188405797101449,0.34375,0.3308270676691729,9.129656342
1.0,32.0,0.3,1.0,0.3188405797101449,0.34375,0.3308270676691729,9.676266395
1.0,32.0,0.4,1.0,0.3188405797101449,0.34375,0.3308270676691729,9.466057022
1.0,32.0,0.6,1.0,0.3188405797101449,0.34375,0.3308270676691729,9.873709002
1.0,32.0,0.5,1.0,0.3188405797101449,0.34375,0.3308270676691729,12.045137434
1.0,32.0,0.8,1.0,0.3188405797101449,0.34375,0.3308270676691729,9.530452618
1.0,32.0,0.7,1.0,0.3188405797101449,0.34375,0.3308270676691729,9.504325418
1.0,32.0,0.9,1.0,0.3188405797101449,0.34375,0.3308270676691729,9.772706924
2.0,1.0,0.2,1.0,0.6956521739130435,0.7619047619047619,0.7272727272727272,9.464470629
2.0,1.0,0.1,1.0,0.6956521739130435,0.7619047619047619,0.7272727272727272,10.868446743
2.0,1.0,0.4,1.0,0.6956521739130435,0.7619047619047619,0.7272727272727272,9.524234261
2.0,1.0,0.3,1.0,0.6956521739130435,0.7619047619047619,0.7272727272727272,12.126002604
2.0,1.0,0.5,1.0,0.6956521739130435,0.7619047619047619,0.7272727272727272,9.498933263
2.0,1.0,0.6,1.0,0.6956521739130435,0.7619047619047619,0.7272727272727272,9.559005495
2.0,1.0,0.7,1.0,0.7101449275362319,0.7538461538461538,0.7313432835820897,9.409921079
2.0,1.0,0.8,1.0,0.7101449275362319,0.7538461538461538,0.7313432835820897,10.345018584
2.0,1.0,0.9,1.0,0.7101449275362319,0.7424242424242424,0.725925925925926,10.29934573
2.0,2.0,0.1,1.0,0.6956521739130435,0.75,0.7218045112781954,9.5041936
2.0,2.0,0.7,1.0,0.7101449275362319,0.7205882352941176,0.7153284671532847,9.762964635
2.0,2.0,0.2,1.0,0.6956521739130435,0.75,0.7218045112781954,9.455575327
2.0,4.0,0.2,1.0,0.6956521739130435,0.75,0.7218045112781954,9.53081681
2.0,2.0,0.3,1.0,0.6956521739130435,0.75,0.7218045112781954,12.489480708
2.0,2.0,0.5,1.0,0.7101449275362319,0.7424242424242424,0.725925925925926,9.503896963
2.0,4.0,0.3,1.0,0.7246376811594203,0.7352941176470589,0.7299270072992701,9.365551887
2.0,4.0,0.1,1.0,0.6956521739130435,0.75,0.7218045112781954,9.482068128
2.0,2.0,0.6,1.0,0.7101449275362319,0.7313432835820896,0.7205882352941175,9.718850374
2.0,2.0,0.8,1.0,0.6376811594202898,0.6470588235294118,0.6423357664233575,11.872045739
2.0,2.0,0.9,1.0,0.6376811594202898,0.6470588235294118,0.6423357664233575,10.245770681
2.0,2.0,0.4,1.0,0.6956521739130435,0.75,0.7218045112781954,9.678426735
2.0,4.0,0.8,1.0,0.5217391304347826,0.5217391304347826,0.5217391304347826,9.545409507
2.0,4.0,0.4,1.0,0.6956521739130435,0.6857142857142857,0.6906474820143885,10.977616758
2.0,4.0,0.5,1.0,0.6376811594202898,0.6285714285714286,0.6330935251798562,10.961627979
2.0,4.0,0.7,1.0,0.5362318840579711,0.5362318840579711,0.5362318840579711,9.430739091
2.0,4.0,0.6,1.0,0.5797101449275363,0.5797101449275363,0.5797101449275363,9.442055013
2.0,4.0,0.9,1.0,0.5217391304347826,0.5217391304347826,0.5217391304347826,9.43617762
2.0,16.0,0.8,1.0,0.34782608695652173,0.36363636363636365,0.3555555555555555,8.84825287
2.0,16.0,0.7,1.0,0.34782608695652173,0.36363636363636365,0.3555555555555555,8.720217376
2.0,32.0,0.2,1.0,0.4927536231884058,0.4857142857142857,0.4892086330935252,8.78068797
2.0,32.0,0.1,1.0,0.5362318840579711,0.5211267605633803,0.5285714285714286,8.794700152
2.0,16.0,0.9,1.0,0.34782608695652173,0.36363636363636365,0.3555555555555555,8.840323315
2.0,16.0,0.6,1.0,0.37681159420289856,0.3939393939393939,0.3851851851851852,8.827633853
2.0,32.0,0.7,1.0,0.34782608695652173,0.36363636363636365,0.3555555555555555,8.780613056
2.0,32.0,0.3,1.0,0.37681159420289856,0.3939393939393939,0.3851851851851852,8.660607635
2.0,32.0,0.6,1.0,0.34782608695652173,0.36363636363636365,0.3555555555555555,8.737684238
2.0,32.0,0.4,1.0,0.34782608695652173,0.36363636363636365,0.3555555555555555,8.843626657
2.0,32.0,0.8,1.0,0.34782608695652173,0.36363636363636365,0.3555555555555555,8.852444379
2.0,32.0,0.5,1.0,0.34782608695652173,0.36363636363636365,0.3555555555555555,8.687243505
2.0,32.0,0.9,1.0,0.34782608695652173,0.36363636363636365,0.3555555555555555,8.562364239
2.0,8.0,0.1,1.0,0.6956521739130435,0.7384615384615385,0.7164179104477613,10.458401143
4.0,1.0,0.6,1.0,0.7101449275362319,0.7313432835820896,0.7205882352941175,8.630456604
4.0,1.0,0.7,1.0,0.7246376811594203,0.746268656716418,0.7352941176470589,8.632573347
4.0,1.0,0.2,1.0,0.7101449275362319,0.7424242424242424,0.725925925925926,8.714215262
4.0,1.0,0.5,1.0,0.7101449275362319,0.7313432835820896,0.7205882352941175,8.658023663
4.0,1.0,0.3,1.0,0.7101449275362319,0.7424242424242424,0.725925925925926,8.666776729
4.0,1.0,0.4,1.0,0.7101449275362319,0.7424242424242424,0.725925925925926,8.663341675
4.0,1.0,0.1,1.0,0.7101449275362319,0.7424242424242424,0.725925925925926,8.632097707
2.0,8.0,0.2,1.0,0.7246376811594203,0.7246376811594203,0.7246376811594203,9.834987567
4.0,2.0,0.5,1.0,0.7246376811594203,0.7352941176470589,0.7299270072992701,8.6279011
4.0,1.0,0.9,1.0,0.7391304347826086,0.7611940298507462,0.75,8.7521521
4.0,2.0,0.2,1.0,0.7101449275362319,0.7424242424242424,0.725925925925926,8.728536444
4.0,2.0,0.1,1.0,0.7101449275362319,0.7424242424242424,0.725925925925926,8.727593706
4.0,2.0,0.3,1.0,0.7101449275362319,0.7424242424242424,0.725925925925926,8.76820557
2.0,8.0,0.3,1.0,0.6376811594202898,0.6285714285714286,0.6330935251798562,10.30785711
4.0,1.0,0.8,1.0,0.7246376811594203,0.746268656716418,0.7352941176470589,8.774151414
4.0,4.0,0.3,1.0,0.7246376811594203,0.7352941176470589,0.7299270072992701,8.654732918
4.0,2.0,0.4,1.0,0.7101449275362319,0.7313432835820896,0.7205882352941175,8.762569416
4.0,2.0,0.8,1.0,0.7681159420289855,0.7571428571428571,0.762589928057554,8.737773595
4.0,2.0,0.9,1.0,0.7536231884057971,0.7428571428571429,0.748201438848921,8.724844604
4.0,2.0,0.6,1.0,0.7391304347826086,0.75,0.7445255474452556,8.695698425
4.0,4.0,0.1,1.0,0.7101449275362319,0.7424242424242424,0.725925925925926,8.666598644
2.0,8.0,0.4,1.0,0.5217391304347826,0.5217391304347826,0.5217391304347826,9.996416723
4.0,2.0,0.7,1.0,0.7536231884057971,0.7647058823529411,0.759124087591241,8.787291045
4.0,8.0,0.1,1.0,0.7101449275362319,0.7424242424242424,0.725925925925926,8.573799693
2.0,8.0,0.5,1.0,0.5217391304347826,0.5217391304347826,0.5217391304347826,9.440640785
4.0,4.0,0.2,1.0,0.7101449275362319,0.7313432835820896,0.7205882352941175,8.763743643
4.0,4.0,0.6,1.0,0.7681159420289855,0.726027397260274,0.7464788732394365,8.845776253
4.0,4.0,0.8,1.0,0.7246376811594203,0.684931506849315,0.704225352112676,8.744705219
4.0,4.0,0.5,1.0,0.7681159420289855,0.7361111111111112,0.7517730496453902,8.7920444
4.0,4.0,0.7,1.0,0.7971014492753623,0.7534246575342466,0.7746478873239437,8.791587662
4.0,4.0,0.9,1.0,0.6666666666666666,0.6388888888888888,0.6524822695035462,8.786840289
4.0,4.0,0.4,1.0,0.7536231884057971,0.7647058823529411,0.759124087591241,8.809902438
4.0,8.0,0.8,1.0,0.5217391304347826,0.5217391304347826,0.5217391304347826,8.752375736
4.0,8.0,0.6,1.0,0.6086956521739131,0.5915492957746479,0.6,8.814829718
4.0,8.0,0.5,1.0,0.6666666666666666,0.6388888888888888,0.6524822695035462,8.834190773
4.0,8.0,0.2,1.0,0.7391304347826086,0.7391304347826086,0.7391304347826085,8.833936933
4.0,8.0,0.4,1.0,0.7971014492753623,0.7534246575342466,0.7746478873239437,8.898758758
4.0,8.0,0.3,1.0,0.7681159420289855,0.7361111111111112,0.7517730496453902,8.864587312
2.0,8.0,0.6,1.0,0.4927536231884058,0.5,0.4963503649635037,9.545010352
4.0,8.0,0.7,1.0,0.5942028985507246,0.5774647887323944,0.5857142857142856,8.786089967
4.0,16.0,0.4,1.0,0.5217391304347826,0.5070422535211268,0.5142857142857142,8.73476258
4.0,16.0,0.2,1.0,0.7681159420289855,0.7066666666666667,0.736111111111111,8.817595103
4.0,8.0,0.9,1.0,0.4927536231884058,0.5,0.4963503649635037,8.772222533
4.0,16.0,0.1,1.0,0.7391304347826086,0.7183098591549296,0.7285714285714284,8.766003169
4.0,16.0,0.6,1.0,0.4927536231884058,0.4857142857142857,0.4892086330935252,8.736988519
4.0,16.0,0.3,1.0,0.6086956521739131,0.5753424657534246,0.5915492957746479,8.890797123
4.0,16.0,0.5,1.0,0.4927536231884058,0.4857142857142857,0.4892086330935252,8.836407413
4.0,16.0,0.9,1.0,0.42028985507246375,0.4264705882352941,0.4233576642335767,8.830433821
2.0,8.0,0.7,1.0,0.4927536231884058,0.5,0.4963503649635037,9.611133405
4.0,32.0,0.4,1.0,0.4492753623188406,0.4492753623188406,0.4492753623188406,8.726023792
4.0,16.0,0.8,1.0,0.4492753623188406,0.4492753623188406,0.4492753623188406,8.780815524
4.0,16.0,0.7,1.0,0.4927536231884058,0.4857142857142857,0.4892086330935252,8.724382134
4.0,32.0,0.2,1.0,0.5217391304347826,0.5070422535211268,0.5142857142857142,8.747148924
4.0,32.0,0.1,1.0,0.7681159420289855,0.7066666666666667,0.736111111111111,8.7624893
4.0,32.0,0.5,1.0,0.37681159420289856,0.3939393939393939,0.3851851851851852,8.664270714
4.0,32.0,0.3,1.0,0.4927536231884058,0.4857142857142857,0.4892086330935252,8.675778135
2.0,8.0,0.8,1.0,0.4927536231884058,0.5,0.4963503649635037,9.331167585
4.0,32.0,0.9,1.0,0.34782608695652173,0.36363636363636365,0.3555555555555555,8.744943309
8.0,1.0,0.2,1.0,0.7101449275362319,0.7205882352941176,0.7153284671532847,8.510054796
4.0,32.0,0.6,1.0,0.34782608695652173,0.36363636363636365,0.3555555555555555,8.583806985
4.0,32.0,0.7,1.0,0.34782608695652173,0.36363636363636365,0.3555555555555555,8.566847881
4.0,32.0,0.8,1.0,0.34782608695652173,0.36363636363636365,0.3555555555555555,8.565735193
8.0,1.0,0.4,1.0,0.7101449275362319,0.7205882352941176,0.7153284671532847,8.539840254
2.0,8.0,0.9,1.0,0.4492753623188406,0.4626865671641791,0.45588235294117646,9.215413631
8.0,1.0,0.9,1.0,0.7101449275362319,0.7101449275362319,0.7101449275362319,8.558041755
8.0,1.0,0.1,1.0,0.7101449275362319,0.7205882352941176,0.7153284671532847,8.57961874
8.0,1.0,0.3,1.0,0.7101449275362319,0.7205882352941176,0.7153284671532847,8.583655891
8.0,1.0,0.5,1.0,0.7101449275362319,0.7205882352941176,0.7153284671532847,8.563114471
2.0,16.0,0.1,1.0,0.7246376811594203,0.704225352112676,0.7142857142857142,9.696584854
8.0,1.0,0.8,1.0,0.7101449275362319,0.7205882352941176,0.7153284671532847,8.564579299
8.0,1.0,0.6,1.0,0.7101449275362319,0.7205882352941176,0.7153284671532847,8.550519577
8.0,1.0,0.7,1.0,0.7101449275362319,0.7205882352941176,0.7153284671532847,8.589844292
8.0,2.0,0.4,1.0,0.7101449275362319,0.7205882352941176,0.7153284671532847,8.630295531
8.0,2.0,0.3,1.0,0.7101449275362319,0.7205882352941176,0.7153284671532847,8.555208042
8.0,2.0,0.5,1.0,0.7101449275362319,0.7205882352941176,0.7153284671532847,8.635651691
8.0,2.0,0.2,1.0,0.7101449275362319,0.7205882352941176,0.7153284671532847,8.54777899
8.0,2.0,0.7,1.0,0.7101449275362319,0.7101449275362319,0.7101449275362319,8.575356738
8.0,2.0,0.1,1.0,0.7101449275362319,0.7205882352941176,0.7153284671532847,8.60429563
8.0,4.0,0.3,1.0,0.7101449275362319,0.7205882352941176,0.7153284671532847,8.581607162
8.0,4.0,0.1,1.0,0.7101449275362319,0.7205882352941176,0.7153284671532847,8.640210179
8.0,4.0,0.5,1.0,0.7246376811594203,0.7246376811594203,0.7246376811594203,8.564823197
2.0,16.0,0.2,1.0,0.5362318840579711,0.5211267605633803,0.5285714285714286,9.176056997
8.0,2.0,0.9,1.0,0.7246376811594203,0.7142857142857143,0.7194244604316546,8.603855278
8.0,4.0,0.2,1.0,0.7101449275362319,0.7205882352941176,0.7153284671532847,8.572762287
8.0,8.0,0.1,1.0,0.7101449275362319,0.7205882352941176,0.7153284671532847,8.572502091
8.0,2.0,0.8,1.0,0.7101449275362319,0.7101449275362319,0.7101449275362319,8.572480205
8.0,8.0,0.3,1.0,0.7246376811594203,0.7142857142857143,0.7194244604316546,8.600075855
8.0,2.0,0.6,1.0,0.7101449275362319,0.7101449275362319,0.7101449275362319,8.667120201
8.0,4.0,0.6,1.0,0.7391304347826086,0.7285714285714285,0.7338129496402879,8.635184025
8.0,4.0,0.8,1.0,0.782608695652174,0.7397260273972602,0.7605633802816901,8.648966973
8.0,4.0,0.9,1.0,0.7681159420289855,0.726027397260274,0.7464788732394365,8.692219631
8.0,4.0,0.7,1.0,0.7536231884057971,0.7536231884057971,0.7536231884057971,8.647309777
8.0,8.0,0.6,1.0,0.7681159420289855,0.7162162162162162,0.7412587412587412,8.673457422
8.0,4.0,0.4,1.0,0.7101449275362319,0.7101449275362319,0.7101449275362319,8.751226025
8.0,8.0,0.4,1.0,0.7536231884057971,0.7428571428571429,0.748201438848921,8.641635759
8.0,8.0,0.5,1.0,0.7681159420289855,0.726027397260274,0.7464788732394365,8.73006349
2.0,16.0,0.3,1.0,0.4927536231884058,0.4857142857142857,0.4892086330935252,9.699961053
8.0,8.0,0.8,1.0,0.7246376811594203,0.6756756756756757,0.6993006993006994,8.585337658
8.0,16.0,0.1,1.0,0.7101449275362319,0.6901408450704225,0.7,8.5560045
8.0,8.0,0.2,1.0,0.7101449275362319,0.7101449275362319,0.7101449275362319,8.566666735
8.0,8.0,0.9,1.0,0.6666666666666666,0.6388888888888888,0.6524822695035462,8.74312415
2.0,16.0,0.4,1.0,0.4927536231884058,0.4857142857142857,0.4892086330935252,9.758063934
8.0,8.0,0.7,1.0,0.7971014492753623,0.7432432432432432,0.7692307692307693,8.677714375
8.0,16.0,0.3,1.0,0.7681159420289855,0.6973684210526315,0.7310344827586206,8.56964907
8.0,16.0,0.2,1.0,0.7391304347826086,0.6986301369863014,0.7183098591549297,8.562274044
2.0,16.0,0.5,1.0,0.42028985507246375,0.4264705882352941,0.4233576642335767,9.592608396
8.0,16.0,0.4,1.0,0.7536231884057971,0.6842105263157895,0.7172413793103448,9.974629118
8.0,16.0,0.5,1.0,0.6666666666666666,0.6216216216216216,0.6433566433566433,10.025542935
8.0,16.0,0.6,1.0,0.6086956521739131,0.5753424657534246,0.5915492957746479,9.99358533
8.0,16.0,0.8,1.0,0.5217391304347826,0.5070422535211268,0.5142857142857142,10.045939889
8.0,16.0,0.7,1.0,0.5217391304347826,0.5070422535211268,0.5142857142857142,10.04831337
8.0,16.0,0.9,1.0,0.4927536231884058,0.4857142857142857,0.4892086330935252,10.177558214
8.0,32.0,0.1,1.0,0.7391304347826086,0.6986301369863014,0.7183098591549297,9.739504508
8.0,32.0,0.2,1.0,0.7971014492753623,0.7236842105263158,0.7586206896551724,9.958207949
8.0,32.0,0.3,1.0,0.6086956521739131,0.5753424657534246,0.5915492957746479,9.826852814
16.0,2.0,0.3,1.0,0.7391304347826086,0.68,0.7083333333333334,8.056468441
16.0,2.0,0.2,1.0,0.7391304347826086,0.68,0.7083333333333334,8.258045324
8.0,32.0,0.4,1.0,0.5217391304347826,0.5070422535211268,0.5142857142857142,9.734606339
16.0,1.0,0.8,1.0,0.7391304347826086,0.68,0.7083333333333334,8.029052072
16.0,2.0,0.9,1.0,0.7391304347826086,0.68,0.7083333333333334,8.084588816
16.0,1.0,0.9,1.0,0.7391304347826086,0.68,0.7083333333333334,8.273518964
8.0,32.0,0.5,1.0,0.4927536231884058,0.4857142857142857,0.4892086330935252,9.61810254
16.0,2.0,0.1,1.0,0.7391304347826086,0.68,0.7083333333333334,8.16242725
16.0,2.0,0.4,1.0,0.7391304347826086,0.68,0.7083333333333334,8.258594291
16.0,2.0,0.8,1.0,0.7391304347826086,0.68,0.7083333333333334,8.246128589
16.0,4.0,0.8,1.0,0.7391304347826086,0.6710526315789473,0.7034482758620689,8.219021617
16.0,4.0,0.1,1.0,0.7391304347826086,0.68,0.7083333333333334,8.139457712
16.0,8.0,0.5,1.0,0.7391304347826086,0.6710526315789473,0.7034482758620689,7.992507677
16.0,4.0,0.7,1.0,0.7391304347826086,0.6710526315789473,0.7034482758620689,8.129548632
16.0,2.0,0.5,1.0,0.7391304347826086,0.68,0.7083333333333334,7.983548974
16.0,2.0,0.6,1.0,0.7391304347826086,0.68,0.7083333333333334,8.194228853
16.0,2.0,0.7,1.0,0.7391304347826086,0.68,0.7083333333333334,7.993422942
16.0,4.0,0.6,1.0,0.7391304347826086,0.68,0.7083333333333334,8.147881714
16.0,4.0,0.5,1.0,0.7391304347826086,0.68,0.7083333333333334,8.048480067
16.0,4.0,0.2,1.0,0.7391304347826086,0.68,0.7083333333333334,7.994484619
16.0,8.0,0.3,1.0,0.7391304347826086,0.68,0.7083333333333334,7.976679
16.0,8.0,0.2,1.0,0.7391304347826086,0.68,0.7083333333333334,7.978806876
16.0,4.0,0.4,1.0,0.7391304347826086,0.68,0.7083333333333334,8.100417042
16.0,4.0,0.3,1.0,0.7391304347826086,0.68,0.7083333333333334,8.058867495
16.0,8.0,0.4,1.0,0.7391304347826086,0.6710526315789473,0.7034482758620689,7.978569881
16.0,4.0,0.9,1.0,0.7391304347826086,0.6710526315789473,0.7034482758620689,8.133527949
16.0,8.0,0.7,1.0,0.782608695652174,0.7105263157894737,0.7448275862068965,8.149168783
16.0,16.0,0.2,1.0,0.7391304347826086,0.6538461538461539,0.693877551020408,8.110624059
16.0,16.0,0.1,1.0,0.7391304347826086,0.6538461538461539,0.693877551020408,8.162010893
16.0,8.0,0.6,1.0,0.7536231884057971,0.6842105263157895,0.7172413793103448,7.942609818
16.0,8.0,0.1,1.0,0.7391304347826086,0.68,0.7083333333333334,8.008645585
16.0,16.0,0.3,1.0,0.7536231884057971,0.6666666666666666,0.7074829931972789,8.168439409
16.0,16.0,0.4,1.0,0.782608695652174,0.6923076923076923,0.7346938775510203,8.056769947
16.0,8.0,0.8,1.0,0.782608695652174,0.7105263157894737,0.7448275862068965,8.059981261
8.0,32.0,0.8,1.0,0.42028985507246375,0.4264705882352941,0.4233576642335767,9.937394273
16.0,8.0,0.9,1.0,0.782608695652174,0.7105263157894737,0.7448275862068965,8.091841666
8.0,32.0,0.6,1.0,0.4927536231884058,0.4857142857142857,0.4892086330935252,9.401094807
16.0,16.0,0.5,1.0,0.782608695652174,0.6835443037974683,0.7297297297297297,7.959908095
8.0,32.0,0.7,1.0,0.4492753623188406,0.4492753623188406,0.4492753623188406,9.686755653
8.0,32.0,0.9,1.0,0.37681159420289856,0.3939393939393939,0.3851851851851852,9.445683278
16.0,1.0,0.1,1.0,0.7391304347826086,0.68,0.7083333333333334,10.134846529
16.0,1.0,0.2,1.0,0.7391304347826086,0.68,0.7083333333333334,9.562922436
16.0,1.0,0.3,1.0,0.7391304347826086,0.68,0.7083333333333334,9.421464176
16.0,1.0,0.4,1.0,0.7391304347826086,0.68,0.7083333333333334,9.474158369
16.0,1.0,0.7,1.0,0.7391304347826086,0.68,0.7083333333333334,9.55026478
16.0,1.0,0.6,1.0,0.7391304347826086,0.68,0.7083333333333334,9.367973431
16.0,1.0,0.5,1.0,0.7391304347826086,0.68,0.7083333333333334,9.518306857
16.0,16.0,0.6,1.0,0.782608695652174,0.6835443037974683,0.7297297297297297,11.002459464
16.0,16.0,0.9,1.0,0.6956521739130435,0.6153846153846154,0.6530612244897959,10.979819248
16.0,16.0,0.7,1.0,0.7971014492753623,0.7051282051282052,0.7482993197278911,11.043868662
16.0,32.0,0.6,1.0,0.6376811594202898,0.5714285714285714,0.6027397260273972,10.994886074
16.0,16.0,0.8,1.0,0.7246376811594203,0.6410256410256411,0.6802721088435374,10.977498307
16.0,32.0,0.1,1.0,0.7391304347826086,0.6538461538461539,0.693877551020408,10.964122881
16.0,32.0,0.2,1.0,0.782608695652174,0.6923076923076923,0.7346938775510203,10.040442078
16.0,32.0,0.3,1.0,0.782608695652174,0.6835443037974683,0.7297297297297297,9.801539988
32.0,4.0,0.1,1.0,0.7391304347826086,0.6538461538461539,0.693877551020408,8.798301444
16.0,32.0,0.4,1.0,0.7536231884057971,0.6666666666666666,0.7074829931972789,10.067692498
32.0,4.0,0.2,1.0,0.7391304347826086,0.6538461538461539,0.693877551020408,8.644261437
32.0,4.0,0.4,1.0,0.7391304347826086,0.6538461538461539,0.693877551020408,8.665590863
32.0,4.0,0.3,1.0,0.7391304347826086,0.6538461538461539,0.693877551020408,8.754193472
32.0,4.0,0.5,1.0,0.7391304347826086,0.6538461538461539,0.693877551020408,8.699861436
32.0,4.0,0.6,1.0,0.7391304347826086,0.6538461538461539,0.693877551020408,8.653703331
32.0,4.0,0.7,1.0,0.7391304347826086,0.6538461538461539,0.693877551020408,8.999455657
32.0,4.0,0.8,1.0,0.7391304347826086,0.6538461538461539,0.693877551020408,8.748391742
32.0,8.0,0.1,1.0,0.7391304347826086,0.6538461538461539,0.693877551020408,8.697821263
32.0,8.0,0.3,1.0,0.7391304347826086,0.6538461538461539,0.693877551020408,8.85414751
32.0,4.0,0.9,1.0,0.7391304347826086,0.6538461538461539,0.693877551020408,8.848255579
16.0,32.0,0.5,1.0,0.6956521739130435,0.6153846153846154,0.6530612244897959,10.484915864
32.0,8.0,0.5,1.0,0.7391304347826086,0.6538461538461539,0.693877551020408,8.779795181
32.0,8.0,0.4,1.0,0.7391304347826086,0.6538461538461539,0.693877551020408,8.725126143
32.0,8.0,0.2,1.0,0.7391304347826086,0.6538461538461539,0.693877551020408,8.913748024
16.0,32.0,0.7,1.0,0.5507246376811594,0.5066666666666667,0.5277777777777779,9.48329403
32.0,8.0,0.6,1.0,0.7391304347826086,0.6538461538461539,0.693877551020408,8.75673626
32.0,16.0,0.3,1.0,0.7391304347826086,0.6219512195121951,0.6754966887417219,8.861078063
32.0,16.0,0.2,1.0,0.7391304347826086,0.6219512195121951,0.6754966887417219,8.760104238
32.0,16.0,0.1,1.0,0.7391304347826086,0.6375,0.6845637583892616,8.825433258
32.0,8.0,0.7,1.0,0.7391304347826086,0.6455696202531646,0.6891891891891891,8.808732328
32.0,8.0,0.8,1.0,0.7391304347826086,0.6455696202531646,0.6891891891891891,8.790266798
32.0,8.0,0.9,1.0,0.7391304347826086,0.6455696202531646,0.6891891891891891,8.777395
16.0,32.0,0.8,1.0,0.5217391304347826,0.4864864864864865,0.5034965034965034,9.782090918
32.0,16.0,0.6,1.0,0.7536231884057971,0.6341463414634146,0.6887417218543047,8.760886073
32.0,16.0,0.4,1.0,0.7391304347826086,0.6219512195121951,0.6754966887417219,8.680654629
32.0,16.0,0.9,1.0,0.782608695652174,0.6666666666666666,0.72,8.714152511
32.0,16.0,0.5,1.0,0.7391304347826086,0.6219512195121951,0.6754966887417219,8.765651716
32.0,16.0,0.8,1.0,0.782608695652174,0.6666666666666666,0.72,8.799574697
32.0,32.0,0.1,1.0,0.7391304347826086,0.6219512195121951,0.6754966887417219,8.816459285
32.0,32.0,0.4,1.0,0.782608695652174,0.6585365853658537,0.7152317880794703,8.802099975
32.0,16.0,0.7,1.0,0.7681159420289855,0.6463414634146342,0.7019867549668874,8.818345882
32.0,32.0,0.2,1.0,0.7391304347826086,0.6219512195121951,0.6754966887417219,8.856720391
32.0,32.0,0.5,1.0,0.782608695652174,0.6585365853658537,0.7152317880794703,8.866413199
32.0,32.0,0.6,1.0,0.782608695652174,0.6585365853658537,0.7152317880794703,8.754707182
32.0,32.0,0.7,1.0,0.7971014492753623,0.6790123456790124,0.7333333333333334,8.677934077
32.0,32.0,0.3,1.0,0.7536231884057971,0.6341463414634146,0.6887417218543047,8.763695692
32.0,32.0,0.8,1.0,0.7391304347826086,0.6071428571428571,0.6666666666666666,8.759285762
16.0,32.0,0.9,1.0,0.5217391304347826,0.4864864864864865,0.5034965034965034,9.802806033
32.0,32.0,0.9,1.0,0.6956521739130435,0.5853658536585366,0.6357615894039734,8.776720696
32.0,1.0,0.1,1.0,0.7391304347826086,0.6538461538461539,0.693877551020408,9.628914126
32.0,1.0,0.2,1.0,0.7391304347826086,0.6538461538461539,0.693877551020408,9.972610838
32.0,1.0,0.3,1.0,0.7391304347826086,0.6538461538461539,0.693877551020408,9.595040388
32.0,1.0,0.4,1.0,0.7391304347826086,0.6538461538461539,0.693877551020408,9.273071817
32.0,1.0,0.5,1.0,0.7391304347826086,0.6538461538461539,0.693877551020408,9.52505695
32.0,1.0,0.6,1.0,0.7391304347826086,0.6538461538461539,0.693877551020408,9.337740935
32.0,1.0,0.7,1.0,0.7391304347826086,0.6538461538461539,0.693877551020408,9.274802617
32.0,1.0,0.8,1.0,0.7391304347826086,0.6538461538461539,0.693877551020408,9.273730851
32.0,1.0,0.9,1.0,0.7391304347826086,0.6538461538461539,0.693877551020408,9.460862329
32.0,2.0,0.2,1.0,0.7391304347826086,0.6538461538461539,0.693877551020408,9.360629574
32.0,2.0,0.1,1.0,0.7391304347826086,0.6538461538461539,0.693877551020408,9.47746648
32.0,2.0,0.3,1.0,0.7391304347826086,0.6538461538461539,0.693877551020408,9.401678782
32.0,2.0,0.4,1.0,0.7391304347826086,0.6538461538461539,0.693877551020408,9.639674156
32.0,2.0,0.5,1.0,0.7391304347826086,0.6538461538461539,0.693877551020408,9.273568625
32.0,2.0,0.6,1.0,0.7391304347826086,0.6538461538461539,0.693877551020408,9.332343312
32.0,2.0,0.7,1.0,0.7391304347826086,0.6538461538461539,0.693877551020408,9.338338802
32.0,2.0,0.8,1.0,0.7391304347826086,0.6538461538461539,0.693877551020408,9.735231718
32.0,2.0,0.9,1.0,0.7391304347826086,0.6538461538461539,0.693877551020408,9.330667407
