gamma_s,gamma_h,alpha,weight_h,sensitivity,ppv,fmeasure,time
1.0,1.0,0.1,0.3,0.32558139534883723,1.0,0.49122807017543857,59.881592645
1.0,1.0,0.4,0.3,0.32558139534883723,1.0,0.49122807017543857,58.326901598
1.0,2.0,0.2,0.3,0.32558139534883723,1.0,0.49122807017543857,58.325558188
1.0,1.0,0.8,0.3,0.32558139534883723,1.0,0.49122807017543857,58.264809569
1.0,1.0,0.5,0.3,0.32558139534883723,1.0,0.49122807017543857,58.547020612
1.0,1.0,0.6,0.3,0.32558139534883723,1.0,0.49122807017543857,58.277825097
1.0,2.0,0.4,0.3,0.32558139534883723,1.0,0.49122807017543857,57.972268702
1.0,1.0,0.3,0.3,0.32558139534883723,1.0,0.49122807017543857,58.304156685
1.0,1.0,0.7,0.3,0.32558139534883723,1.0,0.49122807017543857,58.468572174
1.0,2.0,0.1,0.3,0.32558139534883723,1.0,0.49122807017543857,58.656737575
1.0,2.0,0.9,0.3,0.32558139534883723,1.0,0.49122807017543857,58.153705378
1.0,2.0,0.3,0.3,0.32558139534883723,1.0,0.49122807017543857,58.264222959
1.0,1.0,0.2,0.3,0.32558139534883723,1.0,0.49122807017543857,57.386512736
1.0,2.0,0.5,0.3,0.32558139534883723,1.0,0.49122807017543857,58.259009621
1.0,2.0,0.8,0.3,0.32558139534883723,1.0,0.49122807017543857,58.112821624
1.0,4.0,0.2,0.3,0.32558139534883723,0.5833333333333334,0.41791044776119407,57.891849312
1.0,4.0,0.7,0.3,0.32558139534883723,0.5833333333333334,0.41791044776119407,58.325068359
1.0,2.0,0.6,0.3,0.32558139534883723,1.0,0.49122807017543857,58.188719861
1.0,4.0,0.6,0.3,0.32558139534883723,0.5833333333333334,0.41791044776119407,58.213570338
1.0,4.0,0.1,0.3,0.32558139534883723,0.5833333333333334,0.41791044776119407,58.304185345
1.0,4.0,0.3,0.3,0.32558139534883723,0.5833333333333334,0.41791044776119407,58.719070773
1.0,1.0,0.9,0.3,0.32558139534883723,1.0,0.49122807017543857,57.412608614
1.0,8.0,0.5,0.3,0.3023255813953488,0.34210526315789475,0.32098765432098764,58.209327344
1.0,4.0,0.9,0.3,0.32558139534883723,0.5833333333333334,0.41791044776119407,58.32075359
1.0,4.0,0.8,0.3,0.32558139534883723,0.5833333333333334,0.41791044776119407,58.173097374
1.0,8.0,0.4,0.3,0.3023255813953488,0.34210526315789475,0.32098765432098764,58.258141267
1.0,8.0,0.1,0.3,0.32558139534883723,0.3888888888888889,0.35443037974683544,58.281685479
1.0,4.0,0.4,0.3,0.32558139534883723,0.5833333333333334,0.41791044776119407,58.243301525
1.0,2.0,0.7,0.3,0.32558139534883723,1.0,0.49122807017543857,57.237121263
1.0,4.0,0.5,0.3,0.32558139534883723,0.5833333333333334,0.41791044776119407,57.351361007
1.0,8.0,0.2,0.3,0.32558139534883723,0.3888888888888889,0.35443037974683544,58.31877832
1.0,8.0,0.3,0.3,0.3023255813953488,0.34210526315789475,0.32098765432098764,57.257007058
1.0,8.0,0.6,0.3,0.3023255813953488,0.34210526315789475,0.32098765432098764,57.370486413
1.0,8.0,0.7,0.3,0.20930232558139536,0.24324324324324326,0.225,57.952180838
1.0,8.0,0.8,0.3,0.20930232558139536,0.24324324324324326,0.225,61.221369247
1.0,8.0,0.9,0.3,0.20930232558139536,0.24324324324324326,0.225,61.894173363
1.0,16.0,0.1,0.3,0.32558139534883723,0.28,0.30107526881720437,61.185186447
1.0,16.0,0.2,0.3,0.32558139534883723,0.28,0.30107526881720437,61.736460249
1.0,16.0,0.3,0.3,0.32558139534883723,0.28,0.30107526881720437,61.861640344
1.0,16.0,0.4,0.3,0.2558139534883721,0.22,0.23655913978494625,61.047541245
1.0,16.0,0.5,0.3,0.2558139534883721,0.22,0.23655913978494625,65.321461433
1.0,16.0,0.6,0.3,0.20930232558139536,0.18,0.19354838709677422,63.898556811
2.0,1.0,0.1,0.3,0.3488372093023256,1.0,0.5172413793103449,57.96528907
1.0,32.0,0.8,0.3,0.20930232558139536,0.16363636363636364,0.1836734693877551,57.906605272
1.0,32.0,0.5,0.3,0.20930232558139536,0.16363636363636364,0.1836734693877551,58.233708805
2.0,1.0,0.2,0.3,0.3488372093023256,1.0,0.5172413793103449,57.899184829
1.0,32.0,0.9,0.3,0.20930232558139536,0.16363636363636364,0.1836734693877551,57.958960178
2.0,1.0,0.8,0.3,0.3488372093023256,1.0,0.5172413793103449,57.843839911
2.0,1.0,0.7,0.3,0.3488372093023256,1.0,0.5172413793103449,57.894014746
1.0,32.0,0.7,0.3,0.20930232558139536,0.16363636363636364,0.1836734693877551,58.181906429
2.0,1.0,0.5,0.3,0.3488372093023256,1.0,0.5172413793103449,57.873372768
2.0,1.0,0.6,0.3,0.3488372093023256,1.0,0.5172413793103449,57.892655207
2.0,2.0,0.2,0.3,0.3488372093023256,1.0,0.5172413793103449,57.953504992
2.0,4.0,0.6,0.3,0.3488372093023256,0.6521739130434783,0.4545454545454546,56.304654499
1.0,32.0,0.6,0.3,0.20930232558139536,0.16363636363636364,0.1836734693877551,57.865444431
2.0,2.0,0.8,0.3,0.3488372093023256,1.0,0.5172413793103449,57.697951548
2.0,2.0,0.5,0.3,0.3488372093023256,1.0,0.5172413793103449,57.765588534
2.0,8.0,0.1,0.3,0.3488372093023256,0.40540540540540543,0.375,56.334446748
2.0,2.0,0.4,0.3,0.3488372093023256,1.0,0.5172413793103449,57.894983359
2.0,4.0,0.1,0.3,0.3488372093023256,0.6521739130434783,0.4545454545454546,57.98575671
2.0,2.0,0.3,0.3,0.3488372093023256,1.0,0.5172413793103449,58.047503407
2.0,4.0,0.2,0.3,0.3488372093023256,0.6521739130434783,0.4545454545454546,58.012549192
1.0,16.0,0.7,0.3,0.20930232558139536,0.18,0.19354838709677422,63.144038664
1.0,16.0,0.8,0.3,0.20930232558139536,0.18,0.19354838709677422,62.466301041
2.0,2.0,0.1,0.3,0.3488372093023256,1.0,0.5172413793103449,58.272636077
2.0,1.0,0.4,0.3,0.3488372093023256,1.0,0.5172413793103449,57.925065592
2.0,4.0,0.5,0.3,0.3488372093023256,0.6521739130434783,0.4545454545454546,57.923779823
2.0,4.0,0.8,0.3,0.32558139534883723,0.5833333333333334,0.41791044776119407,57.809454668
1.0,16.0,0.9,0.3,0.20930232558139536,0.18,0.19354838709677422,66.343442018
2.0,2.0,0.9,0.3,0.3488372093023256,1.0,0.5172413793103449,57.870996006
2.0,4.0,0.9,0.3,0.32558139534883723,0.5833333333333334,0.41791044776119407,57.795191657
2.0,1.0,0.3,0.3,0.3488372093023256,1.0,0.5172413793103449,57.715665219
2.0,1.0,0.9,0.3,0.3488372093023256,1.0,0.5172413793103449,58.128621849
2.0,4.0,0.7,0.3,0.32558139534883723,0.5833333333333334,0.41791044776119407,57.846062601
2.0,2.0,0.7,0.3,0.3488372093023256,1.0,0.5172413793103449,57.920479048
2.0,4.0,0.4,0.3,0.3488372093023256,0.6521739130434783,0.4545454545454546,57.920018158
2.0,2.0,0.6,0.3,0.3488372093023256,1.0,0.5172413793103449,57.89155809
1.0,32.0,0.1,0.3,0.32558139534883723,0.2545454545454545,0.2857142857142857,62.771064817
2.0,4.0,0.3,0.3,0.3488372093023256,0.6521739130434783,0.4545454545454546,57.850379602
1.0,32.0,0.2,0.3,0.3023255813953488,0.23636363636363636,0.26530612244897955,63.62027642
1.0,32.0,0.3,0.3,0.20930232558139536,0.16363636363636364,0.1836734693877551,68.779659081
1.0,32.0,0.4,0.3,0.20930232558139536,0.16363636363636364,0.1836734693877551,68.704906816
2.0,8.0,0.2,0.3,0.3488372093023256,0.40540540540540543,0.375,66.598400586
2.0,8.0,0.3,0.3,0.3488372093023256,0.40540540540540543,0.375,62.713727599
2.0,8.0,0.4,0.3,0.32558139534883723,0.358974358974359,0.34146341463414637,66.550619411
2.0,8.0,0.5,0.3,0.32558139534883723,0.358974358974359,0.34146341463414637,63.201694075
2.0,8.0,0.6,0.3,0.32558139534883723,0.358974358974359,0.34146341463414637,62.741711589
2.0,8.0,0.7,0.3,0.32558139534883723,0.358974358974359,0.34146341463414637,67.339450954
2.0,8.0,0.8,0.3,0.32558139534883723,0.358974358974359,0.34146341463414637,66.717861673
2.0,8.0,0.9,0.3,0.32558139534883723,0.358974358974359,0.34146341463414637,67.684425652
2.0,16.0,0.1,0.3,0.3488372093023256,0.3191489361702128,0.3333333333333333,63.656889841
2.0,16.0,0.2,0.3,0.3488372093023256,0.3191489361702128,0.3333333333333333,63.689083551
2.0,16.0,0.3,0.3,0.32558139534883723,0.28,0.30107526881720437,64.059251333
2.0,16.0,0.4,0.3,0.32558139534883723,0.28,0.30107526881720437,64.037819891
2.0,16.0,0.5,0.3,0.32558139534883723,0.28,0.30107526881720437,65.146154117
2.0,16.0,0.6,0.3,0.2558139534883721,0.22,0.23655913978494625,62.733616593
2.0,16.0,0.7,0.3,0.2558139534883721,0.22,0.23655913978494625,68.202919993
2.0,16.0,0.8,0.3,0.2558139534883721,0.22,0.23655913978494625,68.062640856
2.0,16.0,0.9,0.3,0.20930232558139536,0.18,0.19354838709677422,66.354860714
2.0,32.0,0.1,0.3,0.3488372093023256,0.2830188679245283,0.3125,69.767424087
2.0,32.0,0.2,0.3,0.32558139534883723,0.2545454545454545,0.2857142857142857,67.191394308
2.0,32.0,0.3,0.3,0.3023255813953488,0.23636363636363636,0.26530612244897955,63.900643045
2.0,32.0,0.4,0.3,0.20930232558139536,0.16363636363636364,0.1836734693877551,70.883265849
2.0,32.0,0.5,0.3,0.20930232558139536,0.16363636363636364,0.1836734693877551,68.483689548
4.0,1.0,0.4,0.3,0.5581395348837209,0.9230769230769231,0.6956521739130436,58.895754362
2.0,32.0,0.9,0.3,0.20930232558139536,0.16363636363636364,0.1836734693877551,59.253656989
4.0,1.0,0.3,0.3,0.5581395348837209,0.9230769230769231,0.6956521739130436,58.615789465
4.0,1.0,0.2,0.3,0.5581395348837209,0.9230769230769231,0.6956521739130436,58.526052849
4.0,1.0,0.7,0.3,0.5581395348837209,0.9230769230769231,0.6956521739130436,58.322663427
2.0,32.0,0.8,0.3,0.20930232558139536,0.16363636363636364,0.1836734693877551,58.694714623
4.0,2.0,0.4,0.3,0.5581395348837209,0.9230769230769231,0.6956521739130436,58.562867235
4.0,1.0,0.5,0.3,0.5581395348837209,0.9230769230769231,0.6956521739130436,58.511352706
4.0,1.0,0.9,0.3,0.5581395348837209,0.9230769230769231,0.6956521739130436,58.685629073
4.0,2.0,0.2,0.3,0.5581395348837209,0.9230769230769231,0.6956521739130436,58.550309291
4.0,2.0,0.1,0.3,0.5581395348837209,0.9230769230769231,0.6956521739130436,58.267654301
4.0,1.0,0.6,0.3,0.5581395348837209,0.9230769230769231,0.6956521739130436,58.300246651
2.0,32.0,0.6,0.3,0.20930232558139536,0.16363636363636364,0.1836734693877551,57.924044351
4.0,2.0,0.7,0.3,0.5581395348837209,0.9230769230769231,0.6956521739130436,58.649191664
4.0,2.0,0.5,0.3,0.5581395348837209,0.9230769230769231,0.6956521739130436,58.390761181
4.0,2.0,0.3,0.3,0.5581395348837209,0.9230769230769231,0.6956521739130436,58.533588914
2.0,32.0,0.7,0.3,0.20930232558139536,0.16363636363636364,0.1836734693877551,57.736288366
4.0,4.0,0.3,0.3,0.5581395348837209,0.7058823529411765,0.6233766233766234,58.47298143
4.0,2.0,0.8,0.3,0.5581395348837209,0.9230769230769231,0.6956521739130436,58.461064865
4.0,2.0,0.9,0.3,0.5581395348837209,0.9230769230769231,0.6956521739130436,58.583127978
4.0,1.0,0.1,0.3,0.5581395348837209,0.9230769230769231,0.6956521739130436,58.006624641
4.0,4.0,0.5,0.3,0.5581395348837209,0.7058823529411765,0.6233766233766234,58.361497225
4.0,1.0,0.8,0.3,0.5581395348837209,0.9230769230769231,0.6956521739130436,57.56606899
4.0,4.0,0.9,0.3,0.5581395348837209,0.7058823529411765,0.6233766233766234,58.453720222
4.0,4.0,0.2,0.3,0.5581395348837209,0.7058823529411765,0.6233766233766234,58.397447693
4.0,4.0,0.1,0.3,0.5581395348837209,0.7058823529411765,0.6233766233766234,58.430869722
4.0,4.0,0.7,0.3,0.5581395348837209,0.7058823529411765,0.6233766233766234,59.261311543
4.0,4.0,0.6,0.3,0.5581395348837209,0.7058823529411765,0.6233766233766234,58.381744988
4.0,8.0,0.3,0.3,0.5581395348837209,0.5106382978723404,0.5333333333333333,58.372647333
4.0,8.0,0.1,0.3,0.5581395348837209,0.5106382978723404,0.5333333333333333,58.80318417
4.0,4.0,0.8,0.3,0.5581395348837209,0.7058823529411765,0.6233766233766234,58.512089611
4.0,8.0,0.5,0.3,0.5581395348837209,0.5106382978723404,0.5333333333333333,58.808782286
4.0,16.0,0.1,0.3,0.5581395348837209,0.42857142857142855,0.48484848484848486,58.297766725
4.0,8.0,0.4,0.3,0.5581395348837209,0.5106382978723404,0.5333333333333333,58.388647242
4.0,8.0,0.6,0.3,0.5581395348837209,0.5106382978723404,0.5333333333333333,58.338075577
4.0,8.0,0.7,0.3,0.5581395348837209,0.5106382978723404,0.5333333333333333,58.329155698
4.0,16.0,0.3,0.3,0.5581395348837209,0.42105263157894735,0.48,58.362523783
4.0,16.0,0.2,0.3,0.5581395348837209,0.42857142857142855,0.48484848484848486,58.369898981
4.0,2.0,0.6,0.3,0.5581395348837209,0.9230769230769231,0.6956521739130436,57.590901385
4.0,8.0,0.8,0.3,0.5581395348837209,0.5106382978723404,0.5333333333333333,58.468853745
4.0,16.0,0.4,0.3,0.5581395348837209,0.42105263157894735,0.48,58.316908477
4.0,16.0,0.8,0.3,0.4883720930232558,0.3620689655172414,0.4158415841584159,58.333416465
4.0,16.0,0.5,0.3,0.5581395348837209,0.42105263157894735,0.48,58.327753044
4.0,16.0,0.9,0.3,0.4883720930232558,0.3620689655172414,0.4158415841584159,58.401087243
4.0,4.0,0.4,0.3,0.5581395348837209,0.7058823529411765,0.6233766233766234,57.426835677
4.0,16.0,0.6,0.3,0.5581395348837209,0.42105263157894735,0.48,58.284443022
4.0,32.0,0.1,0.3,0.5581395348837209,0.4,0.4660194174757281,58.383323376
4.0,32.0,0.4,0.3,0.5581395348837209,0.39344262295081966,0.4615384615384615,58.343144883
4.0,32.0,0.2,0.3,0.5581395348837209,0.39344262295081966,0.4615384615384615,58.260315348
8.0,1.0,0.1,0.3,0.627906976744186,0.9310344827586207,0.7499999999999999,58.171163391
4.0,32.0,0.3,0.3,0.5581395348837209,0.39344262295081966,0.4615384615384615,58.28304692
4.0,8.0,0.2,0.3,0.5581395348837209,0.5106382978723404,0.5333333333333333,57.422894387
4.0,32.0,0.7,0.3,0.4418604651162791,0.3114754098360656,0.3653846153846154,58.833361417
4.0,32.0,0.6,0.3,0.4883720930232558,0.3387096774193548,0.4,58.381641586
4.0,32.0,0.8,0.3,0.3488372093023256,0.2542372881355932,0.29411764705882354,58.552102618
8.0,1.0,0.2,0.3,0.627906976744186,0.9310344827586207,0.7499999999999999,58.469216641
4.0,8.0,0.9,0.3,0.5581395348837209,0.5106382978723404,0.5333333333333333,57.377488572
8.0,1.0,0.4,0.3,0.627906976744186,0.9310344827586207,0.7499999999999999,58.198586567
8.0,1.0,0.5,0.3,0.627906976744186,0.9310344827586207,0.7499999999999999,58.280247099
4.0,32.0,0.9,0.3,0.3488372093023256,0.2542372881355932,0.29411764705882354,58.980210475
8.0,1.0,0.9,0.3,0.627906976744186,0.9310344827586207,0.7499999999999999,58.215386738
8.0,1.0,0.6,0.3,0.627906976744186,0.9310344827586207,0.7499999999999999,58.286043263
8.0,2.0,0.2,0.3,0.627906976744186,0.9310344827586207,0.7499999999999999,58.360434848
8.0,1.0,0.8,0.3,0.627906976744186,0.9310344827586207,0.7499999999999999,58.240165006
8.0,1.0,0.7,0.3,0.627906976744186,0.9310344827586207,0.7499999999999999,58.260739208
8.0,2.0,0.4,0.3,0.627906976744186,0.9310344827586207,0.7499999999999999,58.339077851
4.0,16.0,0.7,0.3,0.5581395348837209,0.42105263157894735,0.48,57.326680277
8.0,2.0,0.3,0.3,0.627906976744186,0.9310344827586207,0.7499999999999999,58.300560162
4.0,32.0,0.5,0.3,0.4883720930232558,0.3387096774193548,0.4,57.346592245
8.0,1.0,0.3,0.3,0.627906976744186,0.9310344827586207,0.7499999999999999,57.545869092
8.0,2.0,0.1,0.3,0.627906976744186,0.9310344827586207,0.7499999999999999,57.413527395
8.0,2.0,0.5,0.3,0.627906976744186,0.9310344827586207,0.7499999999999999,57.266012598
8.0,2.0,0.6,0.3,0.627906976744186,0.9310344827586207,0.7499999999999999,57.272884819
8.0,2.0,0.7,0.3,0.627906976744186,0.9310344827586207,0.7499999999999999,62.07056058
8.0,2.0,0.8,0.3,0.627906976744186,0.9310344827586207,0.7499999999999999,62.108525306
8.0,2.0,0.9,0.3,0.627906976744186,0.9310344827586207,0.7499999999999999,61.787143745
8.0,4.0,0.1,0.3,0.627906976744186,0.7297297297297297,0.675,61.834157434
8.0,4.0,0.2,0.3,0.627906976744186,0.7297297297297297,0.675,61.511226445
8.0,4.0,0.3,0.3,0.627906976744186,0.7297297297297297,0.675,61.671051394
8.0,4.0,0.4,0.3,0.627906976744186,0.7297297297297297,0.675,63.903416843
8.0,4.0,0.5,0.3,0.627906976744186,0.7297297297297297,0.675,69.658396151
8.0,4.0,0.6,0.3,0.627906976744186,0.7297297297297297,0.675,64.522732866
8.0,8.0,0.8,0.3,0.627906976744186,0.5510204081632653,0.5869565217391305,57.65620416
8.0,8.0,0.4,0.3,0.627906976744186,0.5510204081632653,0.5869565217391305,57.919760786
8.0,8.0,0.5,0.3,0.627906976744186,0.5510204081632653,0.5869565217391305,58.056102806
8.0,8.0,0.6,0.3,0.627906976744186,0.5510204081632653,0.5869565217391305,57.985066313
8.0,8.0,0.7,0.3,0.627906976744186,0.5510204081632653,0.5869565217391305,58.157326557
8.0,16.0,0.2,0.3,0.627906976744186,0.4576271186440678,0.5294117647058824,58.206511213
8.0,16.0,0.5,0.3,0.627906976744186,0.4576271186440678,0.5294117647058824,57.822937512
8.0,8.0,0.9,0.3,0.627906976744186,0.5510204081632653,0.5869565217391305,57.84636404
8.0,16.0,0.6,0.3,0.627906976744186,0.45,0.5242718446601942,57.844631623
8.0,16.0,0.4,0.3,0.627906976744186,0.4576271186440678,0.5294117647058824,58.232467311
8.0,16.0,0.1,0.3,0.627906976744186,0.4576271186440678,0.5294117647058824,58.168862995
8.0,4.0,0.7,0.3,0.627906976744186,0.7297297297297297,0.675,63.436894051
8.0,32.0,0.1,0.3,0.627906976744186,0.42857142857142855,0.5094339622641509,57.783347193
8.0,16.0,0.7,0.3,0.627906976744186,0.45,0.5242718446601942,57.894780882
16.0,1.0,0.3,0.3,0.6046511627906976,0.8387096774193549,0.7027027027027026,56.390413749
8.0,4.0,0.8,0.3,0.627906976744186,0.7297297297297297,0.675,63.43384712
8.0,32.0,0.3,0.3,0.627906976744186,0.421875,0.5046728971962616,57.694114603
16.0,1.0,0.9,0.3,0.6511627906976745,0.9032258064516129,0.7567567567567568,56.521026338
8.0,32.0,0.2,0.3,0.627906976744186,0.42857142857142855,0.5094339622641509,57.903990807
8.0,16.0,0.3,0.3,0.627906976744186,0.4576271186440678,0.5294117647058824,57.951972877
8.0,32.0,0.4,0.3,0.627906976744186,0.421875,0.5046728971962616,57.898957096
8.0,16.0,0.8,0.3,0.627906976744186,0.45,0.5242718446601942,57.776078578
8.0,32.0,0.7,0.3,0.627906976744186,0.421875,0.5046728971962616,57.807278933
8.0,32.0,0.8,0.3,0.5581395348837209,0.36923076923076925,0.4444444444444445,57.726370354
8.0,16.0,0.9,0.3,0.627906976744186,0.45,0.5242718446601942,58.036385297
8.0,32.0,0.5,0.3,0.627906976744186,0.421875,0.5046728971962616,57.711808159
8.0,32.0,0.9,0.3,0.5581395348837209,0.36923076923076925,0.4444444444444445,58.343229315
16.0,1.0,0.1,0.3,0.6046511627906976,0.8387096774193549,0.7027027027027026,57.75686894
16.0,1.0,0.6,0.3,0.6046511627906976,0.8387096774193549,0.7027027027027026,57.889845532
16.0,1.0,0.5,0.3,0.6046511627906976,0.8387096774193549,0.7027027027027026,57.867610723
16.0,1.0,0.2,0.3,0.6046511627906976,0.8387096774193549,0.7027027027027026,58.136978559
16.0,1.0,0.8,0.3,0.6046511627906976,0.8387096774193549,0.7027027027027026,58.018718282
16.0,1.0,0.7,0.3,0.6046511627906976,0.8387096774193549,0.7027027027027026,58.120329534
8.0,32.0,0.6,0.3,0.627906976744186,0.421875,0.5046728971962616,58.560892081
16.0,1.0,0.4,0.3,0.6046511627906976,0.8387096774193549,0.7027027027027026,58.028779953
8.0,4.0,0.9,0.3,0.627906976744186,0.7297297297297297,0.675,68.83178803
8.0,8.0,0.1,0.3,0.627906976744186,0.5510204081632653,0.5869565217391305,69.300843953
8.0,8.0,0.2,0.3,0.627906976744186,0.5510204081632653,0.5869565217391305,67.698053908
8.0,8.0,0.3,0.3,0.627906976744186,0.5510204081632653,0.5869565217391305,63.52863411
16.0,2.0,0.1,0.3,0.6046511627906976,0.8387096774193549,0.7027027027027026,65.300635596
16.0,2.0,0.2,0.3,0.6046511627906976,0.8387096774193549,0.7027027027027026,64.599933594
16.0,2.0,0.4,0.3,0.6046511627906976,0.8387096774193549,0.7027027027027026,82.489945645
16.0,2.0,0.3,0.3,0.6046511627906976,0.8387096774193549,0.7027027027027026,67.748759
16.0,2.0,0.5,0.3,0.6046511627906976,0.8387096774193549,0.7027027027027026,65.277543754
16.0,2.0,0.6,0.3,0.6511627906976745,0.9032258064516129,0.7567567567567568,68.411460378
16.0,2.0,0.7,0.3,0.6511627906976745,0.9032258064516129,0.7567567567567568,65.024455193
16.0,2.0,0.8,0.3,0.6511627906976745,0.9032258064516129,0.7567567567567568,68.757494994
16.0,2.0,0.9,0.3,0.6511627906976745,0.9032258064516129,0.7567567567567568,64.124433483
16.0,4.0,0.1,0.3,0.6046511627906976,0.6666666666666666,0.6341463414634145,63.242106907
16.0,4.0,0.2,0.3,0.6046511627906976,0.6666666666666666,0.6341463414634145,76.994015943
16.0,4.0,0.3,0.3,0.6046511627906976,0.6666666666666666,0.6341463414634145,67.89785421
16.0,4.0,0.4,0.3,0.6511627906976745,0.717948717948718,0.6829268292682927,63.981907229
16.0,4.0,0.5,0.3,0.6511627906976745,0.717948717948718,0.6829268292682927,66.270019855
16.0,4.0,0.6,0.3,0.6511627906976745,0.717948717948718,0.6829268292682927,69.828794674
16.0,4.0,0.7,0.3,0.6511627906976745,0.717948717948718,0.6829268292682927,69.136881523
16.0,4.0,0.9,0.3,0.6511627906976745,0.717948717948718,0.6829268292682927,63.416877308
16.0,4.0,0.8,0.3,0.6511627906976745,0.717948717948718,0.6829268292682927,69.129931322
16.0,8.0,0.1,0.3,0.6046511627906976,0.5531914893617021,0.5777777777777778,68.895027751
16.0,8.0,0.2,0.3,0.6511627906976745,0.5714285714285714,0.6086956521739131,63.723621383
16.0,8.0,0.3,0.3,0.6511627906976745,0.5714285714285714,0.6086956521739131,68.669551744
16.0,8.0,0.4,0.3,0.6511627906976745,0.5714285714285714,0.6086956521739131,67.882074756
16.0,8.0,0.8,0.3,0.6511627906976745,0.56,0.6021505376344087,58.303363705
16.0,8.0,0.9,0.3,0.6511627906976745,0.56,0.6021505376344087,58.374878173
16.0,16.0,0.1,0.3,0.6511627906976745,0.4745762711864407,0.5490196078431372,58.507654908
16.0,32.0,0.1,0.3,0.6511627906976745,0.4444444444444444,0.5283018867924528,58.357286821
16.0,16.0,0.4,0.3,0.6511627906976745,0.4666666666666667,0.5436893203883496,58.754145501
16.0,16.0,0.5,0.3,0.6511627906976745,0.4666666666666667,0.5436893203883496,58.595366872
16.0,16.0,0.2,0.3,0.6511627906976745,0.4745762711864407,0.5490196078431372,58.679874995
16.0,16.0,0.7,0.3,0.6511627906976745,0.4666666666666667,0.5436893203883496,58.448503303
16.0,16.0,0.6,0.3,0.6511627906976745,0.4666666666666667,0.5436893203883496,58.604461117
16.0,8.0,0.5,0.3,0.6511627906976745,0.5714285714285714,0.6086956521739131,57.784084803
16.0,32.0,0.7,0.3,0.6511627906976745,0.4307692307692308,0.5185185185185186,58.582636279
16.0,32.0,0.2,0.3,0.6511627906976745,0.4375,0.5233644859813084,58.539170839
16.0,16.0,0.8,0.3,0.6511627906976745,0.4666666666666667,0.5436893203883496,58.541254326
16.0,8.0,0.6,0.3,0.6511627906976745,0.56,0.6021505376344087,57.704400099
16.0,32.0,0.3,0.3,0.6511627906976745,0.4375,0.5233644859813084,58.39077073
16.0,8.0,0.7,0.3,0.6511627906976745,0.56,0.6021505376344087,57.511852642
16.0,32.0,0.9,0.3,0.6511627906976745,0.4307692307692308,0.5185185185185186,58.719627384
16.0,16.0,0.3,0.3,0.6511627906976745,0.4745762711864407,0.5490196078431372,57.549317474
16.0,32.0,0.5,0.3,0.6511627906976745,0.4307692307692308,0.5185185185185186,58.789322912
32.0,1.0,0.1,0.3,0.6046511627906976,0.6666666666666666,0.6341463414634145,58.408183535
16.0,32.0,0.4,0.3,0.6511627906976745,0.4375,0.5233644859813084,58.510999847
16.0,32.0,0.6,0.3,0.6511627906976745,0.4307692307692308,0.5185185185185186,58.410216902
32.0,1.0,0.6,0.3,0.6511627906976745,0.6829268292682927,0.6666666666666667,58.711178464
32.0,1.0,0.7,0.3,0.6511627906976745,0.6829268292682927,0.6666666666666667,58.368826239
32.0,1.0,0.8,0.3,0.6511627906976745,0.6829268292682927,0.6666666666666667,58.365771925
32.0,1.0,0.3,0.3,0.6511627906976745,0.6829268292682927,0.6666666666666667,58.508653379
32.0,1.0,0.2,0.3,0.6046511627906976,0.6666666666666666,0.6341463414634145,58.543324991
32.0,2.0,0.5,0.3,0.6511627906976745,0.6829268292682927,0.6666666666666667,58.669680313
32.0,2.0,0.1,0.3,0.6046511627906976,0.6666666666666666,0.6341463414634145,58.665817349
32.0,2.0,0.3,0.3,0.6511627906976745,0.6829268292682927,0.6666666666666667,58.631169
32.0,2.0,0.2,0.3,0.6511627906976745,0.6829268292682927,0.6666666666666667,58.520197986
32.0,1.0,0.4,0.3,0.6511627906976745,0.6829268292682927,0.6666666666666667,59.020906851
32.0,1.0,0.9,0.3,0.6744186046511628,0.7073170731707317,0.6904761904761904,58.561237718
16.0,16.0,0.9,0.3,0.6511627906976745,0.4666666666666667,0.5436893203883496,57.588920694
32.0,2.0,0.7,0.3,0.6976744186046512,0.7317073170731707,0.7142857142857143,58.463993291
32.0,2.0,0.6,0.3,0.6744186046511628,0.7073170731707317,0.6904761904761904,59.010267438
32.0,2.0,0.8,0.3,0.6976744186046512,0.7317073170731707,0.7142857142857143,58.446467713
32.0,4.0,0.2,0.3,0.6511627906976745,0.6086956521739131,0.6292134831460675,58.241815491
32.0,4.0,0.3,0.3,0.6511627906976745,0.6086956521739131,0.6292134831460675,58.568679526
32.0,2.0,0.9,0.3,0.6976744186046512,0.7317073170731707,0.7142857142857143,58.419261745
32.0,4.0,0.6,0.3,0.6976744186046512,0.6521739130434783,0.6741573033707865,58.300691005
16.0,32.0,0.8,0.3,0.6511627906976745,0.4307692307692308,0.5185185185185186,57.608993273
32.0,4.0,0.8,0.3,0.7441860465116279,0.6956521739130435,0.7191011235955057,58.414800303
32.0,4.0,0.5,0.3,0.6976744186046512,0.6521739130434783,0.6741573033707865,58.318495118
32.0,8.0,0.7,0.3,0.7441860465116279,0.5818181818181818,0.6530612244897959,57.981759578
32.0,1.0,0.5,0.3,0.6511627906976745,0.6829268292682927,0.6666666666666667,57.392444078
32.0,4.0,0.4,0.3,0.6976744186046512,0.6521739130434783,0.6741573033707865,58.217036026
32.0,4.0,0.7,0.3,0.6976744186046512,0.6521739130434783,0.6741573033707865,58.589199328
32.0,2.0,0.4,0.3,0.6511627906976745,0.6829268292682927,0.6666666666666667,57.762689007
32.0,8.0,0.1,0.3,0.6511627906976745,0.5283018867924528,0.5833333333333333,58.328530768
32.0,8.0,0.2,0.3,0.6744186046511628,0.5370370370370371,0.597938144329897,58.355100849
32.0,8.0,0.3,0.3,0.6976744186046512,0.5555555555555556,0.6185567010309277,58.239710096
32.0,8.0,0.4,0.3,0.6976744186046512,0.5555555555555556,0.6185567010309277,58.327151341
32.0,16.0,0.4,0.3,0.7441860465116279,0.5245901639344263,0.6153846153846153,58.127812472
32.0,8.0,0.8,0.3,0.7441860465116279,0.5818181818181818,0.6530612244897959,58.288186615
32.0,8.0,0.5,0.3,0.7441860465116279,0.5818181818181818,0.6530612244897959,58.313204223
32.0,8.0,0.9,0.3,0.7441860465116279,0.5818181818181818,0.6530612244897959,58.320971047
32.0,16.0,0.1,0.3,0.6744186046511628,0.48333333333333334,0.5631067961165049,58.409271345
32.0,32.0,0.3,0.3,0.7209302325581395,0.4696969696969697,0.5688073394495413,58.524382492
32.0,16.0,0.8,0.3,0.7209302325581395,0.5,0.5904761904761905,58.452365592
32.0,16.0,0.2,0.3,0.6976744186046512,0.5,0.5825242718446603,58.482712449
32.0,16.0,0.3,0.3,0.7441860465116279,0.5245901639344263,0.6153846153846153,58.272182398
32.0,16.0,0.7,0.3,0.7209302325581395,0.5,0.5904761904761905,58.643242811
32.0,4.0,0.1,0.3,0.6511627906976745,0.6086956521739131,0.6292134831460675,57.28790637
32.0,16.0,0.6,0.3,0.7209302325581395,0.5,0.5904761904761905,58.348976529
32.0,16.0,0.9,0.3,0.7209302325581395,0.5,0.5904761904761905,58.223707284
32.0,32.0,0.1,0.3,0.6976744186046512,0.4918032786885246,0.5769230769230769,58.713551088
32.0,4.0,0.9,0.3,0.7441860465116279,0.6956521739130435,0.7191011235955057,57.201030148
32.0,32.0,0.4,0.3,0.7209302325581395,0.4696969696969697,0.5688073394495413,58.360055933
32.0,8.0,0.6,0.3,0.7441860465116279,0.5818181818181818,0.6530612244897959,57.234774778
32.0,16.0,0.5,0.3,0.7209302325581395,0.5,0.5904761904761905,57.317710726
32.0,32.0,0.2,0.3,0.7209302325581395,0.4696969696969697,0.5688073394495413,57.216186202
32.0,32.0,0.5,0.3,0.7209302325581395,0.4696969696969697,0.5688073394495413,57.230629331
32.0,32.0,0.6,0.3,0.7209302325581395,0.4696969696969697,0.5688073394495413,57.185430984
32.0,32.0,0.7,0.3,0.7209302325581395,0.4696969696969697,0.5688073394495413,61.773614357
32.0,32.0,0.8,0.3,0.6976744186046512,0.45454545454545453,0.5504587155963303,61.783499273
32.0,32.0,0.9,0.3,0.6976744186046512,0.45454545454545453,0.5504587155963303,61.844246858
