gamma_s,gamma_h,alpha,sencitivity,ppv,fmeasure,time
1.0,1.0,0.9,0.8636363636363636,0.8636363636363636,0.8636363636363636,6.226123265
1.0,2.0,0.5,0.8636363636363636,0.8636363636363636,0.8636363636363636,6.148480127
1.0,2.0,,0.0,NaN,NaN,6.17612298
1.0,4.0,0.1,0.8636363636363636,0.8636363636363636,0.8636363636363636,6.129616974
1.0,1.0,0.3,0.8636363636363636,0.8636363636363636,0.8636363636363636,6.227237415
1.0,1.0,0.5,0.8636363636363636,0.8636363636363636,0.8636363636363636,6.213974745
1.0,1.0,0.7,0.8636363636363636,0.8636363636363636,0.8636363636363636,6.211183635
1.0,1.0,,0.0,NaN,NaN,6.213472782
1.0,2.0,0.3,0.8636363636363636,0.8636363636363636,0.8636363636363636,6.217438992
1.0,2.0,0.7,0.8636363636363636,0.8636363636363636,0.8636363636363636,6.217296305
1.0,2.0,0.1,0.8636363636363636,0.8636363636363636,0.8636363636363636,6.217472739
1.0,2.0,0.9,0.8636363636363636,0.8636363636363636,0.8636363636363636,6.239234604
1.0,1.0,0.1,0.8636363636363636,0.8636363636363636,0.8636363636363636,6.270271955
1.0,4.0,0.5,0.8636363636363636,0.8636363636363636,0.8636363636363636,6.572999615
1.0,4.0,0.3,0.8636363636363636,0.8636363636363636,0.8636363636363636,6.539220285
1.0,4.0,,0.0,NaN,NaN,6.521536488
1.0,16.0,0.7,0.8636363636363636,0.8636363636363636,0.8636363636363636,6.214653208
1.0,16.0,0.5,0.8636363636363636,0.8636363636363636,0.8636363636363636,6.237632861
1.0,4.0,0.7,0.8636363636363636,0.8636363636363636,0.8636363636363636,6.830772765
1.0,16.0,0.3,0.8636363636363636,0.8636363636363636,0.8636363636363636,6.239757258
1.0,8.0,0.9,0.8636363636363636,0.8636363636363636,0.8636363636363636,6.229712219
1.0,32.0,0.1,0.8636363636363636,0.8636363636363636,0.8636363636363636,6.214432625
1.0,16.0,,0.0,NaN,NaN,6.222058937
1.0,32.0,0.3,0.8636363636363636,0.8636363636363636,0.8636363636363636,6.221499777
1.0,16.0,0.1,0.8636363636363636,0.8636363636363636,0.8636363636363636,6.244971062
1.0,8.0,,0.0,NaN,NaN,6.223378315
1.0,32.0,,0.0,NaN,NaN,6.223277025
1.0,32.0,0.5,0.8636363636363636,0.8636363636363636,0.8636363636363636,6.233714918
1.0,32.0,0.9,0.8636363636363636,0.8636363636363636,0.8636363636363636,6.213324568
1.0,16.0,0.9,0.8636363636363636,0.8636363636363636,0.8636363636363636,6.41448129
1.0,32.0,0.7,0.8636363636363636,0.8636363636363636,0.8636363636363636,6.206854377
1.0,4.0,0.9,0.8636363636363636,0.8636363636363636,0.8636363636363636,7.093593805
1.0,8.0,0.1,0.8636363636363636,0.8636363636363636,0.8636363636363636,6.948130454
1.0,8.0,0.3,0.8636363636363636,0.8636363636363636,0.8636363636363636,6.778711307
1.0,8.0,0.5,0.8636363636363636,0.8636363636363636,0.8636363636363636,6.743326533
1.0,8.0,0.7,0.8636363636363636,0.8636363636363636,0.8636363636363636,6.52244148
2.0,1.0,,0.0,NaN,NaN,7.460976717
2.0,2.0,0.3,0.8636363636363636,0.8636363636363636,0.8636363636363636,7.205676388
2.0,2.0,,0.0,NaN,NaN,7.216713999
2.0,8.0,0.7,0.8636363636363636,0.8636363636363636,0.8636363636363636,7.453741861
2.0,4.0,0.5,0.8636363636363636,0.8636363636363636,0.8636363636363636,7.444286938
2.0,4.0,,0.0,NaN,NaN,7.208031108
2.0,32.0,0.9,0.8636363636363636,0.8636363636363636,0.8636363636363636,5.865122911
2.0,32.0,0.7,0.8636363636363636,0.8636363636363636,0.8636363636363636,5.804470334
4.0,1.0,0.3,0.8636363636363636,0.8636363636363636,0.8636363636363636,5.819879488
2.0,32.0,,0.0,NaN,NaN,5.839304289
4.0,1.0,0.5,0.8636363636363636,0.8636363636363636,0.8636363636363636,5.842722272
2.0,32.0,0.3,0.8636363636363636,0.8636363636363636,0.8636363636363636,5.867284156
4.0,1.0,0.9,0.8636363636363636,0.8636363636363636,0.8636363636363636,5.862507488
2.0,32.0,0.5,0.8636363636363636,0.8636363636363636,0.8636363636363636,5.888992741
4.0,1.0,,0.0,NaN,NaN,5.852242088
4.0,2.0,0.1,0.8636363636363636,0.8636363636363636,0.8636363636363636,5.790724816
4.0,1.0,0.1,0.8636363636363636,0.8636363636363636,0.8636363636363636,5.75697655
2.0,16.0,0.3,0.8636363636363636,0.8636363636363636,0.8636363636363636,6.402004579
2.0,16.0,0.5,0.8636363636363636,0.8636363636363636,0.8636363636363636,6.378888308
2.0,16.0,0.7,0.8636363636363636,0.8636363636363636,0.8636363636363636,6.343524184
2.0,16.0,0.9,0.8636363636363636,0.8636363636363636,0.8636363636363636,6.294620643
2.0,1.0,0.1,0.8636363636363636,0.8636363636363636,0.8636363636363636,9.145685191
2.0,16.0,,0.0,NaN,NaN,6.313539388
2.0,1.0,0.3,0.8636363636363636,0.8636363636363636,0.8636363636363636,9.068407322
2.0,32.0,0.1,0.8636363636363636,0.8636363636363636,0.8636363636363636,6.285501796
2.0,1.0,0.7,0.8636363636363636,0.8636363636363636,0.8636363636363636,7.536045235
2.0,1.0,0.9,0.8636363636363636,0.8636363636363636,0.8636363636363636,8.097703374
4.0,1.0,0.7,0.8636363636363636,0.8636363636363636,0.8636363636363636,6.250895262
2.0,1.0,0.5,0.8636363636363636,0.8636363636363636,0.8636363636363636,8.866779447
4.0,2.0,0.3,0.8636363636363636,0.8636363636363636,0.8636363636363636,6.258220581
4.0,2.0,0.5,0.8636363636363636,0.8636363636363636,0.8636363636363636,6.243659327
2.0,2.0,0.1,0.8636363636363636,0.8636363636363636,0.8636363636363636,7.639997586
2.0,2.0,0.7,0.8636363636363636,0.8636363636363636,0.8636363636363636,7.233479771
2.0,2.0,0.5,0.8636363636363636,0.8636363636363636,0.8636363636363636,7.427724459
2.0,4.0,0.1,0.8636363636363636,0.8636363636363636,0.8636363636363636,7.434557162
2.0,2.0,0.9,0.8636363636363636,0.8636363636363636,0.8636363636363636,7.221680901
2.0,4.0,0.7,0.8636363636363636,0.8636363636363636,0.8636363636363636,8.700425627
2.0,4.0,0.3,0.8636363636363636,0.8636363636363636,0.8636363636363636,8.649860549
2.0,4.0,0.9,0.8636363636363636,0.8636363636363636,0.8636363636363636,7.004331881
2.0,8.0,0.1,0.8636363636363636,0.8636363636363636,0.8636363636363636,7.562260864
2.0,8.0,0.3,0.8636363636363636,0.8636363636363636,0.8636363636363636,6.859814534
2.0,8.0,0.5,0.8636363636363636,0.8636363636363636,0.8636363636363636,7.514896846
2.0,8.0,0.9,0.8636363636363636,0.8636363636363636,0.8636363636363636,7.061301579
2.0,8.0,,0.0,NaN,NaN,8.692453344
2.0,16.0,0.1,0.8636363636363636,0.8636363636363636,0.8636363636363636,9.565057077
4.0,2.0,,0.0,NaN,NaN,8.488802818
4.0,4.0,0.9,0.8636363636363636,0.8636363636363636,0.8636363636363636,8.501576174
4.0,8.0,,0.0,NaN,NaN,7.678826376
4.0,8.0,0.1,0.8636363636363636,0.8636363636363636,0.8636363636363636,8.516019235
4.0,16.0,0.3,0.8636363636363636,0.8636363636363636,0.8636363636363636,6.91501141
4.0,16.0,,0.0,NaN,NaN,7.167300268
4.0,32.0,,0.0,NaN,NaN,6.449129693
8.0,1.0,0.5,0.8181818181818182,0.8571428571428571,0.8372093023255814,6.526374921
4.0,32.0,0.5,0.8636363636363636,0.8636363636363636,0.8636363636363636,6.391385779
4.0,32.0,0.9,0.8636363636363636,0.8636363636363636,0.8636363636363636,6.342241384
8.0,1.0,0.3,0.6818181818181818,0.8823529411764706,0.7692307692307693,6.393589759
8.0,1.0,0.9,0.8181818181818182,0.8571428571428571,0.8372093023255814,6.426189983
8.0,1.0,0.7,0.8181818181818182,0.8571428571428571,0.8372093023255814,6.429675421
8.0,1.0,,0.0,NaN,NaN,6.239967769
8.0,2.0,0.3,0.8181818181818182,0.8571428571428571,0.8372093023255814,6.312560639
8.0,1.0,0.1,0.6818181818181818,0.8823529411764706,0.7692307692307693,6.490336954
8.0,2.0,,0.0,NaN,NaN,6.341446015
8.0,2.0,0.5,0.8181818181818182,0.8571428571428571,0.8372093023255814,6.467314255
8.0,2.0,0.7,0.8181818181818182,0.8571428571428571,0.8372093023255814,6.333132288
8.0,2.0,0.1,0.6818181818181818,0.8823529411764706,0.7692307692307693,6.446491781
4.0,2.0,0.7,0.8636363636363636,0.8636363636363636,0.8636363636363636,7.065826084
8.0,4.0,0.1,0.6818181818181818,0.8823529411764706,0.7692307692307693,6.298033965
8.0,2.0,0.9,0.8636363636363636,0.8636363636363636,0.8636363636363636,6.306005941
8.0,4.0,0.3,0.8181818181818182,0.8571428571428571,0.8372093023255814,6.323323854
8.0,4.0,0.9,0.8636363636363636,0.8636363636363636,0.8636363636363636,6.249351793
8.0,4.0,,0.0,NaN,NaN,6.284985122
8.0,4.0,0.7,0.8636363636363636,0.8636363636363636,0.8636363636363636,6.292757684
8.0,8.0,0.7,0.8636363636363636,0.8636363636363636,0.8636363636363636,6.320779693
8.0,8.0,,0.0,NaN,NaN,6.407409968
8.0,4.0,0.5,0.8636363636363636,0.8636363636363636,0.8636363636363636,6.339631056
4.0,2.0,0.9,0.8636363636363636,0.8636363636363636,0.8636363636363636,8.239820243
8.0,8.0,0.9,0.8636363636363636,0.8636363636363636,0.8636363636363636,6.283907791
8.0,8.0,0.5,0.8636363636363636,0.8636363636363636,0.8636363636363636,6.242755696
8.0,8.0,0.3,0.8636363636363636,0.8636363636363636,0.8636363636363636,6.325555153
8.0,8.0,0.1,0.8181818181818182,0.8571428571428571,0.8372093023255814,6.296327008
8.0,16.0,0.7,0.8636363636363636,0.8636363636363636,0.8636363636363636,6.281529189
8.0,16.0,0.1,0.8181818181818182,0.8571428571428571,0.8372093023255814,6.300167213
8.0,16.0,0.5,0.8636363636363636,0.8636363636363636,0.8636363636363636,6.407565435
4.0,4.0,0.1,0.8636363636363636,0.8636363636363636,0.8636363636363636,7.30707368
4.0,4.0,0.3,0.8636363636363636,0.8636363636363636,0.8636363636363636,7.98780615
8.0,16.0,0.3,0.8636363636363636,0.8636363636363636,0.8636363636363636,6.403667253
8.0,16.0,0.9,0.8636363636363636,0.8636363636363636,0.8636363636363636,6.413573357
8.0,32.0,0.3,0.8636363636363636,0.8636363636363636,0.8636363636363636,6.450314566
8.0,16.0,,0.0,NaN,NaN,6.483454615
4.0,4.0,0.5,0.8636363636363636,0.8636363636363636,0.8636363636363636,7.894997621
8.0,32.0,0.1,0.8636363636363636,0.8636363636363636,0.8636363636363636,6.44076138
8.0,32.0,,0.0,NaN,NaN,6.429411048
8.0,32.0,0.5,0.8636363636363636,0.8636363636363636,0.8636363636363636,6.329569524
8.0,32.0,0.7,0.8636363636363636,0.8636363636363636,0.8636363636363636,6.230789718
8.0,32.0,0.9,0.8636363636363636,0.8636363636363636,0.8636363636363636,6.239545017
16.0,1.0,0.9,0.7272727272727273,0.8421052631578947,0.7804878048780488,6.237106907
16.0,1.0,,0.0,NaN,NaN,6.33841106
4.0,4.0,0.7,0.8636363636363636,0.8636363636363636,0.8636363636363636,7.794823231
16.0,1.0,0.1,0.6363636363636364,0.875,0.7368421052631579,6.292202105
16.0,1.0,0.3,0.6818181818181818,0.8333333333333334,0.7499999999999999,6.204849181
16.0,1.0,0.5,0.6818181818181818,0.8333333333333334,0.7499999999999999,6.257075092
16.0,2.0,0.3,0.6818181818181818,0.8333333333333334,0.7499999999999999,6.250908373
16.0,2.0,0.9,0.8181818181818182,0.8571428571428571,0.8372093023255814,6.268260237
16.0,1.0,0.7,0.7272727272727273,0.8421052631578947,0.7804878048780488,6.224248156
4.0,4.0,,0.0,NaN,NaN,7.091476497
16.0,2.0,0.5,0.7272727272727273,0.8421052631578947,0.7804878048780488,6.202939298
16.0,2.0,0.7,0.8181818181818182,0.8571428571428571,0.8372093023255814,6.181430752
16.0,2.0,,0.0,NaN,NaN,6.12777743
16.0,2.0,0.1,0.6363636363636364,0.875,0.7368421052631579,6.152289728
16.0,4.0,0.7,0.8181818181818182,0.8571428571428571,0.8372093023255814,6.122260344
16.0,4.0,0.3,0.7272727272727273,0.8421052631578947,0.7804878048780488,6.145823678
16.0,4.0,0.1,0.6363636363636364,0.875,0.7368421052631579,6.135579066
16.0,4.0,0.5,0.8181818181818182,0.8571428571428571,0.8372093023255814,6.211890011
16.0,4.0,,0.0,NaN,NaN,6.138908407
16.0,8.0,,0.0,NaN,NaN,6.112536857
16.0,4.0,0.9,0.8636363636363636,0.8636363636363636,0.8636363636363636,6.13544179
16.0,8.0,0.7,0.8636363636363636,0.8636363636363636,0.8636363636363636,6.126846213
16.0,8.0,0.1,0.6818181818181818,0.8333333333333334,0.7499999999999999,6.1266346
16.0,8.0,0.5,0.8636363636363636,0.8636363636363636,0.8636363636363636,6.11289145
16.0,8.0,0.3,0.8181818181818182,0.8571428571428571,0.8372093023255814,6.112516486
16.0,16.0,0.5,0.8636363636363636,0.8636363636363636,0.8636363636363636,6.114618849
16.0,16.0,,0.0,NaN,NaN,6.072287983
16.0,8.0,0.9,0.8636363636363636,0.8636363636363636,0.8636363636363636,6.183998893
16.0,16.0,0.9,0.8636363636363636,0.8636363636363636,0.8636363636363636,6.069160697
16.0,16.0,0.3,0.8636363636363636,0.8636363636363636,0.8636363636363636,6.112546157
16.0,16.0,0.1,0.7272727272727273,0.8421052631578947,0.7804878048780488,6.079791514
16.0,16.0,0.7,0.8636363636363636,0.8636363636363636,0.8636363636363636,6.092967632
16.0,32.0,0.1,0.8181818181818182,0.8571428571428571,0.8372093023255814,6.185336724
4.0,8.0,0.3,0.8636363636363636,0.8636363636363636,0.8636363636363636,8.165877497
4.0,8.0,0.5,0.8636363636363636,0.8636363636363636,0.8636363636363636,6.868362107
4.0,8.0,0.7,0.8636363636363636,0.8636363636363636,0.8636363636363636,7.211003665
4.0,8.0,0.9,0.8636363636363636,0.8636363636363636,0.8636363636363636,8.068754427
4.0,16.0,0.1,0.8636363636363636,0.8636363636363636,0.8636363636363636,7.081084177
4.0,16.0,0.5,0.8636363636363636,0.8636363636363636,0.8636363636363636,8.027714561
4.0,16.0,0.7,0.8636363636363636,0.8636363636363636,0.8636363636363636,7.985813923
4.0,16.0,0.9,0.8636363636363636,0.8636363636363636,0.8636363636363636,7.634890346
4.0,32.0,0.1,0.8636363636363636,0.8636363636363636,0.8636363636363636,8.487697499
4.0,32.0,0.3,0.8636363636363636,0.8636363636363636,0.8636363636363636,7.564942847
4.0,32.0,0.7,0.8636363636363636,0.8636363636363636,0.8636363636363636,7.402694173
16.0,32.0,0.3,0.8636363636363636,0.8636363636363636,0.8636363636363636,6.903167271
16.0,32.0,0.9,0.8636363636363636,0.8636363636363636,0.8636363636363636,8.087454463
16.0,32.0,0.5,0.8636363636363636,0.8636363636363636,0.8636363636363636,6.954262836
16.0,32.0,0.7,0.8636363636363636,0.8636363636363636,0.8636363636363636,6.924695992
16.0,32.0,,0.0,NaN,NaN,6.864960555
32.0,1.0,,0.0,NaN,NaN,6.195642939
32.0,4.0,0.7,0.7272727272727273,0.8421052631578947,0.7804878048780488,6.400236005
32.0,1.0,0.9,0.6818181818181818,0.8333333333333334,0.7499999999999999,6.343628226
32.0,1.0,0.3,0.6363636363636364,0.875,0.7368421052631579,6.305571033
32.0,1.0,0.5,0.6363636363636364,0.875,0.7368421052631579,6.42195317
32.0,1.0,0.7,0.6818181818181818,0.8333333333333334,0.7499999999999999,6.669799342
32.0,2.0,0.9,0.7272727272727273,0.8421052631578947,0.7804878048780488,6.309425261
32.0,2.0,0.5,0.6818181818181818,0.8333333333333334,0.7499999999999999,6.292405081
32.0,2.0,0.3,0.6363636363636364,0.875,0.7368421052631579,6.167109615
32.0,2.0,0.1,0.6363636363636364,0.875,0.7368421052631579,6.168571274
32.0,8.0,0.3,0.7272727272727273,0.8421052631578947,0.7804878048780488,6.154957764
32.0,2.0,0.7,0.6818181818181818,0.8333333333333334,0.7499999999999999,6.296984239
32.0,2.0,,0.0,NaN,NaN,6.373931716
32.0,4.0,0.3,0.6818181818181818,0.8333333333333334,0.7499999999999999,6.240494081
32.0,4.0,0.1,0.6363636363636364,0.875,0.7368421052631579,6.325878109
32.0,4.0,0.5,0.7272727272727273,0.8421052631578947,0.7804878048780488,6.215727982
32.0,4.0,,0.0,NaN,NaN,6.069263121
32.0,8.0,,0.0,NaN,NaN,5.99973702
32.0,8.0,0.1,0.6363636363636364,0.875,0.7368421052631579,6.015829227
32.0,4.0,0.9,0.8181818181818182,0.8571428571428571,0.8372093023255814,6.092668682
32.0,16.0,,0.0,NaN,NaN,5.924223754
32.0,16.0,0.9,0.8636363636363636,0.8636363636363636,0.8636363636363636,5.995860823
32.0,8.0,0.5,0.8181818181818182,0.8571428571428571,0.8372093023255814,5.991435895
32.0,32.0,0.9,0.8636363636363636,0.8636363636363636,0.8636363636363636,5.904480845
32.0,16.0,0.7,0.8636363636363636,0.8636363636363636,0.8636363636363636,5.913681657
32.0,8.0,0.7,0.8181818181818182,0.8571428571428571,0.8372093023255814,6.030498625
32.0,8.0,0.9,0.8181818181818182,0.8571428571428571,0.8372093023255814,5.977730391
32.0,1.0,0.1,0.6363636363636364,0.875,0.7368421052631579,6.806615464
32.0,32.0,0.5,0.8636363636363636,0.8636363636363636,0.8636363636363636,6.017233699
32.0,16.0,0.3,0.8181818181818182,0.8571428571428571,0.8372093023255814,5.994887525
32.0,16.0,0.5,0.8636363636363636,0.8636363636363636,0.8636363636363636,5.966703923
32.0,16.0,0.1,0.6818181818181818,0.8333333333333334,0.7499999999999999,5.965035732
32.0,32.0,0.7,0.8636363636363636,0.8636363636363636,0.8636363636363636,5.951106234
32.0,32.0,0.3,0.8636363636363636,0.8636363636363636,0.8636363636363636,5.965739954
32.0,32.0,0.1,0.7272727272727273,0.8421052631578947,0.7804878048780488,5.981075757
32.0,32.0,,0.0,NaN,NaN,5.885312051
1.0,1.0,0.9,0.9545454545454546,0.9545454545454546,0.9545454545454546,6.226123265
1.0,2.0,0.5,0.9545454545454546,0.9545454545454546,0.9545454545454546,6.148480127
1.0,2.0,,0.0,NaN,NaN,6.17612298
1.0,4.0,0.1,0.9545454545454546,0.9545454545454546,0.9545454545454546,6.129616974
1.0,1.0,0.3,0.9545454545454546,0.9545454545454546,0.9545454545454546,6.227237415
1.0,1.0,0.5,0.9545454545454546,0.9545454545454546,0.9545454545454546,6.213974745
1.0,1.0,0.7,0.9545454545454546,0.9545454545454546,0.9545454545454546,6.211183635
1.0,1.0,,0.0,NaN,NaN,6.213472782
1.0,2.0,0.3,0.9545454545454546,0.9545454545454546,0.9545454545454546,6.217438992
1.0,2.0,0.7,0.9545454545454546,0.9545454545454546,0.9545454545454546,6.217296305
1.0,2.0,0.1,0.9545454545454546,0.9545454545454546,0.9545454545454546,6.217472739
1.0,2.0,0.9,0.9545454545454546,0.9545454545454546,0.9545454545454546,6.239234604
1.0,1.0,0.1,0.9545454545454546,0.9545454545454546,0.9545454545454546,6.270271955
1.0,4.0,0.5,0.9545454545454546,0.9545454545454546,0.9545454545454546,6.572999615
1.0,4.0,0.3,0.9545454545454546,0.9545454545454546,0.9545454545454546,6.539220285
1.0,4.0,,0.0,NaN,NaN,6.521536488
1.0,16.0,0.7,0.9545454545454546,0.9545454545454546,0.9545454545454546,6.214653208
1.0,16.0,0.5,0.9545454545454546,0.9545454545454546,0.9545454545454546,6.237632861
1.0,4.0,0.7,0.9545454545454546,0.9545454545454546,0.9545454545454546,6.830772765
1.0,16.0,0.3,0.9545454545454546,0.9545454545454546,0.9545454545454546,6.239757258
1.0,8.0,0.9,0.9545454545454546,0.9545454545454546,0.9545454545454546,6.229712219
1.0,32.0,0.1,0.9545454545454546,0.9545454545454546,0.9545454545454546,6.214432625
1.0,16.0,,0.0,NaN,NaN,6.222058937
1.0,32.0,0.3,0.9545454545454546,0.9545454545454546,0.9545454545454546,6.221499777
1.0,16.0,0.1,0.9545454545454546,0.9545454545454546,0.9545454545454546,6.244971062
1.0,8.0,,0.0,NaN,NaN,6.223378315
1.0,32.0,,0.0,NaN,NaN,6.223277025
1.0,32.0,0.5,0.9545454545454546,0.9545454545454546,0.9545454545454546,6.233714918
1.0,32.0,0.9,0.9545454545454546,0.9545454545454546,0.9545454545454546,6.213324568
1.0,16.0,0.9,0.9545454545454546,0.9545454545454546,0.9545454545454546,6.41448129
1.0,32.0,0.7,0.9545454545454546,0.9545454545454546,0.9545454545454546,6.206854377
1.0,4.0,0.9,0.9545454545454546,0.9545454545454546,0.9545454545454546,7.093593805
1.0,8.0,0.1,0.9545454545454546,0.9545454545454546,0.9545454545454546,6.948130454
1.0,8.0,0.3,0.9545454545454546,0.9545454545454546,0.9545454545454546,6.778711307
1.0,8.0,0.5,0.9545454545454546,0.9545454545454546,0.9545454545454546,6.743326533
1.0,8.0,0.7,0.9545454545454546,0.9545454545454546,0.9545454545454546,6.52244148
2.0,1.0,,0.0,NaN,NaN,7.460976717
2.0,2.0,0.3,0.9545454545454546,0.9545454545454546,0.9545454545454546,7.205676388
2.0,2.0,,0.0,NaN,NaN,7.216713999
2.0,8.0,0.7,0.9545454545454546,0.9545454545454546,0.9545454545454546,7.453741861
2.0,4.0,0.5,0.9545454545454546,0.9545454545454546,0.9545454545454546,7.444286938
2.0,4.0,,0.0,NaN,NaN,7.208031108
2.0,32.0,0.9,0.9545454545454546,0.9545454545454546,0.9545454545454546,5.865122911
2.0,32.0,0.7,0.9545454545454546,0.9545454545454546,0.9545454545454546,5.804470334
4.0,1.0,0.3,0.9545454545454546,0.9545454545454546,0.9545454545454546,5.819879488
2.0,32.0,,0.0,NaN,NaN,5.839304289
4.0,1.0,0.5,0.9545454545454546,0.9545454545454546,0.9545454545454546,5.842722272
2.0,32.0,0.3,0.9545454545454546,0.9545454545454546,0.9545454545454546,5.867284156
4.0,1.0,0.9,0.9545454545454546,0.9545454545454546,0.9545454545454546,5.862507488
2.0,32.0,0.5,0.9545454545454546,0.9545454545454546,0.9545454545454546,5.888992741
4.0,1.0,,0.0,NaN,NaN,5.852242088
4.0,2.0,0.1,0.9545454545454546,0.9545454545454546,0.9545454545454546,5.790724816
4.0,1.0,0.1,0.9545454545454546,0.9545454545454546,0.9545454545454546,5.75697655
2.0,16.0,0.3,0.9545454545454546,0.9545454545454546,0.9545454545454546,6.402004579
2.0,16.0,0.5,0.9545454545454546,0.9545454545454546,0.9545454545454546,6.378888308
2.0,16.0,0.7,0.9545454545454546,0.9545454545454546,0.9545454545454546,6.343524184
2.0,16.0,0.9,0.9545454545454546,0.9545454545454546,0.9545454545454546,6.294620643
2.0,1.0,0.1,0.9545454545454546,0.9545454545454546,0.9545454545454546,9.145685191
2.0,16.0,,0.0,NaN,NaN,6.313539388
2.0,1.0,0.3,0.9545454545454546,0.9545454545454546,0.9545454545454546,9.068407322
2.0,32.0,0.1,0.9545454545454546,0.9545454545454546,0.9545454545454546,6.285501796
2.0,1.0,0.7,0.9545454545454546,0.9545454545454546,0.9545454545454546,7.536045235
2.0,1.0,0.9,0.9545454545454546,0.9545454545454546,0.9545454545454546,8.097703374
4.0,1.0,0.7,0.9545454545454546,0.9545454545454546,0.9545454545454546,6.250895262
2.0,1.0,0.5,0.9545454545454546,0.9545454545454546,0.9545454545454546,8.866779447
4.0,2.0,0.3,0.9545454545454546,0.9545454545454546,0.9545454545454546,6.258220581
4.0,2.0,0.5,0.9545454545454546,0.9545454545454546,0.9545454545454546,6.243659327
2.0,2.0,0.1,0.9545454545454546,0.9545454545454546,0.9545454545454546,7.639997586
2.0,2.0,0.7,0.9545454545454546,0.9545454545454546,0.9545454545454546,7.233479771
2.0,2.0,0.5,0.9545454545454546,0.9545454545454546,0.9545454545454546,7.427724459
2.0,4.0,0.1,0.9545454545454546,0.9545454545454546,0.9545454545454546,7.434557162
2.0,2.0,0.9,0.9545454545454546,0.9545454545454546,0.9545454545454546,7.221680901
2.0,4.0,0.7,0.9545454545454546,0.9545454545454546,0.9545454545454546,8.700425627
2.0,4.0,0.3,0.9545454545454546,0.9545454545454546,0.9545454545454546,8.649860549
2.0,4.0,0.9,0.9545454545454546,0.9545454545454546,0.9545454545454546,7.004331881
2.0,8.0,0.1,0.9545454545454546,0.9545454545454546,0.9545454545454546,7.562260864
2.0,8.0,0.3,0.9545454545454546,0.9545454545454546,0.9545454545454546,6.859814534
2.0,8.0,0.5,0.9545454545454546,0.9545454545454546,0.9545454545454546,7.514896846
2.0,8.0,0.9,0.9545454545454546,0.9545454545454546,0.9545454545454546,7.061301579
2.0,8.0,,0.0,NaN,NaN,8.692453344
2.0,16.0,0.1,0.9545454545454546,0.9545454545454546,0.9545454545454546,9.565057077
4.0,2.0,,0.0,NaN,NaN,8.488802818
4.0,4.0,0.9,0.9545454545454546,0.9545454545454546,0.9545454545454546,8.501576174
4.0,8.0,,0.0,NaN,NaN,7.678826376
4.0,8.0,0.1,0.9545454545454546,0.9545454545454546,0.9545454545454546,8.516019235
4.0,16.0,0.3,0.9545454545454546,0.9545454545454546,0.9545454545454546,6.91501141
4.0,16.0,,0.0,NaN,NaN,7.167300268
4.0,32.0,,0.0,NaN,NaN,6.449129693
8.0,1.0,0.5,0.9090909090909091,0.9523809523809523,0.9302325581395349,6.526374921
4.0,32.0,0.5,0.9545454545454546,0.9545454545454546,0.9545454545454546,6.391385779
4.0,32.0,0.9,0.9545454545454546,0.9545454545454546,0.9545454545454546,6.342241384
8.0,1.0,0.3,0.7272727272727273,0.9411764705882353,0.8205128205128205,6.393589759
8.0,1.0,0.9,0.9090909090909091,0.9523809523809523,0.9302325581395349,6.426189983
8.0,1.0,0.7,0.9090909090909091,0.9523809523809523,0.9302325581395349,6.429675421
8.0,1.0,,0.0,NaN,NaN,6.239967769
8.0,2.0,0.3,0.9090909090909091,0.9523809523809523,0.9302325581395349,6.312560639
8.0,1.0,0.1,0.7272727272727273,0.9411764705882353,0.8205128205128205,6.490336954
8.0,2.0,,0.0,NaN,NaN,6.341446015
8.0,2.0,0.5,0.9090909090909091,0.9523809523809523,0.9302325581395349,6.467314255
8.0,2.0,0.7,0.9090909090909091,0.9523809523809523,0.9302325581395349,6.333132288
8.0,2.0,0.1,0.7272727272727273,0.9411764705882353,0.8205128205128205,6.446491781
4.0,2.0,0.7,0.9545454545454546,0.9545454545454546,0.9545454545454546,7.065826084
8.0,4.0,0.1,0.7272727272727273,0.9411764705882353,0.8205128205128205,6.298033965
8.0,2.0,0.9,0.9545454545454546,0.9545454545454546,0.9545454545454546,6.306005941
8.0,4.0,0.3,0.9090909090909091,0.9523809523809523,0.9302325581395349,6.323323854
8.0,4.0,0.9,0.9545454545454546,0.9545454545454546,0.9545454545454546,6.249351793
8.0,4.0,,0.0,NaN,NaN,6.284985122
8.0,4.0,0.7,0.9545454545454546,0.9545454545454546,0.9545454545454546,6.292757684
8.0,8.0,0.7,0.9545454545454546,0.9545454545454546,0.9545454545454546,6.320779693
8.0,8.0,,0.0,NaN,NaN,6.407409968
8.0,4.0,0.5,0.9545454545454546,0.9545454545454546,0.9545454545454546,6.339631056
4.0,2.0,0.9,0.9545454545454546,0.9545454545454546,0.9545454545454546,8.239820243
8.0,8.0,0.9,0.9545454545454546,0.9545454545454546,0.9545454545454546,6.283907791
8.0,8.0,0.5,0.9545454545454546,0.9545454545454546,0.9545454545454546,6.242755696
8.0,8.0,0.3,0.9545454545454546,0.9545454545454546,0.9545454545454546,6.325555153
8.0,8.0,0.1,0.9090909090909091,0.9523809523809523,0.9302325581395349,6.296327008
8.0,16.0,0.7,0.9545454545454546,0.9545454545454546,0.9545454545454546,6.281529189
8.0,16.0,0.1,0.9090909090909091,0.9523809523809523,0.9302325581395349,6.300167213
8.0,16.0,0.5,0.9545454545454546,0.9545454545454546,0.9545454545454546,6.407565435
4.0,4.0,0.1,0.9545454545454546,0.9545454545454546,0.9545454545454546,7.30707368
4.0,4.0,0.3,0.9545454545454546,0.9545454545454546,0.9545454545454546,7.98780615
8.0,16.0,0.3,0.9545454545454546,0.9545454545454546,0.9545454545454546,6.403667253
8.0,16.0,0.9,0.9545454545454546,0.9545454545454546,0.9545454545454546,6.413573357
8.0,32.0,0.3,0.9545454545454546,0.9545454545454546,0.9545454545454546,6.450314566
8.0,16.0,,0.0,NaN,NaN,6.483454615
4.0,4.0,0.5,0.9545454545454546,0.9545454545454546,0.9545454545454546,7.894997621
8.0,32.0,0.1,0.9545454545454546,0.9545454545454546,0.9545454545454546,6.44076138
8.0,32.0,,0.0,NaN,NaN,6.429411048
8.0,32.0,0.5,0.9545454545454546,0.9545454545454546,0.9545454545454546,6.329569524
8.0,32.0,0.7,0.9545454545454546,0.9545454545454546,0.9545454545454546,6.230789718
8.0,32.0,0.9,0.9545454545454546,0.9545454545454546,0.9545454545454546,6.239545017
16.0,1.0,0.9,0.8181818181818182,0.9473684210526315,0.8780487804878049,6.237106907
16.0,1.0,,0.0,NaN,NaN,6.33841106
4.0,4.0,0.7,0.9545454545454546,0.9545454545454546,0.9545454545454546,7.794823231
16.0,1.0,0.1,0.6818181818181818,0.9375,0.7894736842105263,6.292202105
16.0,1.0,0.3,0.7727272727272727,0.9444444444444444,0.85,6.204849181
16.0,1.0,0.5,0.7727272727272727,0.9444444444444444,0.85,6.257075092
16.0,2.0,0.3,0.7727272727272727,0.9444444444444444,0.85,6.250908373
16.0,2.0,0.9,0.9090909090909091,0.9523809523809523,0.9302325581395349,6.268260237
16.0,1.0,0.7,0.8181818181818182,0.9473684210526315,0.8780487804878049,6.224248156
4.0,4.0,,0.0,NaN,NaN,7.091476497
16.0,2.0,0.5,0.8181818181818182,0.9473684210526315,0.8780487804878049,6.202939298
16.0,2.0,0.7,0.9090909090909091,0.9523809523809523,0.9302325581395349,6.181430752
16.0,2.0,,0.0,NaN,NaN,6.12777743
16.0,2.0,0.1,0.6818181818181818,0.9375,0.7894736842105263,6.152289728
16.0,4.0,0.7,0.9090909090909091,0.9523809523809523,0.9302325581395349,6.122260344
16.0,4.0,0.3,0.8181818181818182,0.9473684210526315,0.8780487804878049,6.145823678
16.0,4.0,0.1,0.6818181818181818,0.9375,0.7894736842105263,6.135579066
16.0,4.0,0.5,0.9090909090909091,0.9523809523809523,0.9302325581395349,6.211890011
16.0,4.0,,0.0,NaN,NaN,6.138908407
16.0,8.0,,0.0,NaN,NaN,6.112536857
16.0,4.0,0.9,0.9545454545454546,0.9545454545454546,0.9545454545454546,6.13544179
16.0,8.0,0.7,0.9545454545454546,0.9545454545454546,0.9545454545454546,6.126846213
16.0,8.0,0.1,0.7727272727272727,0.9444444444444444,0.85,6.1266346
16.0,8.0,0.5,0.9545454545454546,0.9545454545454546,0.9545454545454546,6.11289145
16.0,8.0,0.3,0.9090909090909091,0.9523809523809523,0.9302325581395349,6.112516486
16.0,16.0,0.5,0.9545454545454546,0.9545454545454546,0.9545454545454546,6.114618849
16.0,16.0,,0.0,NaN,NaN,6.072287983
16.0,8.0,0.9,0.9545454545454546,0.9545454545454546,0.9545454545454546,6.183998893
16.0,16.0,0.9,0.9545454545454546,0.9545454545454546,0.9545454545454546,6.069160697
16.0,16.0,0.3,0.9545454545454546,0.9545454545454546,0.9545454545454546,6.112546157
16.0,16.0,0.1,0.8181818181818182,0.9473684210526315,0.8780487804878049,6.079791514
16.0,16.0,0.7,0.9545454545454546,0.9545454545454546,0.9545454545454546,6.092967632
16.0,32.0,0.1,0.9090909090909091,0.9523809523809523,0.9302325581395349,6.185336724
4.0,8.0,0.3,0.9545454545454546,0.9545454545454546,0.9545454545454546,8.165877497
4.0,8.0,0.5,0.9545454545454546,0.9545454545454546,0.9545454545454546,6.868362107
4.0,8.0,0.7,0.9545454545454546,0.9545454545454546,0.9545454545454546,7.211003665
4.0,8.0,0.9,0.9545454545454546,0.9545454545454546,0.9545454545454546,8.068754427
4.0,16.0,0.1,0.9545454545454546,0.9545454545454546,0.9545454545454546,7.081084177
4.0,16.0,0.5,0.9545454545454546,0.9545454545454546,0.9545454545454546,8.027714561
4.0,16.0,0.7,0.9545454545454546,0.9545454545454546,0.9545454545454546,7.985813923
4.0,16.0,0.9,0.9545454545454546,0.9545454545454546,0.9545454545454546,7.634890346
4.0,32.0,0.1,0.9545454545454546,0.9545454545454546,0.9545454545454546,8.487697499
4.0,32.0,0.3,0.9545454545454546,0.9545454545454546,0.9545454545454546,7.564942847
4.0,32.0,0.7,0.9545454545454546,0.9545454545454546,0.9545454545454546,7.402694173
16.0,32.0,0.3,0.9545454545454546,0.9545454545454546,0.9545454545454546,6.903167271
16.0,32.0,0.9,0.9545454545454546,0.9545454545454546,0.9545454545454546,8.087454463
16.0,32.0,0.5,0.9545454545454546,0.9545454545454546,0.9545454545454546,6.954262836
16.0,32.0,0.7,0.9545454545454546,0.9545454545454546,0.9545454545454546,6.924695992
16.0,32.0,,0.0,NaN,NaN,6.864960555
32.0,1.0,,0.0,NaN,NaN,6.195642939
32.0,4.0,0.7,0.8181818181818182,0.9473684210526315,0.8780487804878049,6.400236005
32.0,1.0,0.9,0.7727272727272727,0.9444444444444444,0.85,6.343628226
32.0,1.0,0.3,0.6818181818181818,0.9375,0.7894736842105263,6.305571033
32.0,1.0,0.5,0.6818181818181818,0.9375,0.7894736842105263,6.42195317
32.0,1.0,0.7,0.7727272727272727,0.9444444444444444,0.85,6.669799342
32.0,2.0,0.9,0.8181818181818182,0.9473684210526315,0.8780487804878049,6.309425261
32.0,2.0,0.5,0.7727272727272727,0.9444444444444444,0.85,6.292405081
32.0,2.0,0.3,0.6818181818181818,0.9375,0.7894736842105263,6.167109615
32.0,2.0,0.1,0.6818181818181818,0.9375,0.7894736842105263,6.168571274
32.0,8.0,0.3,0.8181818181818182,0.9473684210526315,0.8780487804878049,6.154957764
32.0,2.0,0.7,0.7727272727272727,0.9444444444444444,0.85,6.296984239
32.0,2.0,,0.0,NaN,NaN,6.373931716
32.0,4.0,0.3,0.7727272727272727,0.9444444444444444,0.85,6.240494081
32.0,4.0,0.1,0.6818181818181818,0.9375,0.7894736842105263,6.325878109
32.0,4.0,0.5,0.8181818181818182,0.9473684210526315,0.8780487804878049,6.215727982
32.0,4.0,,0.0,NaN,NaN,6.069263121
32.0,8.0,,0.0,NaN,NaN,5.99973702
32.0,8.0,0.1,0.6818181818181818,0.9375,0.7894736842105263,6.015829227
32.0,4.0,0.9,0.9090909090909091,0.9523809523809523,0.9302325581395349,6.092668682
32.0,16.0,,0.0,NaN,NaN,5.924223754
32.0,16.0,0.9,0.9545454545454546,0.9545454545454546,0.9545454545454546,5.995860823
32.0,8.0,0.5,0.9090909090909091,0.9523809523809523,0.9302325581395349,5.991435895
32.0,32.0,0.9,0.9545454545454546,0.9545454545454546,0.9545454545454546,5.904480845
32.0,16.0,0.7,0.9545454545454546,0.9545454545454546,0.9545454545454546,5.913681657
32.0,8.0,0.7,0.9090909090909091,0.9523809523809523,0.9302325581395349,6.030498625
32.0,8.0,0.9,0.9090909090909091,0.9523809523809523,0.9302325581395349,5.977730391
32.0,1.0,0.1,0.6818181818181818,0.9375,0.7894736842105263,6.806615464
32.0,32.0,0.5,0.9545454545454546,0.9545454545454546,0.9545454545454546,6.017233699
32.0,16.0,0.3,0.9090909090909091,0.9523809523809523,0.9302325581395349,5.994887525
32.0,16.0,0.5,0.9545454545454546,0.9545454545454546,0.9545454545454546,5.966703923
32.0,16.0,0.1,0.7727272727272727,0.9444444444444444,0.85,5.965035732
32.0,32.0,0.7,0.9545454545454546,0.9545454545454546,0.9545454545454546,5.951106234
32.0,32.0,0.3,0.9545454545454546,0.9545454545454546,0.9545454545454546,5.965739954
32.0,32.0,0.1,0.8181818181818182,0.9473684210526315,0.8780487804878049,5.981075757
32.0,32.0,,0.0,NaN,NaN,5.885312051
