gamma_s,gamma_h,alpha,sencitivity,ppv,fmeasure,time
1.0,1.0,0.5,0.6818181818181818,1.0,0.8108108108108109,21.932133029
1.0,2.0,,0.0,NaN,NaN,21.877346838
1.0,1.0,0.3,0.6818181818181818,1.0,0.8108108108108109,21.024535879
1.0,1.0,0.7,0.6818181818181818,1.0,0.8108108108108109,19.692991578
1.0,1.0,0.1,0.6818181818181818,1.0,0.8108108108108109,20.981241652
1.0,1.0,,0.0,NaN,NaN,20.982221439
1.0,2.0,0.9,0.6818181818181818,1.0,0.8108108108108109,20.909651023
1.0,4.0,0.1,0.7272727272727273,1.0,0.8421052631578948,21.052335963
1.0,2.0,0.7,0.6818181818181818,1.0,0.8108108108108109,20.956520807
1.0,4.0,,0.0,NaN,NaN,19.556231313
1.0,2.0,0.5,0.6818181818181818,1.0,0.8108108108108109,20.906727975
1.0,4.0,0.3,0.7272727272727273,1.0,0.8421052631578948,20.766291496
1.0,8.0,0.5,0.7272727272727273,0.8888888888888888,0.7999999999999999,20.775100957
1.0,4.0,0.5,0.7272727272727273,1.0,0.8421052631578948,20.824991788
1.0,16.0,0.1,1.0,0.9166666666666666,0.9565217391304348,20.780254634
1.0,8.0,0.7,0.7272727272727273,0.8888888888888888,0.7999999999999999,20.772918811
1.0,16.0,0.3,1.0,0.9166666666666666,0.9565217391304348,19.450925546
1.0,16.0,0.9,1.0,0.9166666666666666,0.9565217391304348,20.80649226
1.0,16.0,,0.0,NaN,NaN,20.866499892
1.0,8.0,0.9,0.7272727272727273,0.8888888888888888,0.7999999999999999,20.820272048
1.0,8.0,,0.0,NaN,NaN,20.833229152
1.0,32.0,0.5,1.0,0.9166666666666666,0.9565217391304348,20.895786628
1.0,32.0,0.1,1.0,0.9166666666666666,0.9565217391304348,20.870608284
1.0,32.0,,0.0,NaN,NaN,20.774681675
1.0,32.0,0.3,1.0,0.9166666666666666,0.9565217391304348,20.860028673
1.0,32.0,0.7,1.0,0.9166666666666666,0.9565217391304348,19.416424028
2.0,1.0,0.1,0.6818181818181818,1.0,0.8108108108108109,20.778922285
2.0,1.0,0.9,0.6818181818181818,1.0,0.8108108108108109,20.790370719
2.0,1.0,0.7,0.6818181818181818,1.0,0.8108108108108109,19.353162853
2.0,2.0,0.5,0.6818181818181818,1.0,0.8108108108108109,20.829911577
2.0,1.0,0.5,0.6818181818181818,1.0,0.8108108108108109,20.782158462
2.0,1.0,,0.0,NaN,NaN,20.769257542
2.0,2.0,0.1,0.6818181818181818,1.0,0.8108108108108109,20.790601199
2.0,2.0,0.9,0.6818181818181818,1.0,0.8108108108108109,20.831947281
2.0,2.0,0.3,0.6818181818181818,1.0,0.8108108108108109,19.365944992
2.0,1.0,0.3,0.6818181818181818,1.0,0.8108108108108109,20.825694152
2.0,4.0,0.1,0.7272727272727273,1.0,0.8421052631578948,20.802468167
2.0,2.0,,0.0,NaN,NaN,19.403558072
2.0,4.0,,0.0,NaN,NaN,19.395849468
2.0,8.0,0.1,0.7272727272727273,0.8888888888888888,0.7999999999999999,20.781910874
2.0,8.0,,0.0,NaN,NaN,20.776920793
2.0,4.0,0.5,0.7272727272727273,1.0,0.8421052631578948,20.794725524
2.0,2.0,0.7,0.6818181818181818,1.0,0.8108108108108109,20.770606478
2.0,4.0,0.3,0.7272727272727273,1.0,0.8421052631578948,20.888142251
1.0,1.0,0.9,0.6818181818181818,1.0,0.8108108108108109,21.58232686
2.0,16.0,0.7,1.0,0.9166666666666666,0.9565217391304348,20.757326286
2.0,4.0,0.7,0.7272727272727273,1.0,0.8421052631578948,20.76917837
2.0,32.0,0.3,1.0,0.9166666666666666,0.9565217391304348,20.759664668
2.0,8.0,0.9,0.7272727272727273,0.8888888888888888,0.7999999999999999,19.359364539
2.0,16.0,,0.0,NaN,NaN,20.762078336
2.0,8.0,0.7,0.7272727272727273,0.8888888888888888,0.7999999999999999,20.8332972
2.0,8.0,0.3,0.7272727272727273,0.8888888888888888,0.7999999999999999,20.771330669
2.0,16.0,0.5,1.0,0.9166666666666666,0.9565217391304348,19.361965903
2.0,16.0,0.9,1.0,0.9166666666666666,0.9565217391304348,20.776307437
2.0,16.0,0.3,1.0,0.9166666666666666,0.9565217391304348,20.808478589
2.0,32.0,0.7,1.0,0.9166666666666666,0.9565217391304348,19.338493748
2.0,32.0,0.1,1.0,0.9166666666666666,0.9565217391304348,19.380136817
2.0,32.0,0.9,1.0,0.9166666666666666,0.9565217391304348,19.356279338
2.0,32.0,0.5,1.0,0.9166666666666666,0.9565217391304348,20.785274205
1.0,2.0,0.3,0.6818181818181818,1.0,0.8108108108108109,21.7084603
1.0,2.0,0.1,0.6818181818181818,1.0,0.8108108108108109,21.590933517
1.0,4.0,0.7,0.7272727272727273,1.0,0.8421052631578948,21.717116506
2.0,4.0,0.9,0.7272727272727273,1.0,0.8421052631578948,20.883826949
2.0,8.0,0.5,0.7272727272727273,0.8888888888888888,0.7999999999999999,20.821789982
2.0,16.0,0.1,1.0,0.9166666666666666,0.9565217391304348,20.844235103
1.0,4.0,0.9,0.7272727272727273,1.0,0.8421052631578948,21.579761593
1.0,8.0,0.1,0.7272727272727273,0.8888888888888888,0.7999999999999999,21.584633935
1.0,8.0,0.3,0.7272727272727273,0.8888888888888888,0.7999999999999999,21.521126402
1.0,16.0,0.5,1.0,0.9166666666666666,0.9565217391304348,21.443756752
1.0,16.0,0.7,1.0,0.9166666666666666,0.9565217391304348,21.598766918
1.0,32.0,0.9,1.0,0.9166666666666666,0.9565217391304348,21.411973223
2.0,32.0,,0.0,NaN,NaN,20.948411607
4.0,1.0,,0.0,NaN,NaN,21.067959118
4.0,4.0,0.5,0.7272727272727273,1.0,0.8421052631578948,22.091540823
4.0,8.0,,0.0,NaN,NaN,22.110739676
4.0,16.0,,0.0,NaN,NaN,19.619294782
4.0,1.0,0.5,0.6818181818181818,1.0,0.8108108108108109,21.097327794
4.0,1.0,0.3,0.6818181818181818,1.0,0.8108108108108109,22.138078689
4.0,1.0,0.1,0.6818181818181818,1.0,0.8108108108108109,21.147929388
4.0,2.0,0.7,0.6818181818181818,1.0,0.8108108108108109,20.93453551
4.0,1.0,0.9,0.6818181818181818,1.0,0.8108108108108109,20.958102384
4.0,2.0,0.1,0.6818181818181818,1.0,0.8108108108108109,20.879982216
4.0,2.0,0.5,0.6818181818181818,1.0,0.8108108108108109,21.062348342
4.0,2.0,,0.0,NaN,NaN,20.843516944
4.0,1.0,0.7,0.6818181818181818,1.0,0.8108108108108109,21.453035997
4.0,4.0,0.1,0.7272727272727273,1.0,0.8421052631578948,19.625788425
4.0,4.0,0.7,0.7272727272727273,1.0,0.8421052631578948,20.926285716
4.0,4.0,,0.0,NaN,NaN,20.951955227
4.0,8.0,0.1,0.7272727272727273,0.8888888888888888,0.7999999999999999,21.005886301
4.0,8.0,0.5,0.7272727272727273,0.8888888888888888,0.7999999999999999,20.982151996
4.0,16.0,0.1,1.0,0.9166666666666666,0.9565217391304348,20.88452854
4.0,8.0,0.7,0.7272727272727273,0.8888888888888888,0.7999999999999999,19.568908629
4.0,16.0,0.7,1.0,0.9166666666666666,0.9565217391304348,21.085383847
4.0,16.0,0.5,1.0,0.9166666666666666,0.9565217391304348,20.893459406
4.0,32.0,0.7,1.0,0.9166666666666666,0.9565217391304348,20.842721731
4.0,32.0,0.1,1.0,0.9166666666666666,0.9565217391304348,20.884318235
4.0,32.0,,0.0,NaN,NaN,20.848764828
4.0,32.0,0.5,1.0,0.9166666666666666,0.9565217391304348,20.86375725
4.0,2.0,0.3,0.6818181818181818,1.0,0.8108108108108109,21.453655681
8.0,1.0,,0.0,NaN,NaN,20.82040731
8.0,1.0,0.5,0.6818181818181818,1.0,0.8108108108108109,20.894661151
4.0,2.0,0.9,0.6818181818181818,1.0,0.8108108108108109,21.575415361
8.0,1.0,0.1,0.6818181818181818,1.0,0.8108108108108109,19.521028234
8.0,2.0,0.3,0.6818181818181818,1.0,0.8108108108108109,20.892453021
8.0,1.0,0.9,0.6818181818181818,1.0,0.8108108108108109,20.86699704
8.0,2.0,0.9,0.6818181818181818,1.0,0.8108108108108109,20.908297713
8.0,2.0,0.5,0.6818181818181818,1.0,0.8108108108108109,19.695270888
4.0,4.0,0.3,0.7272727272727273,1.0,0.8421052631578948,21.547950049
8.0,2.0,,0.0,NaN,NaN,20.851682722
8.0,4.0,0.9,0.7272727272727273,1.0,0.8421052631578948,19.439712152
8.0,8.0,0.1,0.7272727272727273,0.8888888888888888,0.7999999999999999,20.820810019
8.0,4.0,0.7,0.7272727272727273,1.0,0.8421052631578948,20.928673348
8.0,4.0,0.3,0.7272727272727273,1.0,0.8421052631578948,21.11113058
8.0,4.0,0.1,0.7272727272727273,1.0,0.8421052631578948,20.968830161
8.0,4.0,,0.0,NaN,NaN,20.940923584
8.0,8.0,0.7,0.7272727272727273,0.8888888888888888,0.7999999999999999,20.943989473
8.0,8.0,0.9,0.7272727272727273,0.8888888888888888,0.7999999999999999,19.501469491
8.0,8.0,0.3,0.7272727272727273,0.8888888888888888,0.7999999999999999,20.909228905
8.0,8.0,0.5,0.7272727272727273,0.8888888888888888,0.7999999999999999,21.032357063
8.0,8.0,,0.0,NaN,NaN,20.788015243
8.0,16.0,0.1,1.0,0.9166666666666666,0.9565217391304348,20.84983143
8.0,16.0,0.3,1.0,0.9166666666666666,0.9565217391304348,20.859804123
8.0,16.0,,0.0,NaN,NaN,20.859798805
8.0,16.0,0.9,1.0,0.9166666666666666,0.9565217391304348,20.840357173
8.0,16.0,0.7,1.0,0.9166666666666666,0.9565217391304348,20.750373999
8.0,16.0,0.5,1.0,0.9166666666666666,0.9565217391304348,19.413386816
4.0,4.0,0.9,0.7272727272727273,1.0,0.8421052631578948,21.606187628
8.0,32.0,0.3,1.0,0.9166666666666666,0.9565217391304348,20.698738273
8.0,32.0,0.1,1.0,0.9166666666666666,0.9565217391304348,19.378094737
8.0,32.0,,0.0,NaN,NaN,19.376705939
8.0,32.0,0.7,1.0,0.9166666666666666,0.9565217391304348,20.719746857
8.0,32.0,0.5,1.0,0.9166666666666666,0.9565217391304348,20.801574389
16.0,1.0,0.3,0.6818181818181818,1.0,0.8108108108108109,20.729848165
4.0,8.0,0.3,0.7272727272727273,0.8888888888888888,0.7999999999999999,21.566063084
8.0,32.0,0.9,1.0,0.9166666666666666,0.9565217391304348,20.71829719
16.0,1.0,0.9,0.6818181818181818,1.0,0.8108108108108109,20.773150008
16.0,1.0,0.7,0.6818181818181818,1.0,0.8108108108108109,20.705792692
4.0,8.0,0.9,0.7272727272727273,0.8888888888888888,0.7999999999999999,21.57231235
16.0,1.0,,0.0,NaN,NaN,19.342394285
16.0,1.0,0.1,0.6818181818181818,1.0,0.8108108108108109,20.699262516
16.0,1.0,0.5,0.6818181818181818,1.0,0.8108108108108109,20.761633092
16.0,2.0,0.5,0.6818181818181818,1.0,0.8108108108108109,20.713973772
16.0,2.0,,0.0,NaN,NaN,20.720811656
16.0,2.0,0.1,0.6818181818181818,1.0,0.8108108108108109,20.750046405
16.0,2.0,0.3,0.6818181818181818,1.0,0.8108108108108109,20.679376763
16.0,4.0,0.1,0.7272727272727273,1.0,0.8421052631578948,20.707521606
16.0,2.0,0.9,0.6818181818181818,1.0,0.8108108108108109,20.655984686
16.0,2.0,0.7,0.6818181818181818,1.0,0.8108108108108109,19.304094476
16.0,4.0,0.5,0.7272727272727273,1.0,0.8421052631578948,20.596653968
16.0,4.0,0.9,0.7272727272727273,1.0,0.8421052631578948,20.670490544
16.0,4.0,,0.0,NaN,NaN,19.30117988
16.0,4.0,0.3,0.7272727272727273,1.0,0.8421052631578948,19.292577531
16.0,8.0,0.3,0.7272727272727273,0.8888888888888888,0.7999999999999999,20.682646156
16.0,4.0,0.7,0.7272727272727273,1.0,0.8421052631578948,20.725083834
4.0,16.0,0.3,1.0,0.9166666666666666,0.9565217391304348,21.537937748
16.0,8.0,0.1,0.7272727272727273,0.8888888888888888,0.7999999999999999,20.685329755
16.0,8.0,0.5,0.7272727272727273,0.8888888888888888,0.7999999999999999,19.281501654
4.0,16.0,0.9,1.0,0.9166666666666666,0.9565217391304348,21.548420043
16.0,8.0,0.7,0.7272727272727273,0.8888888888888888,0.7999999999999999,19.269847801
4.0,32.0,0.3,1.0,0.9166666666666666,0.9565217391304348,21.508387129
4.0,32.0,0.9,1.0,0.9166666666666666,0.9565217391304348,21.492565924
8.0,1.0,0.3,0.6818181818181818,1.0,0.8108108108108109,21.536225935
8.0,1.0,0.7,0.6818181818181818,1.0,0.8108108108108109,21.564003868
8.0,2.0,0.7,0.6818181818181818,1.0,0.8108108108108109,21.531824678
8.0,2.0,0.1,0.6818181818181818,1.0,0.8108108108108109,21.528495105
8.0,4.0,0.5,0.7272727272727273,1.0,0.8421052631578948,21.502024859
16.0,8.0,0.9,0.7272727272727273,0.8888888888888888,0.7999999999999999,21.130600038
16.0,8.0,,0.0,NaN,NaN,20.752583717
16.0,16.0,0.3,1.0,0.9166666666666666,0.9565217391304348,22.055113374
16.0,16.0,,0.0,NaN,NaN,23.218012402
16.0,32.0,,0.0,NaN,NaN,22.039374891
32.0,1.0,,0.0,NaN,NaN,23.197031238
16.0,16.0,0.1,1.0,0.9166666666666666,0.9565217391304348,19.59144733
16.0,16.0,0.5,1.0,0.9166666666666666,0.9565217391304348,20.964761236
16.0,16.0,0.7,1.0,0.9166666666666666,0.9565217391304348,21.080095905
16.0,16.0,0.9,1.0,0.9166666666666666,0.9565217391304348,19.448338833
16.0,32.0,0.3,1.0,0.9166666666666666,0.9565217391304348,21.094181168
16.0,32.0,0.1,1.0,0.9166666666666666,0.9565217391304348,20.869326449
32.0,1.0,0.1,0.5909090909090909,1.0,0.7428571428571429,21.009656223
16.0,32.0,0.5,1.0,0.9166666666666666,0.9565217391304348,20.823865749
16.0,32.0,0.9,1.0,0.9166666666666666,0.9565217391304348,20.881971372
16.0,32.0,0.7,1.0,0.9166666666666666,0.9565217391304348,19.500644525
32.0,1.0,0.9,0.6818181818181818,1.0,0.8108108108108109,20.894984568
32.0,1.0,0.3,0.5909090909090909,1.0,0.7428571428571429,20.827003887
32.0,1.0,0.5,0.5909090909090909,1.0,0.7428571428571429,19.497687748
32.0,2.0,0.1,0.5909090909090909,1.0,0.7428571428571429,20.913636472
32.0,2.0,0.7,0.6818181818181818,1.0,0.8108108108108109,21.078416254
32.0,1.0,0.7,0.5909090909090909,1.0,0.7428571428571429,20.966176808
32.0,2.0,0.3,0.5909090909090909,1.0,0.7428571428571429,20.865781569
32.0,2.0,0.9,0.6818181818181818,1.0,0.8108108108108109,20.961380297
32.0,2.0,,0.0,NaN,NaN,20.85516178
32.0,4.0,0.5,0.7272727272727273,1.0,0.8421052631578948,20.861080478
32.0,2.0,0.5,0.5909090909090909,1.0,0.7428571428571429,19.611249876
32.0,4.0,0.7,0.7272727272727273,1.0,0.8421052631578948,20.888798181
32.0,4.0,0.1,0.6363636363636364,1.0,0.7777777777777778,20.966671775
32.0,4.0,,0.0,NaN,NaN,20.865949371
32.0,8.0,0.3,0.7272727272727273,0.8888888888888888,0.7999999999999999,21.075958219
32.0,4.0,0.9,0.7272727272727273,1.0,0.8421052631578948,19.440453568
32.0,8.0,0.9,0.7272727272727273,0.8888888888888888,0.7999999999999999,20.909090048
32.0,16.0,0.5,1.0,0.9166666666666666,0.9565217391304348,20.950101657
32.0,8.0,0.5,0.7272727272727273,0.8888888888888888,0.7999999999999999,20.923685141
32.0,16.0,0.3,1.0,0.9166666666666666,0.9565217391304348,20.897347936
32.0,4.0,0.3,0.6363636363636364,1.0,0.7777777777777778,20.866692786
32.0,8.0,,0.0,NaN,NaN,19.482608476
32.0,16.0,0.9,1.0,0.9166666666666666,0.9565217391304348,21.011474481
32.0,16.0,0.7,1.0,0.9166666666666666,0.9565217391304348,21.177964812
32.0,16.0,,0.0,NaN,NaN,19.460721995
32.0,32.0,0.5,1.0,0.9166666666666666,0.9565217391304348,20.906998667
32.0,32.0,0.1,1.0,0.9166666666666666,0.9565217391304348,20.93050326
32.0,32.0,0.3,1.0,0.9166666666666666,0.9565217391304348,20.807579625
32.0,32.0,,0.0,NaN,NaN,20.861363769
32.0,32.0,0.7,1.0,0.9166666666666666,0.9565217391304348,20.855450303
32.0,32.0,0.9,1.0,0.9166666666666666,0.9565217391304348,19.53894539
32.0,8.0,0.1,0.6363636363636364,0.9333333333333333,0.7567567567567568,21.334056082
32.0,8.0,0.7,0.7272727272727273,0.8888888888888888,0.7999999999999999,20.713425142
32.0,16.0,0.1,1.0,0.9166666666666666,0.9565217391304348,20.832472555
