gamma_s,gamma_h,alpha,sencitivity,ppv,fmeasure,time
0.0625,0.5,0.4,0.0,NaN,NaN,0.019217268
0.0625,0.5,0.8,0.0,NaN,NaN,0.023552572
0.0625,0.5,0.9,0.0,NaN,NaN,0.01500719
0.0625,0.5,1.0,0.0,NaN,NaN,0.035196422
0.0625,1.0,0.05,0.0,NaN,NaN,0.027402328
0.0625,0.0625,0.4,0.0,NaN,NaN,0.069113383
0.0625,1.0,0.2,0.0,NaN,NaN,0.01894221
0.0625,0.0625,0.3,0.0,NaN,NaN,0.056012228
0.0625,0.0625,0.7,0.0,NaN,NaN,0.30004726
0.0625,0.125,0.05,0.0,NaN,NaN,0.078785154
0.0625,0.0625,1.0,0.0,NaN,NaN,0.158523726
0.0625,0.0625,0.5,0.0,NaN,NaN,0.133830028
0.0625,0.0625,0.6,0.0,NaN,NaN,0.112270933
0.0625,0.0625,0.2,0.0,NaN,NaN,0.112618343
0.0625,0.125,0.7,0.0,NaN,NaN,0.076042143
0.0625,0.125,0.6,0.0,NaN,NaN,0.081841943
0.0625,0.125,0.3,0.0,NaN,NaN,0.106916898
0.0625,0.0625,0.1,0.0,NaN,NaN,0.115097061
0.0625,0.125,0.1,0.0,NaN,NaN,0.214396754
0.0625,0.125,0.2,0.0,NaN,NaN,0.227354598
0.0625,0.0625,0.9,0.0,NaN,NaN,0.216033036
0.0625,0.125,1.0,0.0,NaN,NaN,0.248108037
0.0625,0.0625,0.8,0.0,NaN,NaN,0.191187473
0.0625,0.25,0.1,0.0,NaN,NaN,0.195551432
0.0625,0.25,0.05,0.0,NaN,NaN,0.166522436
0.0625,0.125,0.8,0.0,NaN,NaN,0.240440939
0.0625,0.125,0.4,0.0,NaN,NaN,0.328091798
0.0625,0.125,0.9,0.0,NaN,NaN,0.341878305
0.0625,0.25,0.5,0.0,NaN,NaN,0.327214783
0.0625,0.125,0.5,0.0,NaN,NaN,0.319767292
0.0625,0.25,0.6,0.0,NaN,NaN,0.329785928
0.0625,0.25,0.2,0.0,NaN,NaN,0.336093826
0.0625,0.25,0.4,0.0,NaN,NaN,0.353897074
0.0625,0.25,0.8,0.0,NaN,NaN,0.316401475
0.0625,0.25,0.3,0.0,NaN,NaN,0.403392921
0.0625,0.25,0.9,0.0,NaN,NaN,0.380369381
0.0625,0.25,1.0,0.0,NaN,NaN,0.341900164
0.0625,0.25,0.7,0.0,NaN,NaN,0.357822042
0.0625,1.0,0.4,0.0,NaN,NaN,0.018195862
0.0625,1.0,0.1,0.0,NaN,NaN,0.019215577
0.0625,1.0,0.7,0.0,NaN,NaN,0.01800654
0.0625,2.0,0.6,0.0,NaN,NaN,0.017779032
0.0625,1.0,0.3,0.0,NaN,NaN,0.019675293
0.0625,1.0,0.6,0.0,NaN,NaN,0.01937949
0.0625,2.0,0.5,0.0,NaN,NaN,0.018420317
0.0625,2.0,0.05,0.0,NaN,NaN,0.016730884
0.0625,4.0,0.2,0.0,NaN,NaN,0.01625687
0.0625,1.0,0.9,0.0,NaN,NaN,0.019168489
0.0625,2.0,0.3,0.0,NaN,NaN,0.050395536
0.0625,1.0,0.5,0.0,NaN,NaN,0.036136324
0.0625,1.0,1.0,0.0,NaN,NaN,0.024631742
0.0625,4.0,0.1,0.0,NaN,NaN,0.044692388
0.0625,2.0,1.0,0.0,NaN,NaN,0.07786992
0.0625,2.0,0.7,0.0,NaN,NaN,0.04006029
0.0625,4.0,0.9,0.0,NaN,NaN,0.040880587
0.0625,2.0,0.4,0.0,NaN,NaN,0.039845715
0.0625,2.0,0.2,0.0,NaN,NaN,0.043583769
0.0625,4.0,0.6,0.0,NaN,NaN,0.06647237
0.0625,4.0,0.3,0.0,NaN,NaN,0.050054096
0.0625,8.0,0.1,0.0,NaN,NaN,0.061829233
0.0625,4.0,0.8,0.0,NaN,NaN,0.025573222
0.0625,2.0,0.9,0.0,NaN,NaN,0.026513686
0.0625,1.0,0.8,0.0,NaN,NaN,0.030893506
0.0625,8.0,0.3,0.0,NaN,NaN,0.056441133
0.0625,4.0,0.05,0.0,NaN,NaN,0.05493578
0.0625,8.0,0.6,0.0,NaN,NaN,0.069078476
0.0625,4.0,0.5,0.0,NaN,NaN,0.05449974
0.0625,8.0,0.2,0.0,NaN,NaN,0.044434447
0.0625,2.0,0.1,0.0,NaN,NaN,0.03259709
0.0625,2.0,0.8,0.0,NaN,NaN,0.03234463
0.0625,4.0,1.0,0.0,NaN,NaN,0.017550271
0.0625,8.0,0.7,0.0,NaN,NaN,0.024910154
0.0625,16.0,0.1,0.0,NaN,NaN,0.022162307
0.0625,4.0,0.4,0.0,NaN,NaN,0.022445266
0.0625,8.0,0.8,0.0,NaN,NaN,0.032994579
0.0625,8.0,0.4,0.0,NaN,NaN,0.032742791
0.0625,4.0,0.7,0.0,NaN,NaN,0.034441219
0.0625,8.0,0.05,0.0,NaN,NaN,0.025591564
0.0625,8.0,0.5,0.0,NaN,NaN,0.022106039
0.0625,8.0,0.9,0.0,NaN,NaN,0.018969297
0.0625,16.0,0.05,0.0,NaN,NaN,0.017688898
0.0625,8.0,1.0,0.0,NaN,NaN,0.038948421
0.0625,0.5,0.05,0.0,NaN,NaN,0.013663075
0.0625,0.5,0.1,0.0,NaN,NaN,0.015421926
0.0625,0.5,0.2,0.0,NaN,NaN,0.012109583
0.0625,0.5,0.3,0.0,NaN,NaN,0.012591312
0.0625,0.5,0.5,0.0,NaN,NaN,0.013050532
0.0625,0.5,0.6,0.0,NaN,NaN,0.012283422
0.0625,0.5,0.7,0.0,NaN,NaN,0.012146808
0.0625,128.0,0.3,0.0,NaN,NaN,0.023751765
0.0625,256.0,0.4,0.0,NaN,NaN,0.030839757
0.0625,512.0,0.1,0.0,NaN,NaN,0.026102327
0.0625,512.0,0.9,0.0,NaN,NaN,0.030155927
0.125,0.0625,0.6,0.0,NaN,NaN,0.034469489
0.125,0.125,0.3,0.0,NaN,NaN,0.014157534
0.0625,32.0,0.7,0.0,NaN,NaN,0.499800151
0.0625,64.0,0.8,0.0,NaN,NaN,0.645201426
0.0625,128.0,0.2,0.0,NaN,NaN,0.66043294
0.0625,32.0,0.5,0.0,NaN,NaN,0.678264817
0.0625,64.0,0.6,0.0,NaN,NaN,0.54754667
0.0625,64.0,0.05,0.0,NaN,NaN,0.517722783
0.0625,64.0,0.2,0.0,NaN,NaN,0.494322801
0.0625,128.0,0.9,0.0,NaN,NaN,0.420583257
0.0625,128.0,0.5,0.0,NaN,NaN,0.353335301
0.0625,256.0,0.3,0.0,NaN,NaN,0.341298063
0.0625,128.0,0.7,0.0,NaN,NaN,0.354451749
0.0625,256.0,0.2,0.0,NaN,NaN,0.353378926
0.0625,64.0,0.7,0.0,NaN,NaN,0.348696129
0.0625,256.0,0.8,0.0,NaN,NaN,0.370152505
0.0625,64.0,1.0,0.0,NaN,NaN,0.376927102
0.0625,16.0,0.2,0.0,NaN,NaN,0.666577501
0.0625,256.0,0.7,0.0,NaN,NaN,0.399966252
0.0625,16.0,0.3,0.0,NaN,NaN,0.632553118
0.0625,16.0,0.4,0.0,NaN,NaN,0.584458635
0.0625,256.0,0.5,0.0,NaN,NaN,0.367570279
0.0625,256.0,1.0,0.0,NaN,NaN,0.394994312
0.0625,512.0,0.05,0.0,NaN,NaN,0.431323306
0.0625,128.0,0.6,0.0,NaN,NaN,0.402111221
0.0625,512.0,0.5,0.0,NaN,NaN,0.43505416
0.0625,512.0,0.7,0.0,NaN,NaN,0.456589714
0.0625,512.0,0.2,0.0,NaN,NaN,0.423069205
0.0625,128.0,1.0,0.0,NaN,NaN,0.413004611
0.0625,512.0,0.4,0.0,NaN,NaN,0.330139368
0.0625,16.0,0.5,0.0,NaN,NaN,0.342900302
0.0625,512.0,0.8,0.0,NaN,NaN,0.346112592
0.0625,256.0,0.6,0.0,NaN,NaN,0.228778954
0.125,0.0625,0.4,0.0,NaN,NaN,0.350699226
0.125,0.0625,0.2,0.0,NaN,NaN,0.398221874
0.0625,256.0,0.9,0.0,NaN,NaN,0.423193857
0.125,0.0625,0.1,0.0,NaN,NaN,0.362308666
0.0625,512.0,1.0,0.0,NaN,NaN,0.360981684
0.125,0.0625,0.5,0.0,NaN,NaN,0.360251005
0.0625,16.0,0.6,0.0,NaN,NaN,0.275615646
0.0625,512.0,0.3,0.0,NaN,NaN,0.254754973
0.0625,512.0,0.6,0.0,NaN,NaN,0.256502589
0.125,0.0625,1.0,0.0,NaN,NaN,0.316094813
0.125,0.125,0.1,0.0,NaN,NaN,0.248422784
0.125,0.0625,0.9,0.0,NaN,NaN,0.219410849
0.125,0.0625,0.7,0.0,NaN,NaN,0.219227502
0.125,0.125,0.2,0.0,NaN,NaN,0.244139034
0.0625,16.0,0.7,0.0,NaN,NaN,0.338142687
0.125,0.125,0.7,0.0,NaN,NaN,0.444766843
0.125,0.0625,0.3,0.0,NaN,NaN,0.353905048
0.125,0.125,0.9,0.0,NaN,NaN,0.378798525
0.125,0.0625,0.05,0.0,NaN,NaN,0.360967439
0.125,0.125,0.6,0.0,NaN,NaN,0.256547344
0.125,0.125,1.0,0.0,NaN,NaN,0.248394798
0.0625,16.0,0.8,0.0,NaN,NaN,0.281024094
0.125,0.125,0.4,0.0,NaN,NaN,0.330626733
0.125,0.25,0.5,0.0,NaN,NaN,0.296520733
0.125,0.25,0.3,0.0,NaN,NaN,0.308054392
0.125,0.125,0.05,0.0,NaN,NaN,0.230785254
0.125,0.0625,0.8,0.0,NaN,NaN,0.321460214
0.125,0.25,0.2,0.0,NaN,NaN,0.32688832
0.125,0.25,1.0,0.0,NaN,NaN,0.458910756
0.125,0.25,0.05,0.0,NaN,NaN,0.425687714
0.125,0.25,0.6,0.0,NaN,NaN,0.526663965
0.125,0.5,0.1,0.0,NaN,NaN,0.544930663
0.125,0.125,0.8,0.0,NaN,NaN,0.635949491
0.125,0.25,0.9,0.0,NaN,NaN,0.544454353
0.125,0.5,0.2,0.0,NaN,NaN,0.486969586
0.0625,16.0,0.9,0.0,NaN,NaN,0.479403761
0.125,0.125,0.5,0.0,NaN,NaN,0.408935251
0.125,0.5,0.6,0.0,NaN,NaN,0.443472044
0.125,0.5,0.8,0.0,NaN,NaN,0.356112959
0.125,0.25,0.1,0.0,NaN,NaN,0.340674046
0.125,0.25,0.4,0.0,NaN,NaN,0.349175767
0.125,0.25,0.7,0.0,NaN,NaN,0.31563103
0.125,0.5,0.3,0.0,NaN,NaN,0.255114424
0.125,0.5,0.5,0.0,NaN,NaN,0.765320812
0.125,0.5,0.9,0.0,NaN,NaN,0.788046712
0.125,1.0,0.2,0.0,NaN,NaN,0.777502746
0.125,0.25,0.8,0.0,NaN,NaN,0.613157718
0.125,8.0,0.2,0.0,NaN,NaN,0.023557714
0.125,8.0,0.6,0.0,NaN,NaN,0.035037527
0.125,1.0,0.4,0.0,NaN,NaN,0.286417121
0.125,0.5,1.0,0.0,NaN,NaN,0.234307314
0.125,8.0,0.7,0.0,NaN,NaN,0.049106606
0.125,0.5,0.05,0.0,NaN,NaN,0.108804061
0.125,8.0,0.8,0.0,NaN,NaN,0.042663503
0.125,8.0,0.9,0.0,NaN,NaN,0.034361911
0.0625,16.0,1.0,0.0,NaN,NaN,0.050029832
0.125,1.0,0.1,0.0,NaN,NaN,0.020410998
0.125,1.0,0.5,0.0,NaN,NaN,0.118991628
0.125,2.0,0.05,0.0,NaN,NaN,0.125364205
0.125,0.5,0.4,0.0,NaN,NaN,0.13800879
0.125,0.5,0.7,0.0,NaN,NaN,0.128519756
0.125,16.0,0.05,0.0,NaN,NaN,0.032325338
0.125,1.0,0.9,0.0,NaN,NaN,0.189186455
0.125,1.0,0.6,0.0,NaN,NaN,0.157011391
0.125,1.0,0.8,0.0,NaN,NaN,0.15999215
0.0625,32.0,0.05,0.0,NaN,NaN,0.157752004
0.125,2.0,0.1,0.0,NaN,NaN,0.090639166
0.0625,32.0,0.1,0.0,NaN,NaN,0.159678374
0.0625,32.0,0.2,0.0,NaN,NaN,0.180840175
0.125,1.0,0.05,0.0,NaN,NaN,0.150744938
0.125,1.0,0.3,0.0,NaN,NaN,0.174826643
0.125,2.0,0.4,0.0,NaN,NaN,0.168462152
0.125,2.0,0.2,0.0,NaN,NaN,0.135277753
0.125,2.0,0.7,0.0,NaN,NaN,0.132436425
0.0625,32.0,0.3,0.0,NaN,NaN,0.161920028
0.125,2.0,0.5,0.0,NaN,NaN,0.144338787
0.125,4.0,0.1,0.0,NaN,NaN,0.065694495
0.125,2.0,0.8,0.0,NaN,NaN,0.041357842
0.125,2.0,0.9,0.0,NaN,NaN,0.112416327
0.125,4.0,0.2,0.0,NaN,NaN,0.120391948
0.125,1.0,0.7,0.0,NaN,NaN,0.111585897
0.125,2.0,1.0,0.0,NaN,NaN,0.155469472
0.125,1.0,1.0,0.0,NaN,NaN,0.117527529
0.125,4.0,0.5,0.0,NaN,NaN,0.243912196
0.125,4.0,0.05,0.0,NaN,NaN,0.290462286
0.125,4.0,0.6,0.0,NaN,NaN,0.235058494
0.0625,32.0,0.4,0.0,NaN,NaN,0.508458625
0.125,2.0,0.6,0.0,NaN,NaN,0.404818531
0.125,2.0,0.3,0.0,NaN,NaN,0.385615465
0.125,4.0,0.4,0.0,NaN,NaN,0.352156602
0.125,4.0,0.7,0.0,NaN,NaN,0.360511764
0.125,4.0,0.3,0.0,NaN,NaN,0.289306766
0.125,4.0,1.0,0.0,NaN,NaN,0.221500744
0.125,4.0,0.9,0.0,NaN,NaN,0.302759228
0.125,4.0,0.8,0.0,NaN,NaN,0.17383888
0.0625,32.0,0.6,0.0,NaN,NaN,0.514087056
0.0625,32.0,0.8,0.0,NaN,NaN,0.346930192
0.0625,32.0,0.9,0.0,NaN,NaN,0.416919415
0.125,16.0,1.0,0.0,NaN,NaN,0.434609978
0.125,32.0,0.2,0.0,NaN,NaN,0.262082753
0.125,8.0,1.0,0.0,NaN,NaN,0.230038785
0.125,16.0,0.1,0.0,NaN,NaN,0.153620275
0.125,16.0,0.5,0.0,NaN,NaN,0.105762966
0.0625,32.0,1.0,0.0,NaN,NaN,0.203846621
0.125,32.0,0.9,0.0,NaN,NaN,0.209247682
0.125,16.0,0.2,0.0,NaN,NaN,0.224953394
0.125,16.0,0.7,0.0,NaN,NaN,0.2104658
0.125,16.0,0.3,0.0,NaN,NaN,0.211374337
0.125,32.0,0.6,0.0,NaN,NaN,0.209450507
0.125,32.0,0.1,0.0,NaN,NaN,0.170468066
0.0625,64.0,0.1,0.0,NaN,NaN,0.146614694
0.125,16.0,0.6,0.0,NaN,NaN,0.156165194
0.125,64.0,0.5,0.0,NaN,NaN,0.145333531
0.125,16.0,0.9,0.0,NaN,NaN,0.156972174
0.125,16.0,0.4,0.0,NaN,NaN,0.096086055
0.125,64.0,0.2,0.0,NaN,NaN,0.149804488
0.125,32.0,0.4,0.0,NaN,NaN,0.081200142
0.0625,64.0,0.3,0.0,NaN,NaN,0.170452695
0.125,32.0,0.8,0.0,NaN,NaN,0.196722411
0.125,32.0,0.5,0.0,NaN,NaN,0.175057782
0.125,128.0,0.1,0.0,NaN,NaN,0.121281215
0.125,32.0,0.05,0.0,NaN,NaN,0.056437508
0.125,16.0,0.8,0.0,NaN,NaN,0.090870819
0.125,64.0,0.4,0.0,NaN,NaN,0.091976811
0.125,64.0,0.1,0.0,NaN,NaN,0.028297868
0.125,32.0,1.0,0.0,NaN,NaN,0.026779579
0.125,128.0,0.05,0.0,NaN,NaN,0.030773435
0.125,64.0,0.8,0.0,NaN,NaN,0.02744044
0.125,32.0,0.7,0.0,NaN,NaN,0.025858522
0.125,32.0,0.3,0.0,NaN,NaN,0.02539719
0.125,128.0,0.6,0.0,NaN,NaN,0.018437152
0.125,64.0,0.9,0.0,NaN,NaN,0.051355463
0.125,256.0,0.05,0.0,NaN,NaN,0.016745868
0.125,64.0,0.7,0.0,NaN,NaN,0.018558169
0.125,128.0,0.2,0.0,NaN,NaN,0.016688697
0.125,64.0,0.3,0.0,NaN,NaN,0.017211313
0.125,128.0,0.5,0.0,NaN,NaN,0.016888402
0.125,128.0,1.0,0.0,NaN,NaN,0.018704569
0.125,128.0,0.3,0.0,NaN,NaN,0.016350372
0.125,128.0,0.8,0.0,NaN,NaN,0.016719494
0.125,64.0,0.05,0.0,NaN,NaN,0.019348056
0.125,128.0,0.9,0.0,NaN,NaN,0.037511931
0.125,64.0,1.0,0.0,NaN,NaN,0.017394999
0.0625,64.0,0.4,0.0,NaN,NaN,0.022891328
0.125,64.0,0.6,0.0,NaN,NaN,0.018453819
0.125,128.0,0.4,0.0,NaN,NaN,0.045168446
0.125,128.0,0.7,0.0,NaN,NaN,0.017345759
0.0625,64.0,0.5,0.0,NaN,NaN,0.023932044
0.125,256.0,0.1,0.0,NaN,NaN,0.018015091
0.0625,64.0,0.9,0.0,NaN,NaN,0.038276095
0.0625,128.0,0.05,0.0,NaN,NaN,0.022210988
0.0625,128.0,0.1,0.0,NaN,NaN,0.089704734
0.0625,128.0,0.4,0.0,NaN,NaN,0.02252244
0.0625,128.0,0.8,0.0,NaN,NaN,0.011061289
0.0625,256.0,0.05,0.0,NaN,NaN,0.011396065
0.0625,256.0,0.1,0.0,NaN,NaN,0.010577082
0.125,8.0,0.05,0.0,NaN,NaN,0.01290398
0.125,8.0,0.1,0.0,NaN,NaN,0.012411286
0.125,8.0,0.3,0.0,NaN,NaN,0.013479678
0.125,8.0,0.4,0.0,NaN,NaN,0.035684381
0.125,8.0,0.5,0.0,NaN,NaN,0.034551139
0.25,0.125,0.5,0.0,NaN,NaN,0.013289764
0.25,0.25,0.6,0.0,NaN,NaN,0.032988546
0.25,0.5,0.3,0.0,NaN,NaN,0.033370623
0.25,1.0,0.05,0.0,NaN,NaN,0.036343249
0.25,1.0,0.8,0.0,NaN,NaN,0.02555696
0.25,2.0,0.5,0.0,NaN,NaN,0.032943068
0.25,0.0625,0.6,0.0,NaN,NaN,0.533296221
0.125,512.0,0.8,0.0,NaN,NaN,0.546429896
0.25,0.0625,0.2,0.0,NaN,NaN,0.518152587
0.25,0.125,0.1,0.0,NaN,NaN,0.603707528
0.125,512.0,0.5,0.0,NaN,NaN,0.585321561
0.25,0.0625,1.0,0.0,NaN,NaN,0.490387409
0.25,0.0625,0.4,0.0,NaN,NaN,0.47980146
0.25,0.125,0.4,0.0,NaN,NaN,0.481207781
0.25,0.125,0.9,0.0,NaN,NaN,0.350159923
0.25,0.125,0.2,0.0,NaN,NaN,0.333062285
0.25,0.0625,0.05,0.0,NaN,NaN,0.398256912
0.25,0.125,0.7,0.0,NaN,NaN,0.367133874
0.25,0.25,0.7,0.0,NaN,NaN,0.383012331
0.25,0.25,0.2,0.0,NaN,NaN,0.419307032
0.25,0.25,0.5,0.0,NaN,NaN,0.349540275
0.25,0.25,0.05,0.0,NaN,NaN,0.349636089
0.25,0.25,0.9,0.0,NaN,NaN,0.330316199
0.25,0.0625,0.8,0.0,NaN,NaN,0.447351393
0.25,0.25,1.0,0.0,NaN,NaN,0.400324699
0.25,0.5,0.6,0.0,NaN,NaN,0.381083133
0.25,0.5,0.05,0.0,NaN,NaN,0.436114179
0.25,0.125,0.8,0.0,NaN,NaN,0.472704833
0.25,0.5,0.4,0.0,NaN,NaN,0.398343539
0.25,0.25,0.3,0.0,NaN,NaN,0.347820543
0.125,256.0,0.2,0.0,NaN,NaN,0.414125676
0.25,0.5,0.2,0.0,NaN,NaN,0.263426932
0.25,0.5,0.8,0.0,NaN,NaN,0.322488627
0.125,256.0,0.4,0.0,NaN,NaN,0.34447647
0.125,256.0,0.5,0.0,NaN,NaN,0.489648948
0.125,256.0,0.3,0.0,NaN,NaN,0.573723398
0.25,0.25,0.8,0.0,NaN,NaN,0.434158126
0.25,1.0,0.3,0.0,NaN,NaN,0.440140096
0.125,256.0,0.6,0.0,NaN,NaN,0.530105743
0.25,0.5,0.1,0.0,NaN,NaN,0.411778707
0.25,1.0,0.1,0.0,NaN,NaN,0.445769505
0.25,0.5,1.0,0.0,NaN,NaN,0.282829322
0.25,0.5,0.7,0.0,NaN,NaN,0.271300027
0.125,256.0,0.7,0.0,NaN,NaN,0.247334583
0.25,1.0,0.5,0.0,NaN,NaN,0.28009218
0.25,0.5,0.5,0.0,NaN,NaN,0.260308646
0.25,2.0,0.05,0.0,NaN,NaN,0.205808801
0.25,1.0,0.9,0.0,NaN,NaN,0.23108847
0.25,1.0,0.7,0.0,NaN,NaN,0.195168246
0.25,1.0,0.4,0.0,NaN,NaN,0.184074348
0.25,0.5,0.9,0.0,NaN,NaN,0.206543763
0.25,2.0,0.2,0.0,NaN,NaN,0.243450457
0.125,256.0,0.8,0.0,NaN,NaN,0.214949432
0.25,1.0,0.2,0.0,NaN,NaN,0.28332502
0.25,2.0,0.8,0.0,NaN,NaN,0.277684827
0.25,1.0,0.6,0.0,NaN,NaN,0.297537528
0.25,2.0,0.6,0.0,NaN,NaN,0.30010631
0.25,2.0,0.4,0.0,NaN,NaN,0.304181853
0.25,2.0,0.1,0.0,NaN,NaN,0.243998611
0.25,2.0,1.0,0.0,NaN,NaN,0.451933052
0.25,4.0,0.4,0.0,NaN,NaN,0.409084141
0.25,1.0,1.0,0.0,NaN,NaN,0.442597939
0.25,4.0,0.1,0.0,NaN,NaN,0.422299591
0.25,4.0,0.2,0.0,NaN,NaN,0.398565988
0.125,256.0,0.9,0.0,NaN,NaN,0.272652933
0.25,2.0,0.9,0.0,NaN,NaN,0.325365837
0.25,2.0,0.3,0.0,NaN,NaN,0.285081147
0.25,4.0,0.6,0.0,NaN,NaN,0.436254484
0.25,4.0,0.8,0.0,NaN,NaN,0.44827458
0.125,256.0,1.0,0.0,NaN,NaN,0.410360913
0.25,2.0,0.7,0.0,NaN,NaN,0.46473924
0.25,4.0,0.05,0.0,NaN,NaN,0.441889717
0.25,8.0,0.05,0.0,NaN,NaN,0.434349844
0.25,4.0,0.9,0.0,NaN,NaN,0.204504696
0.25,4.0,0.5,0.0,NaN,NaN,0.117047506
0.25,8.0,0.2,0.0,NaN,NaN,0.107779907
0.25,4.0,0.7,0.0,NaN,NaN,0.030495196
0.25,4.0,0.3,0.0,NaN,NaN,0.03218516
0.25,8.0,0.7,0.0,NaN,NaN,0.062492773
0.25,8.0,0.5,0.0,NaN,NaN,0.058097523
0.25,8.0,0.1,0.0,NaN,NaN,0.058411892
0.25,16.0,0.1,0.0,NaN,NaN,0.045385282
0.25,8.0,0.4,0.0,NaN,NaN,0.152403383
0.25,4.0,1.0,0.0,NaN,NaN,0.149959156
0.25,16.0,0.3,0.0,NaN,NaN,0.149702703
0.25,8.0,0.9,0.0,NaN,NaN,0.167069225
0.25,8.0,0.3,0.0,NaN,NaN,0.031019691
0.125,512.0,0.05,0.0,NaN,NaN,0.021270734
0.25,16.0,0.8,0.0,NaN,NaN,0.026105511
0.25,8.0,0.8,0.0,NaN,NaN,0.026575164
0.25,16.0,0.05,0.0,NaN,NaN,0.027663488
0.25,16.0,0.4,0.0,NaN,NaN,0.039048151
0.25,8.0,1.0,0.0,NaN,NaN,0.043332039
0.25,16.0,1.0,0.0,NaN,NaN,0.042799024
0.25,32.0,0.05,0.0,NaN,NaN,0.052026285
0.25,8.0,0.6,0.0,NaN,NaN,0.051647882
0.25,16.0,0.6,0.0,NaN,NaN,0.027465099
0.25,16.0,0.5,0.0,NaN,NaN,0.035565148
0.25,16.0,0.2,0.0,NaN,NaN,0.056531795
0.25,32.0,0.3,0.0,NaN,NaN,0.067267656
0.25,32.0,0.4,0.0,NaN,NaN,0.063818822
0.25,32.0,0.6,0.0,NaN,NaN,0.064798719
0.25,16.0,0.7,0.0,NaN,NaN,0.080554707
0.25,32.0,0.1,0.0,NaN,NaN,0.084848704
0.25,16.0,0.9,0.0,NaN,NaN,0.037063373
0.125,512.0,0.1,0.0,NaN,NaN,0.052055837
0.25,32.0,0.2,0.0,NaN,NaN,0.092888687
0.25,64.0,0.1,0.0,NaN,NaN,0.092368855
0.25,32.0,0.7,0.0,NaN,NaN,0.092722392
0.125,512.0,0.2,0.0,NaN,NaN,0.096898709
0.125,512.0,0.3,0.0,NaN,NaN,0.095316758
0.25,32.0,0.8,0.0,NaN,NaN,0.110931412
0.125,512.0,0.4,0.0,NaN,NaN,0.083861296
0.25,64.0,0.05,0.0,NaN,NaN,0.074263725
0.25,32.0,1.0,0.0,NaN,NaN,0.042680063
0.25,64.0,0.2,0.0,NaN,NaN,0.044196709
0.25,64.0,0.5,0.0,NaN,NaN,0.041994481
0.25,32.0,0.5,0.0,NaN,NaN,0.042197293
0.25,64.0,1.0,0.0,NaN,NaN,0.040158947
0.25,64.0,0.3,0.0,NaN,NaN,0.06784628
0.25,64.0,0.6,0.0,NaN,NaN,0.043618249
0.25,64.0,0.9,0.0,NaN,NaN,0.027286296
0.25,64.0,0.4,0.0,NaN,NaN,0.027986605
0.25,32.0,0.9,0.0,NaN,NaN,0.058630989
0.25,64.0,0.7,0.0,NaN,NaN,0.169611876
0.25,64.0,0.8,0.0,NaN,NaN,0.145474291
0.125,512.0,0.6,0.0,NaN,NaN,0.14662635
0.25,128.0,0.6,0.0,NaN,NaN,0.013357904
0.25,128.0,1.0,0.0,NaN,NaN,0.023833179
0.25,256.0,0.05,0.0,NaN,NaN,0.031832505
0.25,256.0,0.2,0.0,NaN,NaN,0.03452025
0.25,256.0,0.5,0.0,NaN,NaN,0.027065603
0.25,256.0,0.8,0.0,NaN,NaN,0.0150962
0.125,512.0,0.7,0.0,NaN,NaN,0.706753606
0.125,512.0,0.9,0.0,NaN,NaN,0.790479655
0.125,512.0,1.0,0.0,NaN,NaN,0.426205285
0.25,256.0,0.1,0.0,NaN,NaN,0.528240117
0.25,256.0,0.4,0.0,NaN,NaN,0.403592855
0.25,256.0,0.9,0.0,NaN,NaN,0.40023549
0.25,256.0,0.3,0.0,NaN,NaN,0.271573052
0.25,512.0,0.8,0.0,NaN,NaN,0.240068313
0.25,256.0,1.0,0.0,NaN,NaN,0.246382304
0.25,256.0,0.7,0.0,NaN,NaN,0.157890928
0.5,0.0625,0.2,0.0,NaN,NaN,0.12191976
0.5,0.25,0.1,0.0,NaN,NaN,0.03820689
0.25,512.0,0.05,0.0,NaN,NaN,0.081115909
0.25,256.0,0.6,0.0,NaN,NaN,0.037543707
0.25,512.0,0.3,0.0,NaN,NaN,0.038762902
0.5,0.0625,0.4,0.0,NaN,NaN,0.020889986
0.5,0.0625,0.9,0.0,NaN,NaN,0.017238143
0.25,512.0,0.5,0.0,NaN,NaN,0.016839232
0.25,512.0,0.2,0.0,NaN,NaN,0.019387321
0.25,512.0,0.9,0.0,NaN,NaN,0.016923099
0.5,0.125,0.5,0.0,NaN,NaN,0.038863944
0.25,512.0,0.4,0.0,NaN,NaN,0.062627032
0.25,512.0,1.0,0.0,NaN,NaN,0.046556283
0.5,0.125,0.05,0.0,NaN,NaN,0.044456492
0.25,512.0,0.1,0.0,NaN,NaN,0.033577273
0.5,0.0625,0.05,0.0,NaN,NaN,0.079009653
0.25,512.0,0.7,0.0,NaN,NaN,0.074045294
0.5,0.0625,0.6,0.0,NaN,NaN,0.099412369
0.5,0.125,0.7,0.0,NaN,NaN,0.043597974
0.5,0.0625,0.5,0.0,NaN,NaN,0.044572269
0.5,0.0625,0.7,0.0,NaN,NaN,0.039696511
0.25,512.0,0.6,0.0,NaN,NaN,0.073191945
0.5,0.0625,0.3,0.0,NaN,NaN,0.088429734
0.5,0.125,0.1,0.0,NaN,NaN,0.06944145
0.5,0.0625,0.1,0.0,NaN,NaN,0.069971484
0.5,0.125,0.3,0.0,NaN,NaN,0.06296488
0.5,0.25,0.3,0.0,NaN,NaN,0.046829425
0.5,0.25,0.7,0.0,NaN,NaN,0.045309124
0.5,0.5,0.1,0.0,NaN,NaN,0.057476994
0.5,0.125,0.2,0.0,NaN,NaN,0.071154845
0.5,0.0625,0.8,0.0,NaN,NaN,0.047646425
0.5,0.125,0.8,0.0,NaN,NaN,0.046272383
0.5,0.125,0.6,0.0,NaN,NaN,0.041550923
0.5,0.25,0.8,0.0,NaN,NaN,0.040035757
0.5,0.25,0.4,0.0,NaN,NaN,0.049833353
0.25,0.0625,0.3,0.0,NaN,NaN,0.09558474
0.5,0.0625,1.0,0.0,NaN,NaN,0.056335741
0.5,0.5,0.2,0.0,NaN,NaN,0.052571314
0.5,0.125,1.0,0.0,NaN,NaN,0.069548491
0.5,0.125,0.4,0.0,NaN,NaN,0.07360886
0.5,0.5,0.4,0.0,NaN,NaN,0.074656232
0.5,0.25,0.5,0.0,NaN,NaN,0.097022449
0.25,0.0625,0.1,0.0,NaN,NaN,0.07870519
0.5,0.125,0.9,0.0,NaN,NaN,0.097030365
0.5,0.25,0.2,0.0,NaN,NaN,0.060574919
0.5,0.25,0.05,0.0,NaN,NaN,0.054994733
0.5,0.25,0.6,0.0,NaN,NaN,0.02646349
0.5,0.25,0.9,0.0,NaN,NaN,0.044268383
0.5,0.5,0.05,0.0,NaN,NaN,0.040862123
0.25,0.0625,0.5,0.0,NaN,NaN,0.069093371
0.5,0.25,1.0,0.0,NaN,NaN,0.078441621
0.5,0.5,0.3,0.0,NaN,NaN,0.057425893
0.25,0.0625,0.7,0.0,NaN,NaN,0.079609477
0.25,0.125,0.05,0.0,NaN,NaN,0.084611576
0.25,0.25,0.1,0.0,NaN,NaN,0.066626911
0.25,0.0625,0.9,0.0,NaN,NaN,0.05642057
0.25,0.25,0.4,0.0,NaN,NaN,0.053202394
0.25,0.125,0.3,0.0,NaN,NaN,0.059925254
0.25,0.125,0.6,0.0,NaN,NaN,0.04426616
0.25,0.125,1.0,0.0,NaN,NaN,0.058790933
0.25,128.0,0.05,0.0,NaN,NaN,0.023063536
0.25,128.0,0.1,0.0,NaN,NaN,0.029796326
0.25,128.0,0.3,0.0,NaN,NaN,0.030274345
0.25,128.0,0.2,0.0,NaN,NaN,0.025744447
0.25,128.0,0.4,0.0,NaN,NaN,0.079353282
0.25,128.0,0.5,0.0,NaN,NaN,0.059863187
0.25,128.0,0.7,0.0,NaN,NaN,0.022579849
0.25,128.0,0.9,0.0,NaN,NaN,0.02797068
0.25,128.0,0.8,0.0,NaN,NaN,0.027758772
0.5,8.0,0.2,0.0,NaN,NaN,0.028829443
0.5,16.0,0.2,0.0,NaN,NaN,0.02653123
0.5,16.0,1.0,0.0,NaN,NaN,0.032401695
0.5,32.0,0.7,0.0,NaN,NaN,0.026951575
0.5,64.0,0.4,0.0,NaN,NaN,0.015534488
0.5,128.0,0.1,0.0,NaN,NaN,0.03123561
0.5,1.0,0.9,0.0,NaN,NaN,0.338179775
0.5,2.0,0.6,0.0,NaN,NaN,0.37766516
0.5,1.0,0.7,0.0,NaN,NaN,0.357085162
0.5,4.0,0.05,0.0,NaN,NaN,0.32488539
0.5,2.0,1.0,0.0,NaN,NaN,0.422881097
0.5,8.0,0.05,0.0,NaN,NaN,0.281378028
0.5,4.0,0.4,0.0,NaN,NaN,0.370617724
0.5,4.0,0.6,0.0,NaN,NaN,0.330755571
0.5,2.0,0.2,0.0,NaN,NaN,0.483474792
0.5,2.0,0.4,0.0,NaN,NaN,0.432933421
0.5,8.0,0.7,0.0,NaN,NaN,0.44576534
0.5,8.0,0.5,0.0,NaN,NaN,0.399673135
0.5,4.0,0.5,0.0,NaN,NaN,0.434523793
0.5,0.5,0.5,0.0,NaN,NaN,0.529612849
0.5,4.0,1.0,0.0,NaN,NaN,0.382282747
0.5,2.0,0.9,0.0,NaN,NaN,0.266099043
0.5,0.5,0.6,0.0,NaN,NaN,0.329838937
0.5,4.0,0.2,0.0,NaN,NaN,0.268258086
0.5,8.0,0.6,0.0,NaN,NaN,0.285273095
0.5,0.5,0.7,0.0,NaN,NaN,0.328502843
0.5,16.0,0.1,0.0,NaN,NaN,0.334829845
0.5,16.0,0.6,0.0,NaN,NaN,0.295829872
0.5,16.0,0.05,0.0,NaN,NaN,0.353416187
0.5,16.0,0.4,0.0,NaN,NaN,0.269930527
0.5,8.0,0.3,0.0,NaN,NaN,0.350436015
0.5,4.0,0.9,0.0,NaN,NaN,0.379373436
0.5,0.5,0.8,0.0,NaN,NaN,0.373988781
0.5,16.0,0.5,0.0,NaN,NaN,0.25480085
0.5,32.0,0.1,0.0,NaN,NaN,0.265140751
0.5,16.0,0.9,0.0,NaN,NaN,0.257715377
0.5,16.0,0.8,0.0,NaN,NaN,0.310291302
0.5,0.5,0.9,0.0,NaN,NaN,0.27408918
0.5,32.0,0.3,0.0,NaN,NaN,0.236674135
0.5,8.0,1.0,0.0,NaN,NaN,0.217615096
0.5,32.0,0.6,0.0,NaN,NaN,0.268312459
0.5,16.0,0.3,0.0,NaN,NaN,0.256144314
0.5,32.0,0.2,0.0,NaN,NaN,0.319181389
0.5,32.0,0.5,0.0,NaN,NaN,0.347805374
0.5,32.0,0.9,0.0,NaN,NaN,0.329765204
0.5,0.5,1.0,0.0,NaN,NaN,0.290021456
0.5,16.0,0.7,0.0,NaN,NaN,0.249859503
0.5,64.0,0.05,0.0,NaN,NaN,0.289782232
0.5,32.0,0.05,0.0,NaN,NaN,0.300930414
0.5,64.0,0.6,0.0,NaN,NaN,0.328506973
0.5,32.0,1.0,0.0,NaN,NaN,0.318351793
0.5,64.0,0.3,0.0,NaN,NaN,0.344029803
0.5,64.0,0.2,0.0,NaN,NaN,0.282931853
0.5,64.0,0.8,0.0,NaN,NaN,0.361448204
0.5,32.0,0.4,0.0,NaN,NaN,0.391481298
0.5,1.0,0.05,0.0,NaN,NaN,0.368323037
0.5,32.0,0.8,0.0,NaN,NaN,0.48924576
0.5,64.0,0.7,0.0,NaN,NaN,0.420967143
0.5,64.0,1.0,0.0,NaN,NaN,0.39998136
0.5,128.0,0.3,0.0,NaN,NaN,0.320082269
0.5,128.0,0.5,0.0,NaN,NaN,0.340733373
0.5,128.0,0.05,0.0,NaN,NaN,0.279251715
0.5,64.0,0.1,0.0,NaN,NaN,0.242170072
0.5,1.0,0.1,0.0,NaN,NaN,0.340956897
0.5,64.0,0.5,0.0,NaN,NaN,0.413432767
0.5,128.0,1.0,0.0,NaN,NaN,0.498557374
0.5,128.0,0.8,0.0,NaN,NaN,0.38215277
0.5,128.0,0.4,0.0,NaN,NaN,0.410657832
0.5,64.0,0.9,0.0,NaN,NaN,0.293608241
0.5,128.0,0.7,0.0,NaN,NaN,0.356172088
0.5,256.0,0.1,0.0,NaN,NaN,0.268835091
0.5,128.0,0.2,0.0,NaN,NaN,0.286495277
0.5,256.0,0.05,0.0,NaN,NaN,0.380874703
0.5,256.0,0.4,0.0,NaN,NaN,0.340124848
0.5,256.0,0.6,0.0,NaN,NaN,0.322362897
0.5,256.0,0.8,0.0,NaN,NaN,0.325253174
0.5,256.0,0.3,0.0,NaN,NaN,0.325708291
0.5,128.0,0.6,0.0,NaN,NaN,0.426427158
0.5,256.0,0.7,0.0,NaN,NaN,0.408964082
0.5,512.0,0.05,0.0,NaN,NaN,0.304466567
0.5,1.0,0.2,0.0,NaN,NaN,0.241383255
0.5,256.0,1.0,0.0,NaN,NaN,0.188207699
0.5,128.0,0.9,0.0,NaN,NaN,0.073210729
0.5,512.0,0.4,0.0,NaN,NaN,0.070084916
0.5,512.0,0.2,0.0,NaN,NaN,0.083240643
0.5,1.0,0.3,0.0,NaN,NaN,0.094367542
0.5,256.0,0.2,0.0,NaN,NaN,0.108712872
0.5,512.0,0.7,0.0,NaN,NaN,0.121236308
0.5,256.0,0.5,0.0,NaN,NaN,0.103609615
0.5,512.0,0.3,0.0,NaN,NaN,0.056629045
0.5,1.0,0.4,0.0,NaN,NaN,0.057469362
0.5,512.0,0.6,0.0,NaN,NaN,0.064825863
0.5,1.0,0.5,0.0,NaN,NaN,0.061187447
1.0,0.0625,0.05,0.0,NaN,NaN,0.056459375
0.5,512.0,0.9,0.0,NaN,NaN,0.064751483
0.5,512.0,1.0,0.0,NaN,NaN,0.082233294
0.5,512.0,0.1,0.0,NaN,NaN,0.081370974
0.5,256.0,0.9,0.0,NaN,NaN,0.082221348
1.0,0.0625,0.5,0.0,NaN,NaN,0.046715428
1.0,0.0625,0.7,0.0,NaN,NaN,0.062488905
1.0,0.0625,0.2,0.0,NaN,NaN,0.08283466
1.0,0.0625,0.3,0.0,NaN,NaN,0.067136857
1.0,0.0625,0.6,0.0,NaN,NaN,0.050047352
0.5,512.0,0.8,0.0,NaN,NaN,0.052132868
0.5,512.0,0.5,0.0,NaN,NaN,0.053738911
1.0,0.125,0.1,0.0,NaN,NaN,0.044417618
1.0,0.125,0.3,0.0,NaN,NaN,0.047952205
1.0,0.0625,0.9,0.0,NaN,NaN,0.050083053
1.0,0.0625,1.0,0.0,NaN,NaN,0.035043582
1.0,0.0625,0.4,0.0,NaN,NaN,0.111249494
1.0,0.0625,0.1,0.0,NaN,NaN,0.10177044
0.5,1.0,0.6,0.0,NaN,NaN,0.126897543
1.0,0.125,0.05,0.0,NaN,NaN,0.110420501
1.0,0.125,0.2,0.0,NaN,NaN,0.110009429
1.0,0.125,0.6,0.0,NaN,NaN,0.105630038
1.0,0.25,0.1,0.0,NaN,NaN,0.093772418
1.0,0.125,0.5,0.0,NaN,NaN,0.114101969
1.0,0.125,0.4,0.0,NaN,NaN,0.128799658
1.0,0.125,0.7,0.0,NaN,NaN,0.045483105
1.0,0.0625,0.8,0.0,NaN,NaN,0.048200136
1.0,0.125,0.8,0.0,NaN,NaN,0.04837668
1.0,0.125,0.9,0.0,NaN,NaN,0.05706236
1.0,0.25,0.05,0.0,NaN,NaN,0.093080829
1.0,0.125,1.0,0.0,NaN,NaN,0.108113028
1.0,0.25,0.2,0.0,NaN,NaN,0.064394433
0.5,1.0,0.8,0.0,NaN,NaN,0.212948828
1.0,0.25,0.7,0.0,NaN,NaN,0.009857954
1.0,0.5,0.1,0.0,NaN,NaN,0.027169084
0.5,1.0,1.0,0.0,NaN,NaN,0.116034481
0.5,2.0,0.05,0.0,NaN,NaN,0.106328299
1.0,0.5,0.2,0.0,NaN,NaN,0.058809565
1.0,0.5,0.5,0.0,NaN,NaN,0.029606634
0.5,2.0,0.1,0.0,NaN,NaN,0.279498375
0.5,2.0,0.3,0.0,NaN,NaN,0.251239478
1.0,0.5,0.8,0.0,NaN,NaN,0.042225819
1.0,1.0,0.2,0.0,NaN,NaN,0.038152887
0.5,2.0,0.5,0.0,NaN,NaN,0.382348629
0.5,2.0,0.7,0.0,NaN,NaN,0.326080691
0.5,2.0,0.8,0.0,NaN,NaN,0.438550481
0.5,4.0,0.1,0.0,NaN,NaN,0.567464945
1.0,0.5,0.3,0.0,NaN,NaN,0.671935048
1.0,0.5,0.4,0.0,NaN,NaN,0.514548791
1.0,0.5,0.7,0.0,NaN,NaN,0.074290243
1.0,0.5,0.6,0.0,NaN,NaN,0.053189839
1.0,0.5,0.9,0.0,NaN,NaN,0.053500798
0.5,4.0,0.3,0.0,NaN,NaN,0.113466638
1.0,0.5,1.0,0.0,NaN,NaN,0.075160203
1.0,1.0,0.3,0.0,NaN,NaN,0.078952069
1.0,1.0,0.05,0.0,NaN,NaN,0.07740446
1.0,2.0,0.3,0.0,NaN,NaN,0.097583068
1.0,1.0,1.0,0.0,NaN,NaN,0.071871649
1.0,1.0,0.6,0.0,NaN,NaN,0.077911306
1.0,1.0,0.4,0.0,NaN,NaN,0.016003217
1.0,2.0,0.1,0.0,NaN,NaN,0.029339032
1.0,1.0,0.8,0.0,NaN,NaN,0.032543101
1.0,1.0,0.5,0.0,NaN,NaN,0.027283526
1.0,1.0,0.1,0.0,NaN,NaN,0.031288681
1.0,2.0,0.6,0.0,NaN,NaN,0.028181785
1.0,1.0,0.7,0.0,NaN,NaN,0.030176458
1.0,2.0,1.0,0.0,NaN,NaN,0.090393077
1.0,4.0,0.2,0.0,NaN,NaN,0.026569738
1.0,2.0,0.4,0.0,NaN,NaN,0.026479543
1.0,2.0,0.8,0.0,NaN,NaN,0.019218033
1.0,1.0,0.9,0.0,NaN,NaN,0.0179632
0.5,4.0,0.7,0.0,NaN,NaN,0.024057304
1.0,4.0,0.4,0.0,NaN,NaN,0.017692271
1.0,2.0,0.05,0.0,NaN,NaN,0.017720117
1.0,4.0,0.9,0.0,NaN,NaN,0.017388765
1.0,4.0,0.05,0.0,NaN,NaN,0.015640134
1.0,2.0,0.2,0.0,NaN,NaN,0.020608702
1.0,2.0,0.7,0.0,NaN,NaN,0.014227489
1.0,8.0,0.5,0.0,NaN,NaN,0.016690842
1.0,8.0,0.05,0.0,NaN,NaN,0.016598264
1.0,2.0,0.5,0.0,NaN,NaN,0.01642186
1.0,16.0,0.1,0.0,NaN,NaN,0.027343666
1.0,4.0,0.6,0.0,NaN,NaN,0.082840912
1.0,4.0,0.7,0.0,NaN,NaN,0.03431553
0.5,4.0,0.8,0.0,NaN,NaN,0.059139496
1.0,8.0,0.7,0.0,NaN,NaN,0.055623996
1.0,4.0,0.1,0.0,NaN,NaN,0.056399429
1.0,8.0,0.2,0.0,NaN,NaN,0.066881615
1.0,4.0,0.8,0.0,NaN,NaN,0.055446537
1.0,4.0,0.3,0.0,NaN,NaN,0.048378952
1.0,2.0,0.9,0.0,NaN,NaN,0.03545195
1.0,16.0,0.6,0.0,NaN,NaN,0.058060225
1.0,8.0,0.3,0.0,NaN,NaN,0.060360061
1.0,16.0,0.3,0.0,NaN,NaN,0.069550396
1.0,4.0,1.0,0.0,NaN,NaN,0.074173333
1.0,8.0,0.4,0.0,NaN,NaN,0.081485634
1.0,4.0,0.5,0.0,NaN,NaN,0.081925808
0.5,8.0,0.1,0.0,NaN,NaN,0.089865875
1.0,32.0,0.05,0.0,NaN,NaN,0.098645942
1.0,8.0,0.1,0.0,NaN,NaN,0.067513767
1.0,16.0,0.05,0.0,NaN,NaN,0.101054148
1.0,8.0,1.0,0.0,NaN,NaN,0.10058254
1.0,16.0,0.8,0.0,NaN,NaN,0.09144732
0.5,8.0,0.4,0.0,NaN,NaN,0.087543482
1.0,8.0,0.6,0.0,NaN,NaN,0.097740063
1.0,8.0,0.9,0.0,NaN,NaN,0.116297732
1.0,16.0,0.5,0.0,NaN,NaN,0.106024509
1.0,16.0,1.0,0.0,NaN,NaN,0.071132498
1.0,16.0,0.4,0.0,NaN,NaN,0.089257583
1.0,32.0,0.1,0.0,NaN,NaN,0.094017169
1.0,16.0,0.7,0.0,NaN,NaN,0.074389316
0.5,8.0,0.8,0.0,NaN,NaN,0.095925438
1.0,16.0,0.2,0.0,NaN,NaN,0.084323793
1.0,8.0,0.8,0.0,NaN,NaN,0.060610771
1.0,16.0,0.9,0.0,NaN,NaN,0.10121635
0.5,8.0,0.9,0.0,NaN,NaN,0.084973488
1.0,0.25,0.3,0.0,NaN,NaN,0.059033654
1.0,0.25,0.4,0.0,NaN,NaN,0.047844228
1.0,0.25,0.5,0.0,NaN,NaN,0.232956793
1.0,0.25,0.6,0.0,NaN,NaN,0.235665086
1.0,0.25,0.8,0.0,NaN,NaN,0.027833032
1.0,0.25,0.9,0.0,NaN,NaN,0.041922779
1.0,0.25,1.0,0.0,NaN,NaN,0.036418674
1.0,0.5,0.05,0.0,NaN,NaN,0.046783191
1.0,256.0,0.7,0.0,NaN,NaN,0.049414517
1.0,512.0,0.8,0.0,NaN,NaN,0.045650314
2.0,0.0625,0.6,0.0,NaN,NaN,0.040887056
2.0,0.125,0.3,0.0,NaN,NaN,0.034892064
2.0,0.25,0.05,0.0,NaN,NaN,0.039509585
2.0,0.25,0.8,0.0,NaN,NaN,0.042040476
1.0,64.0,0.5,0.0,NaN,NaN,0.580843108
1.0,128.0,0.4,0.0,NaN,NaN,0.458987197
1.0,128.0,0.5,0.0,NaN,NaN,0.292059345
1.0,64.0,0.4,0.0,NaN,NaN,0.279527533
1.0,256.0,0.05,0.0,NaN,NaN,0.311422063
1.0,128.0,0.9,0.0,NaN,NaN,0.439017894
1.0,128.0,0.3,0.0,NaN,NaN,0.23080236
1.0,64.0,1.0,0.0,NaN,NaN,0.40282385
1.0,256.0,1.0,0.0,NaN,NaN,0.402043814
1.0,256.0,0.4,0.0,NaN,NaN,0.369303039
1.0,128.0,0.05,0.0,NaN,NaN,0.450102641
1.0,256.0,0.3,0.0,NaN,NaN,0.437836053
1.0,512.0,0.05,0.0,NaN,NaN,0.379029227
1.0,256.0,0.5,0.0,NaN,NaN,0.353861663
1.0,32.0,0.2,0.0,NaN,NaN,0.304447654
1.0,32.0,0.3,0.0,NaN,NaN,0.384378247
1.0,128.0,0.8,0.0,NaN,NaN,0.395432114
2.0,0.0625,0.05,0.0,NaN,NaN,0.425593142
1.0,128.0,1.0,0.0,NaN,NaN,0.417146443
1.0,512.0,0.6,0.0,NaN,NaN,0.384305888
1.0,512.0,0.4,0.0,NaN,NaN,0.409008119
1.0,32.0,0.4,0.0,NaN,NaN,0.421110663
2.0,0.0625,0.2,0.0,NaN,NaN,0.436146077
1.0,512.0,0.5,0.0,NaN,NaN,0.470606552
1.0,512.0,0.1,0.0,NaN,NaN,0.418647849
1.0,32.0,0.5,0.0,NaN,NaN,0.264615636
2.0,0.0625,0.4,0.0,NaN,NaN,0.307850414
1.0,256.0,0.9,0.0,NaN,NaN,0.266619716
2.0,0.0625,0.5,0.0,NaN,NaN,0.320443619
2.0,0.0625,0.8,0.0,NaN,NaN,0.404751644
2.0,0.0625,0.3,0.0,NaN,NaN,0.400915173
2.0,0.0625,0.9,0.0,NaN,NaN,0.529547466
1.0,512.0,1.0,0.0,NaN,NaN,0.322409676
1.0,32.0,0.6,0.0,NaN,NaN,0.347402608
2.0,0.0625,0.1,0.0,NaN,NaN,0.276892113
2.0,0.125,0.5,0.0,NaN,NaN,0.268067318
2.0,0.125,0.2,0.0,NaN,NaN,0.229499419
2.0,0.125,0.1,0.0,NaN,NaN,0.259496657
2.0,0.125,0.05,0.0,NaN,NaN,0.18724835
2.0,0.125,0.7,0.0,NaN,NaN,0.158594243
2.0,0.0625,1.0,0.0,NaN,NaN,0.432325607
2.0,0.0625,0.7,0.0,NaN,NaN,0.489727758
2.0,0.125,1.0,0.0,NaN,NaN,0.525349928
1.0,32.0,0.7,0.0,NaN,NaN,0.650177117
2.0,0.25,0.3,0.0,NaN,NaN,0.558477601
2.0,0.25,0.2,0.0,NaN,NaN,0.550203135
2.0,0.125,0.8,0.0,NaN,NaN,0.607198287
2.0,0.125,0.9,0.0,NaN,NaN,0.516591983
2.0,0.125,0.6,0.0,NaN,NaN,0.391971285
2.0,0.25,0.6,0.0,NaN,NaN,0.410748075
1.0,32.0,0.8,0.0,NaN,NaN,0.351197204
2.0,0.125,0.4,0.0,NaN,NaN,0.315140801
2.0,0.25,0.7,0.0,NaN,NaN,0.385200239
2.0,0.5,0.1,0.0,NaN,NaN,0.377689906
2.0,0.25,1.0,0.0,NaN,NaN,0.248769861
2.0,0.25,0.5,0.0,NaN,NaN,0.244977692
2.0,0.25,0.4,0.0,NaN,NaN,0.258344018
2.0,0.5,0.2,0.0,NaN,NaN,0.356113868
2.0,0.25,0.1,0.0,NaN,NaN,0.39092294
2.0,0.5,0.3,0.0,NaN,NaN,0.354873775
1.0,32.0,0.9,0.0,NaN,NaN,0.423059725
2.0,0.5,0.4,0.0,NaN,NaN,0.423491209
2.0,0.5,0.6,0.0,NaN,NaN,0.304833934
2.0,0.5,0.7,0.0,NaN,NaN,0.200090044
2.0,0.5,0.05,0.0,NaN,NaN,0.228870747
2.0,1.0,0.05,0.0,NaN,NaN,0.230363251
2.0,0.5,1.0,0.0,NaN,NaN,0.300611335
2.0,0.5,0.9,0.0,NaN,NaN,0.461794417
2.0,1.0,0.2,0.0,NaN,NaN,0.358443919
2.0,0.25,0.9,0.0,NaN,NaN,0.48432511
2.0,1.0,0.4,0.0,NaN,NaN,0.421215764
1.0,32.0,1.0,0.0,NaN,NaN,0.323935107
2.0,0.5,0.8,0.0,NaN,NaN,0.330609488
2.0,1.0,0.6,0.0,NaN,NaN,0.264645524
2.0,1.0,0.7,0.0,NaN,NaN,0.258523214
2.0,1.0,0.9,0.0,NaN,NaN,0.271542898
2.0,0.5,0.5,0.0,NaN,NaN,0.264829909
2.0,1.0,1.0,0.0,NaN,NaN,0.254268901
2.0,1.0,0.5,0.0,NaN,NaN,0.311326146
2.0,1.0,0.1,0.0,NaN,NaN,0.348565847
1.0,64.0,0.05,0.0,NaN,NaN,0.246892704
1.0,64.0,0.1,0.0,NaN,NaN,0.311352974
2.0,1.0,0.3,0.0,NaN,NaN,0.619725814
2.0,2.0,0.1,0.0,NaN,NaN,0.459701536
2.0,16.0,0.5,0.0,NaN,NaN,0.045431744
2.0,2.0,0.3,0.0,NaN,NaN,0.1732091
2.0,2.0,0.7,0.0,NaN,NaN,0.046753294
2.0,2.0,0.5,0.0,NaN,NaN,0.107477376
2.0,1.0,0.8,0.0,NaN,NaN,0.106686754
2.0,2.0,0.2,0.0,NaN,NaN,0.223764888
2.0,16.0,0.9,0.0,NaN,NaN,0.038631759
2.0,2.0,0.05,0.0,NaN,NaN,0.351196281
2.0,32.0,0.05,0.0,NaN,NaN,0.048903864
2.0,16.0,1.0,0.0,NaN,NaN,0.038104565
1.0,64.0,0.2,0.0,NaN,NaN,0.41314265
2.0,32.0,0.1,0.0,NaN,NaN,0.053136087
2.0,32.0,0.3,0.0,NaN,NaN,0.054902404
2.0,2.0,1.0,0.0,NaN,NaN,0.317832937
2.0,2.0,0.9,0.0,NaN,NaN,0.273732008
2.0,2.0,0.8,0.0,NaN,NaN,0.286078995
2.0,4.0,0.2,0.0,NaN,NaN,0.238866716
2.0,4.0,0.1,0.0,NaN,NaN,0.192904847
2.0,2.0,0.4,0.0,NaN,NaN,0.279730664
2.0,2.0,0.6,0.0,NaN,NaN,0.261308224
2.0,4.0,0.8,0.0,NaN,NaN,0.261245947
2.0,4.0,0.6,0.0,NaN,NaN,0.153647344
2.0,4.0,0.4,0.0,NaN,NaN,0.154763387
2.0,4.0,0.5,0.0,NaN,NaN,0.129624802
2.0,4.0,1.0,0.0,NaN,NaN,0.330041597
2.0,4.0,0.05,0.0,NaN,NaN,0.325458024
2.0,4.0,0.3,0.0,NaN,NaN,0.361628279
2.0,8.0,0.2,0.0,NaN,NaN,0.363402486
2.0,8.0,0.4,0.0,NaN,NaN,0.28488467
2.0,8.0,0.3,0.0,NaN,NaN,0.253970087
1.0,64.0,0.3,0.0,NaN,NaN,0.281469356
2.0,8.0,0.1,0.0,NaN,NaN,0.17995228
2.0,8.0,0.05,0.0,NaN,NaN,0.233385613
2.0,4.0,0.7,0.0,NaN,NaN,0.253815734
2.0,4.0,0.9,0.0,NaN,NaN,0.171087867
2.0,8.0,0.7,0.0,NaN,NaN,0.254823971
2.0,8.0,0.5,0.0,NaN,NaN,0.242204755
2.0,8.0,0.6,0.0,NaN,NaN,0.27661089
2.0,8.0,0.9,0.0,NaN,NaN,0.193149448
2.0,8.0,0.8,0.0,NaN,NaN,0.192692852
1.0,64.0,0.6,0.0,NaN,NaN,0.211652971
2.0,8.0,1.0,0.0,NaN,NaN,0.183302604
1.0,64.0,0.7,0.0,NaN,NaN,0.251526182
1.0,64.0,0.8,0.0,NaN,NaN,0.363867607
1.0,64.0,0.9,0.0,NaN,NaN,0.587155019
1.0,128.0,0.1,0.0,NaN,NaN,0.280048592
1.0,128.0,0.2,0.0,NaN,NaN,0.396571516
2.0,32.0,0.2,0.0,NaN,NaN,0.12184391
1.0,128.0,0.6,0.0,NaN,NaN,0.124687718
2.0,32.0,0.6,0.0,NaN,NaN,0.120828672
2.0,32.0,0.9,0.0,NaN,NaN,0.129083442
2.0,32.0,0.4,0.0,NaN,NaN,0.110942453
2.0,64.0,1.0,0.0,NaN,NaN,0.127630928
2.0,64.0,0.05,0.0,NaN,NaN,0.153819787
2.0,64.0,0.4,0.0,NaN,NaN,0.145936912
2.0,32.0,0.5,0.0,NaN,NaN,0.197918352
2.0,64.0,0.1,0.0,NaN,NaN,0.132731453
1.0,128.0,0.7,0.0,NaN,NaN,0.149643629
2.0,32.0,0.7,0.0,NaN,NaN,0.12793749
2.0,128.0,0.05,0.0,NaN,NaN,0.096977271
2.0,128.0,0.6,0.0,NaN,NaN,0.096234433
2.0,32.0,0.8,0.0,NaN,NaN,0.132465956
2.0,64.0,0.6,0.0,NaN,NaN,0.140308902
2.0,64.0,0.7,0.0,NaN,NaN,0.24024748
2.0,64.0,0.3,0.0,NaN,NaN,0.243535478
2.0,32.0,1.0,0.0,NaN,NaN,0.275442464
2.0,256.0,0.2,0.0,NaN,NaN,0.167968414
2.0,128.0,0.2,0.0,NaN,NaN,0.205453765
2.0,64.0,0.2,0.0,NaN,NaN,0.198446819
2.0,128.0,0.7,0.0,NaN,NaN,0.156654387
2.0,64.0,0.9,0.0,NaN,NaN,0.173269822
2.0,64.0,0.5,0.0,NaN,NaN,0.273581348
2.0,128.0,0.3,0.0,NaN,NaN,0.218754677
2.0,64.0,0.8,0.0,NaN,NaN,0.19545183
2.0,256.0,0.9,0.0,NaN,NaN,0.151169868
2.0,128.0,0.1,0.0,NaN,NaN,0.243141204
2.0,256.0,0.3,0.0,NaN,NaN,0.177513122
2.0,128.0,1.0,0.0,NaN,NaN,0.131669221
2.0,128.0,0.4,0.0,NaN,NaN,0.103906734
1.0,256.0,0.1,0.0,NaN,NaN,0.163883599
2.0,128.0,0.5,0.0,NaN,NaN,0.142973317
2.0,128.0,0.9,0.0,NaN,NaN,0.189191801
2.0,512.0,0.3,0.0,NaN,NaN,0.20310291
2.0,128.0,0.8,0.0,NaN,NaN,0.229745971
2.0,512.0,0.8,0.0,NaN,NaN,0.165175566
2.0,256.0,1.0,0.0,NaN,NaN,0.176624355
1.0,256.0,0.2,0.0,NaN,NaN,0.19131672
2.0,256.0,0.5,0.0,NaN,NaN,0.105585241
2.0,256.0,0.05,0.0,NaN,NaN,0.106986699
2.0,256.0,0.6,0.0,NaN,NaN,0.105572351
2.0,256.0,0.1,0.0,NaN,NaN,0.115323998
2.0,256.0,0.4,0.0,NaN,NaN,0.257051236
2.0,512.0,0.4,0.0,NaN,NaN,0.187432931
2.0,256.0,0.7,0.0,NaN,NaN,0.134848078
2.0,512.0,0.1,0.0,NaN,NaN,0.138128915
2.0,512.0,0.6,0.0,NaN,NaN,0.091841731
2.0,256.0,0.8,0.0,NaN,NaN,0.091689854
2.0,512.0,0.2,0.0,NaN,NaN,0.147825664
2.0,512.0,0.5,0.0,NaN,NaN,0.157569253
2.0,512.0,0.05,0.0,NaN,NaN,0.140036856
2.0,512.0,0.7,0.0,NaN,NaN,0.109432836
1.0,256.0,0.6,0.0,NaN,NaN,0.05769906
1.0,256.0,0.8,0.0,NaN,NaN,0.023429701
1.0,512.0,0.2,0.0,NaN,NaN,0.036366112
1.0,512.0,0.3,0.0,NaN,NaN,0.058849135
1.0,512.0,0.7,0.0,NaN,NaN,0.092232932
1.0,512.0,0.9,0.0,NaN,NaN,0.090291362
2.0,16.0,0.05,0.0,NaN,NaN,0.034447419
2.0,16.0,0.1,0.0,NaN,NaN,0.063290407
2.0,16.0,0.2,0.0,NaN,NaN,0.037271225
2.0,16.0,0.3,0.0,NaN,NaN,0.034697787
2.0,16.0,0.6,0.0,NaN,NaN,0.021313942
2.0,16.0,0.4,0.0,NaN,NaN,0.021841017
2.0,16.0,0.7,0.0,NaN,NaN,0.022525708
2.0,16.0,0.8,0.0,NaN,NaN,0.021282006
4.0,0.5,0.7,0.0,NaN,NaN,0.039710926
4.0,1.0,0.6,0.0,NaN,NaN,0.045757607
4.0,2.0,0.4,0.0,NaN,NaN,0.038286291
4.0,4.0,0.05,0.0,NaN,NaN,0.041030938
4.0,4.0,0.9,0.0,NaN,NaN,0.037824933
4.0,8.0,0.5,0.0,NaN,NaN,0.038472682
4.0,0.125,0.1,0.0,NaN,NaN,0.645715595
4.0,0.125,0.2,0.0,NaN,NaN,0.494232942
4.0,0.25,0.05,0.0,NaN,NaN,0.385635155
4.0,0.125,1.0,0.0,NaN,NaN,0.292041227
4.0,0.25,0.8,0.0,NaN,NaN,0.34519675
4.0,0.25,0.3,0.0,NaN,NaN,0.431691119
4.0,0.25,0.4,0.0,NaN,NaN,0.49523414
4.0,0.125,0.7,0.0,NaN,NaN,0.494444485
4.0,0.125,0.8,0.0,NaN,NaN,0.462564119
4.0,0.25,1.0,0.0,NaN,NaN,0.486886758
2.0,512.0,0.9,0.0,NaN,NaN,0.561710881
4.0,0.5,0.4,0.0,NaN,NaN,0.563291134
4.0,0.5,0.3,0.0,NaN,NaN,0.429065975
4.0,0.5,0.05,0.0,NaN,NaN,0.483461493
4.0,0.25,0.7,0.0,NaN,NaN,0.377889109
4.0,0.5,0.9,0.0,NaN,NaN,0.409663609
4.0,0.25,0.6,0.0,NaN,NaN,0.427260854
2.0,512.0,1.0,0.0,NaN,NaN,0.491335587
4.0,1.0,0.4,0.0,NaN,NaN,0.44818884
4.0,1.0,0.5,0.0,NaN,NaN,0.378570373
4.0,1.0,0.05,0.0,NaN,NaN,0.387121341
4.0,1.0,0.1,0.0,NaN,NaN,0.392117374
4.0,0.0625,0.05,0.0,NaN,NaN,0.497350662
4.0,1.0,0.9,0.0,NaN,NaN,0.424841239
4.0,0.5,0.6,0.0,NaN,NaN,0.408083535
4.0,0.0625,0.1,0.0,NaN,NaN,0.32475635
4.0,0.5,0.8,0.0,NaN,NaN,0.269092989
4.0,2.0,0.2,0.0,NaN,NaN,0.265238863
4.0,2.0,0.05,0.0,NaN,NaN,0.310944091
4.0,0.0625,0.2,0.0,NaN,NaN,0.346593598
4.0,1.0,1.0,0.0,NaN,NaN,0.357526906
4.0,2.0,0.6,0.0,NaN,NaN,0.331750135
4.0,2.0,0.1,0.0,NaN,NaN,0.362663205
4.0,1.0,0.7,0.0,NaN,NaN,0.302206998
4.0,1.0,0.8,0.0,NaN,NaN,0.234482065
4.0,2.0,0.8,0.0,NaN,NaN,0.239321548
4.0,2.0,0.7,0.0,NaN,NaN,0.179651261
4.0,2.0,0.9,0.0,NaN,NaN,0.198583115
4.0,0.0625,0.3,0.0,NaN,NaN,0.321839583
4.0,2.0,1.0,0.0,NaN,NaN,0.386316831
4.0,4.0,0.3,0.0,NaN,NaN,0.282563001
4.0,2.0,0.5,0.0,NaN,NaN,0.420641736
4.0,2.0,0.3,0.0,NaN,NaN,0.486148255
4.0,4.0,0.5,0.0,NaN,NaN,0.3642599
4.0,4.0,0.4,0.0,NaN,NaN,0.373335567
4.0,4.0,0.6,0.0,NaN,NaN,0.369193724
4.0,4.0,0.7,0.0,NaN,NaN,0.337840697
4.0,8.0,0.05,0.0,NaN,NaN,0.236194685
4.0,0.0625,0.4,0.0,NaN,NaN,0.251943512
4.0,8.0,0.2,0.0,NaN,NaN,0.306376165
4.0,4.0,0.1,0.0,NaN,NaN,0.399593462
4.0,4.0,0.2,0.0,NaN,NaN,0.334898107
4.0,8.0,0.1,0.0,NaN,NaN,0.277150779
4.0,8.0,0.8,0.0,NaN,NaN,0.268348268
4.0,8.0,0.3,0.0,NaN,NaN,0.328126164
4.0,8.0,0.4,0.0,NaN,NaN,0.351528026
4.0,0.0625,0.5,0.0,NaN,NaN,0.479477401
4.0,4.0,0.8,0.0,NaN,NaN,0.423609757
4.0,4.0,1.0,0.0,NaN,NaN,0.435454285
4.0,8.0,0.9,0.0,NaN,NaN,0.46892997
4.0,8.0,1.0,0.0,NaN,NaN,0.44984749
4.0,16.0,0.4,0.0,NaN,NaN,0.425731684
4.0,16.0,0.05,0.0,NaN,NaN,0.385970998
4.0,16.0,0.1,0.0,NaN,NaN,0.304383912
4.0,8.0,0.7,0.0,NaN,NaN,0.407748777
4.0,16.0,0.6,0.0,NaN,NaN,0.456635781
4.0,16.0,0.7,0.0,NaN,NaN,0.497966854
4.0,8.0,0.6,0.0,NaN,NaN,0.581651988
4.0,16.0,0.5,0.0,NaN,NaN,0.503494651
4.0,16.0,0.8,0.0,NaN,NaN,0.471336118
4.0,16.0,0.2,0.0,NaN,NaN,0.483498155
4.0,16.0,0.3,0.0,NaN,NaN,0.406224298
4.0,32.0,0.05,0.0,NaN,NaN,0.27684037
4.0,32.0,0.7,0.0,NaN,NaN,0.086568468
4.0,32.0,0.2,0.0,NaN,NaN,0.052179108
4.0,16.0,0.9,0.0,NaN,NaN,0.037018432
4.0,32.0,0.1,0.0,NaN,NaN,0.036054805
4.0,32.0,0.4,0.0,NaN,NaN,0.042375061
4.0,0.0625,0.6,0.0,NaN,NaN,0.045638059
4.0,16.0,1.0,0.0,NaN,NaN,0.03914944
4.0,32.0,0.3,0.0,NaN,NaN,0.07157199
4.0,0.0625,0.7,0.0,NaN,NaN,0.063142779
4.0,32.0,0.8,0.0,NaN,NaN,0.083413375
4.0,0.0625,0.8,0.0,NaN,NaN,0.088757218
4.0,64.0,0.3,0.0,NaN,NaN,0.065987607
4.0,32.0,0.9,0.0,NaN,NaN,0.090824357
4.0,64.0,0.05,0.0,NaN,NaN,0.048736385
4.0,32.0,1.0,0.0,NaN,NaN,0.09020013
4.0,0.0625,0.9,0.0,NaN,NaN,0.068500942
4.0,32.0,0.6,0.0,NaN,NaN,0.050139037
4.0,32.0,0.5,0.0,NaN,NaN,0.049923336
4.0,64.0,0.4,0.0,NaN,NaN,0.109607287
4.0,64.0,0.7,0.0,NaN,NaN,0.109802335
4.0,64.0,0.5,0.0,NaN,NaN,0.091485901
4.0,64.0,0.6,0.0,NaN,NaN,0.127526079
4.0,64.0,1.0,0.0,NaN,NaN,0.097306593
4.0,64.0,0.2,0.0,NaN,NaN,0.068709392
4.0,64.0,0.1,0.0,NaN,NaN,0.121350566
4.0,0.0625,1.0,0.0,NaN,NaN,0.12389096
4.0,128.0,0.6,0.0,NaN,NaN,0.084207393
4.0,128.0,0.2,0.0,NaN,NaN,0.127576878
4.0,128.0,0.1,0.0,NaN,NaN,0.087175634
4.0,64.0,0.9,0.0,NaN,NaN,0.074257404
4.0,128.0,0.3,0.0,NaN,NaN,0.074541368
4.0,128.0,0.05,0.0,NaN,NaN,0.074480528
4.0,64.0,0.8,0.0,NaN,NaN,0.057445447
4.0,128.0,0.5,0.0,NaN,NaN,0.098673649
4.0,128.0,0.4,0.0,NaN,NaN,0.084835556
4.0,256.0,0.05,0.0,NaN,NaN,0.073680228
4.0,128.0,0.7,0.0,NaN,NaN,0.074073917
4.0,128.0,0.9,0.0,NaN,NaN,0.111465279
4.0,256.0,0.2,0.0,NaN,NaN,0.059370069
4.0,128.0,1.0,0.0,NaN,NaN,0.060114946
4.0,128.0,0.8,0.0,NaN,NaN,0.059266298
4.0,256.0,0.1,0.0,NaN,NaN,0.043044479
4.0,256.0,0.4,0.0,NaN,NaN,0.236223524
4.0,256.0,0.3,0.0,NaN,NaN,0.27020451
4.0,256.0,0.5,0.0,NaN,NaN,0.23687026
4.0,512.0,0.1,0.0,NaN,NaN,0.033877433
4.0,0.125,0.05,0.0,NaN,NaN,0.301733893
4.0,512.0,0.5,0.0,NaN,NaN,0.014364743
4.0,256.0,0.6,0.0,NaN,NaN,0.205612379
4.0,512.0,0.7,0.0,NaN,NaN,0.031059409
4.0,512.0,1.0,0.0,NaN,NaN,0.037803583
8.0,0.0625,0.2,0.0,NaN,NaN,0.036567283
4.0,0.125,0.3,0.0,NaN,NaN,0.321962806
8.0,0.0625,0.6,0.0,NaN,NaN,0.030959769
4.0,0.125,0.5,0.0,NaN,NaN,0.560826057
4.0,0.125,0.4,0.0,NaN,NaN,0.534201292
4.0,0.125,0.6,0.0,NaN,NaN,0.472784846
4.0,0.125,0.9,0.0,NaN,NaN,0.679206928
4.0,0.25,0.2,0.0,NaN,NaN,0.537921322
4.0,0.25,0.1,0.0,NaN,NaN,0.598922536
4.0,0.25,0.5,0.0,NaN,NaN,0.430927637
4.0,512.0,0.6,0.0,NaN,NaN,0.599357412
4.0,512.0,0.9,0.0,NaN,NaN,0.57709889
4.0,512.0,0.8,0.0,NaN,NaN,0.366157444
8.0,0.0625,0.05,0.0,NaN,NaN,0.188826268
8.0,0.0625,0.1,0.0,NaN,NaN,0.095188081
8.0,0.0625,0.8,0.0,NaN,NaN,0.091825661
8.0,0.0625,0.4,0.0,NaN,NaN,0.091743376
8.0,0.125,0.05,0.0,NaN,NaN,0.090522828
8.0,0.0625,1.0,0.0,NaN,NaN,0.094300498
8.0,0.125,0.7,0.0,NaN,NaN,0.0921072
8.0,0.0625,0.9,0.0,NaN,NaN,0.027515123
8.0,0.125,0.3,0.0,NaN,NaN,0.022865603
8.0,0.0625,0.3,0.0,NaN,NaN,0.021341269
8.0,0.125,0.6,0.0,NaN,NaN,0.122819304
8.0,0.125,0.4,0.0,NaN,NaN,0.172972453
8.0,0.0625,0.5,0.0,NaN,NaN,0.12149175
8.0,0.25,0.05,0.0,NaN,NaN,0.201247711
8.0,0.125,1.0,0.0,NaN,NaN,0.201779399
8.0,0.125,0.5,0.0,NaN,NaN,0.20040793
8.0,0.25,0.3,0.0,NaN,NaN,0.201288028
8.0,0.0625,0.7,0.0,NaN,NaN,0.200489877
8.0,0.25,0.7,0.0,NaN,NaN,0.21516817
8.0,0.25,0.2,0.0,NaN,NaN,0.159855196
8.0,0.125,0.1,0.0,NaN,NaN,0.158646463
8.0,0.5,0.3,0.0,NaN,NaN,0.150327733
8.0,0.25,0.9,0.0,NaN,NaN,0.112556688
8.0,0.25,0.6,0.0,NaN,NaN,0.131125394
8.0,0.125,0.2,0.0,NaN,NaN,0.134063411
8.0,0.25,1.0,0.0,NaN,NaN,0.063070213
8.0,0.25,0.1,0.0,NaN,NaN,0.092402572
4.0,0.25,0.9,0.0,NaN,NaN,0.088367146
8.0,0.5,0.5,0.0,NaN,NaN,0.066147293
8.0,0.125,0.8,0.0,NaN,NaN,0.040674895
8.0,0.5,0.6,0.0,NaN,NaN,0.03822243
4.0,0.5,0.1,0.0,NaN,NaN,0.052443587
8.0,0.5,1.0,0.0,NaN,NaN,0.054604196
8.0,0.5,0.2,0.0,NaN,NaN,0.052676181
8.0,0.25,0.8,0.0,NaN,NaN,0.051937844
8.0,1.0,0.1,0.0,NaN,NaN,0.052730766
8.0,0.125,0.9,0.0,NaN,NaN,0.054761113
8.0,0.5,0.4,0.0,NaN,NaN,0.042567034
8.0,1.0,0.2,0.0,NaN,NaN,0.044544018
8.0,0.25,0.4,0.0,NaN,NaN,0.040393094
8.0,1.0,0.6,0.0,NaN,NaN,0.054995739
8.0,0.5,0.9,0.0,NaN,NaN,0.043359955
8.0,0.5,0.05,0.0,NaN,NaN,0.04648708
8.0,0.25,0.5,0.0,NaN,NaN,0.044406639
8.0,1.0,0.5,0.0,NaN,NaN,0.045916031
4.0,0.5,0.2,0.0,NaN,NaN,0.048588641
8.0,1.0,0.9,0.0,NaN,NaN,0.02604618
8.0,2.0,0.05,0.0,NaN,NaN,0.0446452
8.0,1.0,0.8,0.0,NaN,NaN,0.019070592
8.0,1.0,0.05,0.0,NaN,NaN,0.042376463
8.0,0.5,0.1,0.0,NaN,NaN,0.043582425
8.0,0.5,0.7,0.0,NaN,NaN,0.065566321
8.0,2.0,0.2,0.0,NaN,NaN,0.061234818
8.0,1.0,1.0,0.0,NaN,NaN,0.060986501
8.0,2.0,0.3,0.0,NaN,NaN,0.062490276
8.0,2.0,0.1,0.0,NaN,NaN,0.053220707
8.0,1.0,0.7,0.0,NaN,NaN,0.053427983
8.0,2.0,0.4,0.0,NaN,NaN,0.052262239
8.0,1.0,0.3,0.0,NaN,NaN,0.051740514
8.0,0.5,0.8,0.0,NaN,NaN,0.075670076
8.0,1.0,0.4,0.0,NaN,NaN,0.066839619
4.0,0.5,1.0,0.0,NaN,NaN,0.099877983
4.0,0.5,0.5,0.0,NaN,NaN,0.114889276
4.0,1.0,0.2,0.0,NaN,NaN,0.070850988
4.0,1.0,0.3,0.0,NaN,NaN,0.070560039
4.0,256.0,0.7,0.0,NaN,NaN,0.03470103
4.0,256.0,0.8,0.0,NaN,NaN,0.043412764
4.0,256.0,0.9,0.0,NaN,NaN,0.040944498
4.0,256.0,1.0,0.0,NaN,NaN,0.056592488
4.0,512.0,0.05,0.0,NaN,NaN,0.059509761
4.0,512.0,0.2,0.0,NaN,NaN,0.033189455
4.0,512.0,0.3,0.0,NaN,NaN,0.057434852
4.0,512.0,0.4,0.0,NaN,NaN,0.040224458
8.0,32.0,0.8,0.0,NaN,NaN,0.04218316
8.0,64.0,0.7,0.0,NaN,NaN,0.030355904
8.0,128.0,0.4,0.0,NaN,NaN,0.034819806
8.0,256.0,0.1,0.0,NaN,NaN,0.039437292
8.0,256.0,0.9,0.0,NaN,NaN,0.02604421
8.0,512.0,0.6,0.0,NaN,NaN,0.026719994
8.0,4.0,0.8,0.0,NaN,NaN,0.498019604
8.0,4.0,1.0,0.0,NaN,NaN,0.492786581
8.0,8.0,0.2,0.0,NaN,NaN,0.493509326
8.0,8.0,0.9,0.0,NaN,NaN,0.540274482
8.0,8.0,0.3,0.0,NaN,NaN,0.539813467
8.0,8.0,0.5,0.0,NaN,NaN,0.552473784
8.0,8.0,0.7,0.0,NaN,NaN,0.54119737
8.0,16.0,0.3,0.0,NaN,NaN,0.470575613
8.0,16.0,0.5,0.0,NaN,NaN,0.373107998
8.0,16.0,0.05,0.0,NaN,NaN,0.43525429
8.0,16.0,0.9,0.0,NaN,NaN,0.393127743
8.0,16.0,0.1,0.0,NaN,NaN,0.365404929
8.0,16.0,0.7,0.0,NaN,NaN,0.383474791
8.0,32.0,0.3,0.0,NaN,NaN,0.364519829
8.0,16.0,0.4,0.0,NaN,NaN,0.407973902
8.0,32.0,0.5,0.0,NaN,NaN,0.502084539
8.0,32.0,0.05,0.0,NaN,NaN,0.47314424
8.0,2.0,0.5,0.0,NaN,NaN,0.526326209
8.0,32.0,0.1,0.0,NaN,NaN,0.400162262
8.0,64.0,0.3,0.0,NaN,NaN,0.393768799
8.0,2.0,0.6,0.0,NaN,NaN,0.476408007
8.0,32.0,1.0,0.0,NaN,NaN,0.354694685
8.0,32.0,0.7,0.0,NaN,NaN,0.34263852
8.0,2.0,0.7,0.0,NaN,NaN,0.519748877
8.0,32.0,0.4,0.0,NaN,NaN,0.373572541
8.0,64.0,0.5,0.0,NaN,NaN,0.430182872
8.0,2.0,0.8,0.0,NaN,NaN,0.437903626
8.0,64.0,0.2,0.0,NaN,NaN,0.343338341
8.0,64.0,0.1,0.0,NaN,NaN,0.418116006
8.0,64.0,0.8,0.0,NaN,NaN,0.349676362
8.0,128.0,0.05,0.0,NaN,NaN,0.308849742
8.0,2.0,0.9,0.0,NaN,NaN,0.297153503
8.0,128.0,0.2,0.0,NaN,NaN,0.164926226
8.0,64.0,0.4,0.0,NaN,NaN,0.219979299
8.0,64.0,0.6,0.0,NaN,NaN,0.296808082
8.0,64.0,0.9,0.0,NaN,NaN,0.229030528
8.0,64.0,1.0,0.0,NaN,NaN,0.254493797
8.0,128.0,0.5,0.0,NaN,NaN,0.238842894
8.0,128.0,0.8,0.0,NaN,NaN,0.256108907
8.0,128.0,1.0,0.0,NaN,NaN,0.315691347
8.0,128.0,0.3,0.0,NaN,NaN,0.315485757
8.0,2.0,1.0,0.0,NaN,NaN,0.403870801
8.0,128.0,0.1,0.0,NaN,NaN,0.36228653
8.0,128.0,0.7,0.0,NaN,NaN,0.362736395
8.0,256.0,0.2,0.0,NaN,NaN,0.411962265
8.0,128.0,0.6,0.0,NaN,NaN,0.436265676
8.0,4.0,0.05,0.0,NaN,NaN,0.509084845
8.0,256.0,0.5,0.0,NaN,NaN,0.34852309
8.0,256.0,0.7,0.0,NaN,NaN,0.360161748
8.0,128.0,0.9,0.0,NaN,NaN,0.301688493
8.0,256.0,0.4,0.0,NaN,NaN,0.286975475
8.0,256.0,0.05,0.0,NaN,NaN,0.36238679
8.0,256.0,0.3,0.0,NaN,NaN,0.331888408
8.0,512.0,0.2,0.0,NaN,NaN,0.354124267
8.0,256.0,1.0,0.0,NaN,NaN,0.37064368
8.0,512.0,0.4,0.0,NaN,NaN,0.41619151
8.0,4.0,0.1,0.0,NaN,NaN,0.335692602
8.0,256.0,0.6,0.0,NaN,NaN,0.267499462
8.0,512.0,0.1,0.0,NaN,NaN,0.356855459
8.0,512.0,0.05,0.0,NaN,NaN,0.356847696
8.0,512.0,1.0,0.0,NaN,NaN,0.280713931
8.0,256.0,0.8,0.0,NaN,NaN,0.329210327
8.0,512.0,0.7,0.0,NaN,NaN,0.422269281
8.0,512.0,0.5,0.0,NaN,NaN,0.457220407
8.0,512.0,0.3,0.0,NaN,NaN,0.341307803
16.0,0.0625,0.1,0.0,NaN,NaN,0.351249509
8.0,512.0,0.8,0.0,NaN,NaN,0.333017353
16.0,0.0625,0.3,0.0,NaN,NaN,0.361970137
8.0,512.0,0.9,0.0,NaN,NaN,0.349425749
16.0,0.0625,0.05,0.0,NaN,NaN,0.324442943
16.0,0.0625,0.2,0.0,NaN,NaN,0.310569263
16.0,0.0625,0.6,0.0,NaN,NaN,0.285403697
16.0,0.0625,0.8,0.0,NaN,NaN,0.406145644
16.0,0.0625,0.4,0.0,NaN,NaN,0.397076514
16.0,0.0625,1.0,0.0,NaN,NaN,0.416648509
16.0,0.0625,0.5,0.0,NaN,NaN,0.352001721
16.0,0.125,0.4,0.0,NaN,NaN,0.310318847
8.0,4.0,0.2,0.0,NaN,NaN,0.351250521
16.0,0.125,0.2,0.0,NaN,NaN,0.28477217
16.0,0.0625,0.9,0.0,NaN,NaN,0.102527984
16.0,0.125,0.05,0.0,NaN,NaN,0.127223475
16.0,0.0625,0.7,0.0,NaN,NaN,0.12910331
8.0,4.0,0.3,0.0,NaN,NaN,0.170940476
16.0,0.125,0.1,0.0,NaN,NaN,0.166307737
16.0,0.25,0.05,0.0,NaN,NaN,0.157625259
16.0,0.125,0.6,0.0,NaN,NaN,0.146664912
8.0,4.0,0.4,0.0,NaN,NaN,0.103683551
16.0,0.125,0.9,0.0,NaN,NaN,0.058943688
16.0,0.125,0.3,0.0,NaN,NaN,0.067665101
8.0,4.0,0.5,0.0,NaN,NaN,0.105237393
16.0,0.125,0.7,0.0,NaN,NaN,0.108390768
16.0,0.125,0.5,0.0,NaN,NaN,0.147571466
8.0,4.0,0.6,0.0,NaN,NaN,0.148703501
16.0,0.125,0.8,0.0,NaN,NaN,0.213571133
16.0,0.25,0.5,0.0,NaN,NaN,0.406912436
16.0,0.25,0.2,0.0,NaN,NaN,0.323191119
16.0,0.25,0.3,0.0,NaN,NaN,0.32078726
16.0,0.125,1.0,0.0,NaN,NaN,0.149836699
16.0,1.0,1.0,0.0,NaN,NaN,0.040962651
16.0,0.25,0.7,0.0,NaN,NaN,0.116630754
16.0,0.25,0.4,0.0,NaN,NaN,0.147913955
16.0,2.0,0.1,0.0,NaN,NaN,0.040840279
16.0,0.25,0.1,0.0,NaN,NaN,0.188640914
16.0,0.5,0.1,0.0,NaN,NaN,0.252139034
16.0,0.25,0.6,0.0,NaN,NaN,0.292950098
16.0,0.25,0.9,0.0,NaN,NaN,0.306310344
16.0,0.5,0.2,0.0,NaN,NaN,0.267039721
16.0,0.5,0.05,0.0,NaN,NaN,0.253288943
16.0,2.0,0.4,0.0,NaN,NaN,0.012528991
16.0,0.5,0.4,0.0,NaN,NaN,0.219298851
16.0,0.5,0.3,0.0,NaN,NaN,0.224245213
16.0,0.25,0.8,0.0,NaN,NaN,0.194861803
16.0,0.5,0.8,0.0,NaN,NaN,0.162185681
16.0,0.5,0.5,0.0,NaN,NaN,0.185737443
16.0,0.25,1.0,0.0,NaN,NaN,0.19378248
16.0,2.0,0.7,0.0,NaN,NaN,0.041853429
16.0,0.5,0.9,0.0,NaN,NaN,0.278281138
16.0,0.5,0.7,0.0,NaN,NaN,0.240050539
16.0,1.0,0.2,0.0,NaN,NaN,0.192785963
8.0,4.0,0.7,0.0,NaN,NaN,0.244052496
16.0,1.0,0.1,0.0,NaN,NaN,0.163612453
16.0,0.5,1.0,0.0,NaN,NaN,0.180817323
16.0,0.5,0.6,0.0,NaN,NaN,0.079820192
16.0,4.0,0.2,0.0,NaN,NaN,0.029418613
16.0,1.0,0.05,0.0,NaN,NaN,0.07189061
16.0,4.0,0.8,0.0,NaN,NaN,0.027015558
8.0,4.0,0.9,0.0,NaN,NaN,0.134709369
8.0,8.0,0.05,0.0,NaN,NaN,0.112679842
8.0,8.0,0.1,0.0,NaN,NaN,0.409010262
8.0,8.0,0.4,0.0,NaN,NaN,0.499380625
8.0,8.0,0.6,0.0,NaN,NaN,0.634133779
8.0,8.0,0.8,0.0,NaN,NaN,0.35552612
16.0,2.0,1.0,0.0,NaN,NaN,0.352811297
16.0,2.0,0.2,0.0,NaN,NaN,0.325638771
16.0,2.0,0.3,0.0,NaN,NaN,0.251597394
16.0,4.0,0.9,0.0,NaN,NaN,0.3296496
8.0,8.0,1.0,0.0,NaN,NaN,0.201853991
16.0,4.0,0.05,0.0,NaN,NaN,0.021739223
16.0,2.0,0.5,0.0,NaN,NaN,0.053149725
16.0,2.0,0.6,0.0,NaN,NaN,0.052327786
16.0,4.0,0.5,0.0,NaN,NaN,0.049552342
16.0,8.0,0.2,0.0,NaN,NaN,0.054595044
16.0,4.0,0.6,0.0,NaN,NaN,0.049914799
16.0,8.0,0.5,0.0,NaN,NaN,0.071513509
16.0,8.0,0.1,0.0,NaN,NaN,0.199172748
8.0,16.0,0.2,0.0,NaN,NaN,0.200489458
16.0,8.0,0.9,0.0,NaN,NaN,0.25793644
16.0,4.0,0.1,0.0,NaN,NaN,0.235456259
16.0,2.0,0.8,0.0,NaN,NaN,0.235077803
16.0,8.0,0.3,0.0,NaN,NaN,0.325932398
16.0,16.0,0.1,0.0,NaN,NaN,0.314209438
16.0,4.0,0.3,0.0,NaN,NaN,0.288377352
16.0,4.0,0.7,0.0,NaN,NaN,0.279364301
16.0,8.0,0.8,0.0,NaN,NaN,0.269639821
16.0,2.0,0.9,0.0,NaN,NaN,0.170225129
16.0,16.0,0.5,0.0,NaN,NaN,0.170925099
16.0,16.0,0.8,0.0,NaN,NaN,0.252043374
8.0,16.0,0.6,0.0,NaN,NaN,0.120700731
16.0,4.0,0.4,0.0,NaN,NaN,0.187478303
16.0,32.0,0.1,0.0,NaN,NaN,0.171939631
16.0,8.0,1.0,0.0,NaN,NaN,0.173713506
16.0,4.0,1.0,0.0,NaN,NaN,0.113751562
16.0,8.0,0.4,0.0,NaN,NaN,0.088823372
16.0,8.0,0.05,0.0,NaN,NaN,0.096018241
16.0,16.0,0.4,0.0,NaN,NaN,0.137610012
16.0,32.0,0.4,0.0,NaN,NaN,0.135939773
16.0,32.0,0.8,0.0,NaN,NaN,0.201931389
16.0,8.0,0.7,0.0,NaN,NaN,0.261998149
16.0,16.0,0.6,0.0,NaN,NaN,0.262241054
16.0,16.0,0.05,0.0,NaN,NaN,0.229213819
16.0,32.0,0.05,0.0,NaN,NaN,0.170323551
16.0,64.0,0.4,0.0,NaN,NaN,0.224882043
16.0,64.0,0.05,0.0,NaN,NaN,0.193759221
8.0,16.0,0.8,0.0,NaN,NaN,0.200576188
16.0,8.0,0.6,0.0,NaN,NaN,0.239402539
16.0,32.0,0.2,0.0,NaN,NaN,0.188581541
16.0,16.0,0.2,0.0,NaN,NaN,0.19678725
16.0,32.0,0.7,0.0,NaN,NaN,0.19173821
16.0,16.0,0.7,0.0,NaN,NaN,0.205942886
16.0,16.0,0.3,0.0,NaN,NaN,0.241660168
8.0,16.0,1.0,0.0,NaN,NaN,0.188376594
16.0,64.0,0.7,0.0,NaN,NaN,0.125029196
16.0,64.0,1.0,0.0,NaN,NaN,0.109570656
16.0,32.0,0.9,0.0,NaN,NaN,0.069228697
16.0,64.0,0.3,0.0,NaN,NaN,0.093082098
16.0,128.0,0.3,0.0,NaN,NaN,0.126923357
16.0,128.0,0.1,0.0,NaN,NaN,0.139674142
16.0,16.0,0.9,0.0,NaN,NaN,0.075779437
16.0,64.0,0.5,0.0,NaN,NaN,0.083366181
16.0,16.0,1.0,0.0,NaN,NaN,0.079158503
16.0,64.0,0.9,0.0,NaN,NaN,0.063445365
8.0,32.0,0.2,0.0,NaN,NaN,0.084958412
16.0,32.0,0.5,0.0,NaN,NaN,0.068793902
16.0,32.0,0.3,0.0,NaN,NaN,0.100737743
16.0,64.0,0.1,0.0,NaN,NaN,0.069585495
16.0,128.0,0.05,0.0,NaN,NaN,0.066940458
8.0,32.0,0.6,0.0,NaN,NaN,0.073980937
16.0,32.0,1.0,0.0,NaN,NaN,0.069843204
16.0,64.0,0.6,0.0,NaN,NaN,0.019196367
16.0,32.0,0.6,0.0,NaN,NaN,0.073541308
8.0,32.0,0.9,0.0,NaN,NaN,0.111677003
16.0,64.0,0.2,0.0,NaN,NaN,0.109768528
16.0,64.0,0.8,0.0,NaN,NaN,0.050848535
16.0,128.0,0.2,0.0,NaN,NaN,0.073624404
8.0,64.0,0.05,0.0,NaN,NaN,0.054595511
16.0,1.0,0.4,0.0,NaN,NaN,0.0347914
16.0,1.0,0.3,0.0,NaN,NaN,0.033118564
16.0,1.0,0.5,0.0,NaN,NaN,0.01918149
16.0,1.0,0.6,0.0,NaN,NaN,0.020040309
16.0,1.0,0.7,0.0,NaN,NaN,0.011666335
16.0,2.0,0.05,0.0,NaN,NaN,0.017099612
16.0,1.0,0.9,0.0,NaN,NaN,0.022048829
16.0,1.0,0.8,0.0,NaN,NaN,0.012773874
32.0,0.125,0.8,0.0,NaN,NaN,0.026586279
32.0,0.25,0.7,0.0,NaN,NaN,0.029960274
32.0,0.5,0.4,0.0,NaN,NaN,0.029179242
32.0,1.0,0.1,0.0,NaN,NaN,0.03972927
32.0,1.0,0.9,0.0,NaN,NaN,0.049003814
32.0,2.0,0.6,0.0,NaN,NaN,0.030342568
16.0,256.0,0.6,0.0,NaN,NaN,0.485692775
16.0,512.0,1.0,0.0,NaN,NaN,0.440331506
16.0,256.0,0.9,0.0,NaN,NaN,0.444480231
16.0,512.0,0.7,0.0,NaN,NaN,0.447040053
16.0,512.0,0.2,0.0,NaN,NaN,0.342064713
16.0,512.0,0.4,0.0,NaN,NaN,0.299144516
16.0,512.0,0.6,0.0,NaN,NaN,0.333421523
16.0,512.0,0.1,0.0,NaN,NaN,0.403762364
32.0,0.0625,0.1,0.0,NaN,NaN,0.291725493
32.0,0.0625,0.3,0.0,NaN,NaN,0.343679916
32.0,0.0625,0.6,0.0,NaN,NaN,0.344466093
16.0,128.0,0.4,0.0,NaN,NaN,0.36236747
32.0,0.0625,1.0,0.0,NaN,NaN,0.348851149
32.0,0.0625,0.4,0.0,NaN,NaN,0.342332568
16.0,128.0,0.5,0.0,NaN,NaN,0.43735428
32.0,0.0625,0.05,0.0,NaN,NaN,0.388051307
32.0,0.0625,0.7,0.0,NaN,NaN,0.476696022
32.0,0.125,0.3,0.0,NaN,NaN,0.544280271
16.0,128.0,0.6,0.0,NaN,NaN,0.491161855
32.0,0.125,0.1,0.0,NaN,NaN,0.461705742
32.0,0.25,0.05,0.0,NaN,NaN,0.460646185
32.0,0.125,0.7,0.0,NaN,NaN,0.472717783
32.0,0.125,0.4,0.0,NaN,NaN,0.397613876
16.0,128.0,0.7,0.0,NaN,NaN,0.438974123
32.0,0.25,0.4,0.0,NaN,NaN,0.448989522
32.0,0.25,0.3,0.0,NaN,NaN,0.492566255
32.0,0.125,0.6,0.0,NaN,NaN,0.414881342
32.0,0.125,0.05,0.0,NaN,NaN,0.414403375
32.0,0.25,0.2,0.0,NaN,NaN,0.336053767
16.0,128.0,0.8,0.0,NaN,NaN,0.362033447
32.0,0.25,0.5,0.0,NaN,NaN,0.419124242
32.0,0.25,0.8,0.0,NaN,NaN,0.406735778
32.0,0.25,1.0,0.0,NaN,NaN,0.346851447
32.0,0.5,0.05,0.0,NaN,NaN,0.375751488
32.0,0.5,0.1,0.0,NaN,NaN,0.391133602
32.0,0.25,0.1,0.0,NaN,NaN,0.35021204
32.0,0.25,0.6,0.0,NaN,NaN,0.329962222
32.0,0.5,0.3,0.0,NaN,NaN,0.266990658
32.0,0.5,0.5,0.0,NaN,NaN,0.261309697
16.0,128.0,0.9,0.0,NaN,NaN,0.270605113
32.0,0.5,0.8,0.0,NaN,NaN,0.255020361
32.0,0.5,0.7,0.0,NaN,NaN,0.366920121
32.0,0.25,0.9,0.0,NaN,NaN,0.334633876
32.0,0.5,0.2,0.0,NaN,NaN,0.403367503
32.0,0.5,0.9,0.0,NaN,NaN,0.231427704
32.0,0.5,1.0,0.0,NaN,NaN,0.351965995
32.0,1.0,0.5,0.0,NaN,NaN,0.283635148
32.0,1.0,0.2,0.0,NaN,NaN,0.296170353
16.0,128.0,1.0,0.0,NaN,NaN,0.300205871
32.0,0.5,0.6,0.0,NaN,NaN,0.294431238
32.0,1.0,0.8,0.0,NaN,NaN,0.303708806
32.0,1.0,0.05,0.0,NaN,NaN,0.358309915
32.0,1.0,0.6,0.0,NaN,NaN,0.308429988
32.0,1.0,0.4,0.0,NaN,NaN,0.289747744
32.0,1.0,1.0,0.0,NaN,NaN,0.320657167
16.0,256.0,0.05,0.0,NaN,NaN,0.531785547
32.0,2.0,0.2,0.0,NaN,NaN,0.497624027
32.0,1.0,0.3,0.0,NaN,NaN,0.442972491
32.0,1.0,0.7,0.0,NaN,NaN,0.402302643
32.0,2.0,0.4,0.0,NaN,NaN,0.369461771
32.0,2.0,0.3,0.0,NaN,NaN,0.381959401
32.0,2.0,0.7,0.0,NaN,NaN,0.448441487
32.0,2.0,0.1,0.0,NaN,NaN,0.463317422
32.0,2.0,0.05,0.0,NaN,NaN,0.415022502
32.0,2.0,1.0,0.0,NaN,NaN,0.527179013
32.0,4.0,0.3,0.0,NaN,NaN,0.522314532
32.0,4.0,0.2,0.0,NaN,NaN,0.501420636
32.0,2.0,0.5,0.0,NaN,NaN,0.479899743
32.0,4.0,0.05,0.0,NaN,NaN,0.348247653
32.0,2.0,0.8,0.0,NaN,NaN,0.263869866
32.0,2.0,0.9,0.0,NaN,NaN,0.323032757
32.0,4.0,0.6,0.0,NaN,NaN,0.359207989
16.0,256.0,0.1,0.0,NaN,NaN,0.258791269
32.0,4.0,0.7,0.0,NaN,NaN,0.358058674
32.0,4.0,0.5,0.0,NaN,NaN,0.397144927
32.0,4.0,1.0,0.0,NaN,NaN,0.272638207
32.0,4.0,0.1,0.0,NaN,NaN,0.180046173
32.0,8.0,0.2,0.0,NaN,NaN,0.177431113
32.0,4.0,0.8,0.0,NaN,NaN,0.015274095
32.0,8.0,0.1,0.0,NaN,NaN,0.02784777
16.0,256.0,0.2,0.0,NaN,NaN,0.031183876
32.0,4.0,0.4,0.0,NaN,NaN,0.01825692
16.0,256.0,0.3,0.0,NaN,NaN,0.021479747
16.0,256.0,0.4,0.0,NaN,NaN,0.02097696
32.0,8.0,0.5,0.0,NaN,NaN,0.01786202
32.0,4.0,0.9,0.0,NaN,NaN,0.018101823
32.0,8.0,0.3,0.0,NaN,NaN,0.016624689
32.0,8.0,0.6,0.0,NaN,NaN,0.036236714
32.0,8.0,0.9,0.0,NaN,NaN,0.017850212
32.0,8.0,0.05,0.0,NaN,NaN,0.01223571
32.0,8.0,0.8,0.0,NaN,NaN,0.016321898
32.0,16.0,0.05,0.0,NaN,NaN,0.016482983
32.0,8.0,0.4,0.0,NaN,NaN,0.017019338
32.0,8.0,1.0,0.0,NaN,NaN,0.016520799
32.0,16.0,0.8,0.0,NaN,NaN,0.017149296
32.0,8.0,0.7,0.0,NaN,NaN,0.017098287
32.0,16.0,0.1,0.0,NaN,NaN,0.01752387
32.0,16.0,0.5,0.0,NaN,NaN,0.016632448
32.0,16.0,0.2,0.0,NaN,NaN,0.045692092
32.0,16.0,0.9,0.0,NaN,NaN,0.046876538
32.0,16.0,0.4,0.0,NaN,NaN,0.017084732
32.0,32.0,0.3,0.0,NaN,NaN,0.016006208
32.0,16.0,0.7,0.0,NaN,NaN,0.017091256
32.0,16.0,0.3,0.0,NaN,NaN,0.016005644
16.0,256.0,0.5,0.0,NaN,NaN,0.020685293
32.0,32.0,0.1,0.0,NaN,NaN,0.017194708
32.0,16.0,0.6,0.0,NaN,NaN,0.017228901
32.0,32.0,0.05,0.0,NaN,NaN,0.016511179
32.0,32.0,0.2,0.0,NaN,NaN,0.017872229
32.0,32.0,0.4,0.0,NaN,NaN,0.018066153
32.0,32.0,0.9,0.0,NaN,NaN,0.017527671
32.0,32.0,0.6,0.0,NaN,NaN,0.017104586
32.0,32.0,0.5,0.0,NaN,NaN,0.046852784
32.0,32.0,0.7,0.0,NaN,NaN,0.017533575
32.0,16.0,1.0,0.0,NaN,NaN,0.017170695
32.0,64.0,0.05,0.0,NaN,NaN,0.017795129
32.0,32.0,0.8,0.0,NaN,NaN,0.031392054
16.0,256.0,0.7,0.0,NaN,NaN,0.104951473
32.0,64.0,0.1,0.0,NaN,NaN,0.148980722
32.0,32.0,1.0,0.0,NaN,NaN,0.084550284
16.0,256.0,0.8,0.0,NaN,NaN,0.091101512
32.0,128.0,0.2,0.0,NaN,NaN,0.029522973
16.0,256.0,1.0,0.0,NaN,NaN,0.049546358
32.0,128.0,0.5,0.0,NaN,NaN,0.036531917
16.0,512.0,0.3,0.0,NaN,NaN,0.133424729
32.0,128.0,0.7,0.0,NaN,NaN,0.049930999
32.0,128.0,1.0,0.0,NaN,NaN,0.037478474
16.0,512.0,0.05,0.0,NaN,NaN,0.488965936
32.0,256.0,0.4,0.0,NaN,NaN,0.043278312
32.0,256.0,0.9,0.0,NaN,NaN,0.041262107
16.0,512.0,0.5,0.0,NaN,NaN,0.35058902
16.0,512.0,0.8,0.0,NaN,NaN,0.717488076
32.0,128.0,0.6,0.0,NaN,NaN,0.681800758
32.0,128.0,0.8,0.0,NaN,NaN,0.443133588
16.0,512.0,0.9,0.0,NaN,NaN,0.406779225
32.0,256.0,0.2,0.0,NaN,NaN,0.521158934
32.0,256.0,0.1,0.0,NaN,NaN,0.495503294
32.0,256.0,0.05,0.0,NaN,NaN,0.418688094
32.0,128.0,0.9,0.0,NaN,NaN,0.38120259
32.0,256.0,0.3,0.0,NaN,NaN,0.020736578
32.0,256.0,0.7,0.0,NaN,NaN,0.017978921
32.0,256.0,0.6,0.0,NaN,NaN,0.020769002
32.0,0.0625,0.2,0.0,NaN,NaN,0.153578313
32.0,512.0,0.3,0.0,NaN,NaN,0.154077732
32.0,256.0,0.5,0.0,NaN,NaN,0.152572977
32.0,512.0,0.05,0.0,NaN,NaN,0.149626931
32.0,256.0,0.8,0.0,NaN,NaN,0.15054105
32.0,512.0,1.0,0.0,NaN,NaN,0.151389198
32.0,512.0,0.1,0.0,NaN,NaN,0.183734564
32.0,512.0,0.8,0.0,NaN,NaN,0.149442186
32.0,512.0,0.7,0.0,NaN,NaN,0.175556912
32.0,256.0,1.0,0.0,NaN,NaN,0.110471753
32.0,512.0,0.4,0.0,NaN,NaN,0.051262421
64.0,0.0625,0.6,0.0,NaN,NaN,0.022130213
32.0,512.0,0.5,0.0,NaN,NaN,0.019116191
32.0,512.0,0.2,0.0,NaN,NaN,0.019230933
64.0,0.0625,0.3,0.0,NaN,NaN,0.028358192
64.0,0.0625,0.05,0.0,NaN,NaN,0.035764108
32.0,512.0,0.6,0.0,NaN,NaN,0.036252002
64.0,0.125,0.05,0.0,NaN,NaN,0.03378969
64.0,0.0625,0.4,0.0,NaN,NaN,0.070483508
64.0,0.125,0.2,0.0,NaN,NaN,0.035224992
64.0,0.0625,1.0,0.0,NaN,NaN,0.063163034
32.0,512.0,0.9,0.0,NaN,NaN,0.034828516
32.0,0.0625,0.5,0.0,NaN,NaN,0.04153475
64.0,0.125,0.6,0.0,NaN,NaN,0.036376565
64.0,0.0625,0.5,0.0,NaN,NaN,0.03530049
64.0,0.0625,0.1,0.0,NaN,NaN,0.029850997
64.0,0.0625,0.7,0.0,NaN,NaN,0.030271018
64.0,0.125,0.3,0.0,NaN,NaN,0.016110717
64.0,0.0625,0.2,0.0,NaN,NaN,0.029280401
64.0,0.0625,0.8,0.0,NaN,NaN,0.028574597
64.0,0.0625,0.9,0.0,NaN,NaN,0.028003704
64.0,0.125,0.1,0.0,NaN,NaN,0.035356298
64.0,0.125,0.9,0.0,NaN,NaN,0.033684298
64.0,0.125,0.4,0.0,NaN,NaN,0.037054665
64.0,0.125,1.0,0.0,NaN,NaN,0.032104964
64.0,0.125,0.7,0.0,NaN,NaN,0.061130609
64.0,0.25,0.3,0.0,NaN,NaN,0.028694004
32.0,0.0625,0.8,0.0,NaN,NaN,0.037304345
64.0,0.125,0.5,0.0,NaN,NaN,0.016761505
64.0,0.125,0.8,0.0,NaN,NaN,0.018412603
64.0,0.25,0.5,0.0,NaN,NaN,0.017087973
64.0,0.25,0.05,0.0,NaN,NaN,0.027195355
64.0,0.25,0.6,0.0,NaN,NaN,0.026828411
64.0,0.25,0.9,0.0,NaN,NaN,0.028530494
64.0,0.25,0.1,0.0,NaN,NaN,0.027234602
64.0,0.25,0.2,0.0,NaN,NaN,0.049338714
64.0,0.5,0.2,0.0,NaN,NaN,0.012896344
64.0,0.25,0.7,0.0,NaN,NaN,0.015364807
64.0,0.5,0.05,0.0,NaN,NaN,0.016938849
32.0,0.0625,0.9,0.0,NaN,NaN,0.022082556
64.0,0.25,0.4,0.0,NaN,NaN,0.017363683
64.0,0.25,0.8,0.0,NaN,NaN,0.017191209
64.0,0.5,0.1,0.0,NaN,NaN,0.017305548
64.0,0.5,0.4,0.0,NaN,NaN,0.018018216
32.0,0.125,0.2,0.0,NaN,NaN,0.035449269
64.0,0.5,0.5,0.0,NaN,NaN,0.027367963
64.0,0.25,1.0,0.0,NaN,NaN,0.0644491
64.0,0.5,0.3,0.0,NaN,NaN,0.053619881
32.0,0.125,0.5,0.0,NaN,NaN,0.032985907
32.0,0.125,0.9,0.0,NaN,NaN,0.075676869
32.0,0.125,1.0,0.0,NaN,NaN,0.072031922
32.0,64.0,0.2,0.0,NaN,NaN,0.079939122
32.0,64.0,0.3,0.0,NaN,NaN,0.056664268
32.0,64.0,0.4,0.0,NaN,NaN,0.057148123
32.0,64.0,0.5,0.0,NaN,NaN,0.092801951
32.0,64.0,0.6,0.0,NaN,NaN,0.059001904
32.0,64.0,0.7,0.0,NaN,NaN,0.048292795
32.0,64.0,0.9,0.0,NaN,NaN,0.12244761
32.0,64.0,1.0,0.0,NaN,NaN,0.09518938
32.0,64.0,0.8,0.0,NaN,NaN,0.096071858
32.0,128.0,0.05,0.0,NaN,NaN,0.086832461
32.0,128.0,0.1,0.0,NaN,NaN,0.036946182
32.0,128.0,0.4,0.0,NaN,NaN,0.058144378
32.0,128.0,0.3,0.0,NaN,NaN,0.056799676
64.0,8.0,0.8,0.0,NaN,NaN,0.018751206
64.0,16.0,0.7,0.0,NaN,NaN,0.02967891
64.0,32.0,0.5,0.0,NaN,NaN,0.024500085
64.0,64.0,0.1,0.0,NaN,NaN,0.033774884
64.0,64.0,1.0,0.0,NaN,NaN,0.030468371
64.0,128.0,0.6,0.0,NaN,NaN,0.042196448
64.0,4.0,0.1,0.0,NaN,NaN,0.466627579
64.0,2.0,0.3,0.0,NaN,NaN,0.546696832
64.0,1.0,0.8,0.0,NaN,NaN,0.51684725
64.0,2.0,0.9,0.0,NaN,NaN,0.62074159
64.0,2.0,0.7,0.0,NaN,NaN,0.432596012
64.0,2.0,0.05,0.0,NaN,NaN,0.441760801
64.0,2.0,0.4,0.0,NaN,NaN,0.408711987
64.0,2.0,0.6,0.0,NaN,NaN,0.375507347
64.0,4.0,0.3,0.0,NaN,NaN,0.349202704
64.0,2.0,1.0,0.0,NaN,NaN,0.389574412
64.0,0.5,0.7,0.0,NaN,NaN,0.393400658
64.0,8.0,0.1,0.0,NaN,NaN,0.38583189
64.0,0.5,0.6,0.0,NaN,NaN,0.360318156
64.0,4.0,0.4,0.0,NaN,NaN,0.36097598
64.0,4.0,0.9,0.0,NaN,NaN,0.334974927
64.0,4.0,0.7,0.0,NaN,NaN,0.387998402
64.0,4.0,0.6,0.0,NaN,NaN,0.389729432
64.0,8.0,0.3,0.0,NaN,NaN,0.401922169
64.0,4.0,1.0,0.0,NaN,NaN,0.331247015
64.0,8.0,1.0,0.0,NaN,NaN,0.395142765
64.0,0.5,0.8,0.0,NaN,NaN,0.411300655
64.0,8.0,0.7,0.0,NaN,NaN,0.405637936
64.0,8.0,0.6,0.0,NaN,NaN,0.355367376
64.0,16.0,0.2,0.0,NaN,NaN,0.378142487
64.0,0.5,0.9,0.0,NaN,NaN,0.414538927
64.0,16.0,0.05,0.0,NaN,NaN,0.41736293
64.0,16.0,0.6,0.0,NaN,NaN,0.412897387
64.0,16.0,0.9,0.0,NaN,NaN,0.341213461
64.0,0.5,1.0,0.0,NaN,NaN,0.313646122
64.0,8.0,0.4,0.0,NaN,NaN,0.367723636
64.0,16.0,0.8,0.0,NaN,NaN,0.26275511
64.0,16.0,0.4,0.0,NaN,NaN,0.262432942
64.0,32.0,0.05,0.0,NaN,NaN,0.226695708
64.0,16.0,1.0,0.0,NaN,NaN,0.400159877
64.0,32.0,0.3,0.0,NaN,NaN,0.427442133
64.0,16.0,0.5,0.0,NaN,NaN,0.327083926
64.0,32.0,0.8,0.0,NaN,NaN,0.306369979
64.0,32.0,0.1,0.0,NaN,NaN,0.321448675
64.0,1.0,0.05,0.0,NaN,NaN,0.265172423
64.0,32.0,0.4,0.0,NaN,NaN,0.226194718
64.0,32.0,0.6,0.0,NaN,NaN,0.296109677
64.0,64.0,0.05,0.0,NaN,NaN,0.252148522
64.0,32.0,0.9,0.0,NaN,NaN,0.288241398
64.0,32.0,0.2,0.0,NaN,NaN,0.346870935
64.0,64.0,0.2,0.0,NaN,NaN,0.327013516
64.0,32.0,0.7,0.0,NaN,NaN,0.343312018
64.0,64.0,0.5,0.0,NaN,NaN,0.310326839
64.0,64.0,0.3,0.0,NaN,NaN,0.334640283
64.0,1.0,0.1,0.0,NaN,NaN,0.205932767
64.0,64.0,0.8,0.0,NaN,NaN,0.510657079
64.0,64.0,0.9,0.0,NaN,NaN,0.258301375
64.0,32.0,1.0,0.0,NaN,NaN,0.30606226
64.0,128.0,0.2,0.0,NaN,NaN,0.205045826
64.0,64.0,0.6,0.0,NaN,NaN,0.197445191
64.0,64.0,0.4,0.0,NaN,NaN,0.295148369
64.0,128.0,0.05,0.0,NaN,NaN,0.176302869
64.0,1.0,0.2,0.0,NaN,NaN,0.211735612
64.0,128.0,1.0,0.0,NaN,NaN,0.29053975
64.0,128.0,0.3,0.0,NaN,NaN,0.465646408
64.0,128.0,0.7,0.0,NaN,NaN,0.342361636
64.0,64.0,0.7,0.0,NaN,NaN,0.316219794
64.0,128.0,0.5,0.0,NaN,NaN,0.34873413
64.0,128.0,0.1,0.0,NaN,NaN,0.383602759
64.0,128.0,0.8,0.0,NaN,NaN,0.43699171
64.0,256.0,0.05,0.0,NaN,NaN,0.288930414
64.0,128.0,0.4,0.0,NaN,NaN,0.301653911
64.0,256.0,0.6,0.0,NaN,NaN,0.318174053
64.0,128.0,0.9,0.0,NaN,NaN,0.329335024
64.0,256.0,0.4,0.0,NaN,NaN,0.326238547
64.0,256.0,0.3,0.0,NaN,NaN,0.323938208
64.0,1.0,0.3,0.0,NaN,NaN,0.266074132
64.0,256.0,0.2,0.0,NaN,NaN,0.275625864
64.0,256.0,0.9,0.0,NaN,NaN,0.31967
64.0,1.0,0.4,0.0,NaN,NaN,0.241231528
64.0,512.0,0.05,0.0,NaN,NaN,0.259655989
64.0,256.0,0.7,0.0,NaN,NaN,0.31940784
64.0,256.0,0.1,0.0,NaN,NaN,0.319865636
64.0,256.0,0.5,0.0,NaN,NaN,0.424370003
64.0,256.0,1.0,0.0,NaN,NaN,0.403628966
64.0,512.0,0.2,0.0,NaN,NaN,0.473423839
64.0,512.0,0.5,0.0,NaN,NaN,0.555946651
64.0,1.0,0.5,0.0,NaN,NaN,0.496459526
64.0,256.0,0.8,0.0,NaN,NaN,0.536349592
64.0,512.0,0.1,0.0,NaN,NaN,0.517803013
64.0,512.0,0.3,0.0,NaN,NaN,0.43391808
64.0,512.0,0.7,0.0,NaN,NaN,0.33848839
64.0,1.0,0.6,0.0,NaN,NaN,0.27186766
64.0,512.0,0.6,0.0,NaN,NaN,0.161739884
64.0,512.0,0.9,0.0,NaN,NaN,0.122416313
64.0,512.0,0.8,0.0,NaN,NaN,0.144439903
64.0,512.0,1.0,0.0,NaN,NaN,0.144501252
64.0,512.0,0.4,0.0,NaN,NaN,0.12089046
128.0,0.0625,0.1,0.0,NaN,NaN,0.079713444
128.0,0.0625,0.5,0.0,NaN,NaN,0.161659163
128.0,0.0625,0.2,0.0,NaN,NaN,0.160001681
128.0,0.0625,0.3,0.0,NaN,NaN,0.262658061
64.0,1.0,0.7,0.0,NaN,NaN,0.214854134
128.0,0.0625,0.4,0.0,NaN,NaN,0.231835547
128.0,0.0625,0.6,0.0,NaN,NaN,0.218511515
128.0,0.0625,0.05,0.0,NaN,NaN,0.217532621
128.0,0.0625,0.8,0.0,NaN,NaN,0.216993292
128.0,0.125,0.1,0.0,NaN,NaN,0.208908378
128.0,0.0625,0.9,0.0,NaN,NaN,0.267379495
128.0,0.5,0.3,0.0,NaN,NaN,0.039535271
128.0,0.0625,1.0,0.0,NaN,NaN,0.317875058
128.0,0.0625,0.7,0.0,NaN,NaN,0.251307484
128.0,0.125,0.5,0.0,NaN,NaN,0.227401451
128.0,0.5,0.4,0.0,NaN,NaN,0.022163524
128.0,0.125,0.05,0.0,NaN,NaN,0.2009854
128.0,0.5,0.5,0.0,NaN,NaN,0.034607321
128.0,0.125,0.8,0.0,NaN,NaN,0.188745897
64.0,1.0,0.9,0.0,NaN,NaN,0.188525212
128.0,0.125,0.2,0.0,NaN,NaN,0.188506766
128.0,0.125,0.4,0.0,NaN,NaN,0.112324517
128.0,0.5,0.8,0.0,NaN,NaN,0.035926554
128.0,0.125,0.3,0.0,NaN,NaN,0.233057502
128.0,0.125,0.6,0.0,NaN,NaN,0.233753148
128.0,0.25,0.05,0.0,NaN,NaN,0.233905605
128.0,0.125,0.9,0.0,NaN,NaN,0.245767651
128.0,0.125,0.7,0.0,NaN,NaN,0.233364477
128.0,0.125,1.0,0.0,NaN,NaN,0.169727932
128.0,0.25,0.2,0.0,NaN,NaN,0.207380882
64.0,1.0,1.0,0.0,NaN,NaN,0.166016984
128.0,1.0,0.1,0.0,NaN,NaN,0.034494168
128.0,0.25,0.3,0.0,NaN,NaN,0.108779442
128.0,0.25,0.1,0.0,NaN,NaN,0.14358338
64.0,2.0,0.1,0.0,NaN,NaN,0.114918512
128.0,1.0,0.8,0.0,NaN,NaN,0.027682368
64.0,2.0,0.2,0.0,NaN,NaN,0.624563547
64.0,2.0,0.5,0.0,NaN,NaN,0.691850237
64.0,2.0,0.8,0.0,NaN,NaN,0.754623941
64.0,4.0,0.05,0.0,NaN,NaN,0.709321215
128.0,1.0,0.5,0.0,NaN,NaN,0.305369119
128.0,1.0,0.4,0.0,NaN,NaN,0.355308473
64.0,4.0,0.2,0.0,NaN,NaN,0.322296596
128.0,1.0,0.05,0.0,NaN,NaN,0.248702578
128.0,0.5,0.6,0.0,NaN,NaN,0.249974071
128.0,2.0,0.2,0.0,NaN,NaN,0.237569528
128.0,1.0,0.7,0.0,NaN,NaN,0.377002182
128.0,0.5,0.9,0.0,NaN,NaN,0.379259884
128.0,2.0,0.1,0.0,NaN,NaN,0.378502815
128.0,2.0,0.9,0.0,NaN,NaN,0.323475297
128.0,1.0,0.2,0.0,NaN,NaN,0.380905622
128.0,2.0,0.8,0.0,NaN,NaN,0.352864369
128.0,2.0,0.4,0.0,NaN,NaN,0.321073758
128.0,1.0,0.9,0.0,NaN,NaN,0.202603969
64.0,4.0,0.5,0.0,NaN,NaN,0.150147025
128.0,1.0,1.0,0.0,NaN,NaN,0.020235233
128.0,1.0,0.3,0.0,NaN,NaN,0.018976369
128.0,4.0,0.4,0.0,NaN,NaN,0.052557299
128.0,4.0,0.05,0.0,NaN,NaN,0.051372305
128.0,2.0,0.5,0.0,NaN,NaN,0.15648936
128.0,2.0,0.6,0.0,NaN,NaN,0.291586608
128.0,0.5,0.7,0.0,NaN,NaN,0.350122728
128.0,4.0,0.1,0.0,NaN,NaN,0.223715392
128.0,4.0,0.5,0.0,NaN,NaN,0.12390823
128.0,4.0,0.2,0.0,NaN,NaN,0.143855671
128.0,0.5,1.0,0.0,NaN,NaN,0.199669436
64.0,4.0,0.8,0.0,NaN,NaN,0.135607633
128.0,2.0,0.05,0.0,NaN,NaN,0.141776068
128.0,1.0,0.6,0.0,NaN,NaN,0.176368763
128.0,4.0,0.7,0.0,NaN,NaN,0.122863333
128.0,8.0,0.05,0.0,NaN,NaN,0.088991335
128.0,8.0,0.1,0.0,NaN,NaN,0.087785613
128.0,4.0,0.9,0.0,NaN,NaN,0.037970105
128.0,2.0,0.7,0.0,NaN,NaN,0.035288613
128.0,4.0,0.8,0.0,NaN,NaN,0.025904691
128.0,8.0,0.8,0.0,NaN,NaN,0.047853901
128.0,8.0,0.3,0.0,NaN,NaN,0.043795901
128.0,8.0,0.5,0.0,NaN,NaN,0.045419814
64.0,8.0,0.05,0.0,NaN,NaN,0.065222862
128.0,8.0,0.7,0.0,NaN,NaN,0.050717452
128.0,4.0,0.3,0.0,NaN,NaN,0.044843319
128.0,8.0,1.0,0.0,NaN,NaN,0.034770195
128.0,8.0,0.4,0.0,NaN,NaN,0.041229771
128.0,16.0,0.4,0.0,NaN,NaN,0.038685677
128.0,16.0,0.1,0.0,NaN,NaN,0.036472752
64.0,8.0,0.2,0.0,NaN,NaN,0.040399649
128.0,2.0,0.3,0.0,NaN,NaN,0.061353073
128.0,16.0,0.3,0.0,NaN,NaN,0.025958359
128.0,4.0,1.0,0.0,NaN,NaN,0.037658567
128.0,16.0,0.6,0.0,NaN,NaN,0.03595152
128.0,16.0,0.8,0.0,NaN,NaN,0.053835635
128.0,8.0,0.6,0.0,NaN,NaN,0.045226577
128.0,2.0,1.0,0.0,NaN,NaN,0.067978881
128.0,16.0,1.0,0.0,NaN,NaN,0.03294278
128.0,16.0,0.05,0.0,NaN,NaN,0.01735595
128.0,16.0,0.9,0.0,NaN,NaN,0.031446558
128.0,32.0,0.2,0.0,NaN,NaN,0.038646449
128.0,16.0,0.2,0.0,NaN,NaN,0.027024719
128.0,16.0,0.7,0.0,NaN,NaN,0.025137996
128.0,32.0,0.1,0.0,NaN,NaN,0.02444539
128.0,4.0,0.6,0.0,NaN,NaN,0.055944698
64.0,8.0,0.5,0.0,NaN,NaN,0.021501359
128.0,8.0,0.2,0.0,NaN,NaN,0.04149245
128.0,8.0,0.9,0.0,NaN,NaN,0.079603176
64.0,8.0,0.9,0.0,NaN,NaN,0.051166482
128.0,16.0,0.5,0.0,NaN,NaN,0.071214738
64.0,16.0,0.1,0.0,NaN,NaN,0.054226297
64.0,16.0,0.3,0.0,NaN,NaN,0.056312275
128.0,32.0,0.05,0.0,NaN,NaN,0.074577542
128.0,0.25,0.5,0.0,NaN,NaN,0.100948296
128.0,0.25,0.4,0.0,NaN,NaN,0.106822755
128.0,0.25,0.6,0.0,NaN,NaN,0.076232489
128.0,0.25,0.7,0.0,NaN,NaN,0.038467768
128.0,0.25,0.8,0.0,NaN,NaN,0.059432543
128.0,0.25,0.9,0.0,NaN,NaN,0.049079932
128.0,0.25,1.0,0.0,NaN,NaN,0.063467105
128.0,0.5,0.05,0.0,NaN,NaN,0.054912975
128.0,0.5,0.1,0.0,NaN,NaN,0.065819231
128.0,0.5,0.2,0.0,NaN,NaN,0.047571
128.0,512.0,0.8,0.0,NaN,NaN,0.044987035
256.0,0.0625,0.6,0.0,NaN,NaN,0.03620919
256.0,0.125,0.3,0.0,NaN,NaN,0.042295711
256.0,0.25,0.05,0.0,NaN,NaN,0.021422058
256.0,0.25,0.8,0.0,NaN,NaN,0.02759821
256.0,0.5,0.5,0.0,NaN,NaN,0.030682707
128.0,64.0,0.5,0.0,NaN,NaN,0.448882459
128.0,128.0,0.4,0.0,NaN,NaN,0.467362438
128.0,128.0,0.5,0.0,NaN,NaN,0.447977577
128.0,128.0,0.7,0.0,NaN,NaN,0.475191128
128.0,128.0,0.2,0.0,NaN,NaN,0.438787705
128.0,64.0,0.9,0.0,NaN,NaN,0.445202134
128.0,128.0,0.05,0.0,NaN,NaN,0.449404446
128.0,128.0,0.8,0.0,NaN,NaN,0.511596228
128.0,256.0,0.2,0.0,NaN,NaN,0.464378807
128.0,256.0,0.4,0.0,NaN,NaN,0.448486355
128.0,256.0,0.05,0.0,NaN,NaN,0.352635435
128.0,256.0,0.5,0.0,NaN,NaN,0.39854142
128.0,256.0,0.7,0.0,NaN,NaN,0.453811703
128.0,32.0,0.3,0.0,NaN,NaN,0.472185595
128.0,128.0,1.0,0.0,NaN,NaN,0.411293736
128.0,32.0,0.4,0.0,NaN,NaN,0.466082941
128.0,512.0,0.05,0.0,NaN,NaN,0.410230625
128.0,512.0,0.5,0.0,NaN,NaN,0.370291756
128.0,32.0,0.5,0.0,NaN,NaN,0.57495646
128.0,256.0,0.8,0.0,NaN,NaN,0.390862012
128.0,512.0,0.7,0.0,NaN,NaN,0.500240766
128.0,512.0,0.4,0.0,NaN,NaN,0.435679395
128.0,512.0,0.2,0.0,NaN,NaN,0.423926796
128.0,32.0,0.6,0.0,NaN,NaN,0.494435427
256.0,0.0625,0.1,0.0,NaN,NaN,0.442521667
256.0,0.0625,0.2,0.0,NaN,NaN,0.51075875
256.0,0.0625,0.3,0.0,NaN,NaN,0.402369513
128.0,512.0,0.9,0.0,NaN,NaN,0.519735159
256.0,0.0625,0.4,0.0,NaN,NaN,0.404637836
128.0,32.0,0.7,0.0,NaN,NaN,0.485963751
128.0,256.0,1.0,0.0,NaN,NaN,0.364531501
256.0,0.0625,0.5,0.0,NaN,NaN,0.296624444
256.0,0.0625,0.9,0.0,NaN,NaN,0.43541734
256.0,0.0625,1.0,0.0,NaN,NaN,0.394425621
256.0,0.0625,0.05,0.0,NaN,NaN,0.405184646
256.0,0.0625,0.7,0.0,NaN,NaN,0.40515355
256.0,0.125,0.1,0.0,NaN,NaN,0.283019963
256.0,0.125,0.2,0.0,NaN,NaN,0.326338147
128.0,32.0,0.8,0.0,NaN,NaN,0.291873141
256.0,0.125,0.05,0.0,NaN,NaN,0.273555371
256.0,0.125,0.6,0.0,NaN,NaN,0.324023001
256.0,0.0625,0.8,0.0,NaN,NaN,0.427043682
256.0,0.125,0.7,0.0,NaN,NaN,0.349804879
256.0,0.125,0.4,0.0,NaN,NaN,0.30689095
256.0,0.125,0.8,0.0,NaN,NaN,0.345225219
256.0,0.125,0.9,0.0,NaN,NaN,0.306530188
256.0,0.125,1.0,0.0,NaN,NaN,0.369631431
256.0,0.25,0.3,0.0,NaN,NaN,0.314542192
128.0,32.0,0.9,0.0,NaN,NaN,0.326416023
256.0,0.125,0.5,0.0,NaN,NaN,0.39164885
256.0,0.25,0.6,0.0,NaN,NaN,0.491000398
256.0,0.25,0.4,0.0,NaN,NaN,0.356359817
256.0,0.25,0.1,0.0,NaN,NaN,0.370211048
256.0,0.25,0.7,0.0,NaN,NaN,0.397547123
128.0,32.0,1.0,0.0,NaN,NaN,0.394170134
256.0,0.5,0.05,0.0,NaN,NaN,0.243422536
256.0,0.25,0.5,0.0,NaN,NaN,0.243153459
256.0,0.25,0.2,0.0,NaN,NaN,0.401718189
256.0,0.5,0.4,0.0,NaN,NaN,0.469160805
256.0,0.25,0.9,0.0,NaN,NaN,0.413644183
256.0,0.5,0.3,0.0,NaN,NaN,0.387187899
256.0,0.5,0.1,0.0,NaN,NaN,0.264385043
256.0,0.5,0.8,0.0,NaN,NaN,0.278416938
256.0,0.25,1.0,0.0,NaN,NaN,0.248656431
256.0,0.5,0.2,0.0,NaN,NaN,0.532324273
256.0,1.0,0.05,0.0,NaN,NaN,0.481554132
256.0,1.0,0.1,0.0,NaN,NaN,0.526196324
256.0,0.5,1.0,0.0,NaN,NaN,0.390169306
256.0,0.5,0.9,0.0,NaN,NaN,0.333015052
256.0,1.0,0.4,0.0,NaN,NaN,0.333141598
256.0,0.5,0.6,0.0,NaN,NaN,0.460965724
128.0,64.0,0.05,0.0,NaN,NaN,0.671019821
256.0,1.0,0.2,0.0,NaN,NaN,0.74449756
256.0,1.0,0.5,0.0,NaN,NaN,0.746768183
256.0,1.0,0.6,0.0,NaN,NaN,0.777455391
256.0,2.0,0.05,0.0,NaN,NaN,0.692228452
256.0,0.5,0.7,0.0,NaN,NaN,0.570030454
256.0,16.0,0.8,0.0,NaN,NaN,0.050264072
256.0,16.0,0.9,0.0,NaN,NaN,0.045036632
256.0,2.0,0.1,0.0,NaN,NaN,0.021391193
256.0,1.0,0.9,0.0,NaN,NaN,0.019654934
256.0,1.0,0.7,0.0,NaN,NaN,0.018479267
128.0,64.0,0.1,0.0,NaN,NaN,0.01595399
256.0,1.0,0.8,0.0,NaN,NaN,0.049960148
256.0,1.0,0.3,0.0,NaN,NaN,0.019608078
256.0,2.0,0.7,0.0,NaN,NaN,0.162944379
256.0,2.0,0.2,0.0,NaN,NaN,0.137166695
256.0,2.0,0.3,0.0,NaN,NaN,0.189027757
256.0,1.0,1.0,0.0,NaN,NaN,0.187972004
256.0,16.0,1.0,0.0,NaN,NaN,0.02647097
256.0,32.0,0.1,0.0,NaN,NaN,0.012472384
256.0,32.0,0.05,0.0,NaN,NaN,0.020094323
256.0,32.0,0.4,0.0,NaN,NaN,0.035554514
128.0,64.0,0.2,0.0,NaN,NaN,0.229537021
128.0,64.0,0.3,0.0,NaN,NaN,0.182348719
256.0,2.0,0.4,0.0,NaN,NaN,0.18770082
256.0,2.0,0.9,0.0,NaN,NaN,0.107348461
256.0,2.0,0.5,0.0,NaN,NaN,0.127161945
256.0,2.0,0.8,0.0,NaN,NaN,0.110077098
256.0,2.0,1.0,0.0,NaN,NaN,0.09272585
256.0,4.0,0.3,0.0,NaN,NaN,0.05062638
256.0,2.0,0.6,0.0,NaN,NaN,0.037090527
128.0,64.0,0.4,0.0,NaN,NaN,0.081442914
256.0,4.0,0.05,0.0,NaN,NaN,0.092276804
256.0,4.0,0.5,0.0,NaN,NaN,0.107882292
256.0,4.0,0.6,0.0,NaN,NaN,0.140925838
256.0,4.0,0.2,0.0,NaN,NaN,0.141226326
256.0,4.0,0.1,0.0,NaN,NaN,0.141243893
256.0,4.0,1.0,0.0,NaN,NaN,0.12488256
256.0,4.0,0.4,0.0,NaN,NaN,0.198356169
256.0,4.0,0.7,0.0,NaN,NaN,0.206983227
256.0,8.0,0.2,0.0,NaN,NaN,0.184840979
256.0,8.0,0.05,0.0,NaN,NaN,0.197572042
256.0,4.0,0.8,0.0,NaN,NaN,0.165839236
256.0,8.0,0.1,0.0,NaN,NaN,0.206156898
256.0,8.0,0.6,0.0,NaN,NaN,0.205808127
256.0,8.0,0.3,0.0,NaN,NaN,0.402372171
256.0,8.0,0.5,0.0,NaN,NaN,0.423513318
256.0,4.0,0.9,0.0,NaN,NaN,0.422003699
256.0,8.0,0.4,0.0,NaN,NaN,0.477798901
128.0,64.0,0.6,0.0,NaN,NaN,0.648898306
256.0,8.0,0.7,0.0,NaN,NaN,0.477188881
256.0,8.0,0.8,0.0,NaN,NaN,0.343896296
256.0,8.0,1.0,0.0,NaN,NaN,0.390119803
128.0,64.0,0.7,0.0,NaN,NaN,0.472159704
256.0,8.0,0.9,0.0,NaN,NaN,0.397086624
256.0,16.0,0.05,0.0,NaN,NaN,0.347978496
128.0,64.0,0.8,0.0,NaN,NaN,0.505878637
128.0,64.0,1.0,0.0,NaN,NaN,0.460117075
256.0,32.0,0.2,0.0,NaN,NaN,0.496258269
256.0,64.0,0.5,0.0,NaN,NaN,0.412055617
256.0,32.0,0.7,0.0,NaN,NaN,0.366978352
256.0,32.0,0.8,0.0,NaN,NaN,0.385755211
256.0,32.0,0.3,0.0,NaN,NaN,0.355604773
256.0,32.0,0.6,0.0,NaN,NaN,0.373604218
256.0,128.0,0.1,0.0,NaN,NaN,0.292043408
256.0,32.0,0.5,0.0,NaN,NaN,0.293842241
128.0,128.0,0.1,0.0,NaN,NaN,0.262571571
256.0,64.0,0.3,0.0,NaN,NaN,0.177611962
256.0,64.0,0.2,0.0,NaN,NaN,0.017548749
256.0,64.0,0.05,0.0,NaN,NaN,0.019067339
256.0,32.0,1.0,0.0,NaN,NaN,0.018192885
128.0,128.0,0.3,0.0,NaN,NaN,0.024021589
256.0,32.0,0.9,0.0,NaN,NaN,0.019861778
256.0,64.0,0.1,0.0,NaN,NaN,0.056385531
256.0,128.0,0.8,0.0,NaN,NaN,0.04012001
256.0,64.0,0.4,0.0,NaN,NaN,0.02075284
256.0,64.0,0.7,0.0,NaN,NaN,0.02433967
256.0,64.0,1.0,0.0,NaN,NaN,0.04070055
128.0,128.0,0.6,0.0,NaN,NaN,0.060563068
256.0,64.0,0.9,0.0,NaN,NaN,0.046929502
256.0,64.0,0.6,0.0,NaN,NaN,0.044112443
256.0,64.0,0.8,0.0,NaN,NaN,0.066387723
128.0,128.0,0.9,0.0,NaN,NaN,0.037189016
256.0,128.0,0.3,0.0,NaN,NaN,0.092767865
256.0,128.0,0.05,0.0,NaN,NaN,0.080689645
256.0,256.0,0.4,0.0,NaN,NaN,0.0569828
256.0,128.0,0.6,0.0,NaN,NaN,0.058588619
256.0,128.0,0.2,0.0,NaN,NaN,0.065118837
256.0,512.0,0.05,0.0,NaN,NaN,0.044497694
256.0,128.0,0.5,0.0,NaN,NaN,0.045241246
256.0,128.0,0.4,0.0,NaN,NaN,0.061827563
256.0,256.0,0.1,0.0,NaN,NaN,0.041358466
256.0,128.0,0.9,0.0,NaN,NaN,0.024456105
256.0,256.0,0.2,0.0,NaN,NaN,0.024985574
256.0,128.0,1.0,0.0,NaN,NaN,0.023248535
256.0,128.0,0.7,0.0,NaN,NaN,0.034416719
256.0,512.0,0.1,0.0,NaN,NaN,0.030568405
256.0,256.0,0.6,0.0,NaN,NaN,0.04078757
256.0,256.0,0.3,0.0,NaN,NaN,0.038283404
256.0,256.0,0.8,0.0,NaN,NaN,0.041635812
256.0,256.0,0.9,0.0,NaN,NaN,0.054692121
256.0,256.0,0.5,0.0,NaN,NaN,0.040895689
128.0,256.0,0.1,0.0,NaN,NaN,0.055493652
256.0,512.0,0.4,0.0,NaN,NaN,0.050871712
256.0,256.0,0.05,0.0,NaN,NaN,0.064941801
256.0,256.0,1.0,0.0,NaN,NaN,0.038456957
256.0,256.0,0.7,0.0,NaN,NaN,0.053803613
256.0,512.0,0.5,0.0,NaN,NaN,0.038439451
256.0,512.0,0.3,0.0,NaN,NaN,0.075713254
256.0,512.0,0.6,0.0,NaN,NaN,0.101579062
256.0,512.0,0.2,0.0,NaN,NaN,0.110568533
128.0,256.0,0.3,0.0,NaN,NaN,0.064449315
128.0,256.0,0.6,0.0,NaN,NaN,0.028262521
128.0,256.0,0.9,0.0,NaN,NaN,0.032835301
128.0,512.0,0.1,0.0,NaN,NaN,0.010928569
128.0,512.0,0.3,0.0,NaN,NaN,0.010488521
128.0,512.0,0.6,0.0,NaN,NaN,0.009762582
128.0,512.0,1.0,0.0,NaN,NaN,0.009907643
256.0,16.0,0.1,0.0,NaN,NaN,0.012546729
256.0,16.0,0.2,0.0,NaN,NaN,0.013725612
256.0,16.0,0.4,0.0,NaN,NaN,0.013033489
256.0,16.0,0.7,0.0,NaN,NaN,0.014498184
256.0,16.0,0.6,0.0,NaN,NaN,0.015177993
256.0,16.0,0.5,0.0,NaN,NaN,0.015482129
256.0,16.0,0.3,0.0,NaN,NaN,0.013989545
512.0,1.0,0.4,0.0,NaN,NaN,0.027474008
512.0,1.0,1.0,0.0,NaN,NaN,0.029416304
512.0,2.0,0.9,0.0,NaN,NaN,0.024313504
512.0,4.0,0.4,0.0,NaN,NaN,0.030322418
512.0,8.0,0.3,0.0,NaN,NaN,0.036373704
512.0,8.0,0.9,0.0,NaN,NaN,0.0265014
512.0,0.125,0.8,0.0,NaN,NaN,0.516596923
512.0,0.125,1.0,0.0,NaN,NaN,0.435437433
512.0,0.125,0.6,0.0,NaN,NaN,0.560501565
512.0,0.125,0.3,0.0,NaN,NaN,0.468761865
512.0,0.0625,1.0,0.0,NaN,NaN,0.388728511
256.0,512.0,0.7,0.0,NaN,NaN,0.541599224
512.0,0.125,0.9,0.0,NaN,NaN,0.480870117
512.0,0.125,0.5,0.0,NaN,NaN,0.509833719
512.0,0.25,0.8,0.0,NaN,NaN,0.569597087
512.0,0.25,0.3,0.0,NaN,NaN,0.588010032
512.0,0.25,0.5,0.0,NaN,NaN,0.504740227
256.0,512.0,0.8,0.0,NaN,NaN,0.457107556
512.0,0.25,1.0,0.0,NaN,NaN,0.422981619
512.0,0.25,0.2,0.0,NaN,NaN,0.441324828
512.0,0.25,0.9,0.0,NaN,NaN,0.393813005
512.0,0.5,0.2,0.0,NaN,NaN,0.395351213
512.0,0.25,0.6,0.0,NaN,NaN,0.326594903
512.0,0.5,0.6,0.0,NaN,NaN,0.397532026
512.0,0.5,1.0,0.0,NaN,NaN,0.413139759
512.0,0.5,0.9,0.0,NaN,NaN,0.412619054
256.0,512.0,0.9,0.0,NaN,NaN,0.382557635
512.0,0.5,0.8,0.0,NaN,NaN,0.4808913
512.0,0.5,0.3,0.0,NaN,NaN,0.396329188
512.0,1.0,0.3,0.0,NaN,NaN,0.422242868
256.0,512.0,1.0,0.0,NaN,NaN,0.502981003
512.0,1.0,0.7,0.0,NaN,NaN,0.441076493
512.0,0.5,0.5,0.0,NaN,NaN,0.444727478
512.0,1.0,0.8,0.0,NaN,NaN,0.444198329
512.0,1.0,0.5,0.0,NaN,NaN,0.349391456
512.0,1.0,0.2,0.0,NaN,NaN,0.298829871
512.0,1.0,0.9,0.0,NaN,NaN,0.281299144
512.0,2.0,0.05,0.0,NaN,NaN,0.384079913
512.0,0.0625,0.05,0.0,NaN,NaN,0.348420345
512.0,1.0,0.6,0.0,NaN,NaN,0.364274159
512.0,2.0,0.3,0.0,NaN,NaN,0.3563167
512.0,2.0,0.5,0.0,NaN,NaN,0.269345548
512.0,2.0,0.6,0.0,NaN,NaN,0.28251794
512.0,2.0,0.1,0.0,NaN,NaN,0.23304502
512.0,2.0,0.4,0.0,NaN,NaN,0.205007213
512.0,2.0,0.8,0.0,NaN,NaN,0.277893151
512.0,2.0,0.7,0.0,NaN,NaN,0.611892463
512.0,2.0,0.2,0.0,NaN,NaN,0.526459442
512.0,0.0625,0.1,0.0,NaN,NaN,0.486970035
512.0,4.0,0.3,0.0,NaN,NaN,0.511601282
512.0,2.0,1.0,0.0,NaN,NaN,0.501417484
512.0,4.0,0.2,0.0,NaN,NaN,0.307057386
512.0,4.0,0.5,0.0,NaN,NaN,0.295580495
512.0,4.0,0.1,0.0,NaN,NaN,0.303852918
512.0,0.0625,0.2,0.0,NaN,NaN,0.413772327
512.0,4.0,0.05,0.0,NaN,NaN,0.416211513
512.0,4.0,0.8,0.0,NaN,NaN,0.34606973
512.0,4.0,0.6,0.0,NaN,NaN,0.331659703
512.0,4.0,1.0,0.0,NaN,NaN,0.317814053
512.0,8.0,0.2,0.0,NaN,NaN,0.228489015
512.0,8.0,0.05,0.0,NaN,NaN,0.253365338
512.0,4.0,0.9,0.0,NaN,NaN,0.36974033
512.0,8.0,0.1,0.0,NaN,NaN,0.417304419
512.0,8.0,0.4,0.0,NaN,NaN,0.370099192
512.0,4.0,0.7,0.0,NaN,NaN,0.385448789
512.0,8.0,0.7,0.0,NaN,NaN,0.391151986
512.0,8.0,0.8,0.0,NaN,NaN,0.358329827
512.0,8.0,0.6,0.0,NaN,NaN,0.328308514
512.0,8.0,1.0,0.0,NaN,NaN,0.262182887
512.0,16.0,0.05,0.0,NaN,NaN,0.292021654
512.0,0.0625,0.3,0.0,NaN,NaN,0.291719714
512.0,16.0,0.2,0.0,NaN,NaN,0.361205418
512.0,16.0,0.3,0.0,NaN,NaN,0.394431858
512.0,16.0,0.5,0.0,NaN,NaN,0.429857377
512.0,16.0,0.4,0.0,NaN,NaN,0.446840995
512.0,8.0,0.5,0.0,NaN,NaN,0.471833289
512.0,16.0,0.7,0.0,NaN,NaN,0.417668278
512.0,16.0,0.1,0.0,NaN,NaN,0.372073256
512.0,0.0625,0.4,0.0,NaN,NaN,0.356186441
512.0,32.0,0.2,0.0,NaN,NaN,0.321199383
512.0,16.0,0.6,0.0,NaN,NaN,0.476810751
512.0,16.0,1.0,0.0,NaN,NaN,0.395729658
512.0,0.0625,0.5,0.0,NaN,NaN,0.40267642
512.0,32.0,0.05,0.0,NaN,NaN,0.401794459
512.0,16.0,0.8,0.0,NaN,NaN,0.40260813
512.0,16.0,0.9,0.0,NaN,NaN,0.352976594
512.0,32.0,0.1,0.0,NaN,NaN,0.332648933
512.0,0.0625,0.6,0.0,NaN,NaN,0.153761714
512.0,32.0,1.0,0.0,NaN,NaN,0.017402608
512.0,32.0,0.3,0.0,NaN,NaN,0.018779436
512.0,32.0,0.8,0.0,NaN,NaN,0.036009395
512.0,32.0,0.6,0.0,NaN,NaN,0.104856372
512.0,0.0625,0.7,0.0,NaN,NaN,0.080001828
512.0,32.0,0.5,0.0,NaN,NaN,0.078022229
512.0,32.0,0.7,0.0,NaN,NaN,0.104960976
512.0,32.0,0.4,0.0,NaN,NaN,0.07984394
512.0,64.0,0.2,0.0,NaN,NaN,0.073690191
512.0,32.0,0.9,0.0,NaN,NaN,0.052147987
512.0,64.0,0.4,0.0,NaN,NaN,0.061197751
512.0,64.0,0.5,0.0,NaN,NaN,0.112033088
512.0,64.0,0.3,0.0,NaN,NaN,0.092326583
512.0,0.0625,0.8,0.0,NaN,NaN,0.065663273
512.0,64.0,0.05,0.0,NaN,NaN,0.064625895
512.0,64.0,0.1,0.0,NaN,NaN,0.126962169
512.0,64.0,0.8,0.0,NaN,NaN,0.106025997
512.0,64.0,1.0,0.0,NaN,NaN,0.166221869
512.0,128.0,0.05,0.0,NaN,NaN,0.178933299
512.0,64.0,0.6,0.0,NaN,NaN,0.162444572
512.0,64.0,0.9,0.0,NaN,NaN,0.170728723
512.0,128.0,0.6,0.0,NaN,NaN,0.205555489
512.0,128.0,0.2,0.0,NaN,NaN,0.166655423
512.0,64.0,0.7,0.0,NaN,NaN,0.250197633
512.0,128.0,0.5,0.0,NaN,NaN,0.244985194
512.0,128.0,0.3,0.0,NaN,NaN,0.206616432
512.0,128.0,0.8,0.0,NaN,NaN,0.206977641
512.0,128.0,0.1,0.0,NaN,NaN,0.207079784
512.0,128.0,0.7,0.0,NaN,NaN,0.129187165
512.0,256.0,0.1,0.0,NaN,NaN,0.080996769
512.0,128.0,0.9,0.0,NaN,NaN,0.213354289
512.0,512.0,0.3,0.0,NaN,NaN,0.047034766
512.0,512.0,0.5,0.0,NaN,NaN,0.02224639
512.0,256.0,0.05,0.0,NaN,NaN,0.291386765
512.0,128.0,0.4,0.0,NaN,NaN,0.261778705
512.0,0.0625,0.9,0.0,NaN,NaN,0.275259921
512.0,128.0,1.0,0.0,NaN,NaN,0.190651635
512.0,256.0,0.2,0.0,NaN,NaN,0.232052125
512.0,512.0,0.7,0.0,NaN,NaN,0.028454857
512.0,256.0,0.3,0.0,NaN,NaN,0.196161719
0.0625,0.0625,0.05,0.0,NaN,NaN,0.029422954
512.0,256.0,0.4,0.0,NaN,NaN,0.541437433
512.0,0.125,0.1,0.0,NaN,NaN,0.617705464
512.0,0.125,0.05,0.0,NaN,NaN,0.480790594
512.0,0.125,0.2,0.0,NaN,NaN,0.660359595
512.0,0.125,0.4,0.0,NaN,NaN,0.616825097
512.0,0.125,0.7,0.0,NaN,NaN,0.515540704
512.0,512.0,0.8,0.0,NaN,NaN,0.463909536
512.0,512.0,0.9,0.0,NaN,NaN,0.508960468
512.0,0.25,0.05,0.0,NaN,NaN,0.472807818
512.0,512.0,0.4,0.0,NaN,NaN,0.110327378
512.0,0.25,0.1,0.0,NaN,NaN,0.053920133
512.0,512.0,0.6,0.0,NaN,NaN,0.069719331
512.0,512.0,1.0,0.0,NaN,NaN,0.040380137
512.0,0.25,0.4,0.0,NaN,NaN,0.084093263
512.0,0.25,0.7,0.0,NaN,NaN,0.086111088
512.0,0.5,0.05,0.0,NaN,NaN,0.118742292
512.0,0.5,0.1,0.0,NaN,NaN,0.078773901
512.0,0.5,0.7,0.0,NaN,NaN,0.033968913
512.0,0.5,0.4,0.0,NaN,NaN,0.030477365
512.0,1.0,0.05,0.0,NaN,NaN,0.031518674
512.0,1.0,0.1,0.0,NaN,NaN,0.030362484
512.0,256.0,0.5,0.0,NaN,NaN,0.058654579
512.0,256.0,0.6,0.0,NaN,NaN,0.055609489
512.0,256.0,0.9,0.0,NaN,NaN,0.080378195
512.0,256.0,0.8,0.0,NaN,NaN,0.081591902
512.0,256.0,0.7,0.0,NaN,NaN,0.055255658
512.0,256.0,1.0,0.0,NaN,NaN,0.0338583
512.0,512.0,0.05,0.0,NaN,NaN,0.019012887
512.0,512.0,0.1,0.0,NaN,NaN,0.018911326
512.0,512.0,0.2,0.0,NaN,NaN,0.019633434
