0,0.0
1,0.0
2,0.0
3,0.0
4,0.0
5,0.0
6,0.0
7,0.0
8,0.0
9,0.0
10,0.0
11,0.0
12,0.0
13,0.0
14,0.0
15,0.0
16,0.0
17,0.0
18,0.0
19,0.0
20,0.0
21,0.0
22,0.0
23,0.0
24,0.0
25,0.0
26,0.0
27,0.0
28,0.0
29,0.0
30,0.0
31,0.0
32,0.0
33,0.28
34,0.28
35,0.28
36,0.28
37,0.28
38,0.28
39,0.28
40,0.28
41,0.28
42,0.28
43,0.28
44,0.3461538461538462
45,0.3461538461538462
46,0.3461538461538462
47,0.3461538461538462
48,0.3461538461538462
49,0.3461538461538462
50,0.3461538461538462
51,0.3461538461538462
52,0.3461538461538462
53,0.3461538461538462
54,0.3461538461538462
55,0.9120864096253761
56,0.9120864096253761
57,0.9120864096253761
58,0.9120864096253761
59,0.9120864096253761
60,0.9120864096253761
61,0.9120864096253761
62,0.9120864096253761
63,0.9120864096253761
64,0.9120864096253761
65,0.9120864096253761
66,1.0105820105820107
67,1.0105820105820107
68,1.0105820105820107
69,1.0105820105820107
70,1.0105820105820107
71,1.0105820105820107
72,1.0105820105820107
73,1.0105820105820107
74,1.0105820105820107
75,1.0105820105820107
76,1.0105820105820107
77,0.8618539953294752
78,0.8618539953294752
79,0.8618539953294752
80,0.8618539953294752
81,0.8618539953294752
82,0.8618539953294752
83,0.8618539953294752
84,0.8618539953294752
85,0.8618539953294752
86,0.8618539953294752
87,0.8618539953294752
88,0.7571949847732449
89,0.7571949847732449
90,0.7571949847732449
91,0.7571949847732449
92,0.7571949847732449
93,0.7571949847732449
94,0.7571949847732449
95,0.7571949847732449
96,0.7571949847732449
97,0.7571949847732449
98,0.7571949847732449
99,0.7387004300047778
100,0.7387004300047778
101,0.7387004300047778
102,0.7387004300047778
103,0.7387004300047778
104,0.7387004300047778
105,0.7387004300047778
106,0.7387004300047778
107,0.7387004300047778
108,0.7387004300047778
109,0.7387004300047778
110,0.7111134237513148
111,0.7111134237513148
112,0.7111134237513148
113,0.7111134237513148
114,0.7111134237513148
115,0.7111134237513148
116,0.7111134237513148
117,0.7111134237513148
118,0.7111134237513148
119,0.7111134237513148
120,0.7111134237513148
121,0.6950760770938869
122,0.6950760770938869
123,0.6950760770938869
124,0.6950760770938869
125,0.6950760770938869
126,0.6950760770938869
127,0.6950760770938869
128,0.6950760770938869
129,0.6950760770938869
130,0.6950760770938869
131,0.6950760770938869
132,0.6877268885667867
133,0.6877268885667867
134,0.6877268885667867
135,0.6877268885667867
136,0.6877268885667867
137,0.6877268885667867
138,0.6877268885667867
139,0.6877268885667867
140,0.6877268885667867
141,0.6877268885667867
142,0.6877268885667867
143,0.6772414869143746
144,0.6772414869143746
145,0.6772414869143746
146,0.6772414869143746
147,0.6772414869143746
148,0.6772414869143746
149,0.6772414869143746
150,0.6772414869143746
151,0.6772414869143746
152,0.6772414869143746
153,0.6772414869143746
154,0.06451612903225806
155,0.06451612903225806
156,0.06451612903225806
157,0.06451612903225806
158,0.06451612903225806
159,0.06451612903225806
160,0.06451612903225806
161,0.06451612903225806
162,0.06451612903225806
163,0.06451612903225806
164,0.06451612903225806
165,0.06451612903225806
166,0.06451612903225806
167,0.06451612903225806
168,0.06451612903225806
169,0.06451612903225806
170,0.06451612903225806
171,0.06451612903225806
172,0.06451612903225806
173,0.06451612903225806
174,0.06451612903225806
175,0.06451612903225806
176,0.06451612903225806
177,0.06451612903225806
178,0.06451612903225806
179,0.06451612903225806
180,0.06451612903225806
181,0.06451612903225806
182,0.06451612903225806
183,0.06451612903225806
184,0.06451612903225806
185,0.06451612903225806
186,0.06451612903225806
187,0.3445161290322581
188,0.3445161290322581
189,0.3445161290322581
190,0.3445161290322581
191,0.3445161290322581
192,0.3445161290322581
193,0.3445161290322581
194,0.3445161290322581
195,0.3445161290322581
196,0.3445161290322581
197,0.3445161290322581
198,0.41066997518610426
199,0.41066997518610426
200,0.41066997518610426
201,0.41066997518610426
202,0.41066997518610426
203,0.41066997518610426
204,0.41066997518610426
205,0.41066997518610426
206,0.41066997518610426
207,0.41066997518610426
208,0.41066997518610426
209,0.957131454670421
210,0.957131454670421
211,0.957131454670421
212,0.957131454670421
213,0.957131454670421
214,0.957131454670421
215,0.957131454670421
216,0.957131454670421
217,0.957131454670421
218,0.957131454670421
219,0.957131454670421
220,1.074074074074074
221,1.074074074074074
222,1.074074074074074
223,1.074074074074074
224,1.0105820105820107
225,1.0105820105820107
226,1.0105820105820107
227,1.0105820105820107
228,1.0105820105820107
229,1.0105820105820107
230,1.0105820105820107
231,0.910323383084577
232,0.910323383084577
233,0.910323383084577
234,0.8618539953294752
235,0.8618539953294752
236,0.8618539953294752
237,0.8618539953294752
238,0.8618539953294752
239,0.8618539953294752
240,0.8618539953294752
241,0.8618539953294752
242,0.7987534263316864
243,0.7987534263316864
244,0.7571949847732449
245,0.7571949847732449
246,0.7571949847732449
247,0.7571949847732449
248,0.7571949847732449
249,0.7571949847732449
250,0.7571949847732449
251,0.7571949847732449
252,0.7571949847732449
253,0.7790236312360207
254,0.7387004300047778
255,0.7387004300047778
256,0.7387004300047778
257,0.7387004300047778
258,0.7387004300047778
259,0.7387004300047778
260,0.7387004300047778
261,0.7387004300047778
262,0.7387004300047778
263,0.7387004300047778
264,0.7111134237513148
265,0.7111134237513148
266,0.7111134237513148
267,0.7111134237513148
268,0.7111134237513148
269,0.7111134237513148
270,0.7111134237513148
271,0.7111134237513148
272,0.7111134237513148
273,0.7111134237513148
274,0.7111134237513148
275,0.6950760770938869
276,0.6950760770938869
277,0.6950760770938869
278,0.6950760770938869
279,0.6950760770938869
280,0.6950760770938869
281,0.6950760770938869
282,0.6950760770938869
283,0.6950760770938869
284,0.6950760770938869
285,0.6950760770938869
286,0.6877268885667867
287,0.6877268885667867
288,0.6877268885667867
289,0.6877268885667867
290,0.6877268885667867
291,0.6877268885667867
292,0.6877268885667867
293,0.6877268885667867
294,0.6877268885667867
295,0.6877268885667867
296,0.6877268885667867
297,0.6772414869143746
298,0.6772414869143746
299,0.6772414869143746
300,0.6772414869143746
301,0.6772414869143746
302,0.6772414869143746
303,0.6772414869143746
304,0.6772414869143746
305,0.6772414869143746
306,0.6772414869143746
307,0.6772414869143746
308,0.26343519494204426
309,0.26343519494204426
310,0.26343519494204426
311,0.26343519494204426
312,0.26343519494204426
313,0.26343519494204426
314,0.26343519494204426
315,0.26343519494204426
316,0.26343519494204426
317,0.26343519494204426
318,0.26343519494204426
319,0.26343519494204426
320,0.26343519494204426
321,0.26343519494204426
322,0.26343519494204426
323,0.26343519494204426
324,0.26343519494204426
325,0.26343519494204426
326,0.26343519494204426
327,0.26343519494204426
328,0.26343519494204426
329,0.26343519494204426
330,0.26343519494204426
331,0.26343519494204426
332,0.26343519494204426
333,0.26343519494204426
334,0.26343519494204426
335,0.26343519494204426
336,0.26343519494204426
337,0.26343519494204426
338,0.26343519494204426
339,0.26343519494204426
340,0.26343519494204426
341,0.5434351949420443
342,0.5434351949420443
343,0.5434351949420443
344,0.5434351949420443
345,0.5434351949420443
346,0.5434351949420443
347,0.5434351949420443
348,0.5434351949420443
349,0.5434351949420443
350,0.5434351949420443
351,0.5434351949420443
352,0.6095890410958904
353,0.6095890410958904
354,0.6095890410958904
355,0.6095890410958904
356,0.6095890410958904
357,0.6095890410958904
358,0.6095890410958904
359,0.6095890410958904
360,0.6095890410958904
361,0.6095890410958904
362,0.6095890410958904
363,1.1037617282291659
364,1.1037617282291659
365,1.1037617282291659
366,1.1037617282291659
367,1.1037617282291659
368,1.0790534234934075
369,1.0790534234934075
370,1.0790534234934075
371,1.0790534234934075
372,1.0577768277487265
373,1.0577768277487265
374,1.2069920387677397
375,1.2069920387677397
376,1.18212708120965
377,1.18212708120965
378,1.18212708120965
379,1.151413440739912
380,1.0262123197903015
381,1.0262123197903015
382,1.0262123197903015
383,1.0262123197903015
384,1.0262123197903015
385,1.032131893722875
386,1.032131893722875
387,1.0129858882132332
388,0.9207824725736572
389,0.8761790641999986
390,0.8761790641999986
391,0.8761790641999986
392,0.8761790641999986
393,0.8618539953294752
394,0.8618539953294752
395,0.8618539953294752
396,0.9040458944645793
397,0.8860832960393825
398,0.8065657665505226
399,0.770851480836237
400,0.770851480836237
401,0.7571949847732449
402,0.7571949847732449
403,0.7571949847732449
404,0.7571949847732449
405,0.7571949847732449
406,0.7571949847732449
407,0.8662087912087912
408,0.7868711772794084
409,0.7520885685837562
410,0.7387004300047778
411,0.7387004300047778
412,0.7387004300047778
413,0.7387004300047778
414,0.7387004300047778
415,0.7387004300047778
416,0.7387004300047778
417,0.7387004300047778
418,0.7583126772515129
419,0.7244143721667671
420,0.7111134237513148
421,0.7111134237513148
422,0.7111134237513148
423,0.7111134237513148
424,0.7111134237513148
425,0.7111134237513148
426,0.7111134237513148
427,0.7111134237513148
428,0.7111134237513148
429,0.7082059166180705
430,0.6950760770938869
431,0.6950760770938869
432,0.6950760770938869
433,0.6950760770938869
434,0.6950760770938869
435,0.6950760770938869
436,0.6950760770938869
437,0.6950760770938869
438,0.6950760770938869
439,0.6950760770938869
440,0.6877268885667867
441,0.6877268885667867
442,0.6877268885667867
443,0.6877268885667867
444,0.6877268885667867
445,0.6877268885667867
446,0.6877268885667867
447,0.6877268885667867
448,0.6877268885667867
449,0.6877268885667867
450,0.6877268885667867
451,0.6772414869143746
452,0.6772414869143746
453,0.6772414869143746
454,0.6772414869143746
455,0.6772414869143746
456,0.6772414869143746
457,0.6772414869143746
458,0.6772414869143746
459,0.6772414869143746
460,0.6772414869143746
461,0.6772414869143746
462,0.658271144278607
463,0.658271144278607
464,0.658271144278607
465,0.658271144278607
466,0.658271144278607
467,0.658271144278607
468,0.658271144278607
469,0.658271144278607
470,0.658271144278607
471,0.658271144278607
472,0.658271144278607
473,0.658271144278607
474,0.658271144278607
475,0.658271144278607
476,0.658271144278607
477,0.658271144278607
478,0.658271144278607
479,0.658271144278607
480,0.658271144278607
481,0.658271144278607
482,0.658271144278607
483,0.658271144278607
484,0.658271144278607
485,0.658271144278607
486,0.658271144278607
487,0.658271144278607
488,0.658271144278607
489,0.658271144278607
490,0.658271144278607
491,0.658271144278607
492,0.658271144278607
493,0.658271144278607
494,0.658271144278607
495,0.938271144278607
496,0.938271144278607
497,0.938271144278607
498,0.938271144278607
499,0.938271144278607
500,0.938271144278607
501,0.938271144278607
502,0.938271144278607
503,0.938271144278607
504,0.938271144278607
505,0.938271144278607
506,1.0044249904324531
507,1.0044249904324531
508,1.0044249904324531
509,1.0044249904324531
510,1.0044249904324531
511,1.0044249904324531
512,1.0044249904324531
513,1.0044249904324531
514,1.0044249904324531
515,1.0044249904324531
516,1.0044249904324531
517,1.393449685162575
518,1.393449685162575
519,1.393449685162575
520,1.393449685162575
521,1.393449685162575
522,1.3879114366336722
523,1.3879114366336722
524,1.3879114366336722
525,1.3879114366336722
526,1.3138373625595983
527,1.3138373625595983
528,1.4324193325024233
529,1.4324193325024233
530,1.4324193325024233
531,1.4275563793636086
532,1.4275563793636086
533,1.4275563793636086
534,1.2996480643539465
535,1.3123961448986377
536,1.3123961448986377
537,1.2248366013071896
538,1.2248366013071896
539,1.2733271886545476
540,1.2733271886545476
541,1.260551346610413
542,1.1504396621543447
543,1.1215280975284942
544,1.0391044303872192
545,0.9982881038566068
546,0.9982881038566068
547,0.9982881038566068
548,0.9982881038566068
549,0.9982881038566068
550,1.1629852129091083
551,1.150412187763058
552,0.9989560337260952
553,0.9021730457217332
554,0.8661287364753347
555,0.8661287364753347
556,0.8661287364753347
557,0.8129187885285447
558,0.8129187885285447
559,0.8129187885285447
560,0.8129187885285447
561,1.1259136212624585
562,0.9987468671679199
563,0.8481021394064873
564,0.8481021394064873
565,0.7932984635501799
566,0.7932984635501799
567,0.7932984635501799
568,0.7932984635501799
569,0.7932984635501799
570,0.7932984635501799
571,0.7932984635501799
572,0.9621305166625727
573,0.8197797910615978
574,0.7653460772775768
575,0.7653460772775768
576,0.7653460772775768
577,0.7653460772775768
578,0.7653460772775768
579,0.7504207041432485
580,0.7504207041432485
581,0.7504207041432485
582,0.7504207041432485
583,0.8023006602910101
584,0.748592220393312
585,0.748592220393312
586,0.748592220393312
587,0.7338863380403707
588,0.7338863380403707
589,0.7338863380403707
590,0.7338863380403707
591,0.7338863380403707
592,0.7338863380403707
593,0.7338863380403707
594,0.7412430318662118
595,0.7412430318662118
596,0.7265371495132706
597,0.7265371495132706
598,0.7265371495132706
599,0.7265371495132706
600,0.7265371495132706
601,0.7265371495132706
602,0.7265371495132706
603,0.7265371495132706
604,0.7265371495132706
605,0.7335199170423763
606,0.7190271634191879
607,0.7190271634191879
608,0.7026576503340037
609,0.7026576503340037
610,0.7026576503340037
611,0.7026576503340037
612,0.7026576503340037
613,0.7026576503340037
614,0.7026576503340037
615,0.7026576503340037
616,1.0775017684821475
617,1.0775017684821475
618,1.0775017684821475
619,1.0775017684821475
620,1.0775017684821475
621,1.0775017684821475
622,1.0775017684821475
623,1.0775017684821475
624,1.0775017684821475
625,1.0775017684821475
626,1.0775017684821475
627,1.0775017684821475
628,1.0775017684821475
629,1.0775017684821475
630,1.0775017684821475
631,1.0775017684821475
632,1.0775017684821475
633,1.0775017684821475
634,1.0775017684821475
635,1.0775017684821475
636,1.0775017684821475
637,1.0775017684821475
638,1.0775017684821475
639,1.0775017684821475
640,1.0775017684821475
641,1.0775017684821475
642,1.0775017684821475
643,1.0775017684821475
644,1.0775017684821475
645,1.0775017684821475
646,1.0775017684821475
647,1.0775017684821475
648,1.0775017684821475
649,1.2968895235841882
650,1.2968895235841882
651,1.2968895235841882
652,1.2968895235841882
653,1.2968895235841882
654,1.2968895235841882
655,1.2968895235841882
656,1.2968895235841882
657,1.2968895235841882
658,1.2968895235841882
659,1.2968895235841882
660,1.349845188608819
661,1.349845188608819
662,1.349845188608819
663,1.349845188608819
664,1.349845188608819
665,1.349845188608819
666,1.349845188608819
667,1.349845188608819
668,1.349845188608819
669,1.349845188608819
670,1.349845188608819
671,1.6418079096045197
672,1.6418079096045197
673,1.6418079096045197
674,1.6418079096045197
675,1.6418079096045197
676,1.6418079096045197
677,1.6418079096045197
678,1.6360108081552447
679,1.6360108081552447
680,1.6360108081552447
681,1.6534021125030707
682,1.6502753737214793
683,1.6502753737214793
684,1.6502753737214793
685,1.6502753737214793
686,1.6451612903225805
687,1.6451612903225805
688,1.661290322580645
689,1.6344086021505377
690,1.5697792869269949
691,1.5812631578947367
692,1.5812631578947367
693,1.565487247530591
694,1.565487247530591
695,1.5571266513837354
696,1.541135694310666
697,1.3866773685987477
698,1.3826600221757825
699,1.3185800792291789
700,1.2797451277728682
701,1.2409101763165573
702,1.2409101763165573
703,1.2409101763165573
704,1.4859939854658377
705,1.461022093637919
706,1.442149109785611
707,1.2204704704704705
708,1.0966044954567193
709,1.0966044954567193
710,1.0790606358075965
711,1.0643547534546554
712,0.9911840217473382
713,0.9911840217473382
714,0.8962039244452595
715,1.4380422209369579
716,1.4121346651868296
717,1.1066252587991718
718,1.0571747093486223
719,0.9712533842968626
720,0.9190368455074338
721,0.8749191984486103
722,0.847903947903948
723,0.847903947903948
724,0.847903947903948
725,0.847903947903948
726,1.4018716577540107
727,1.1272283272283272
728,0.9527950310559006
729,0.846017137416693
730,0.8191815856777493
731,0.8191815856777493
732,0.8191815856777493
733,0.8191815856777493
734,0.8191815856777493
735,0.8191815856777493
736,0.8191815856777493
737,1.1045697547149518
738,0.9369883806861613
739,0.8019282511764481
740,0.8019282511764481
741,0.8019282511764481
742,0.8019282511764481
743,0.8019282511764481
744,0.8019282511764481
745,0.8019282511764481
746,0.7750584743860112
747,0.7750584743860112
748,0.9296391921590612
749,0.7945790626493479
750,0.7945790626493479
751,0.7945790626493479
752,0.7945790626493479
753,0.767709285858911
754,0.767709285858911
755,0.767709285858911
756,0.767709285858911
757,0.767709285858911
758,0.767709285858911
759,0.788824705300351
760,0.788824705300351
761,0.7600477268830848
762,0.7600477268830848
763,0.7600477268830848
764,0.7600477268830848
765,0.7600477268830848
766,0.7600477268830848
767,0.7312707484658185
768,0.7312707484658185
769,0.7312707484658185
770,1.5717192164560587
771,1.5717192164560587
772,1.5717192164560587
773,1.5717192164560587
774,1.5717192164560587
775,1.5717192164560587
776,1.5717192164560587
777,1.5717192164560587
778,1.5717192164560587
779,1.5717192164560587
780,1.5717192164560587
781,1.5717192164560587
782,1.5717192164560587
783,1.5717192164560587
784,1.5717192164560587
785,1.5717192164560587
786,1.5717192164560587
787,1.5717192164560587
788,1.5717192164560587
789,1.5717192164560587
790,1.5717192164560587
791,1.5717192164560587
792,1.5717192164560587
793,1.5717192164560587
794,1.5717192164560587
795,1.5717192164560587
796,1.5717192164560587
797,1.5717192164560587
798,1.5717192164560587
799,1.5717192164560587
800,1.5717192164560587
801,1.5717192164560587
802,1.5717192164560587
803,1.7405788655788657
804,1.7405788655788657
805,1.7405788655788657
806,1.7405788655788657
807,1.7405788655788657
808,1.7405788655788657
809,1.7405788655788657
810,1.7405788655788657
811,1.7405788655788657
812,1.7405788655788657
813,1.7405788655788657
814,1.7822455322455324
815,1.7822455322455324
816,1.7822455322455324
817,1.7822455322455324
818,1.7822455322455324
819,1.7822455322455324
820,1.7822455322455324
821,1.7822455322455324
822,1.7822455322455324
823,1.7822455322455324
824,1.7822455322455324
825,2.0208415401000863
826,2.0208415401000863
827,2.0208415401000863
828,2.0208415401000863
829,2.0208415401000863
830,2.0208415401000863
831,2.0208415401000863
832,2.0208415401000863
833,2.0208415401000863
834,2.0208415401000863
835,2.0208415401000863
836,2.0269420745397393
837,2.0269420745397393
838,2.0269420745397393
839,2.0269420745397393
840,2.0269420745397393
841,2.0269420745397393
842,2.0269420745397393
843,2.0269420745397393
844,2.0269420745397393
845,2.0422092501122586
846,2.0618170932495135
847,1.9353672643146327
848,1.9353672643146327
849,1.9353672643146327
850,1.9394886789623633
851,1.9394886789623633
852,1.9434897603357073
853,1.8047856220518088
854,1.819174111260442
855,1.7760086436345426
856,1.6517540819968035
857,1.5691735615988471
858,1.847535771065183
859,1.847535771065183
860,1.8567672008633798
861,1.7950297569253566
862,1.6525437028641181
863,1.461468380853821
864,1.4116844455470108
865,1.4116844455470108
866,1.4116844455470108
867,1.2849451835990373
868,1.270556694390404
869,1.814455604056379
870,1.8236308725372468
871,1.6140595499034267
872,1.4294458496586155
873,1.3886500441569278
874,1.221779993056589
875,1.1855536549781154
876,1.0095494266483058
877,0.9663839590224064
878,0.9663839590224064
879,0.9138712246843295
880,1.7710337933127445
881,1.6341908081900867
882,1.3413402084486843
883,1.0486375513251214
884,0.9340425531914893
885,0.9081432726159498
886,0.8818686401480111
887,0.8818686401480111
888,0.8818686401480111
889,0.8818686401480111
890,0.8818686401480111
891,1.5943104514533086
892,1.3121150529687116
893,0.9141090805623456
894,0.8626000262363899
895,0.8626000262363899
896,0.8626000262363899
897,0.8626000262363899
898,0.8626000262363899
899,0.8626000262363899
900,0.8626000262363899
901,0.8626000262363899
902,1.2956396190175494
903,0.9054790913498321
904,0.8539700370238763
905,0.8539700370238763
906,0.8539700370238763
907,0.8539700370238763
908,0.8539700370238763
909,0.8276596567566616
910,0.8276596567566616
911,0.8276596567566616
912,0.8276596567566616
913,0.901410667863933
914,0.8474700025957279
915,0.8474700025957279
916,0.8191012082694868
917,0.8191012082694868
918,0.8191012082694868
919,0.8191012082694868
920,0.8191012082694868
921,0.8191012082694868
922,0.8191012082694868
923,0.8191012082694868
924,1.7916943521594684
925,1.7916943521594684
926,1.7916943521594684
927,1.7916943521594684
928,1.7916943521594684
929,1.7916943521594684
930,1.7916943521594684
931,1.7916943521594684
932,1.7916943521594684
933,1.7916943521594684
934,1.7916943521594684
935,1.7916943521594684
936,1.7916943521594684
937,1.7916943521594684
938,1.7916943521594684
939,1.7916943521594684
940,1.7916943521594684
941,1.7916943521594684
942,1.7916943521594684
943,1.7916943521594684
944,1.7916943521594684
945,1.7916943521594684
946,1.7916943521594684
947,1.7916943521594684
948,1.7916943521594684
949,1.7916943521594684
950,1.7916943521594684
951,1.7916943521594684
952,1.7916943521594684
953,1.7916943521594684
954,1.7916943521594684
955,1.7916943521594684
956,1.7916943521594684
957,1.9484107700699163
958,1.9484107700699163
959,1.9484107700699163
960,1.9484107700699163
961,1.9484107700699163
962,1.9484107700699163
963,1.9484107700699163
964,1.9484107700699163
965,1.9484107700699163
966,1.9484107700699163
967,1.9484107700699163
968,1.9873465260725118
969,1.9873465260725118
970,1.9873465260725118
971,1.9873465260725118
972,1.9873465260725118
973,1.9873465260725118
974,1.9873465260725118
975,1.9873465260725118
976,1.9873465260725118
977,1.9873465260725118
978,1.9873465260725118
979,2.137953579601177
980,2.137953579601177
981,2.137953579601177
982,2.137953579601177
983,2.137953579601177
984,2.137953579601177
985,2.137953579601177
986,2.137953579601177
987,2.137953579601177
988,2.137953579601177
989,2.137953579601177
990,2.159356437729066
991,2.159356437729066
992,2.159356437729066
993,2.159356437729066
994,2.159356437729066
995,2.159356437729066
996,2.159356437729066
997,2.1887682024349484
998,2.1887682024349484
999,2.220423237330263
1000,2.220423237330263
1001,2.078183172002978
1002,2.078183172002978
1003,2.078183172002978
1004,2.0729234038621454
1005,2.1021204841541166
1006,2.1314044605183846
1007,2.1314044605183846
1008,2.1171187462326704
1009,2.1171187462326704
1010,2.1374071432816306
1011,2.0762429553568795
1012,2.0162922973103248
1013,2.0162922973103248
1014,2.020019005384859
1015,2.0680699124532858
1016,2.047856702653116
1017,2.0500323582124884
1018,2.0191143468753774
1019,1.935180646315088
1020,1.8730076080857117
1021,1.70073220148057
1022,1.655788381255851
1023,1.9877112135176649
1024,1.9915341511434197
1025,2.0252688172043007
1026,1.97889401755815
1027,1.8527336059366952
1028,1.63771158392435
1029,1.4434636500400524
1030,1.4071542068751695
1031,1.2742316784869976
1032,1.2492063492063492
1033,1.2238209432454037
1034,1.9303977272727275
1035,1.96875
1036,1.8576388888888888
1037,1.471815850815851
1038,1.2313804082096766
1039,1.1957706279190452
1040,1.0168699186991872
1041,0.9592458052240098
1042,0.9333465246484702
1043,0.9333465246484702
1044,0.9070718921805314
1045,1.9384258193261186
1046,1.814276159462173
1047,1.2047313602327976
1048,1.0306723325404672
1049,0.9135971936246473
1050,0.8876600102406554
1051,0.8876600102406554
1052,0.8876600102406554
1053,0.8876600102406554
1054,0.8876600102406554
1055,0.8876600102406554
1056,1.7877708161460306
1057,1.1896441372247823
1058,0.9049672044121337
1059,0.8790300210281419
1060,0.8790300210281419
1061,0.8790300210281419
1062,0.8679247857029171
1063,0.8679247857029171
1064,0.8679247857029171
1065,0.8679247857029171
1066,0.8679247857029171
1067,1.182523531973336
1068,0.9008987809262347
1069,0.8725299865999935
1070,0.8614247512747688
1071,0.8614247512747688
1072,0.8330559569485277
1073,0.8330559569485277
1074,0.8330559569485277
1075,0.8330559569485277
1076,0.8330559569485277
1077,0.8330559569485277
1078,1.8964997964997967
1079,1.8964997964997967
1080,1.8964997964997967
1081,1.8964997964997967
1082,1.8964997964997967
1083,1.8964997964997967
1084,1.8964997964997967
1085,1.8964997964997967
1086,1.8964997964997967
1087,1.8964997964997967
1088,1.8964997964997967
1089,1.8964997964997967
1090,1.8964997964997967
1091,1.8964997964997967
1092,1.8964997964997967
1093,1.8964997964997967
1094,1.8964997964997967
1095,1.8964997964997967
1096,1.8964997964997967
1097,1.8964997964997967
1098,1.8964997964997967
1099,1.8964997964997967
1100,1.8964997964997967
1101,1.8964997964997967
1102,1.8964997964997967
1103,1.8964997964997967
1104,1.8964997964997967
1105,1.8964997964997967
1106,1.8964997964997967
1107,1.8964997964997967
1108,1.8964997964997967
1109,1.8964997964997967
1110,1.8964997964997967
1111,2.0393569393569395
1112,2.0393569393569395
1113,2.0393569393569395
1114,2.0393569393569395
1115,2.0393569393569395
1116,2.0393569393569395
1117,2.0393569393569395
1118,2.0393569393569395
1119,2.0393569393569395
1120,2.0393569393569395
1121,2.0393569393569395
1122,2.075071225071225
1123,2.075071225071225
1124,2.075071225071225
1125,2.075071225071225
1126,2.075071225071225
1127,2.075071225071225
1128,2.075071225071225
1129,2.075071225071225
1130,2.075071225071225
1131,2.075071225071225
1132,2.075071225071225
1133,2.218855802251801
1134,2.218855802251801
1135,2.218855802251801
1136,2.218855802251801
1137,2.218855802251801
1138,2.218855802251801
1139,2.218855802251801
1140,2.218855802251801
1141,2.218855802251801
1142,2.218855802251801
1143,2.218855802251801
1144,2.2384466266350804
1145,2.2384466266350804
1146,2.2384466266350804
1147,2.2384466266350804
1148,2.2384466266350804
1149,2.2384466266350804
1150,2.2384466266350804
1151,2.2384466266350804
1152,2.2384466266350804
1153,2.2384466266350804
1154,2.2384466266350804
1155,2.1543528573971873
1156,2.1543528573971873
1157,2.1543528573971873
1158,2.1543528573971873
1159,2.1543528573971873
1160,2.1543528573971873
1161,2.1491693177801343
1162,2.1781548250265113
1163,2.1728373398841905
1164,2.2124274099883854
1165,2.2124274099883854
1166,2.1024592845787575
1167,2.1024592845787575
1168,2.1024592845787575
1169,2.0972177635098985
1170,2.12041938458386
1171,2.1591672381354297
1172,2.1161189358372456
1173,2.1097697294880393
1174,2.1097697294880393
1175,2.1115582383188016
1176,2.0802530802530805
1177,2.0477308197617514
1178,2.0477308197617514
1179,2.065585305701344
1180,2.1039634848275544
1181,2.0900745959386655
1182,2.015105402764205
1183,1.9919253261358525
1184,1.9789634848275546
1185,1.8157424812030074
1186,1.728303838839854
1187,1.6431384845091455
1188,1.9922494172494174
1189,2.020027195027195
1190,2.0530303030303028
1191,1.951260727576517
1192,1.7688713823538036
1193,1.5737141248952273
1194,1.4065330225330226
1195,1.2793602061894744
1196,1.2687229561156048
1197,1.2437504258988432
1198,1.2437504258988432
1199,1.9938034188034188
1200,2.026806526806527
1201,1.7084690119041261
1202,1.3756105006105008
1203,1.2404128129934582
1204,1.135189632418165
1205,1.0788516042491507
1206,0.9658847753239936
1207,0.9658847753239936
1208,0.9399475919400018
1209,0.9399475919400018
1210,1.997301784973018
1211,1.689238242673357
1212,1.224031046611692
1213,1.065570695555398
1214,0.9555259147986515
1215,0.9295887314146596
1216,0.9295887314146596
1217,0.9295887314146596
1218,0.9295887314146596
1219,0.9295887314146596
1220,0.9184834960894348
1221,1.6801473335824477
1222,1.216286938867584
1223,0.9506342306616844
1224,0.9222654363354432
1225,0.9222654363354432
1226,0.9111602010102186
1227,0.9111602010102186
1228,0.9111602010102186
1229,0.8827914066839775
1230,0.8827914066839775
1231,0.8827914066839775
1232,1.9202284190346837
1233,1.9202284190346837
1234,1.9202284190346837
1235,1.9202284190346837
1236,1.9202284190346837
1237,1.9202284190346837
1238,1.9202284190346837
1239,1.9202284190346837
1240,1.9202284190346837
1241,1.9202284190346837
1242,1.9202284190346837
1243,1.9202284190346837
1244,1.9202284190346837
1245,1.9202284190346837
1246,1.9202284190346837
1247,1.9202284190346837
1248,1.9202284190346837
1249,1.9202284190346837
1250,1.9202284190346837
1251,1.9202284190346837
1252,1.9202284190346837
1253,1.9202284190346837
1254,1.9202284190346837
1255,1.9202284190346837
1256,1.9202284190346837
1257,1.9202284190346837
1258,1.9202284190346837
1259,1.9202284190346837
1260,1.9202284190346837
1261,1.9202284190346837
1262,1.9202284190346837
1263,1.9202284190346837
1264,1.9202284190346837
1265,2.0249292737355384
1266,2.0249292737355384
1267,2.0249292737355384
1268,2.0249292737355384
1269,2.0249292737355384
1270,2.0249292737355384
1271,2.0249292737355384
1272,2.0249292737355384
1273,2.0249292737355384
1274,2.0249292737355384
1275,2.0249292737355384
1276,2.040833201031871
1277,2.040833201031871
1278,2.040833201031871
1279,2.040833201031871
1280,2.040833201031871
1281,2.040833201031871
1282,2.040833201031871
1283,2.040833201031871
1284,2.040833201031871
1285,2.040833201031871
1286,2.0914661124242757
1287,2.1493006993006993
1288,2.1493006993006993
1289,2.1493006993006993
1290,2.1493006993006993
1291,2.1493006993006993
1292,2.1493006993006993
1293,2.1493006993006993
1294,2.199300699300699
1295,2.199300699300699
1296,2.199300699300699
1297,2.199300699300699
1298,2.139370877727042
1299,2.139370877727042
1300,2.139370877727042
1301,2.139370877727042
1302,2.216026321049152
1303,2.216026321049152
1304,2.216026321049152
1305,2.2490841722888213
1306,2.2490841722888213
1307,2.2490841722888213
1308,2.282142023528491
1309,2.061312030521022
1310,2.061312030521022
1311,2.061312030521022
1312,2.1331784150533517
1313,2.165698740256604
1314,2.165698740256604
1315,2.1982190654598557
1316,2.1982190654598557
1317,2.1982190654598557
1318,2.1982190654598557
1319,2.1934664794939627
1320,2.049902096702731
1321,2.093900426742532
1322,2.120059156901262
1323,2.1518051886472938
1324,2.1518051886472938
1325,2.1518051886472938
1326,2.146998368404232
1327,2.1738440059881246
1328,2.1738440059881246
1329,2.203139840653087
1330,2.203139840653087
1331,2.0506666666666664
1332,2.071076115485564
1333,2.10257217847769
1334,2.10257217847769
1335,2.1341605453680703
1336,2.16333139565608
1337,2.1499085768641333
1338,2.1548967865503297
1339,2.1548967865503297
1340,2.140831600831601
1341,2.068910686628807
1342,2.043342428995829
1343,2.0741116597650597
1344,2.1103799383552193
1345,2.1195521677953577
1346,2.1282699812111576
1347,2.0835574628144284
1348,2.038663575638662
1349,1.940821915024412
1350,1.821238626629782
1351,1.7157725135662756
1352,1.5683025752155464
1353,2.0499721029522355
1354,2.086240381542395
1355,2.104592585724661
1356,2.0149861801521656
1357,1.7682017802483765
1358,1.5434378774874438
1359,1.4340628774874438
1360,1.311929133023926
1361,1.3015852694510996
1362,1.2043197796622453
1363,1.1632238892512867
1364,2.0804901569242458
1365,2.098949841940496
1366,1.7473210864704867
1367,1.414529325243611
1368,1.2833988587413245
1369,1.148673624701022
1370,1.1298978798978798
1371,1.023753120148003
1372,0.9981812492060393
1373,0.9981812492060393
1374,0.9981812492060393
1375,2.087974964121753
1376,1.7473210864704867
1377,1.2833988587413245
1378,1.1264212680141883
1379,0.992748409649818
1380,0.992748409649818
1381,0.992748409649818
1382,0.992748409649818
1383,0.992748409649818
1384,0.9559680539090285
1385,0.9559680539090285
1386,1.8568353422476045
1387,1.8568353422476045
1388,1.8568353422476045
1389,1.8568353422476045
1390,1.8568353422476045
1391,1.8568353422476045
1392,1.8568353422476045
1393,1.8568353422476045
1394,1.8568353422476045
1395,1.8568353422476045
1396,1.8568353422476045
1397,1.8568353422476045
1398,1.8568353422476045
1399,1.8568353422476045
1400,1.8568353422476045
1401,1.8568353422476045
1402,1.8568353422476045
1403,1.8568353422476045
1404,1.8568353422476045
1405,1.8568353422476045
1406,1.8568353422476045
1407,1.8568353422476045
1408,1.8568353422476045
1409,1.8568353422476045
1410,1.8568353422476045
1411,1.8568353422476045
1412,1.8568353422476045
1413,1.8568353422476045
1414,1.8568353422476045
1415,1.8568353422476045
1416,1.8568353422476045
1417,1.8568353422476045
1418,1.8568353422476045
1419,1.888547815820543
1420,1.888547815820543
1421,1.888547815820543
1422,1.888547815820543
1423,1.888547815820543
1424,1.888547815820543
1425,1.888547815820543
1426,1.888547815820543
1427,1.9488133929400528
1428,1.9488133929400528
1429,1.9488133929400528
1430,1.888547815820543
1431,1.888547815820543
1432,1.888547815820543
1433,1.888547815820543
1434,1.888547815820543
1435,1.888547815820543
1436,1.9488133929400528
1437,1.9488133929400528
1438,1.9488133929400528
1439,1.9488133929400528
1440,1.9488133929400528
1441,1.959840338872597
1442,1.959840338872597
1443,1.959840338872597
1444,1.959840338872597
1445,2.0201059159921066
1446,2.073613340467273
1447,2.073613340467273
1448,2.073613340467273
1449,2.0960852505796326
1450,2.118557160691992
1451,2.118557160691992
1452,1.9592734454485607
1453,1.9592734454485607
1454,1.9592734454485607
1455,2.073046447043237
1456,2.073046447043237
1457,2.0955183571555964
1458,2.117990267267956
1459,2.117990267267956
1460,2.1629340874926752
1461,2.1629340874926752
1462,2.1629340874926752
1463,1.9023988542785535
1464,1.9023988542785535
1465,2.0115858843537415
1466,2.053252551020408
1467,2.0949192176870746
1468,2.0949192176870746
1469,2.0949192176870746
1470,2.0949192176870746
1471,2.1261692176870746
1472,2.1261692176870746
1473,2.1632016980020357
1474,1.8961135806773393
1475,2.0032843959731546
1476,2.0432843959731546
1477,2.0832843959731546
1478,2.1344863190500774
1479,2.1344863190500774
1480,2.1652555498193085
1481,2.1723262568900155
1482,2.1591331008397163
1483,2.1591331008397163
1484,2.1591331008397163
1485,1.9817048922217895
1486,2.020920578496299
1487,2.0805689570785013
1488,2.116745024686989
1489,2.1039245118664764
1490,2.1039245118664764
1491,2.1039245118664764
1492,2.1352710902329224
1493,2.1352710902329224
1494,2.1638715991387745
1495,2.1638715991387745
1496,2.0048117867484248
1497,2.0510579884826567
1498,2.0874117110959216
1499,2.0874117110959216
1500,2.1233766233766236
1501,2.151861471861472
1502,2.1610131755762825
1503,2.1610131755762825
1504,2.164631447851271
1505,2.106061233869374
1506,2.0580155255198087
1507,2.0265931566783753
1508,2.063645874486048
1509,2.09961078676675
1510,2.1313448098243932
1511,2.1399512917855783
1512,2.033335369454116
1513,2.0015949356681877
1514,1.8762484034502354
1515,1.72541447075633
1516,1.5564150491253297
1517,1.5410304337407141
1518,2.0468935228165392
1519,2.0828584350972412
1520,2.1228728728728727
1521,1.9451336265419563
1522,1.7254854854854855
1523,1.5214968814968814
1524,1.3008454608454607
1525,1.274178794178794
1526,1.263977451896915
1527,1.1703481082675713
1528,1.1115083546590394
1529,2.0828584350972412
1530,2.1228728728728727
1531,1.6958558558558556
1532,1.3099341955979122
1533,1.2417766796961427
1534,1.126603040008041
1535,1.0277421208928057
1536,1.0029901133349408
1537,0.9754039064383891
1538,0.9754039064383891
1539,0.9754039064383891
1540,1.8261962417667572
1541,1.8261962417667572
1542,1.8261962417667572
1543,1.8261962417667572
1544,1.8261962417667572
1545,1.8261962417667572
1546,1.8261962417667572
1547,1.8261962417667572
1548,1.8261962417667572
1549,1.8261962417667572
1550,1.8261962417667572
1551,1.8261962417667572
1552,1.8261962417667572
1553,1.8261962417667572
1554,1.8261962417667572
1555,1.8261962417667572
1556,1.8261962417667572
1557,1.8261962417667572
1558,1.8261962417667572
1559,1.8261962417667572
1560,1.8261962417667572
1561,1.8261962417667572
1562,1.8261962417667572
1563,1.8261962417667572
1564,1.8261962417667572
1565,1.8261962417667572
1566,1.8261962417667572
1567,1.8261962417667572
1568,1.8261962417667572
1569,1.8261962417667572
1570,1.8261962417667572
1571,1.8261962417667572
1572,1.8261962417667572
1573,1.8563234179613488
1574,1.8563234179613488
1575,1.8563234179613488
1576,1.8563234179613488
1577,1.8563234179613488
1578,1.8563234179613488
1579,1.8563234179613488
1580,1.8563234179613488
1581,1.8563234179613488
1582,1.8563234179613488
1583,1.8563234179613488
1584,1.8563234179613488
1585,1.8563234179613488
1586,1.8563234179613488
1587,1.8563234179613488
1588,1.8563234179613488
1589,1.8563234179613488
1590,1.8563234179613488
1591,1.8563234179613488
1592,1.8563234179613488
1593,1.8563234179613488
1594,1.8563234179613488
1595,1.874901883830455
1596,1.874901883830455
1597,1.874901883830455
1598,1.874901883830455
1599,1.912401883830455
1600,1.912401883830455
1601,1.912401883830455
1602,1.9704525288376218
1603,1.9704525288376218
1604,1.9704525288376218
1605,1.9964067273109043
1606,1.8840028215028215
1607,1.8840028215028215
1608,1.9215028215028216
1609,1.9215028215028216
1610,1.9215028215028216
1611,1.979553466509988
1612,2.001063623626478
1613,2.001063623626478
1614,2.033922212181693
1615,2.033922212181693
1616,2.075861150806475
1617,1.841008316008316
1618,1.841008316008316
1619,1.878071253071253
1620,1.9334836242052738
1621,1.9546718453228487
1622,1.9879737986414072
1623,2.0382510068133524
1624,2.0382510068133524
1625,2.0382510068133524
1626,2.0382510068133524
1627,2.0940668976807895
1628,1.8460910518053375
1629,1.8831539888682747
1630,1.958704708791847
1631,2.0320930989346175
1632,2.041672603250964
1633,2.096078043795018
1634,2.0886032963202705
1635,2.083468236448369
1636,2.0982830512631834
1637,2.1279126808928135
1638,2.1279126808928135
1639,1.870909090909091
1640,1.945503388659834
1641,2.0233894502284437
1642,2.0764510670697396
1643,2.064731853006103
1644,2.090392145197095
1645,2.0839818887868384
1646,2.0649342697392195
1647,2.0649342697392195
1648,2.0649342697392195
1649,2.0649342697392195
1650,1.9366733665847788
1651,2.0142131527778964
1652,2.031009970898335
1653,2.0633327435431377
1654,2.0444648190148356
1655,2.0444648190148356
1656,2.0496483586318885
1657,2.0805221116418644
1658,2.0805221116418644
1659,2.108278546524692
1660,2.108278546524692
1661,1.9949788607830254
1662,2.0065451390940536
1663,2.0325850146822013
1664,2.0325850146822013
1665,2.06864230730923
1666,2.0963987421920574
1667,2.0871135516417776
1668,2.0871135516417776
1669,2.0909994939827956
1670,2.0236935191205827
1671,1.9888928438836007
1672,2.000706940595305
1673,2.0325850146822013
1674,2.06864230730923
1675,2.0871135516417776
1676,2.0909994939827956
1677,1.9888928438836007
1678,1.9235981914329847
1679,1.8527326635590384
1680,1.633505735951779
1681,1.518078078078078
1682,1.5032632632632632
1683,2.0325850146822013
1684,2.06864230730923
1685,2.0909994939827956
1686,1.9235981914329847
1687,1.633505735951779
1688,1.5032632632632632
1689,1.3455254699951569
1690,1.2995687262941595
1691,1.2773679540933873
1692,1.2024627707811244
1693,1.1380695184684089
1694,1.7797581984225816
1695,1.7797581984225816
1696,1.7797581984225816
1697,1.7797581984225816
1698,1.7797581984225816
1699,1.7797581984225816
1700,1.7797581984225816
1701,1.7797581984225816
1702,1.7797581984225816
1703,1.7797581984225816
1704,1.7797581984225816
1705,1.7797581984225816
1706,1.7797581984225816
1707,1.7797581984225816
1708,1.7797581984225816
1709,1.7797581984225816
1710,1.7797581984225816
1711,1.7797581984225816
1712,1.7797581984225816
1713,1.7797581984225816
1714,1.7797581984225816
1715,1.7797581984225816
1716,1.7797581984225816
1717,1.7797581984225816
1718,1.7797581984225816
1719,1.7797581984225816
1720,1.7797581984225816
1721,1.7797581984225816
1722,1.7797581984225816
1723,1.7797581984225816
1724,1.7797581984225816
1725,1.7797581984225816
1726,1.7797581984225816
1727,1.808244592980405
1728,1.808244592980405
1729,1.808244592980405
1730,1.808244592980405
1731,1.808244592980405
1732,1.808244592980405
1733,1.808244592980405
1734,1.808244592980405
1735,1.808244592980405
1736,1.808244592980405
1737,1.808244592980405
1738,1.808244592980405
1739,1.808244592980405
1740,1.808244592980405
1741,1.808244592980405
1742,1.808244592980405
1743,1.808244592980405
1744,1.808244592980405
1745,1.808244592980405
1746,1.808244592980405
1747,1.808244592980405
1748,1.808244592980405
1749,1.826756255327684
1750,1.826756255327684
1751,1.826756255327684
1752,1.826756255327684
1753,1.826756255327684
1754,1.826756255327684
1755,1.826756255327684
1756,1.826756255327684
1757,1.826756255327684
1758,1.826756255327684
1759,1.8677678752866722
1760,1.8358257274844045
1761,1.8358257274844045
1762,1.8358257274844045
1763,1.8358257274844045
1764,1.8358257274844045
1765,1.8358257274844045
1766,1.8768373474433928
1767,1.8768373474433928
1768,1.8768373474433928
1769,1.9310529730875898
1770,1.9310529730875898
1771,1.808892939779804
1772,1.808892939779804
1773,1.808892939779804
1774,1.808892939779804
1775,1.8493572847217608
1776,1.9021625652498138
1777,1.9021625652498138
1778,1.9273259639426241
1779,1.9273259639426241
1780,1.9899936226426553
1781,1.9899936226426553
1782,1.8147518691503586
1783,1.8147518691503586
1784,1.8552162140923154
1785,1.9071206203656534
1786,1.9322840190584638
1787,1.9947170546339241
1788,2.013584979162226
1789,2.013584979162226
1790,2.0701887527471317
1791,2.0701887527471317
1792,2.0701887527471317
1793,1.8032863120537335
1794,1.8437506569956903
1795,1.919947299174574
1796,2.001006362810025
1797,2.0565619183655803
1798,2.0565619183655803
1799,2.0565619183655803
1800,2.0565619183655803
1801,2.053838606818739
1802,2.092207911375094
1803,2.092207911375094
1804,1.834920634920635
1805,1.9111172770995188
1806,2.0427699060159346
1807,2.0427699060159346
1808,1.9994467663625195
1809,2.053360916231936
1810,2.065707653778022
1811,2.047016064992975
1812,2.047016064992975
1813,2.047016064992975
1814,2.047016064992975
1815,1.8992374727668846
1816,2.0296385928846212
1817,1.9754149404308803
1818,2.0414591061649885
1819,2.035012292378725
1820,2.035012292378725
1821,2.0400482636017467
1822,2.070922016611723
1823,2.070922016611723
1824,2.0984684005571976
1825,2.0984684005571976
1826,2.023250386496415
1827,1.969670490811256
1828,2.035012292378725
1829,2.0400482636017467
1830,2.070922016611723
1831,2.0984684005571976
1832,2.0891214301286247
1833,2.0891214301286247
1834,2.0931012250161185
1835,2.0
1836,1.9910873440285204
1837,1.958478718276471
1838,2.035012292378725
1839,2.070922016611723
1840,2.083982683982684
1841,2.0931012250161185
1842,1.9910873440285204
1843,1.9261522790934555
1844,1.806964219058284
1845,1.6494426626005572
1846,1.536850219072862
1847,1.522461729864229
1848,1.7497279954393612
1849,1.7497279954393612
1850,1.7497279954393612
1851,1.7497279954393612
1852,1.7497279954393612
1853,1.7497279954393612
1854,1.7497279954393612
1855,1.7497279954393612
1856,1.7497279954393612
1857,1.7497279954393612
1858,1.7497279954393612
1859,1.7497279954393612
1860,1.7497279954393612
1861,1.7497279954393612
1862,1.7497279954393612
1863,1.7497279954393612
1864,1.7497279954393612
1865,1.7497279954393612
1866,1.7497279954393612
1867,1.7497279954393612
1868,1.7497279954393612
1869,1.7497279954393612
1870,1.7497279954393612
1871,1.7497279954393612
1872,1.7497279954393612
1873,1.7497279954393612
1874,1.7497279954393612
1875,1.7497279954393612
1876,1.7497279954393612
1877,1.7497279954393612
1878,1.7497279954393612
1879,1.7497279954393612
1880,1.7497279954393612
1881,1.7767275331185104
1882,1.7767275331185104
1883,1.7767275331185104
1884,1.7767275331185104
1885,1.7767275331185104
1886,1.7767275331185104
1887,1.7767275331185104
1888,1.7767275331185104
1889,1.7767275331185104
1890,1.7767275331185104
1891,1.7767275331185104
1892,1.7767275331185104
1893,1.7767275331185104
1894,1.7767275331185104
1895,1.7767275331185104
1896,1.7767275331185104
1897,1.7767275331185104
1898,1.7767275331185104
1899,1.7767275331185104
1900,1.7767275331185104
1901,1.7767275331185104
1902,1.7767275331185104
1903,1.795172494995879
1904,1.795172494995879
1905,1.795172494995879
1906,1.795172494995879
1907,1.795172494995879
1908,1.795172494995879
1909,1.795172494995879
1910,1.795172494995879
1911,1.795172494995879
1912,1.795172494995879
1913,1.795172494995879
1914,1.8042105263157895
1915,1.8042105263157895
1916,1.8042105263157895
1917,1.8042105263157895
1918,1.8042105263157895
1919,1.8042105263157895
1920,1.8042105263157895
1921,1.8042105263157895
1922,1.8042105263157895
1923,1.8042105263157895
1924,1.8042105263157895
1925,1.7961904761904761
1926,1.7961904761904761
1927,1.7961904761904761
1928,1.7961904761904761
1929,1.7961904761904761
1930,1.7904402515723268
1931,1.7904402515723268
1932,1.8306363300036996
1933,1.8306363300036996
1934,1.8306363300036996
1935,1.8810683525746748
1936,1.7961904761904761
1937,1.7961904761904761
1938,1.7961904761904761
1939,1.7904402515723268
1940,1.8306363300036996
1941,1.8810683525746748
1942,1.8810683525746748
1943,1.90607908679537
1944,1.9282424422037585
1945,1.9547325084289242
1946,1.990274439959856
1947,1.784797507788162
1948,1.784797507788162
1949,1.819455337690632
1950,1.8690645799604246
1951,1.9162386695895084
1952,1.9783726298929083
1953,1.9963906479109261
1954,1.9963906479109261
1955,2.05044470196498
1956,2.05044470196498
1957,2.0324266839469622
1958,1.7762010165600919
1959,1.8108588464625617
1960,1.9074086475144532
1961,1.96464751196209
1962,2.036719584034162
1963,2.018701566016144
1964,2.018701566016144
1965,1.9767131490277272
1966,1.9767131490277272
1967,2.0436655883010486
1968,2.0258084454439054
1969,1.8024856407209349
1970,1.8771056172114229
1971,2.036719584034162
1972,2.018701566016144
1973,1.9651216703309853
1974,2.014530249955184
1975,2.0090382591085016
1976,2.0090382591085016
1977,2.0090382591085016
1978,1.996986390306061
1979,1.996986390306061
1980,1.8771056172114229
1981,2.036719584034162
1982,1.9651216703309853
1983,2.0090382591085016
1984,2.0036409577591763
1985,1.9916469547606757
1986,1.9965415706831608
1987,2.0274153236931367
1988,2.0437196715192236
1989,2.0710619634191865
1990,2.0710619634191865
1991,2.023963465083353
1992,1.9539298977962
1993,2.0036409577591763
1994,1.9965415706831608
1995,2.0437196715192236
1996,2.066067457375834
1997,2.057027711994682
1998,2.0636456419677485
1999,2.072707003141786
2000,1.9715334640372122
2001,1.9707793162242409
2002,1.7288567162587323
2003,1.7288567162587323
2004,1.7288567162587323
2005,1.7288567162587323
2006,1.7288567162587323
2007,1.7288567162587323
2008,1.7288567162587323
2009,1.7288567162587323
2010,1.7288567162587323
2011,1.7288567162587323
2012,1.7288567162587323
2013,1.7288567162587323
2014,1.7288567162587323
2015,1.7288567162587323
2016,1.7288567162587323
2017,1.7288567162587323
2018,1.7288567162587323
2019,1.7288567162587323
2020,1.7288567162587323
2021,1.7288567162587323
2022,1.7288567162587323
2023,1.7288567162587323
2024,1.7288567162587323
2025,1.7288567162587323
2026,1.7288567162587323
2027,1.7288567162587323
2028,1.7288567162587323
2029,1.7288567162587323
2030,1.7288567162587323
2031,1.7288567162587323
2032,1.7288567162587323
2033,1.7288567162587323
2034,1.7288567162587323
2035,1.755558985951656
2036,1.755558985951656
2037,1.755558985951656
2038,1.755558985951656
2039,1.755558985951656
2040,1.755558985951656
2041,1.755558985951656
2042,1.755558985951656
2043,1.755558985951656
2044,1.755558985951656
2045,1.755558985951656
2046,1.755558985951656
2047,1.755558985951656
2048,1.755558985951656
2049,1.755558985951656
2050,1.755558985951656
2051,1.755558985951656
2052,1.755558985951656
2053,1.755558985951656
2054,1.755558985951656
2055,1.755558985951656
2056,1.755558985951656
2057,1.755558985951656
2058,1.755558985951656
2059,1.755558985951656
2060,1.755558985951656
2061,1.755558985951656
2062,1.755558985951656
2063,1.755558985951656
2064,1.755558985951656
2065,1.755558985951656
2066,1.755558985951656
2067,1.755558985951656
2068,1.755558985951656
2069,1.755558985951656
2070,1.755558985951656
2071,1.755558985951656
2072,1.7776608091370707
2073,1.7776608091370707
2074,1.7776608091370707
2075,1.7776608091370707
2076,1.7776608091370707
2077,1.7776608091370707
2078,1.7776608091370707
2079,1.755558985951656
2080,1.755558985951656
2081,1.7776608091370707
2082,1.7776608091370707
2083,1.7776608091370707
2084,1.7776608091370707
2085,1.7776608091370707
2086,1.7776608091370707
2087,1.7776608091370707
2088,1.7950326701621822
2089,1.7950326701621822
2090,1.755558985951656
2091,1.7776608091370707
2092,1.7776608091370707
2093,1.7776608091370707
2094,1.7776608091370707
2095,1.7950326701621822
2096,1.7894944216332795
2097,1.8138676111248389
2098,1.8194058596537417
2099,1.8194058596537417
2100,1.8694231666803944
2101,1.7591473705882774
2102,1.7591473705882774
2103,1.7591473705882774
2104,1.776519231613389
2105,1.814495144589302
2106,1.863702817650186
2107,1.863702817650186
2108,1.8576386548958825
2109,1.9076514942297873
2110,1.9337952850794606
2111,1.9684578056574744
2112,1.7591473705882774
2113,1.7591473705882774
2114,1.814495144589302
2115,1.8594028520499108
2116,1.9032376074629596
2117,1.963874154014999
2118,1.9817312968721421
2119,1.9817312968721421
2120,2.0353027254435707
2121,2.0353027254435707
2122,2.017445582586428
2123,1.7508825592874127
2124,1.805951057097846
2125,1.8730742224608647
2126,1.963874154014999
2127,2.0353027254435707
2128,2.017445582586428
2129,2.017445582586428
2130,1.9644952720274214
2131,1.9644952720274214
2132,2.0336741802259044
2133,2.0164328009155597
2134,1.805951057097846
2135,1.8730742224608647
2136,2.0353027254435707
2137,2.017445582586428
2138,1.9644952720274214
2139,2.0164328009155597
2140,2.011127761127761
2141,2.011127761127761
2142,2.011127761127761
2143,1.9991914216052147
2144,1.9991914216052147
2145,1.887435371724015
2146,2.0227713971227685
2147,1.9534956436364888
2148,2.011127761127761
2149,2.011127761127761
2150,1.9991914216052147
2151,2.0040476764614694
2152,2.034775118953618
2153,2.034775118953618
2154,2.0784313725490198
2155,2.0784313725490198
