0.0,0.0
0.0,0.0
0.0,0.0
0.0,0.0
0.0,0.0
0.0,0.0
0.0,0.0
0.0,0.0
0.0,0.0
0.0,0.0
0.0,0.0
0.0,0.0
0.0,0.0
0.0,0.0
0.0,0.0
0.0,0.0
0.0,0.0
0.0,0.0
0.0,0.0
0.0,0.0
0.0,0.0
0.0,0.0
0.0,0.0
0.0,0.0
0.0,0.0
0.0,0.0
0.0,0.0
0.0,0.0
0.0,0.0
0.0,0.0
0.0,0.0
0.0,0.0
0.0,0.0
0.0,0.0
0.0,0.0
0.0,0.0
0.0,0.0
0.0,0.0
0.0,0.0
0.0,0.0
0.0,0.0
0.0,0.0
0.0,0.0
0.13513513513513511,0.12987012987012989
0.13513513513513511,0.12987012987012989
0.13513513513513511,0.12987012987012989
0.13513513513513511,0.12987012987012989
0.13513513513513511,0.12987012987012989
0.13513513513513511,0.12987012987012989
0.13513513513513511,0.12987012987012989
0.13513513513513511,0.12987012987012989
0.13513513513513511,0.12987012987012989
0.13513513513513511,0.12987012987012989
0.13513513513513511,0.12987012987012989
0.3146067415730337,0.297029702970297
0.3146067415730337,0.297029702970297
0.3146067415730337,0.297029702970297
0.3146067415730337,0.297029702970297
0.3146067415730337,0.297029702970297
0.3146067415730337,0.297029702970297
0.3146067415730337,0.297029702970297
0.3146067415730337,0.297029702970297
0.3146067415730337,0.297029702970297
0.3146067415730337,0.297029702970297
0.3146067415730337,0.297029702970297
0.3018867924528302,0.2782608695652174
0.3018867924528302,0.2782608695652174
0.3018867924528302,0.2782608695652174
0.3018867924528302,0.2782608695652174
0.3018867924528302,0.2782608695652174
0.3018867924528302,0.2782608695652174
0.3018867924528302,0.2782608695652174
0.3018867924528302,0.2782608695652174
0.3018867924528302,0.2782608695652174
0.3018867924528302,0.2782608695652174
0.3018867924528302,0.2782608695652174
0.25806451612903225,0.25806451612903225
0.25806451612903225,0.25806451612903225
0.25806451612903225,0.25806451612903225
0.25806451612903225,0.25806451612903225
0.25806451612903225,0.25806451612903225
0.25806451612903225,0.25806451612903225
0.25806451612903225,0.25806451612903225
0.25806451612903225,0.25806451612903225
0.25806451612903225,0.25806451612903225
0.25806451612903225,0.25806451612903225
0.25806451612903225,0.25806451612903225
0.25,0.25196850393700787
0.25,0.25196850393700787
0.25,0.25196850393700787
0.25,0.25196850393700787
0.25,0.25196850393700787
0.25,0.25196850393700787
0.25,0.25196850393700787
0.25,0.25196850393700787
0.25,0.25196850393700787
0.25,0.25196850393700787
0.25,0.25196850393700787
0.25,0.24615384615384617
0.25,0.24615384615384617
0.25,0.24615384615384617
0.25,0.24615384615384617
0.25,0.24615384615384617
0.25,0.24615384615384617
0.25,0.24615384615384617
0.25,0.24615384615384617
0.25,0.24615384615384617
0.25,0.24615384615384617
0.25,0.24615384615384617
0.25,0.24615384615384617
0.25,0.24615384615384617
0.25,0.24615384615384617
0.25,0.24615384615384617
0.25,0.24615384615384617
0.25,0.24615384615384617
0.25,0.24615384615384617
0.25,0.24615384615384617
0.25,0.24615384615384617
0.25,0.24615384615384617
0.25,0.24615384615384617
0.2442748091603053,0.24615384615384617
0.2442748091603053,0.24615384615384617
0.2442748091603053,0.24615384615384617
0.2442748091603053,0.24615384615384617
0.2442748091603053,0.24615384615384617
0.2442748091603053,0.24615384615384617
0.2442748091603053,0.24615384615384617
0.2442748091603053,0.24615384615384617
0.2442748091603053,0.24615384615384617
0.2442748091603053,0.24615384615384617
0.2442748091603053,0.24615384615384617
0.2442748091603053,0.24615384615384617
0.2442748091603053,0.24615384615384617
0.2442748091603053,0.24615384615384617
0.2442748091603053,0.24615384615384617
0.2442748091603053,0.24615384615384617
0.2442748091603053,0.24615384615384617
0.2442748091603053,0.24615384615384617
0.2442748091603053,0.24615384615384617
0.2442748091603053,0.24615384615384617
0.2442748091603053,0.24615384615384617
0.2442748091603053,0.24615384615384617
0.2442748091603053,0.2424242424242424
0.2442748091603053,0.2424242424242424
0.2442748091603053,0.2424242424242424
0.2442748091603053,0.2424242424242424
0.2442748091603053,0.2424242424242424
0.2442748091603053,0.2424242424242424
0.2442748091603053,0.2424242424242424
0.2442748091603053,0.2424242424242424
0.2442748091603053,0.2424242424242424
0.2442748091603053,0.2424242424242424
0.2442748091603053,0.2424242424242424
0.0,0.05633802816901409
0.0,0.05633802816901409
0.0,0.05633802816901409
0.0,0.05633802816901409
0.0,0.05633802816901409
0.0,0.05633802816901409
0.0,0.05633802816901409
0.0,0.05633802816901409
0.0,0.05633802816901409
0.0,0.05633802816901409
0.0,0.05633802816901409
0.0,0.05633802816901409
0.0,0.05633802816901409
0.0,0.05633802816901409
0.0,0.05633802816901409
0.0,0.05633802816901409
0.0,0.05633802816901409
0.0,0.05633802816901409
0.0,0.05633802816901409
0.0,0.05633802816901409
0.0,0.05633802816901409
0.0,0.05633802816901409
0.0,0.05633802816901409
0.0,0.05633802816901409
0.0,0.05633802816901409
0.0,0.05633802816901409
0.0,0.05633802816901409
0.0,0.05633802816901409
0.0,0.05633802816901409
0.0,0.05633802816901409
0.0,0.05633802816901409
0.0,0.05633802816901409
0.0,0.05633802816901409
0.0,0.05633802816901409
0.0,0.05633802816901409
0.0,0.05633802816901409
0.0,0.05633802816901409
0.0,0.05633802816901409
0.0,0.05633802816901409
0.0,0.05633802816901409
0.0,0.05633802816901409
0.0,0.05633802816901409
0.0,0.05633802816901409
0.0,0.05633802816901409
0.13513513513513511,0.1794871794871795
0.13513513513513511,0.1794871794871795
0.13513513513513511,0.1794871794871795
0.13513513513513511,0.1794871794871795
0.13513513513513511,0.1794871794871795
0.13513513513513511,0.1794871794871795
0.13513513513513511,0.1794871794871795
0.13513513513513511,0.1794871794871795
0.13513513513513511,0.1794871794871795
0.13513513513513511,0.1794871794871795
0.13513513513513511,0.1794871794871795
0.3146067415730337,0.33333333333333337
0.3146067415730337,0.33333333333333337
0.3146067415730337,0.33333333333333337
0.3146067415730337,0.33333333333333337
0.3146067415730337,0.33333333333333337
0.3146067415730337,0.33333333333333337
0.3146067415730337,0.33333333333333337
0.3146067415730337,0.33333333333333337
0.3146067415730337,0.33333333333333337
0.3146067415730337,0.33333333333333337
0.3146067415730337,0.33333333333333337
0.3018867924528302,0.3103448275862069
0.3018867924528302,0.3103448275862069
0.3018867924528302,0.3103448275862069
0.3018867924528302,0.3103448275862069
0.3018867924528302,0.3103448275862069
0.3018867924528302,0.3103448275862069
0.3018867924528302,0.3103448275862069
0.3018867924528302,0.3103448275862069
0.3018867924528302,0.2782608695652174
0.3018867924528302,0.2782608695652174
0.3018867924528302,0.2782608695652174
0.25806451612903225,0.28800000000000003
0.25806451612903225,0.28800000000000003
0.25806451612903225,0.28800000000000003
0.25806451612903225,0.28800000000000003
0.25806451612903225,0.28800000000000003
0.25806451612903225,0.25806451612903225
0.25806451612903225,0.25806451612903225
0.25806451612903225,0.25806451612903225
0.25806451612903225,0.25806451612903225
0.25806451612903225,0.25806451612903225
0.25806451612903225,0.25806451612903225
0.25,0.28346456692913385
0.25,0.28346456692913385
0.25,0.25196850393700787
0.25,0.25196850393700787
0.25,0.25196850393700787
0.25,0.25196850393700787
0.25,0.25196850393700787
0.25,0.25196850393700787
0.25,0.25196850393700787
0.25,0.25196850393700787
0.25,0.25196850393700787
0.25,0.27692307692307694
0.25,0.24615384615384617
0.25,0.24615384615384617
0.25,0.24615384615384617
0.25,0.24615384615384617
0.25,0.24615384615384617
0.25,0.24615384615384617
0.25,0.24615384615384617
0.25,0.24615384615384617
0.25,0.24615384615384617
0.25,0.24615384615384617
0.25,0.24615384615384617
0.25,0.24615384615384617
0.25,0.24615384615384617
0.25,0.24615384615384617
0.25,0.24615384615384617
0.25,0.24615384615384617
0.25,0.24615384615384617
0.25,0.24615384615384617
0.25,0.24615384615384617
0.25,0.24615384615384617
0.25,0.24615384615384617
0.2442748091603053,0.24615384615384617
0.2442748091603053,0.24615384615384617
0.2442748091603053,0.24615384615384617
0.2442748091603053,0.24615384615384617
0.2442748091603053,0.24615384615384617
0.2442748091603053,0.24615384615384617
0.2442748091603053,0.24615384615384617
0.2442748091603053,0.24615384615384617
0.2442748091603053,0.24615384615384617
0.2442748091603053,0.24615384615384617
0.2442748091603053,0.24615384615384617
0.2442748091603053,0.24615384615384617
0.2442748091603053,0.24615384615384617
0.2442748091603053,0.24615384615384617
0.2442748091603053,0.24615384615384617
0.2442748091603053,0.24615384615384617
0.2442748091603053,0.24615384615384617
0.2442748091603053,0.24615384615384617
0.2442748091603053,0.24615384615384617
0.2442748091603053,0.24615384615384617
0.2442748091603053,0.24615384615384617
0.2442748091603053,0.24615384615384617
0.2442748091603053,0.2424242424242424
0.2442748091603053,0.2424242424242424
0.2442748091603053,0.2424242424242424
0.2442748091603053,0.2424242424242424
0.2442748091603053,0.2424242424242424
0.2442748091603053,0.2424242424242424
0.2442748091603053,0.2424242424242424
0.2442748091603053,0.2424242424242424
0.2442748091603053,0.2424242424242424
0.2442748091603053,0.2424242424242424
0.2442748091603053,0.2424242424242424
0.20779220779220778,0.4893617021276595
0.20779220779220778,0.4893617021276595
0.20779220779220778,0.4893617021276595
0.20779220779220778,0.4893617021276595
0.20779220779220778,0.4893617021276595
0.20779220779220778,0.4893617021276595
0.20779220779220778,0.4893617021276595
0.20779220779220778,0.4893617021276595
0.20779220779220778,0.4893617021276595
0.20779220779220778,0.4893617021276595
0.20779220779220778,0.4893617021276595
0.20779220779220778,0.4893617021276595
0.20779220779220778,0.4893617021276595
0.20779220779220778,0.4893617021276595
0.20779220779220778,0.4893617021276595
0.20779220779220778,0.4893617021276595
0.20779220779220778,0.4893617021276595
0.20779220779220778,0.4893617021276595
0.20779220779220778,0.4893617021276595
0.20779220779220778,0.4893617021276595
0.20779220779220778,0.4893617021276595
0.20779220779220778,0.4893617021276595
0.20779220779220778,0.4893617021276595
0.20779220779220778,0.4893617021276595
0.20779220779220778,0.4893617021276595
0.20779220779220778,0.4893617021276595
0.20779220779220778,0.4893617021276595
0.20779220779220778,0.4893617021276595
0.20779220779220778,0.4893617021276595
0.20779220779220778,0.4893617021276595
0.20779220779220778,0.4893617021276595
0.20779220779220778,0.4893617021276595
0.20779220779220778,0.4893617021276595
0.20779220779220778,0.4893617021276595
0.20779220779220778,0.4893617021276595
0.20779220779220778,0.4893617021276595
0.20779220779220778,0.4893617021276595
0.20779220779220778,0.4893617021276595
0.20779220779220778,0.4893617021276595
0.20779220779220778,0.4893617021276595
0.20779220779220778,0.4893617021276595
0.20779220779220778,0.4893617021276595
0.20779220779220778,0.4893617021276595
0.20779220779220778,0.4893617021276595
0.3170731707317073,0.5510204081632654
0.3170731707317073,0.5510204081632654
0.3170731707317073,0.5510204081632654
0.3170731707317073,0.5510204081632654
0.3170731707317073,0.5510204081632654
0.3170731707317073,0.5510204081632654
0.3170731707317073,0.5510204081632654
0.3170731707317073,0.5510204081632654
0.3170731707317073,0.5510204081632654
0.3170731707317073,0.5510204081632654
0.3170731707317073,0.5510204081632654
0.46315789473684205,0.6126126126126127
0.46315789473684205,0.6126126126126127
0.46315789473684205,0.6126126126126127
0.46315789473684205,0.6126126126126127
0.46315789473684205,0.6126126126126127
0.46315789473684205,0.6071428571428571
0.46315789473684205,0.6071428571428571
0.46315789473684205,0.6071428571428571
0.46315789473684205,0.5535714285714285
0.46315789473684205,0.5357142857142857
0.4421052631578948,0.4684684684684685
0.42857142857142855,0.5666666666666667
0.42857142857142855,0.5666666666666667
0.42857142857142855,0.5528455284552846
0.42857142857142855,0.5528455284552846
0.40707964601769914,0.5528455284552846
0.40707964601769914,0.48387096774193544
0.40707964601769914,0.3902439024390244
0.40707964601769914,0.3902439024390244
0.40707964601769914,0.3902439024390244
0.40707964601769914,0.3902439024390244
0.40707964601769914,0.3902439024390244
0.380952380952381,0.5483870967741936
0.380952380952381,0.5354330708661417
0.36220472440944884,0.5230769230769231
0.36220472440944884,0.45801526717557256
0.36220472440944884,0.36923076923076925
0.33070866141732286,0.36923076923076925
0.28571428571428575,0.3565891472868217
0.28571428571428575,0.3255813953488372
0.28571428571428575,0.3255813953488372
0.28571428571428575,0.3255813953488372
0.28571428571428575,0.3255813953488372
0.36923076923076925,0.5271317829457365
0.3511450381679389,0.5271317829457365
0.3511450381679389,0.366412213740458
0.27692307692307694,0.3308270676691729
0.27692307692307694,0.31818181818181823
0.27692307692307694,0.31818181818181823
0.27692307692307694,0.31818181818181823
0.27692307692307694,0.31818181818181823
0.27692307692307694,0.31818181818181823
0.27692307692307694,0.31818181818181823
0.27692307692307694,0.31818181818181823
0.3458646616541354,0.5190839694656489
0.3458646616541354,0.3609022556390977
0.27692307692307694,0.31111111111111117
0.27692307692307694,0.31111111111111117
0.27692307692307694,0.31111111111111117
0.27692307692307694,0.31111111111111117
0.27692307692307694,0.31111111111111117
0.27692307692307694,0.31111111111111117
0.27692307692307694,0.31111111111111117
0.27692307692307694,0.31111111111111117
0.27692307692307694,0.31111111111111117
0.34074074074074073,0.3609022556390977
0.27692307692307694,0.31111111111111117
0.27692307692307694,0.31111111111111117
0.27692307692307694,0.31111111111111117
0.27692307692307694,0.31111111111111117
0.27692307692307694,0.31111111111111117
0.27692307692307694,0.31111111111111117
0.27692307692307694,0.31111111111111117
0.27692307692307694,0.31111111111111117
0.27692307692307694,0.31111111111111117
0.27692307692307694,0.31111111111111117
0.2748091603053435,0.31111111111111117
0.2748091603053435,0.31111111111111117
0.2442748091603053,0.31111111111111117
0.2442748091603053,0.31111111111111117
0.2442748091603053,0.31111111111111117
0.2442748091603053,0.31111111111111117
0.2442748091603053,0.31111111111111117
0.2442748091603053,0.31111111111111117
0.2442748091603053,0.31111111111111117
0.2442748091603053,0.31111111111111117
0.2442748091603053,0.31111111111111117
0.2748091603053435,0.31111111111111117
0.2442748091603053,0.31111111111111117
0.2442748091603053,0.31111111111111117
0.2442748091603053,0.31111111111111117
0.2442748091603053,0.31111111111111117
0.2442748091603053,0.31111111111111117
0.2442748091603053,0.31111111111111117
0.2442748091603053,0.31111111111111117
0.2442748091603053,0.31111111111111117
0.2442748091603053,0.31111111111111117
0.2442748091603053,0.31111111111111117
0.2442748091603053,0.31111111111111117
0.2442748091603053,0.31111111111111117
0.2442748091603053,0.31111111111111117
0.2442748091603053,0.29411764705882354
0.2442748091603053,0.29411764705882354
0.2442748091603053,0.29411764705882354
0.2442748091603053,0.29411764705882354
0.2442748091603053,0.29411764705882354
0.2442748091603053,0.29411764705882354
0.2442748091603053,0.29411764705882354
0.2442748091603053,0.29411764705882354
0.5050505050505051,0.5794392523364487
0.5050505050505051,0.5794392523364487
0.5050505050505051,0.5794392523364487
0.5050505050505051,0.5794392523364487
0.5050505050505051,0.5794392523364487
0.5050505050505051,0.5794392523364487
0.5050505050505051,0.5794392523364487
0.5050505050505051,0.5794392523364487
0.5050505050505051,0.5794392523364487
0.5050505050505051,0.5794392523364487
0.5050505050505051,0.5794392523364487
0.5050505050505051,0.5794392523364487
0.5050505050505051,0.5794392523364487
0.5050505050505051,0.5794392523364487
0.5050505050505051,0.5794392523364487
0.5050505050505051,0.5794392523364487
0.5050505050505051,0.5794392523364487
0.5050505050505051,0.5794392523364487
0.5050505050505051,0.5794392523364487
0.5050505050505051,0.5794392523364487
0.5050505050505051,0.5794392523364487
0.5050505050505051,0.5794392523364487
0.5050505050505051,0.5794392523364487
0.5050505050505051,0.5794392523364487
0.5050505050505051,0.5794392523364487
0.5050505050505051,0.5794392523364487
0.5050505050505051,0.5794392523364487
0.5050505050505051,0.5794392523364487
0.5050505050505051,0.5794392523364487
0.5050505050505051,0.5794392523364487
0.5050505050505051,0.5794392523364487
0.5050505050505051,0.5794392523364487
0.5050505050505051,0.5794392523364487
0.5050505050505051,0.5794392523364487
0.5050505050505051,0.5794392523364487
0.5050505050505051,0.5794392523364487
0.5050505050505051,0.5794392523364487
0.5050505050505051,0.5794392523364487
0.5050505050505051,0.5794392523364487
0.5050505050505051,0.5794392523364487
0.5050505050505051,0.5794392523364487
0.5050505050505051,0.5794392523364487
0.5050505050505051,0.5794392523364487
0.5050505050505051,0.5794392523364487
0.5769230769230769,0.6181818181818182
0.5769230769230769,0.6181818181818182
0.5769230769230769,0.6181818181818182
0.5769230769230769,0.6181818181818182
0.5769230769230769,0.6181818181818182
0.5769230769230769,0.6181818181818182
0.5769230769230769,0.6181818181818182
0.5769230769230769,0.6181818181818182
0.5769230769230769,0.6181818181818182
0.5769230769230769,0.6363636363636365
0.5769230769230769,0.6363636363636365
0.6296296296296297,0.6666666666666667
0.6296296296296297,0.6666666666666667
0.6296296296296297,0.6666666666666667
0.6296296296296297,0.6666666666666667
0.6296296296296297,0.6666666666666667
0.6296296296296297,0.6554621848739495
0.6296296296296297,0.6722689075630253
0.6296296296296297,0.6722689075630253
0.6666666666666667,0.6722689075630253
0.6481481481481483,0.6554621848739495
0.6481481481481483,0.6218487394957984
0.625,0.6239999999999999
0.625,0.6239999999999999
0.625,0.6093750000000001
0.591304347826087,0.6093750000000001
0.591304347826087,0.6250000000000001
0.6153846153846153,0.6406250000000001
0.6153846153846153,0.49612403100775193
0.5811965811965812,0.49612403100775193
0.5641025641025642,0.49612403100775193
0.5641025641025642,0.49612403100775193
0.4655172413793104,0.4806201550387597
0.5691056910569106,0.6190476190476191
0.5691056910569106,0.6046511627906976
0.5511811023622047,0.6106870229007634
0.5538461538461539,0.5882352941176471
0.5230769230769231,0.47058823529411764
0.4461538461538461,0.47058823529411764
0.3846153846153846,0.45588235294117646
0.3846153846153846,0.45588235294117646
0.3846153846153846,0.45588235294117646
0.2992125984251969,0.45588235294117646
0.2992125984251969,0.45588235294117646
0.5511811023622047,0.6190476190476191
0.5426356589147286,0.6106870229007634
0.5074626865671642,0.47058823529411764
0.40298507462686567,0.45588235294117646
0.3731343283582089,0.45588235294117646
0.2900763358778626,0.40298507462686567
0.2900763358778626,0.3609022556390977
0.27692307692307694,0.3609022556390977
0.27692307692307694,0.3308270676691729
0.27692307692307694,0.3308270676691729
0.27692307692307694,0.3308270676691729
0.534351145038168,0.6015037593984963
0.5217391304347826,0.463768115942029
0.36764705882352944,0.4492753623188406
0.2900763358778626,0.3503649635036496
0.27692307692307694,0.3235294117647059
0.27692307692307694,0.3235294117647059
0.27692307692307694,0.3235294117647059
0.27692307692307694,0.3235294117647059
0.27692307692307694,0.3235294117647059
0.27692307692307694,0.3235294117647059
0.27692307692307694,0.3235294117647059
0.5142857142857142,0.4571428571428572
0.36231884057971014,0.4492753623188406
0.27692307692307694,0.3235294117647059
0.27692307692307694,0.3235294117647059
0.27692307692307694,0.3235294117647059
0.27692307692307694,0.3235294117647059
0.27692307692307694,0.3235294117647059
0.27692307692307694,0.3235294117647059
0.27692307692307694,0.3235294117647059
0.27692307692307694,0.3235294117647059
0.27692307692307694,0.3235294117647059
0.36231884057971014,0.4492753623188406
0.2748091603053435,0.3235294117647059
0.2442748091603053,0.3235294117647059
0.2442748091603053,0.3235294117647059
0.2442748091603053,0.3235294117647059
0.2442748091603053,0.3235294117647059
0.2442748091603053,0.3235294117647059
0.2442748091603053,0.3235294117647059
0.2442748091603053,0.3235294117647059
0.2442748091603053,0.3235294117647059
0.2442748091603053,0.3235294117647059
0.2748091603053435,0.3235294117647059
0.2442748091603053,0.3235294117647059
0.2442748091603053,0.3235294117647059
0.2442748091603053,0.3235294117647059
0.2442748091603053,0.3235294117647059
0.2442748091603053,0.3235294117647059
0.2442748091603053,0.3235294117647059
0.2442748091603053,0.3235294117647059
0.2442748091603053,0.3235294117647059
0.2442748091603053,0.3235294117647059
0.2442748091603053,0.3235294117647059
0.2442748091603053,0.3235294117647059
0.2442748091603053,0.3235294117647059
0.2442748091603053,0.3235294117647059
0.2442748091603053,0.3235294117647059
0.2442748091603053,0.3235294117647059
0.2442748091603053,0.29411764705882354
0.2442748091603053,0.29411764705882354
0.2442748091603053,0.29411764705882354
0.2442748091603053,0.29411764705882354
0.2442748091603053,0.29411764705882354
0.2442748091603053,0.29411764705882354
0.5794392523364487,0.625
0.5794392523364487,0.625
0.5794392523364487,0.625
0.5794392523364487,0.625
0.5794392523364487,0.625
0.5794392523364487,0.625
0.5794392523364487,0.625
0.5794392523364487,0.625
0.5794392523364487,0.625
0.5794392523364487,0.625
0.5794392523364487,0.625
0.5794392523364487,0.625
0.5794392523364487,0.625
0.5794392523364487,0.625
0.5794392523364487,0.625
0.5794392523364487,0.625
0.5794392523364487,0.625
0.5794392523364487,0.625
0.5794392523364487,0.625
0.5794392523364487,0.625
0.5794392523364487,0.625
0.5794392523364487,0.625
0.5794392523364487,0.625
0.5794392523364487,0.625
0.5794392523364487,0.625
0.5794392523364487,0.625
0.5794392523364487,0.625
0.5794392523364487,0.625
0.5794392523364487,0.625
0.5794392523364487,0.625
0.5794392523364487,0.625
0.5794392523364487,0.625
0.5794392523364487,0.625
0.5794392523364487,0.625
0.5794392523364487,0.625
0.5794392523364487,0.625
0.5794392523364487,0.625
0.5794392523364487,0.625
0.5794392523364487,0.625
0.5794392523364487,0.625
0.5794392523364487,0.625
0.5794392523364487,0.625
0.5794392523364487,0.625
0.5794392523364487,0.625
0.6306306306306306,0.6608695652173914
0.6306306306306306,0.6608695652173914
0.6306306306306306,0.6608695652173914
0.6306306306306306,0.6608695652173914
0.6306306306306306,0.6608695652173914
0.6306306306306306,0.6608695652173914
0.6306306306306306,0.6608695652173914
0.6306306306306306,0.6608695652173914
0.6306306306306306,0.6608695652173914
0.6306306306306306,0.6608695652173914
0.6306306306306306,0.6608695652173914
0.6666666666666667,0.7049180327868851
0.6666666666666667,0.7049180327868851
0.6666666666666667,0.7049180327868851
0.6666666666666667,0.7049180327868851
0.6666666666666667,0.7049180327868851
0.6666666666666667,0.7049180327868851
0.6666666666666667,0.7049180327868851
0.6666666666666667,0.6991869918699186
0.6842105263157895,0.7154471544715448
0.6842105263157895,0.7154471544715448
0.6842105263157895,0.7154471544715448
0.6782608695652174,0.6666666666666667
0.6782608695652174,0.6666666666666667
0.6782608695652174,0.6666666666666667
0.6782608695652174,0.6666666666666667
0.6440677966101694,0.6666666666666667
0.6610169491525423,0.6821705426356589
0.6554621848739495,0.6769230769230768
0.7058823529411766,0.6153846153846154
0.7058823529411766,0.5801526717557252
0.6722689075630253,0.5230769230769231
0.6218487394957984,0.5230769230769231
0.6141732283464567,0.6615384615384615
0.6141732283464567,0.6615384615384615
0.6093750000000001,0.6666666666666666
0.6212121212121213,0.6666666666666666
0.6363636363636365,0.6131386861313869
0.6060606060606061,0.4963503649635037
0.5303030303030303,0.4963503649635037
0.5303030303030303,0.4963503649635037
0.4545454545454545,0.48175182481751827
0.4545454545454545,0.48175182481751827
0.4545454545454545,0.48175182481751827
0.6046511627906976,0.6615384615384615
0.6000000000000001,0.6666666666666666
0.6176470588235294,0.6323529411764706
0.5147058823529412,0.4963503649635037
0.5147058823529412,0.48175182481751827
0.4411764705882353,0.48175182481751827
0.4148148148148148,0.48175182481751827
0.2900763358778626,0.42962962962962964
0.2900763358778626,0.3609022556390977
0.27692307692307694,0.3609022556390977
0.27692307692307694,0.3609022556390977
0.6000000000000001,0.676470588235294
0.6176470588235294,0.6231884057971014
0.5147058823529412,0.47482014388489213
0.4148148148148148,0.47482014388489213
0.2900763358778626,0.37681159420289856
0.27692307692307694,0.3235294117647059
0.27692307692307694,0.3235294117647059
0.27692307692307694,0.3235294117647059
0.27692307692307694,0.3235294117647059
0.27692307692307694,0.3235294117647059
0.27692307692307694,0.3235294117647059
0.6176470588235294,0.6142857142857142
0.4857142857142857,0.48226950354609927
0.2900763358778626,0.37681159420289856
0.27692307692307694,0.3235294117647059
0.27692307692307694,0.3235294117647059
0.27692307692307694,0.3235294117647059
0.27692307692307694,0.3235294117647059
0.27692307692307694,0.3235294117647059
0.27692307692307694,0.3235294117647059
0.27692307692307694,0.3235294117647059
0.27692307692307694,0.3235294117647059
0.4857142857142857,0.48226950354609927
0.2878787878787879,0.4233576642335767
0.2748091603053435,0.3235294117647059
0.2442748091603053,0.3235294117647059
0.2442748091603053,0.3235294117647059
0.2442748091603053,0.3235294117647059
0.2442748091603053,0.3235294117647059
0.2442748091603053,0.3235294117647059
0.2442748091603053,0.3235294117647059
0.2442748091603053,0.3235294117647059
0.2442748091603053,0.3235294117647059
0.2878787878787879,0.4233576642335767
0.2748091603053435,0.3235294117647059
0.2442748091603053,0.3235294117647059
0.2442748091603053,0.3235294117647059
0.2442748091603053,0.3235294117647059
0.2442748091603053,0.3235294117647059
0.2442748091603053,0.3235294117647059
0.2442748091603053,0.3235294117647059
0.2442748091603053,0.3235294117647059
0.2442748091603053,0.3235294117647059
0.2442748091603053,0.3235294117647059
0.2748091603053435,0.3235294117647059
0.2442748091603053,0.3235294117647059
0.2442748091603053,0.3235294117647059
0.2442748091603053,0.3235294117647059
0.2442748091603053,0.3235294117647059
0.2442748091603053,0.3235294117647059
0.2442748091603053,0.3235294117647059
0.2442748091603053,0.29411764705882354
0.2442748091603053,0.29411764705882354
0.2442748091603053,0.29411764705882354
0.2442748091603053,0.29411764705882354
0.6779661016949153,0.7039999999999998
0.6779661016949153,0.7039999999999998
0.6779661016949153,0.7039999999999998
0.6779661016949153,0.7039999999999998
0.6779661016949153,0.7039999999999998
0.6779661016949153,0.7039999999999998
0.6779661016949153,0.7039999999999998
0.6779661016949153,0.7039999999999998
0.6779661016949153,0.7039999999999998
0.6779661016949153,0.7039999999999998
0.6779661016949153,0.7039999999999998
0.6779661016949153,0.7039999999999998
0.6779661016949153,0.7039999999999998
0.6779661016949153,0.7039999999999998
0.6779661016949153,0.7039999999999998
0.6779661016949153,0.7039999999999998
0.6779661016949153,0.7039999999999998
0.6779661016949153,0.7039999999999998
0.6779661016949153,0.7039999999999998
0.6779661016949153,0.7039999999999998
0.6779661016949153,0.7039999999999998
0.6779661016949153,0.7039999999999998
0.6779661016949153,0.7039999999999998
0.6779661016949153,0.7039999999999998
0.6779661016949153,0.7039999999999998
0.6779661016949153,0.7039999999999998
0.6779661016949153,0.7039999999999998
0.6779661016949153,0.7039999999999998
0.6779661016949153,0.7039999999999998
0.6779661016949153,0.7039999999999998
0.6779661016949153,0.7039999999999998
0.6779661016949153,0.7039999999999998
0.6779661016949153,0.7039999999999998
0.6779661016949153,0.7039999999999998
0.6779661016949153,0.7039999999999998
0.6779661016949153,0.7039999999999998
0.6779661016949153,0.7039999999999998
0.6779661016949153,0.7039999999999998
0.6779661016949153,0.7039999999999998
0.6779661016949153,0.7039999999999998
0.6779661016949153,0.7039999999999998
0.6779661016949153,0.7039999999999998
0.6779661016949153,0.7039999999999998
0.6779661016949153,0.7039999999999998
0.7213114754098361,0.7343750000000001
0.7213114754098361,0.7343750000000001
0.7213114754098361,0.7343750000000001
0.7213114754098361,0.7343750000000001
0.7213114754098361,0.7343750000000001
0.7213114754098361,0.7343750000000001
0.7213114754098361,0.7343750000000001
0.7213114754098361,0.7343750000000001
0.7213114754098361,0.7343750000000001
0.7213114754098361,0.7343750000000001
0.7213114754098361,0.7343750000000001
0.752,0.7727272727272727
0.752,0.7727272727272727
0.752,0.7727272727272727
0.752,0.7727272727272727
0.752,0.7727272727272727
0.752,0.7727272727272727
0.752,0.7669172932330827
0.752,0.7669172932330827
0.752,0.7669172932330827
0.752,0.7819548872180452
0.752,0.7819548872180452
0.761904761904762,0.75
0.761904761904762,0.75
0.761904761904762,0.75
0.761904761904762,0.75
0.761904761904762,0.75
0.761904761904762,0.7445255474452556
0.7559055118110236,0.7445255474452556
0.7716535433070866,0.759124087591241
0.7716535433070866,0.759124087591241
0.7656250000000001,0.759124087591241
0.796875,0.759124087591241
0.7272727272727272,0.75
0.7272727272727272,0.75
0.7272727272727272,0.75
0.7218045112781954,0.762589928057554
0.725925925925926,0.748201438848921
0.75,0.7517730496453902
0.7299270072992701,0.7605633802816901
0.7153284671532847,0.647887323943662
0.656934306569343,0.5857142857142856
0.6131386861313869,0.5323741007194245
0.6131386861313869,0.5323741007194245
0.7218045112781954,0.75
0.7218045112781954,0.75
0.7205882352941175,0.748201438848921
0.748201438848921,0.7375886524822696
0.7,0.5857142857142856
0.6,0.5323741007194245
0.5714285714285715,0.5179856115107913
0.4492753623188406,0.4892086330935252
0.4492753623188406,0.4782608695652174
0.4233576642335767,0.4782608695652174
0.34328358208955223,0.4782608695652174
0.7218045112781954,0.7571428571428571
0.7205882352941175,0.7552447552447553
0.6901408450704226,0.5774647887323944
0.5714285714285715,0.5106382978723404
0.4492753623188406,0.4714285714285714
0.391304347826087,0.4714285714285714
0.34328358208955223,0.4
0.3308270676691729,0.34782608695652173
0.3308270676691729,0.34782608695652173
0.30303030303030304,0.34782608695652173
0.30303030303030304,0.34782608695652173
0.7101449275362319,0.7552447552447553
0.6805555555555556,0.5694444444444444
0.44285714285714284,0.4714285714285714
0.34328358208955223,0.4
0.3308270676691729,0.34782608695652173
0.30303030303030304,0.34782608695652173
0.30303030303030304,0.34782608695652173
0.30303030303030304,0.34782608695652173
0.30303030303030304,0.34782608695652173
0.30303030303030304,0.34782608695652173
0.30303030303030304,0.34782608695652173
0.6805555555555556,0.5694444444444444
0.44285714285714284,0.4714285714285714
0.32835820895522383,0.34782608695652173
0.30075187969924816,0.34782608695652173
0.27067669172932324,0.34782608695652173
0.27067669172932324,0.34782608695652173
0.27067669172932324,0.34782608695652173
0.27067669172932324,0.34782608695652173
0.27067669172932324,0.34782608695652173
0.27067669172932324,0.34782608695652173
0.27067669172932324,0.34782608695652173
0.44285714285714284,0.4714285714285714
0.32835820895522383,0.34782608695652173
0.27067669172932324,0.34782608695652173
0.27067669172932324,0.34782608695652173
0.27067669172932324,0.34782608695652173
0.27067669172932324,0.34782608695652173
0.27067669172932324,0.34782608695652173
0.27067669172932324,0.34782608695652173
0.27067669172932324,0.34782608695652173
0.27067669172932324,0.34782608695652173
0.27067669172932324,0.34782608695652173
0.32835820895522383,0.34782608695652173
0.27067669172932324,0.34782608695652173
0.27067669172932324,0.34782608695652173
0.27067669172932324,0.34782608695652173
0.27067669172932324,0.34782608695652173
0.27067669172932324,0.34782608695652173
0.27067669172932324,0.34782608695652173
0.27067669172932324,0.34782608695652173
0.27067669172932324,0.34782608695652173
0.27067669172932324,0.34782608695652173
0.27067669172932324,0.3188405797101449
0.6923076923076924,0.6821705426356589
0.6923076923076924,0.6821705426356589
0.6923076923076924,0.6821705426356589
0.6923076923076924,0.6821705426356589
0.6923076923076924,0.6821705426356589
0.6923076923076924,0.6821705426356589
0.6923076923076924,0.6821705426356589
0.6923076923076924,0.6821705426356589
0.6923076923076924,0.6821705426356589
0.6923076923076924,0.6821705426356589
0.6923076923076924,0.6821705426356589
0.6923076923076924,0.6821705426356589
0.6923076923076924,0.6821705426356589
0.6923076923076924,0.6821705426356589
0.6923076923076924,0.6821705426356589
0.6923076923076924,0.6821705426356589
0.6923076923076924,0.6821705426356589
0.6923076923076924,0.6821705426356589
0.6923076923076924,0.6821705426356589
0.6923076923076924,0.6821705426356589
0.6923076923076924,0.6821705426356589
0.6923076923076924,0.6821705426356589
0.6923076923076924,0.6821705426356589
0.6923076923076924,0.6821705426356589
0.6923076923076924,0.6821705426356589
0.6923076923076924,0.6821705426356589
0.6923076923076924,0.6821705426356589
0.6923076923076924,0.6821705426356589
0.6923076923076924,0.6821705426356589
0.6923076923076924,0.6821705426356589
0.6923076923076924,0.6821705426356589
0.6923076923076924,0.6821705426356589
0.6923076923076924,0.6821705426356589
0.6923076923076924,0.6821705426356589
0.6923076923076924,0.6821705426356589
0.6923076923076924,0.6821705426356589
0.6923076923076924,0.6821705426356589
0.6923076923076924,0.6821705426356589
0.6923076923076924,0.6821705426356589
0.6923076923076924,0.6821705426356589
0.6923076923076924,0.6821705426356589
0.6923076923076924,0.6821705426356589
0.6923076923076924,0.6821705426356589
0.6923076923076924,0.6821705426356589
0.7121212121212122,0.7022900763358778
0.7121212121212122,0.7022900763358778
0.7121212121212122,0.7022900763358778
0.7121212121212122,0.7022900763358778
0.7121212121212122,0.7022900763358778
0.7121212121212122,0.7022900763358778
0.7121212121212122,0.7022900763358778
0.7121212121212122,0.7022900763358778
0.7121212121212122,0.7022900763358778
0.7121212121212122,0.7022900763358778
0.7121212121212122,0.7022900763358778
0.7313432835820897,0.7313432835820897
0.7313432835820897,0.7313432835820897
0.7313432835820897,0.7313432835820897
0.7313432835820897,0.7313432835820897
0.7313432835820897,0.7313432835820897
0.7313432835820897,0.7313432835820897
0.7313432835820897,0.7313432835820897
0.7313432835820897,0.7313432835820897
0.7462686567164178,0.7313432835820897
0.7462686567164178,0.7462686567164178
0.7611940298507462,0.7462686567164178
0.7407407407407408,0.7205882352941175
0.7407407407407408,0.7205882352941175
0.7407407407407408,0.7205882352941175
0.7407407407407408,0.7205882352941175
0.7407407407407408,0.7205882352941175
0.7555555555555555,0.7299270072992701
0.7703703703703704,0.7299270072992701
0.7703703703703704,0.7445255474452556
0.785185185185185,0.7391304347826085
0.785185185185185,0.7536231884057971
0.785185185185185,0.7391304347826085
0.6714285714285715,0.7205882352941175
0.6714285714285715,0.7205882352941175
0.6714285714285715,0.7205882352941175
0.6857142857142857,0.7299270072992701
0.7,0.748201438848921
0.6950354609929078,0.7571428571428571
0.6993006993006994,0.7428571428571428
0.6993006993006994,0.7428571428571428
0.8,0.7464788732394365
0.8,0.7464788732394365
0.7769784172661871,0.7552447552447553
0.6714285714285715,0.7205882352941175
0.6714285714285715,0.7205882352941175
0.7,0.748201438848921
0.6950354609929078,0.7428571428571428
0.8028169014084506,0.7464788732394365
0.7605633802816901,0.732394366197183
0.732394366197183,0.647887323943662
0.704225352112676,0.5857142857142856
0.6619718309859155,0.5323741007194245
0.6,0.5323741007194245
0.5714285714285715,0.5179856115107913
0.6619718309859155,0.723404255319149
0.6901408450704226,0.7412587412587412
0.689655172413793,0.7499999999999999
0.7605633802816901,0.638888888888889
0.6619718309859155,0.524822695035461
0.5714285714285715,0.5106382978723404
0.4492753623188406,0.48226950354609927
0.4492753623188406,0.4714285714285714
0.4233576642335767,0.4714285714285714
0.34328358208955223,0.4460431654676259
0.34328358208955223,0.4
0.6758620689655173,0.7375886524822696
0.6756756756756758,0.7499999999999999
0.6944444444444444,0.5174825174825175
0.44285714285714284,0.4895104895104895
0.4172661870503597,0.4714285714285714
0.34328358208955223,0.4
0.3308270676691729,0.34782608695652173
0.30303030303030304,0.34782608695652173
0.30303030303030304,0.34782608695652173
0.30303030303030304,0.34782608695652173
0.30303030303030304,0.34782608695652173
0.6666666666666666,0.7499999999999999
0.6944444444444444,0.5174825174825175
0.4172661870503597,0.4714285714285714
0.32835820895522383,0.34782608695652173
0.30075187969924816,0.34782608695652173
0.30075187969924816,0.34782608695652173
0.27067669172932324,0.34782608695652173
0.27067669172932324,0.34782608695652173
0.27067669172932324,0.34782608695652173
0.27067669172932324,0.34782608695652173
0.27067669172932324,0.34782608695652173
0.6944444444444444,0.5174825174825175
0.4172661870503597,0.4714285714285714
0.30075187969924816,0.34782608695652173
0.27067669172932324,0.34782608695652173
0.27067669172932324,0.34782608695652173
0.27067669172932324,0.34782608695652173
0.27067669172932324,0.34782608695652173
0.27067669172932324,0.34782608695652173
0.27067669172932324,0.34782608695652173
0.27067669172932324,0.34782608695652173
0.27067669172932324,0.34782608695652173
0.4172661870503597,0.4714285714285714
0.30075187969924816,0.34782608695652173
0.27067669172932324,0.34782608695652173
0.27067669172932324,0.34782608695652173
0.27067669172932324,0.34782608695652173
0.27067669172932324,0.34782608695652173
0.27067669172932324,0.34782608695652173
0.27067669172932324,0.34782608695652173
0.27067669172932324,0.34782608695652173
0.27067669172932324,0.34782608695652173
0.27067669172932324,0.34782608695652173
0.7022900763358778,0.6766917293233083
0.7022900763358778,0.6766917293233083
0.7022900763358778,0.6766917293233083
0.7022900763358778,0.6766917293233083
0.7022900763358778,0.6766917293233083
0.7022900763358778,0.6766917293233083
0.7022900763358778,0.6766917293233083
0.7022900763358778,0.6766917293233083
0.7022900763358778,0.6766917293233083
0.7022900763358778,0.6766917293233083
0.7022900763358778,0.6766917293233083
0.7022900763358778,0.6766917293233083
0.7022900763358778,0.6766917293233083
0.7022900763358778,0.6766917293233083
0.7022900763358778,0.6766917293233083
0.7022900763358778,0.6766917293233083
0.7022900763358778,0.6766917293233083
0.7022900763358778,0.6766917293233083
0.7022900763358778,0.6766917293233083
0.7022900763358778,0.6766917293233083
0.7022900763358778,0.6766917293233083
0.7022900763358778,0.6766917293233083
0.7022900763358778,0.6766917293233083
0.7022900763358778,0.6766917293233083
0.7022900763358778,0.6766917293233083
0.7022900763358778,0.6766917293233083
0.7022900763358778,0.6766917293233083
0.7022900763358778,0.6766917293233083
0.7022900763358778,0.6766917293233083
0.7022900763358778,0.6766917293233083
0.7022900763358778,0.6766917293233083
0.7022900763358778,0.6766917293233083
0.7022900763358778,0.6766917293233083
0.7022900763358778,0.6766917293233083
0.7022900763358778,0.6766917293233083
0.7022900763358778,0.6766917293233083
0.7022900763358778,0.6766917293233083
0.7022900763358778,0.6766917293233083
0.7022900763358778,0.6766917293233083
0.7022900763358778,0.6766917293233083
0.7022900763358778,0.6766917293233083
0.7022900763358778,0.6766917293233083
0.7022900763358778,0.6766917293233083
0.7022900763358778,0.6766917293233083
0.7218045112781954,0.6962962962962962
0.7218045112781954,0.6962962962962962
0.7218045112781954,0.6962962962962962
0.7218045112781954,0.6962962962962962
0.7218045112781954,0.6962962962962962
0.7218045112781954,0.6962962962962962
0.7218045112781954,0.6962962962962962
0.7218045112781954,0.6962962962962962
0.7218045112781954,0.6962962962962962
0.7218045112781954,0.6962962962962962
0.7218045112781954,0.6962962962962962
0.7407407407407408,0.7246376811594203
0.7407407407407408,0.7246376811594203
0.7407407407407408,0.7246376811594203
0.7407407407407408,0.7246376811594203
0.7407407407407408,0.7246376811594203
0.7407407407407408,0.7246376811594203
0.7407407407407408,0.7246376811594203
0.7407407407407408,0.7246376811594203
0.7407407407407408,0.7246376811594203
0.7407407407407408,0.7246376811594203
0.7407407407407408,0.7246376811594203
0.75,0.7142857142857142
0.75,0.7142857142857142
0.75,0.7142857142857142
0.75,0.7142857142857142
0.75,0.7142857142857142
0.75,0.7142857142857142
0.75,0.7142857142857142
0.75,0.7142857142857142
0.7647058823529411,0.7142857142857142
0.7647058823529411,0.723404255319149
0.7647058823529411,0.723404255319149
0.6808510638297872,0.7142857142857142
0.6808510638297872,0.7142857142857142
0.6808510638297872,0.7142857142857142
0.6808510638297872,0.7142857142857142
0.6808510638297872,0.7142857142857142
0.6950354609929078,0.723404255319149
0.6950354609929078,0.723404255319149
0.6950354609929078,0.7375886524822696
0.7092198581560285,0.732394366197183
0.6993006993006994,0.7605633802816901
0.6993006993006994,0.7464788732394365
0.6808510638297872,0.7142857142857142
0.6808510638297872,0.7142857142857142
0.6808510638297872,0.7142857142857142
0.6950354609929078,0.723404255319149
0.6950354609929078,0.732394366197183
0.6993006993006994,0.7605633802816901
0.7132867132867132,0.7464788732394365
0.7692307692307693,0.7464788732394365
0.7777777777777779,0.7552447552447553
0.7638888888888887,0.7412587412587412
0.7638888888888887,0.6620689655172414
0.6713286713286714,0.7172413793103448
0.6713286713286714,0.7172413793103448
0.6853146853146853,0.7448275862068965
0.7034482758620689,0.7534246575342466
0.7777777777777779,0.7534246575342466
0.7638888888888887,0.7123287671232876
0.7222222222222223,0.593103448275862
0.6944444444444444,0.5416666666666667
0.6056338028169014,0.5416666666666667
0.5774647887323944,0.5277777777777779
0.4571428571428572,0.4999999999999999
0.6575342465753424,0.7172413793103448
0.6712328767123288,0.7448275862068965
0.767123287671233,0.7534246575342466
0.7123287671232876,0.593103448275862
0.684931506849315,0.5241379310344828
0.45070422535211263,0.4999999999999999
0.45070422535211263,0.4895104895104895
0.425531914893617,0.4895104895104895
0.39436619718309857,0.4895104895104895
0.35294117647058826,0.46478873239436624
0.34074074074074073,0.3571428571428571
0.6712328767123288,0.7448275862068965
0.767123287671233,0.7534246575342466
0.684931506849315,0.5241379310344828
0.45070422535211263,0.4895104895104895
0.39436619718309857,0.4895104895104895
0.338235294117647,0.3571428571428571
0.338235294117647,0.3571428571428571
0.31111111111111117,0.3571428571428571
0.31111111111111117,0.3571428571428571
0.31111111111111117,0.3571428571428571
0.31111111111111117,0.3571428571428571
0.7152317880794703,0.7534246575342466
0.684931506849315,0.5241379310344828
0.39436619718309857,0.4895104895104895
0.338235294117647,0.3571428571428571
0.31111111111111117,0.3571428571428571
0.31111111111111117,0.3571428571428571
0.2814814814814815,0.3571428571428571
0.2814814814814815,0.3571428571428571
0.2814814814814815,0.3571428571428571
0.2814814814814815,0.3571428571428571
0.2814814814814815,0.3571428571428571
0.684931506849315,0.5241379310344828
0.39436619718309857,0.4895104895104895
0.31111111111111117,0.3571428571428571
0.2814814814814815,0.3571428571428571
0.2814814814814815,0.3571428571428571
0.2814814814814815,0.3571428571428571
0.2814814814814815,0.3571428571428571
0.2814814814814815,0.3571428571428571
0.2814814814814815,0.3571428571428571
0.2814814814814815,0.3571428571428571
0.2814814814814815,0.3571428571428571
0.6906474820143885,0.6618705035971223
0.6906474820143885,0.6618705035971223
0.6906474820143885,0.6618705035971223
0.6906474820143885,0.6618705035971223
0.6906474820143885,0.6618705035971223
0.6906474820143885,0.6618705035971223
0.6906474820143885,0.6618705035971223
0.6906474820143885,0.6618705035971223
0.6906474820143885,0.6618705035971223
0.6906474820143885,0.6618705035971223
0.6906474820143885,0.6618705035971223
0.6906474820143885,0.6618705035971223
0.6906474820143885,0.6618705035971223
0.6906474820143885,0.6618705035971223
0.6906474820143885,0.6618705035971223
0.6906474820143885,0.6618705035971223
0.6906474820143885,0.6618705035971223
0.6906474820143885,0.6618705035971223
0.6906474820143885,0.6618705035971223
0.6906474820143885,0.6618705035971223
0.6906474820143885,0.6618705035971223
0.6906474820143885,0.6618705035971223
0.6906474820143885,0.6618705035971223
0.6906474820143885,0.6618705035971223
0.6906474820143885,0.6618705035971223
0.6906474820143885,0.6618705035971223
0.6906474820143885,0.6618705035971223
0.6906474820143885,0.6618705035971223
0.6906474820143885,0.6618705035971223
0.6906474820143885,0.6618705035971223
0.6906474820143885,0.6618705035971223
0.6906474820143885,0.6618705035971223
0.6906474820143885,0.6618705035971223
0.6906474820143885,0.6618705035971223
0.6906474820143885,0.6618705035971223
0.6906474820143885,0.6618705035971223
0.6906474820143885,0.6618705035971223
0.6906474820143885,0.6618705035971223
0.6906474820143885,0.6618705035971223
0.6906474820143885,0.6618705035971223
0.6906474820143885,0.6618705035971223
0.6906474820143885,0.6618705035971223
0.6906474820143885,0.6618705035971223
0.6906474820143885,0.6618705035971223
0.7092198581560285,0.6808510638297872
0.7092198581560285,0.6808510638297872
0.7092198581560285,0.6808510638297872
0.7092198581560285,0.6808510638297872
0.7092198581560285,0.6808510638297872
0.7092198581560285,0.6808510638297872
0.7092198581560285,0.6808510638297872
0.7092198581560285,0.6808510638297872
0.7092198581560285,0.6808510638297872
0.7092198581560285,0.6808510638297872
0.7092198581560285,0.6808510638297872
0.7092198581560285,0.7083333333333334
0.7132867132867132,0.7083333333333334
0.7132867132867132,0.7083333333333334
0.7132867132867132,0.7083333333333334
0.7132867132867132,0.7083333333333334
0.7132867132867132,0.7083333333333334
0.7132867132867132,0.7083333333333334
0.7132867132867132,0.7083333333333334
0.7132867132867132,0.7083333333333334
0.7132867132867132,0.7083333333333334
0.7132867132867132,0.7083333333333334
0.7222222222222223,0.6986301369863014
0.7222222222222223,0.6986301369863014
0.7222222222222223,0.6986301369863014
0.7222222222222223,0.6986301369863014
0.7222222222222223,0.6986301369863014
0.7222222222222223,0.6986301369863014
0.7222222222222223,0.6986301369863014
0.7222222222222223,0.6986301369863014
0.7222222222222223,0.6986301369863014
0.7222222222222223,0.6986301369863014
0.7222222222222223,0.6986301369863014
0.7123287671232876,0.6986301369863014
0.7123287671232876,0.6986301369863014
0.7123287671232876,0.6986301369863014
0.7123287671232876,0.6986301369863014
0.7123287671232876,0.6986301369863014
0.7123287671232876,0.6986301369863014
0.7123287671232876,0.6986301369863014
0.7123287671232876,0.6986301369863014
0.7123287671232876,0.6986301369863014
0.726027397260274,0.6986301369863014
0.726027397260274,0.7074829931972789
0.7123287671232876,0.6986301369863014
0.7123287671232876,0.6986301369863014
0.7123287671232876,0.6986301369863014
0.7123287671232876,0.6986301369863014
0.7123287671232876,0.6986301369863014
0.726027397260274,0.7074829931972789
0.726027397260274,0.7074829931972789
0.726027397260274,0.7210884353741496
0.7397260273972603,0.7210884353741496
0.7397260273972603,0.7346938775510203
0.7432432432432432,0.726027397260274
0.7123287671232876,0.7019867549668874
0.7123287671232876,0.7019867549668874
0.7123287671232876,0.7019867549668874
0.726027397260274,0.7152317880794703
0.7397260273972603,0.7382550335570469
0.7346938775510203,0.7516778523489933
0.7567567567567568,0.7432432432432432
0.7651006711409397,0.7432432432432432
0.7516778523489933,0.7432432432432432
0.7516778523489933,0.6666666666666666
0.7066666666666667,0.6357615894039734
0.697986577181208,0.7019867549668874
0.697986577181208,0.7019867549668874
0.7248322147651006,0.7382550335570469
0.7466666666666666,0.7432432432432432
0.7651006711409397,0.7432432432432432
0.7066666666666667,0.6357615894039734
0.7027027027027026,0.5771812080536913
0.6756756756756758,0.5170068027210885
0.6164383561643835,0.5170068027210885
0.4689655172413793,0.5205479452054795
0.4444444444444445,0.4931506849315068
0.697986577181208,0.7019867549668874
0.7152317880794703,0.7382550335570469
0.7651006711409397,0.7432432432432432
0.7027027027027026,0.5771812080536913
0.6164383561643835,0.5170068027210885
0.4444444444444445,0.4931506849315068
0.4444444444444445,0.48275862068965514
0.4195804195804196,0.48275862068965514
0.38888888888888895,0.48275862068965514
0.34532374100719426,0.4583333333333333
0.3333333333333333,0.3571428571428571
0.7236842105263158,0.7382550335570469
0.7651006711409397,0.7432432432432432
0.5793103448275861,0.5170068027210885
0.4444444444444445,0.48275862068965514
0.38888888888888895,0.48275862068965514
0.3333333333333333,0.3571428571428571
0.3333333333333333,0.3571428571428571
0.3333333333333333,0.3571428571428571
0.31111111111111117,0.3571428571428571
0.31111111111111117,0.3571428571428571
0.2814814814814815,0.3571428571428571
0.7651006711409397,0.7432432432432432
0.5793103448275861,0.5170068027210885
0.38888888888888895,0.48275862068965514
0.3333333333333333,0.3571428571428571
0.31111111111111117,0.3571428571428571
0.31111111111111117,0.3571428571428571
0.2814814814814815,0.3571428571428571
0.2814814814814815,0.3571428571428571
0.2814814814814815,0.3571428571428571
0.2814814814814815,0.3571428571428571
0.2814814814814815,0.3571428571428571
0.676056338028169,0.6571428571428573
0.676056338028169,0.6571428571428573
0.676056338028169,0.6571428571428573
0.676056338028169,0.6571428571428573
0.676056338028169,0.6571428571428573
0.676056338028169,0.6571428571428573
0.676056338028169,0.6571428571428573
0.676056338028169,0.6571428571428573
0.676056338028169,0.6571428571428573
0.676056338028169,0.6571428571428573
0.676056338028169,0.6571428571428573
0.676056338028169,0.6571428571428573
0.676056338028169,0.6571428571428573
0.676056338028169,0.6571428571428573
0.676056338028169,0.6571428571428573
0.676056338028169,0.6571428571428573
0.676056338028169,0.6571428571428573
0.676056338028169,0.6571428571428573
0.676056338028169,0.6571428571428573
0.676056338028169,0.6571428571428573
0.676056338028169,0.6571428571428573
0.676056338028169,0.6571428571428573
0.676056338028169,0.6571428571428573
0.676056338028169,0.6571428571428573
0.676056338028169,0.6571428571428573
0.676056338028169,0.6571428571428573
0.676056338028169,0.6571428571428573
0.676056338028169,0.6571428571428573
0.676056338028169,0.6571428571428573
0.676056338028169,0.6571428571428573
0.676056338028169,0.6571428571428573
0.676056338028169,0.6571428571428573
0.676056338028169,0.6571428571428573
0.676056338028169,0.6571428571428573
0.676056338028169,0.6571428571428573
0.676056338028169,0.6571428571428573
0.676056338028169,0.6571428571428573
0.676056338028169,0.6571428571428573
0.676056338028169,0.6571428571428573
0.676056338028169,0.6571428571428573
0.676056338028169,0.6571428571428573
0.676056338028169,0.6571428571428573
0.676056338028169,0.6571428571428573
0.676056338028169,0.6571428571428573
0.6944444444444444,0.676056338028169
0.6944444444444444,0.676056338028169
0.6944444444444444,0.676056338028169
0.6944444444444444,0.676056338028169
0.6944444444444444,0.676056338028169
0.6944444444444444,0.676056338028169
0.6944444444444444,0.676056338028169
0.6944444444444444,0.676056338028169
0.6944444444444444,0.676056338028169
0.6944444444444444,0.676056338028169
0.6944444444444444,0.676056338028169
0.6944444444444444,0.7034482758620689
0.6944444444444444,0.7034482758620689
0.6944444444444444,0.7034482758620689
0.6944444444444444,0.7034482758620689
0.6944444444444444,0.7034482758620689
0.6944444444444444,0.7034482758620689
0.7083333333333334,0.7034482758620689
0.7083333333333334,0.7034482758620689
0.7083333333333334,0.7034482758620689
0.7083333333333334,0.7034482758620689
0.7083333333333334,0.7034482758620689
0.6944444444444444,0.693877551020408
0.6944444444444444,0.693877551020408
0.6944444444444444,0.693877551020408
0.7172413793103448,0.693877551020408
0.7172413793103448,0.693877551020408
0.7172413793103448,0.693877551020408
0.7172413793103448,0.693877551020408
0.7172413793103448,0.693877551020408
0.7172413793103448,0.693877551020408
0.7172413793103448,0.693877551020408
0.7172413793103448,0.693877551020408
0.6711409395973154,0.693877551020408
0.6711409395973154,0.693877551020408
0.6711409395973154,0.693877551020408
0.7074829931972789,0.693877551020408
0.7074829931972789,0.693877551020408
0.7074829931972789,0.693877551020408
0.7074829931972789,0.693877551020408
0.7074829931972789,0.693877551020408
0.7074829931972789,0.693877551020408
0.7074829931972789,0.693877551020408
0.7074829931972789,0.693877551020408
0.6711409395973154,0.693877551020408
0.6711409395973154,0.693877551020408
0.7074829931972789,0.693877551020408
0.7074829931972789,0.693877551020408
0.7074829931972789,0.693877551020408
0.7074829931972789,0.693877551020408
0.7074829931972789,0.693877551020408
0.7074829931972789,0.693877551020408
0.7074829931972789,0.693877551020408
0.7210884353741496,0.693877551020408
0.7210884353741496,0.7027027027027026
0.6711409395973154,0.6973684210526315
0.7074829931972789,0.6973684210526315
0.7074829931972789,0.6973684210526315
0.7074829931972789,0.6973684210526315
0.7074829931972789,0.6973684210526315
0.7210884353741496,0.7105263157894737
0.7210884353741496,0.72
0.7210884353741496,0.7333333333333334
0.7346938775510203,0.7333333333333334
0.7346938775510203,0.7466666666666666
0.7382550335570469,0.7432432432432432
0.6933333333333332,0.6973684210526315
0.6933333333333332,0.6973684210526315
0.6933333333333332,0.6973684210526315
0.7066666666666667,0.72
0.72,0.7333333333333334
0.728476821192053,0.7432432432432432
0.7417218543046358,0.7432432432432432
0.76,0.7432432432432432
0.76,0.72
0.7516778523489933,0.6842105263157895
0.7066666666666667,0.6274509803921569
0.6933333333333332,0.6973684210526315
0.6933333333333332,0.6973684210526315
0.7105263157894737,0.7333333333333334
0.7417218543046358,0.7432432432432432
0.76,0.72
0.7066666666666667,0.6274509803921569
0.7027027027027026,0.5695364238410596
0.6756756756756758,0.5066666666666666
0.5972222222222223,0.5066666666666666
0.4444444444444445,0.5100671140939598
0.4444444444444445,0.4832214765100671
0.7105263157894737,0.6973684210526315
0.7189542483660131,0.7333333333333334
0.76,0.72
0.7027027027027026,0.5695364238410596
0.5793103448275861,0.5066666666666666
0.4444444444444445,0.4832214765100671
0.4444444444444445,0.472972972972973
0.38888888888888895,0.472972972972973
0.38888888888888895,0.472972972972973
0.33093525179856115,0.37499999999999994
0.33093525179856115,0.3496503496503497
0.7189542483660131,0.7333333333333334
0.76,0.72
0.5793103448275861,0.5066666666666666
0.4444444444444445,0.472972972972973
0.38888888888888895,0.472972972972973
0.33093525179856115,0.3496503496503497
0.33093525179856115,0.3496503496503497
0.3088235294117647,0.3496503496503497
0.3088235294117647,0.3496503496503497
0.31111111111111117,0.3496503496503497
0.2814814814814815,0.3496503496503497
0.6530612244897959,0.638888888888889
0.6530612244897959,0.638888888888889
0.6530612244897959,0.638888888888889
0.6530612244897959,0.638888888888889
0.6530612244897959,0.638888888888889
0.6530612244897959,0.638888888888889
0.6530612244897959,0.638888888888889
0.6530612244897959,0.638888888888889
0.6530612244897959,0.638888888888889
0.6530612244897959,0.638888888888889
0.6530612244897959,0.638888888888889
0.6530612244897959,0.638888888888889
0.6530612244897959,0.638888888888889
0.6530612244897959,0.638888888888889
0.6530612244897959,0.638888888888889
0.6530612244897959,0.638888888888889
0.6530612244897959,0.638888888888889
0.6530612244897959,0.638888888888889
0.6530612244897959,0.638888888888889
0.6530612244897959,0.638888888888889
0.6530612244897959,0.638888888888889
0.6530612244897959,0.638888888888889
0.6530612244897959,0.638888888888889
0.6530612244897959,0.638888888888889
0.6530612244897959,0.638888888888889
0.6530612244897959,0.638888888888889
0.6530612244897959,0.638888888888889
0.6530612244897959,0.638888888888889
0.6530612244897959,0.638888888888889
0.6530612244897959,0.638888888888889
0.6530612244897959,0.638888888888889
0.6530612244897959,0.638888888888889
0.6530612244897959,0.638888888888889
0.6530612244897959,0.638888888888889
0.6530612244897959,0.638888888888889
0.6530612244897959,0.638888888888889
0.6530612244897959,0.638888888888889
0.6530612244897959,0.638888888888889
0.6530612244897959,0.638888888888889
0.6530612244897959,0.638888888888889
0.6530612244897959,0.638888888888889
0.6530612244897959,0.638888888888889
0.6530612244897959,0.638888888888889
0.6530612244897959,0.638888888888889
0.6530612244897959,0.6575342465753424
0.6530612244897959,0.6575342465753424
0.6530612244897959,0.6575342465753424
0.6530612244897959,0.6575342465753424
0.6530612244897959,0.6575342465753424
0.6530612244897959,0.6575342465753424
0.6530612244897959,0.6575342465753424
0.6530612244897959,0.6575342465753424
0.6530612244897959,0.6575342465753424
0.6530612244897959,0.6575342465753424
0.6530612244897959,0.6575342465753424
0.6530612244897959,0.6666666666666667
0.6530612244897959,0.6666666666666667
0.6530612244897959,0.6666666666666667
0.6530612244897959,0.6666666666666667
0.6530612244897959,0.6666666666666667
0.6530612244897959,0.6666666666666667
0.6530612244897959,0.6666666666666667
0.6530612244897959,0.6666666666666667
0.6530612244897959,0.6666666666666667
0.6530612244897959,0.6666666666666667
0.6802721088435374,0.6666666666666667
0.6530612244897959,0.6577181208053692
0.6530612244897959,0.6577181208053692
0.6530612244897959,0.6577181208053692
0.6530612244897959,0.6577181208053692
0.6530612244897959,0.6577181208053692
0.6756756756756758,0.6577181208053692
0.7027027027027026,0.6577181208053692
0.7027027027027026,0.6577181208053692
0.7027027027027026,0.6845637583892616
0.7027027027027026,0.6845637583892616
0.7027027027027026,0.6845637583892616
0.6399999999999999,0.6577181208053692
0.6399999999999999,0.6577181208053692
0.6399999999999999,0.6577181208053692
0.6399999999999999,0.6577181208053692
0.7027027027027026,0.6577181208053692
0.7027027027027026,0.6845637583892616
0.697986577181208,0.6845637583892616
0.697986577181208,0.6845637583892616
0.697986577181208,0.6845637583892616
0.697986577181208,0.6845637583892616
0.697986577181208,0.6845637583892616
0.6399999999999999,0.6577181208053692
0.6399999999999999,0.6577181208053692
0.6666666666666666,0.6577181208053692
0.697986577181208,0.6845637583892616
0.697986577181208,0.6845637583892616
0.697986577181208,0.6845637583892616
0.697986577181208,0.6845637583892616
0.697986577181208,0.6845637583892616
0.697986577181208,0.6845637583892616
0.697986577181208,0.6845637583892616
0.697986577181208,0.6845637583892616
0.6399999999999999,0.6405228758169935
0.6666666666666666,0.6405228758169935
0.697986577181208,0.6928104575163399
0.697986577181208,0.6928104575163399
0.697986577181208,0.6928104575163399
0.697986577181208,0.6928104575163399
0.697986577181208,0.6928104575163399
0.697986577181208,0.6928104575163399
0.697986577181208,0.6928104575163399
0.7114093959731543,0.6928104575163399
0.7114093959731543,0.7058823529411765
0.6578947368421053,0.6405228758169935
0.6887417218543047,0.6928104575163399
0.6887417218543047,0.6928104575163399
0.6887417218543047,0.6928104575163399
0.6887417218543047,0.6928104575163399
0.7019867549668874,0.7058823529411765
0.7019867549668874,0.7105263157894737
0.7019867549668874,0.7236842105263158
0.7152317880794703,0.7236842105263158
0.7152317880794703,0.7368421052631579
0.7236842105263158,0.7333333333333334
0.6887417218543047,0.6928104575163399
0.6887417218543047,0.6928104575163399
0.6887417218543047,0.6928104575163399
0.7019867549668874,0.7105263157894737
0.7058823529411765,0.7236842105263158
0.7058823529411765,0.7333333333333334
0.7417218543046358,0.7333333333333334
0.75,0.7333333333333334
0.75,0.72
0.7417218543046358,0.6842105263157895
0.6973684210526315,0.6274509803921569
0.7058823529411765,0.6928104575163399
0.7058823529411765,0.6928104575163399
0.7142857142857144,0.7236842105263158
0.7417218543046358,0.7333333333333334
0.75,0.72
0.6883116883116883,0.6274509803921569
0.6933333333333332,0.5695364238410596
0.662251655629139,0.5066666666666666
0.5675675675675675,0.5066666666666666
0.435374149659864,0.4832214765100671
0.435374149659864,0.4832214765100671
0.7058823529411765,0.6928104575163399
0.7142857142857144,0.7236842105263158
0.75,0.72
0.6933333333333332,0.5695364238410596
0.5675675675675675,0.5066666666666666
0.435374149659864,0.4832214765100671
0.410958904109589,0.472972972972973
0.38095238095238093,0.472972972972973
0.3356643356643357,0.472972972972973
0.323943661971831,0.3448275862068965
0.323943661971831,0.3448275862068965
0.6530612244897959,0.6344827586206896
0.6530612244897959,0.6344827586206896
0.6530612244897959,0.6344827586206896
0.6530612244897959,0.6344827586206896
0.6530612244897959,0.6344827586206896
0.6530612244897959,0.6344827586206896
0.6530612244897959,0.6344827586206896
0.6530612244897959,0.6344827586206896
0.6530612244897959,0.6344827586206896
0.6530612244897959,0.6344827586206896
0.6530612244897959,0.6344827586206896
0.6530612244897959,0.6344827586206896
0.6530612244897959,0.6344827586206896
0.6530612244897959,0.6344827586206896
0.6530612244897959,0.6344827586206896
0.6530612244897959,0.6344827586206896
0.6530612244897959,0.6344827586206896
0.6530612244897959,0.6344827586206896
0.6530612244897959,0.6344827586206896
0.6530612244897959,0.6344827586206896
0.6530612244897959,0.6344827586206896
0.6530612244897959,0.6344827586206896
0.6530612244897959,0.6344827586206896
0.6530612244897959,0.6344827586206896
0.6530612244897959,0.6344827586206896
0.6530612244897959,0.6344827586206896
0.6530612244897959,0.6344827586206896
0.6530612244897959,0.6344827586206896
0.6530612244897959,0.6344827586206896
0.6530612244897959,0.6344827586206896
0.6530612244897959,0.6344827586206896
0.6530612244897959,0.6344827586206896
0.6530612244897959,0.6344827586206896
0.6530612244897959,0.6344827586206896
0.6530612244897959,0.6344827586206896
0.6530612244897959,0.6344827586206896
0.6530612244897959,0.6344827586206896
0.6530612244897959,0.6344827586206896
0.6530612244897959,0.6344827586206896
0.6530612244897959,0.6344827586206896
0.6530612244897959,0.6344827586206896
0.6530612244897959,0.6344827586206896
0.6530612244897959,0.6344827586206896
0.6530612244897959,0.6344827586206896
0.6530612244897959,0.6530612244897959
0.6530612244897959,0.6530612244897959
0.6530612244897959,0.6530612244897959
0.6530612244897959,0.6530612244897959
0.6530612244897959,0.6530612244897959
0.6530612244897959,0.6530612244897959
0.6530612244897959,0.6530612244897959
0.6530612244897959,0.6530612244897959
0.6530612244897959,0.6530612244897959
0.6530612244897959,0.6530612244897959
0.6530612244897959,0.6530612244897959
0.6530612244897959,0.6621621621621622
0.6530612244897959,0.6621621621621622
0.6530612244897959,0.6621621621621622
0.6530612244897959,0.6621621621621622
0.6530612244897959,0.6621621621621622
0.6530612244897959,0.6621621621621622
0.6530612244897959,0.6621621621621622
0.6530612244897959,0.6621621621621622
0.6530612244897959,0.6621621621621622
0.6530612244897959,0.6621621621621622
0.6530612244897959,0.6621621621621622
0.6530612244897959,0.6621621621621622
0.6530612244897959,0.6621621621621622
0.6530612244897959,0.6621621621621622
0.6530612244897959,0.6621621621621622
0.6530612244897959,0.6621621621621622
0.6530612244897959,0.6577181208053692
0.6530612244897959,0.6577181208053692
0.6530612244897959,0.6577181208053692
0.6530612244897959,0.6577181208053692
0.6530612244897959,0.6577181208053692
0.6756756756756758,0.6577181208053692
0.6530612244897959,0.6621621621621622
0.6399999999999999,0.6621621621621622
0.6399999999999999,0.6621621621621622
0.6399999999999999,0.6577181208053692
0.6399999999999999,0.6577181208053692
0.6399999999999999,0.6577181208053692
0.6399999999999999,0.6577181208053692
0.6666666666666666,0.6577181208053692
0.7027027027027026,0.6577181208053692
0.7027027027027026,0.6845637583892616
0.697986577181208,0.6845637583892616
0.6399999999999999,0.6621621621621622
0.6399999999999999,0.6621621621621622
0.6399999999999999,0.6577181208053692
0.6399999999999999,0.6577181208053692
0.6666666666666666,0.6577181208053692
0.7027027027027026,0.6845637583892616
0.697986577181208,0.6845637583892616
0.697986577181208,0.6845637583892616
0.697986577181208,0.6845637583892616
0.697986577181208,0.6845637583892616
0.697986577181208,0.6845637583892616
0.6399999999999999,0.6533333333333334
0.6399999999999999,0.6405228758169935
0.6666666666666666,0.6405228758169935
0.697986577181208,0.6928104575163399
0.697986577181208,0.6928104575163399
0.697986577181208,0.6928104575163399
0.697986577181208,0.6928104575163399
0.697986577181208,0.6928104575163399
0.697986577181208,0.6928104575163399
0.697986577181208,0.6928104575163399
0.697986577181208,0.6928104575163399
0.631578947368421,0.6405228758169935
0.6578947368421053,0.6405228758169935
0.6887417218543047,0.6928104575163399
0.6887417218543047,0.6928104575163399
0.6887417218543047,0.6928104575163399
0.6887417218543047,0.6928104575163399
0.6887417218543047,0.6928104575163399
0.6887417218543047,0.6928104575163399
0.6887417218543047,0.6928104575163399
0.7019867549668874,0.6928104575163399
0.7019867549668874,0.7058823529411765
0.6578947368421053,0.6405228758169935
0.6887417218543047,0.6928104575163399
0.6887417218543047,0.6928104575163399
0.6887417218543047,0.6928104575163399
0.6887417218543047,0.6928104575163399
0.7019867549668874,0.7058823529411765
0.7019867549668874,0.7105263157894737
0.6928104575163399,0.7236842105263158
0.7058823529411765,0.7236842105263158
0.7058823529411765,0.7368421052631579
0.7058823529411765,0.7333333333333334
0.7058823529411765,0.6928104575163399
0.7058823529411765,0.6928104575163399
0.7058823529411765,0.6928104575163399
0.7189542483660131,0.7105263157894737
0.7142857142857144,0.7236842105263158
0.7142857142857144,0.7333333333333334
0.7417218543046358,0.7333333333333334
0.75,0.7333333333333334
0.75,0.72
0.7320261437908496,0.6842105263157895
0.6883116883116883,0.6274509803921569
0.7058823529411765,0.6928104575163399
0.7058823529411765,0.6928104575163399
0.7142857142857144,0.7236842105263158
0.7417218543046358,0.7333333333333334
0.75,0.6838709677419355
0.6883116883116883,0.6274509803921569
0.6933333333333332,0.5695364238410596
0.6578947368421053,0.5066666666666666
0.5405405405405406,0.5066666666666666
0.4324324324324324,0.4832214765100671
0.4324324324324324,0.4832214765100671
0.6399999999999999,0.6301369863013698
0.6399999999999999,0.6301369863013698
0.6399999999999999,0.6301369863013698
0.6399999999999999,0.6301369863013698
0.6399999999999999,0.6301369863013698
0.6399999999999999,0.6301369863013698
0.6399999999999999,0.6301369863013698
0.6399999999999999,0.6301369863013698
0.6399999999999999,0.6301369863013698
0.6399999999999999,0.6301369863013698
0.6399999999999999,0.6301369863013698
0.6399999999999999,0.6301369863013698
0.6399999999999999,0.6301369863013698
0.6399999999999999,0.6301369863013698
0.6399999999999999,0.6301369863013698
0.6399999999999999,0.6301369863013698
0.6399999999999999,0.6301369863013698
0.6399999999999999,0.6301369863013698
0.6399999999999999,0.6301369863013698
0.6399999999999999,0.6301369863013698
0.6399999999999999,0.6301369863013698
0.6399999999999999,0.6301369863013698
0.6399999999999999,0.6301369863013698
0.6399999999999999,0.6301369863013698
0.6399999999999999,0.6301369863013698
0.6399999999999999,0.6301369863013698
0.6399999999999999,0.6301369863013698
0.6399999999999999,0.6301369863013698
0.6399999999999999,0.6301369863013698
0.6399999999999999,0.6301369863013698
0.6399999999999999,0.6301369863013698
0.6399999999999999,0.6301369863013698
0.6399999999999999,0.6301369863013698
0.6399999999999999,0.6301369863013698
0.6399999999999999,0.6301369863013698
0.6399999999999999,0.6301369863013698
0.6399999999999999,0.6301369863013698
0.6399999999999999,0.6301369863013698
0.6399999999999999,0.6301369863013698
0.6399999999999999,0.6301369863013698
0.6399999999999999,0.6301369863013698
0.6399999999999999,0.6301369863013698
0.6399999999999999,0.6301369863013698
0.6399999999999999,0.6301369863013698
0.6399999999999999,0.6486486486486486
0.6399999999999999,0.6486486486486486
0.6399999999999999,0.6486486486486486
0.6399999999999999,0.6486486486486486
0.6399999999999999,0.6486486486486486
0.6399999999999999,0.6486486486486486
0.6399999999999999,0.6486486486486486
0.6399999999999999,0.6486486486486486
0.6399999999999999,0.6486486486486486
0.6399999999999999,0.6486486486486486
0.6399999999999999,0.6486486486486486
0.6399999999999999,0.6577181208053692
0.6399999999999999,0.6577181208053692
0.6399999999999999,0.6577181208053692
0.6399999999999999,0.6577181208053692
0.6399999999999999,0.6577181208053692
0.6399999999999999,0.6577181208053692
0.6399999999999999,0.6577181208053692
0.6399999999999999,0.6577181208053692
0.6399999999999999,0.6577181208053692
0.6399999999999999,0.6577181208053692
0.6399999999999999,0.6577181208053692
0.6399999999999999,0.6577181208053692
0.6399999999999999,0.6577181208053692
0.6399999999999999,0.6577181208053692
0.6399999999999999,0.6577181208053692
0.6399999999999999,0.6577181208053692
0.6399999999999999,0.6577181208053692
0.6399999999999999,0.6577181208053692
0.6399999999999999,0.6577181208053692
0.6399999999999999,0.6577181208053692
0.6399999999999999,0.6533333333333334
0.6399999999999999,0.6533333333333334
0.6399999999999999,0.6577181208053692
0.6399999999999999,0.6577181208053692
0.6274509803921569,0.6577181208053692
0.6274509803921569,0.6577181208053692
0.6274509803921569,0.6577181208053692
0.6274509803921569,0.6533333333333334
0.6274509803921569,0.6533333333333334
0.6274509803921569,0.6533333333333334
0.6274509803921569,0.6533333333333334
0.6274509803921569,0.6533333333333334
0.6274509803921569,0.6533333333333334
0.6399999999999999,0.6577181208053692
0.6274509803921569,0.6577181208053692
0.6274509803921569,0.6577181208053692
0.6274509803921569,0.6533333333333334
0.6274509803921569,0.6533333333333334
0.6274509803921569,0.6533333333333334
0.6274509803921569,0.6533333333333334
0.6535947712418301,0.6533333333333334
0.6535947712418301,0.6533333333333334
0.6535947712418301,0.68
0.6933333333333332,0.68
0.6274509803921569,0.6577181208053692
0.6274509803921569,0.6577181208053692
0.6274509803921569,0.6447368421052632
0.6274509803921569,0.6447368421052632
0.6535947712418301,0.6447368421052632
0.6933333333333332,0.6928104575163399
0.6887417218543047,0.6928104575163399
0.6887417218543047,0.6928104575163399
0.6887417218543047,0.6928104575163399
0.6887417218543047,0.6928104575163399
0.6887417218543047,0.6928104575163399
0.6274509803921569,0.6577181208053692
0.6274509803921569,0.6447368421052632
0.6535947712418301,0.6447368421052632
0.6887417218543047,0.6928104575163399
0.6887417218543047,0.6928104575163399
0.6887417218543047,0.6928104575163399
0.6842105263157895,0.6928104575163399
0.6842105263157895,0.6928104575163399
0.6842105263157895,0.6928104575163399
0.6842105263157895,0.6928104575163399
0.6842105263157895,0.6928104575163399
0.6274509803921569,0.6447368421052632
0.6535947712418301,0.6447368421052632
0.6887417218543047,0.6928104575163399
0.6842105263157895,0.6928104575163399
0.6842105263157895,0.6928104575163399
0.6842105263157895,0.6928104575163399
0.6842105263157895,0.6928104575163399
0.6842105263157895,0.6928104575163399
0.6842105263157895,0.6928104575163399
0.6973684210526315,0.6928104575163399
0.6973684210526315,0.7058823529411765
0.6535947712418301,0.6363636363636364
0.7058823529411765,0.6928104575163399
0.7012987012987013,0.6928104575163399
0.7012987012987013,0.6928104575163399
0.7012987012987013,0.6928104575163399
0.7142857142857144,0.7058823529411765
0.7142857142857144,0.7105263157894737
0.6967741935483871,0.7236842105263158
0.7096774193548387,0.7236842105263158
0.7096774193548387,0.7368421052631579
0.7096774193548387,0.7333333333333334
0.7058823529411765,0.6928104575163399
0.7012987012987013,0.6928104575163399
0.7012987012987013,0.6928104575163399
0.7142857142857144,0.7105263157894737
0.7096774193548387,0.7236842105263158
0.7096774193548387,0.7333333333333334
0.7368421052631579,0.7333333333333334
0.7450980392156864,0.7333333333333334
0.7450980392156864,0.6838709677419355
0.7272727272727274,0.6842105263157895
0.6838709677419355,0.6274509803921569
0.6233766233766234,0.6216216216216217
0.6233766233766234,0.6216216216216217
0.6233766233766234,0.6216216216216217
0.6233766233766234,0.6216216216216217
0.6233766233766234,0.6216216216216217
0.6233766233766234,0.6216216216216217
0.6233766233766234,0.6216216216216217
0.6233766233766234,0.6216216216216217
0.6233766233766234,0.6216216216216217
0.6233766233766234,0.6216216216216217
0.6233766233766234,0.6216216216216217
0.6233766233766234,0.6216216216216217
0.6233766233766234,0.6216216216216217
0.6233766233766234,0.6216216216216217
0.6233766233766234,0.6216216216216217
0.6233766233766234,0.6216216216216217
0.6233766233766234,0.6216216216216217
0.6233766233766234,0.6216216216216217
0.6233766233766234,0.6216216216216217
0.6233766233766234,0.6216216216216217
0.6233766233766234,0.6216216216216217
0.6233766233766234,0.6216216216216217
0.6233766233766234,0.6216216216216217
0.6233766233766234,0.6216216216216217
0.6233766233766234,0.6216216216216217
0.6233766233766234,0.6216216216216217
0.6233766233766234,0.6216216216216217
0.6233766233766234,0.6216216216216217
0.6233766233766234,0.6216216216216217
0.6233766233766234,0.6216216216216217
0.6233766233766234,0.6216216216216217
0.6233766233766234,0.6216216216216217
0.6233766233766234,0.6216216216216217
0.6233766233766234,0.6216216216216217
0.6233766233766234,0.6216216216216217
0.6233766233766234,0.6216216216216217
0.6233766233766234,0.6216216216216217
0.6233766233766234,0.6216216216216217
0.6233766233766234,0.6216216216216217
0.6233766233766234,0.6216216216216217
0.6233766233766234,0.6216216216216217
0.6233766233766234,0.6216216216216217
0.6233766233766234,0.6216216216216217
0.6233766233766234,0.6216216216216217
0.6233766233766234,0.6216216216216217
0.6233766233766234,0.6216216216216217
0.6233766233766234,0.6216216216216217
0.6233766233766234,0.6216216216216217
0.6233766233766234,0.6442953020134228
0.6233766233766234,0.6442953020134228
0.6233766233766234,0.6442953020134228
0.6233766233766234,0.6442953020134228
0.6233766233766234,0.6442953020134228
0.6233766233766234,0.6442953020134228
0.6233766233766234,0.6442953020134228
0.6233766233766234,0.6216216216216217
0.6233766233766234,0.6216216216216217
0.6233766233766234,0.6533333333333334
0.6233766233766234,0.6533333333333334
0.6233766233766234,0.6533333333333334
0.6233766233766234,0.6533333333333334
0.6233766233766234,0.6533333333333334
0.6233766233766234,0.6533333333333334
0.6233766233766234,0.6533333333333334
0.6233766233766234,0.6533333333333334
0.6233766233766234,0.6533333333333334
0.6233766233766234,0.6216216216216217
0.6233766233766234,0.6216216216216217
0.6233766233766234,0.6533333333333334
0.6233766233766234,0.6533333333333334
0.6233766233766234,0.6533333333333334
0.6233766233766234,0.6533333333333334
0.6233766233766234,0.6533333333333334
0.6233766233766234,0.6533333333333334
0.6233766233766234,0.6533333333333334
0.6233766233766234,0.6533333333333334
0.6233766233766234,0.6533333333333334
0.6233766233766234,0.6216216216216217
0.6233766233766234,0.6533333333333334
0.6233766233766234,0.6533333333333334
0.6233766233766234,0.6533333333333334
0.6233766233766234,0.6533333333333334
0.6233766233766234,0.6533333333333334
0.6233766233766234,0.6533333333333334
0.6233766233766234,0.6533333333333334
0.6233766233766234,0.6533333333333334
0.6233766233766234,0.6533333333333334
0.6233766233766234,0.6490066225165563
0.6233766233766234,0.6533333333333334
0.6233766233766234,0.6533333333333334
0.6233766233766234,0.6533333333333334
0.6233766233766234,0.6533333333333334
0.6233766233766234,0.6533333333333334
0.6233766233766234,0.6490066225165563
0.6233766233766234,0.6490066225165563
0.6233766233766234,0.6490066225165563
0.6233766233766234,0.6490066225165563
0.6233766233766234,0.6490066225165563
0.6233766233766234,0.6490066225165563
0.6233766233766234,0.6533333333333334
0.6233766233766234,0.6533333333333334
0.6233766233766234,0.6533333333333334
0.6233766233766234,0.6405228758169935
0.6233766233766234,0.6405228758169935
0.6233766233766234,0.6405228758169935
0.6233766233766234,0.6405228758169935
0.6493506493506493,0.6405228758169935
0.6753246753246754,0.6405228758169935
0.6753246753246754,0.6363636363636364
0.6753246753246754,0.6883116883116883
0.6233766233766234,0.6533333333333334
0.6233766233766234,0.6533333333333334
0.6233766233766234,0.6405228758169935
0.6233766233766234,0.6405228758169935
0.6753246753246754,0.6405228758169935
0.6753246753246754,0.6883116883116883
0.6709677419354838,0.6883116883116883
0.6709677419354838,0.6883116883116883
0.6709677419354838,0.6883116883116883
0.6709677419354838,0.6883116883116883
0.6709677419354838,0.6883116883116883
0.6153846153846154,0.6447368421052632
0.6153846153846154,0.6405228758169935
0.6753246753246754,0.6405228758169935
0.6709677419354838,0.6883116883116883
0.6709677419354838,0.6883116883116883
0.6709677419354838,0.6883116883116883
0.6666666666666667,0.6883116883116883
0.6666666666666667,0.6883116883116883
0.6666666666666667,0.6883116883116883
0.6666666666666667,0.6883116883116883
0.6666666666666667,0.6883116883116883
0.6153846153846154,0.6405228758169935
0.6753246753246754,0.6405228758169935
0.6878980891719745,0.6883116883116883
0.6835443037974683,0.6883116883116883
0.6835443037974683,0.6883116883116883
0.6835443037974683,0.6883116883116883
0.6835443037974683,0.6883116883116883
0.6835443037974683,0.6883116883116883
0.6835443037974683,0.6883116883116883
0.6962025316455697,0.6883116883116883
0.6962025316455697,0.7012987012987013
0.6753246753246754,0.6405228758169935
0.6878980891719745,0.6883116883116883
0.6835443037974683,0.6883116883116883
0.6835443037974683,0.6883116883116883
0.6835443037974683,0.6883116883116883
0.6962025316455697,0.7012987012987013
0.6962025316455697,0.7058823529411765
0.6792452830188679,0.7189542483660131
0.6918238993710693,0.7189542483660131
0.6918238993710693,0.7320261437908496
0.6918238993710693,0.728476821192053
