gamma_s,gamma_h,alpha,sencitivity,ppv,fmeasure,time
0.0625,0.0625,0.7,0.0,NaN,NaN,0.019935385
0.0625,0.125,0.4,0.0,NaN,NaN,0.035883681
0.0625,0.0625,0.4,0.0,NaN,NaN,0.373532101
0.0625,0.0625,0.3,0.0,NaN,NaN,0.453736674
0.0625,0.0625,0.1,0.0,NaN,NaN,0.584885897
0.0625,0.0625,0.8,0.0,NaN,NaN,0.490946538
0.0625,0.125,0.1,0.0,NaN,NaN,0.265096854
0.0625,0.0625,0.2,0.0,NaN,NaN,0.231947784
0.0625,0.0625,0.9,0.0,NaN,NaN,0.074997514
0.0625,0.125,0.05,0.0,NaN,NaN,0.16244596
0.0625,0.125,0.5,0.0,NaN,NaN,0.04755101
0.0625,0.125,0.8,0.0,NaN,NaN,0.03304241
0.0625,0.0625,1.0,0.0,NaN,NaN,0.034419416
0.0625,0.125,0.6,0.0,NaN,NaN,0.100297711
0.0625,0.0625,0.6,0.0,NaN,NaN,0.106789556
0.0625,0.125,0.7,0.0,NaN,NaN,0.260164737
0.0625,0.125,0.9,0.0,NaN,NaN,0.289687129
0.0625,0.25,0.1,0.0,NaN,NaN,0.23213458
0.0625,0.25,0.4,0.0,NaN,NaN,0.296090679
0.0625,0.125,0.3,0.0,NaN,NaN,0.195857982
0.0625,0.25,0.5,0.0,NaN,NaN,0.239713611
0.0625,0.25,0.3,0.0,NaN,NaN,0.161516906
0.0625,0.25,0.05,0.0,NaN,NaN,0.106681656
0.0625,0.25,0.2,0.0,NaN,NaN,0.105850311
0.0625,0.5,0.05,0.0,NaN,NaN,0.091916103
0.0625,0.25,0.8,0.0,NaN,NaN,0.085012715
0.0625,0.0625,0.5,0.0,NaN,NaN,0.092881434
0.0625,0.5,0.4,0.0,NaN,NaN,0.057388918
0.0625,0.5,0.1,0.0,NaN,NaN,0.093084943
0.0625,0.5,0.8,0.0,NaN,NaN,0.128779062
0.0625,0.25,1.0,0.0,NaN,NaN,0.145336244
0.0625,0.25,0.7,0.0,NaN,NaN,0.16447207
0.0625,0.25,0.9,0.0,NaN,NaN,0.153083987
0.0625,0.5,0.5,0.0,NaN,NaN,0.13130539
0.0625,0.125,0.2,0.0,NaN,NaN,0.143698395
0.0625,0.5,0.6,0.0,NaN,NaN,0.143603831
0.0625,0.5,0.3,0.0,NaN,NaN,0.124242964
0.0625,0.5,0.7,0.0,NaN,NaN,0.149245594
0.0625,0.125,1.0,0.0,NaN,NaN,0.107842209
0.0625,1.0,0.3,0.0,NaN,NaN,0.085367778
0.0625,1.0,0.05,0.0,NaN,NaN,0.126146754
0.0625,1.0,0.4,0.0,NaN,NaN,0.087179246
0.0625,1.0,0.2,0.0,NaN,NaN,0.099543687
0.0625,1.0,0.7,0.0,NaN,NaN,0.080862907
0.0625,1.0,0.1,0.0,NaN,NaN,0.041938389
0.0625,2.0,0.05,0.0,NaN,NaN,0.040327633
0.0625,0.5,1.0,0.0,NaN,NaN,0.018724801
0.0625,1.0,0.8,0.0,NaN,NaN,0.019394572
0.0625,1.0,0.6,0.0,NaN,NaN,0.01784487
0.0625,2.0,0.2,0.0,NaN,NaN,0.019859773
0.0625,0.25,0.6,0.0,NaN,NaN,0.019239267
0.0625,1.0,0.9,0.0,NaN,NaN,0.07859317
0.0625,0.5,0.2,0.0,NaN,NaN,0.075847658
0.0625,1.0,1.0,0.0,NaN,NaN,0.076648784
0.0625,0.5,0.9,0.0,NaN,NaN,0.041772018
0.0625,2.0,0.1,0.0,NaN,NaN,0.019306102
0.0625,2.0,0.3,0.0,NaN,NaN,0.019200138
0.0625,1.0,0.5,0.0,NaN,NaN,0.019227351
0.0625,64.0,0.1,0.0,NaN,NaN,0.02679195
0.0625,64.0,0.8,0.0,NaN,NaN,0.03373431
0.0625,128.0,0.6,0.0,NaN,NaN,0.026055406
0.0625,256.0,0.2,0.0,NaN,NaN,0.015942271
0.0625,512.0,0.05,0.0,NaN,NaN,0.031124395
0.0625,512.0,0.7,0.0,NaN,NaN,0.032180271
0.0625,2.0,0.4,0.0,NaN,NaN,0.588343747
0.0625,4.0,0.7,0.0,NaN,NaN,0.429591847
0.0625,8.0,0.6,0.0,NaN,NaN,0.51384331
0.0625,8.0,0.2,0.0,NaN,NaN,0.476317442
0.0625,2.0,0.5,0.0,NaN,NaN,0.51564201
0.0625,8.0,0.05,0.0,NaN,NaN,0.505200187
0.0625,8.0,0.5,0.0,NaN,NaN,0.482896643
0.0625,16.0,0.2,0.0,NaN,NaN,0.515849648
0.0625,8.0,0.3,0.0,NaN,NaN,0.562620581
0.0625,8.0,0.4,0.0,NaN,NaN,0.5100865
0.0625,16.0,0.05,0.0,NaN,NaN,0.453504162
0.0625,16.0,0.4,0.0,NaN,NaN,0.427347901
0.0625,8.0,0.9,0.0,NaN,NaN,0.396939244
0.0625,16.0,0.6,0.0,NaN,NaN,0.478675407
0.0625,16.0,0.9,0.0,NaN,NaN,0.398118944
0.0625,16.0,0.5,0.0,NaN,NaN,0.335101893
0.0625,32.0,0.2,0.0,NaN,NaN,0.340612998
0.0625,2.0,0.6,0.0,NaN,NaN,0.403135281
0.0625,16.0,0.3,0.0,NaN,NaN,0.438341435
0.0625,32.0,0.05,0.0,NaN,NaN,0.3870093
0.0625,32.0,0.6,0.0,NaN,NaN,0.583255046
0.0625,32.0,0.5,0.0,NaN,NaN,0.540695132
0.0625,32.0,0.4,0.0,NaN,NaN,0.489322262
0.0625,32.0,0.9,0.0,NaN,NaN,0.415155656
0.0625,2.0,0.7,0.0,NaN,NaN,0.371762059
0.0625,32.0,0.3,0.0,NaN,NaN,0.395281394
0.0625,64.0,0.5,0.0,NaN,NaN,0.519630552
0.0625,64.0,0.2,0.0,NaN,NaN,0.453882172
0.0625,64.0,0.7,0.0,NaN,NaN,0.449686882
0.0625,64.0,0.4,0.0,NaN,NaN,0.484293242
0.0625,64.0,0.6,0.0,NaN,NaN,0.414469285
0.0625,64.0,0.05,0.0,NaN,NaN,0.429412684
0.0625,64.0,0.3,0.0,NaN,NaN,0.393029536
0.0625,128.0,0.1,0.0,NaN,NaN,0.342935213
0.0625,2.0,0.8,0.0,NaN,NaN,0.415714195
0.0625,128.0,0.3,0.0,NaN,NaN,0.349145423
0.0625,64.0,0.9,0.0,NaN,NaN,0.337768857
0.0625,128.0,0.2,0.0,NaN,NaN,0.41578444
0.0625,64.0,1.0,0.0,NaN,NaN,0.339892372
0.0625,128.0,0.4,0.0,NaN,NaN,0.257100362
0.0625,128.0,0.05,0.0,NaN,NaN,0.374971369
0.0625,128.0,0.7,0.0,NaN,NaN,0.586821178
0.0625,2.0,0.9,0.0,NaN,NaN,0.50315284
0.0625,128.0,1.0,0.0,NaN,NaN,0.47626961
0.0625,128.0,0.5,0.0,NaN,NaN,0.469809827
0.0625,128.0,0.9,0.0,NaN,NaN,0.468163726
0.0625,256.0,0.05,0.0,NaN,NaN,0.465915832
0.0625,256.0,0.1,0.0,NaN,NaN,0.38539691
0.0625,2.0,1.0,0.0,NaN,NaN,0.276374118
0.0625,128.0,0.8,0.0,NaN,NaN,0.441834232
0.0625,256.0,0.8,0.0,NaN,NaN,0.433442319
0.0625,256.0,0.4,0.0,NaN,NaN,0.382934147
0.0625,256.0,0.6,0.0,NaN,NaN,0.381531008
0.0625,256.0,0.3,0.0,NaN,NaN,0.323900899
0.0625,256.0,0.7,0.0,NaN,NaN,0.314137339
0.0625,256.0,0.9,0.0,NaN,NaN,0.204677539
0.0625,256.0,0.5,0.0,NaN,NaN,0.332233567
0.0625,512.0,0.1,0.0,NaN,NaN,0.370331643
0.0625,4.0,0.05,0.0,NaN,NaN,0.319661786
0.0625,512.0,0.3,0.0,NaN,NaN,0.370468323
0.0625,512.0,0.5,0.0,NaN,NaN,0.336294451
0.0625,256.0,1.0,0.0,NaN,NaN,0.247478553
0.0625,512.0,0.4,0.0,NaN,NaN,0.12790685
0.0625,512.0,0.2,0.0,NaN,NaN,0.503996706
0.0625,4.0,0.1,0.0,NaN,NaN,0.539136882
0.0625,512.0,0.9,0.0,NaN,NaN,0.51574409
0.0625,512.0,0.6,0.0,NaN,NaN,0.488641496
0.125,0.0625,0.2,0.0,NaN,NaN,0.536101515
0.125,0.0625,0.1,0.0,NaN,NaN,0.527554949
0.125,0.0625,0.05,0.0,NaN,NaN,0.476483613
0.0625,512.0,0.8,0.0,NaN,NaN,0.530748054
0.0625,4.0,0.2,0.0,NaN,NaN,0.336363851
0.125,0.0625,0.3,0.0,NaN,NaN,0.322944685
0.125,0.0625,0.7,0.0,NaN,NaN,0.285538188
0.125,0.0625,0.8,0.0,NaN,NaN,0.268203632
0.125,0.0625,0.4,0.0,NaN,NaN,0.267453646
0.125,0.0625,0.9,0.0,NaN,NaN,0.237244006
0.0625,512.0,1.0,0.0,NaN,NaN,0.290368061
0.125,0.0625,1.0,0.0,NaN,NaN,0.337890299
0.125,0.0625,0.5,0.0,NaN,NaN,0.191296017
0.125,0.125,0.3,0.0,NaN,NaN,0.3468307
0.125,0.125,0.05,0.0,NaN,NaN,0.362997312
0.125,0.0625,0.6,0.0,NaN,NaN,0.276130038
0.125,0.125,0.4,0.0,NaN,NaN,0.142902342
0.125,0.125,0.1,0.0,NaN,NaN,0.133733119
0.125,0.125,0.5,0.0,NaN,NaN,0.226917902
0.125,0.125,0.6,0.0,NaN,NaN,0.22738047
0.0625,4.0,0.3,0.0,NaN,NaN,0.234960096
0.125,1.0,1.0,0.0,NaN,NaN,0.016283456
0.125,2.0,0.05,0.0,NaN,NaN,0.027472867
0.125,2.0,0.1,0.0,NaN,NaN,0.053415398
0.125,2.0,0.2,0.0,NaN,NaN,0.035756183
0.125,0.125,0.7,0.0,NaN,NaN,0.020895718
0.125,2.0,0.7,0.0,NaN,NaN,0.010839288
0.125,0.25,0.1,0.0,NaN,NaN,0.019055274
0.125,0.125,0.8,0.0,NaN,NaN,0.021724571
0.125,0.125,0.2,0.0,NaN,NaN,0.018844384
0.125,0.25,0.05,0.0,NaN,NaN,0.022187335
0.125,0.25,0.2,0.0,NaN,NaN,0.041420505
0.125,0.125,1.0,0.0,NaN,NaN,0.107255115
0.125,0.25,0.8,0.0,NaN,NaN,0.095471476
0.125,2.0,0.4,0.0,NaN,NaN,0.02640852
0.125,0.25,0.4,0.0,NaN,NaN,0.094713449
0.125,0.125,0.9,0.0,NaN,NaN,0.095703709
0.0625,4.0,0.4,0.0,NaN,NaN,0.112983555
0.125,0.25,0.6,0.0,NaN,NaN,0.063923384
0.125,0.25,0.9,0.0,NaN,NaN,0.073896907
0.125,0.25,0.7,0.0,NaN,NaN,0.10815431
0.125,0.25,0.3,0.0,NaN,NaN,0.068627794
0.125,0.5,0.05,0.0,NaN,NaN,0.068143849
0.125,0.5,0.4,0.0,NaN,NaN,0.052736328
0.125,0.25,0.5,0.0,NaN,NaN,0.163210807
0.125,0.5,0.5,0.0,NaN,NaN,0.203102286
0.125,0.5,0.7,0.0,NaN,NaN,0.241592289
0.125,0.25,1.0,0.0,NaN,NaN,0.241296465
0.125,0.5,0.3,0.0,NaN,NaN,0.256000083
0.125,0.5,0.2,0.0,NaN,NaN,0.288735175
0.125,1.0,0.05,0.0,NaN,NaN,0.238343014
0.0625,4.0,0.5,0.0,NaN,NaN,0.263879062
0.125,0.5,1.0,0.0,NaN,NaN,0.216139119
0.125,0.5,0.9,0.0,NaN,NaN,0.172407991
0.125,0.5,0.8,0.0,NaN,NaN,0.207394528
0.125,0.5,0.1,0.0,NaN,NaN,0.177871962
0.125,0.5,0.6,0.0,NaN,NaN,0.296664516
0.125,1.0,0.1,0.0,NaN,NaN,0.399108366
0.0625,4.0,0.6,0.0,NaN,NaN,0.548835133
0.0625,4.0,0.8,0.0,NaN,NaN,0.288281355
0.0625,4.0,0.9,0.0,NaN,NaN,0.443376893
0.0625,4.0,1.0,0.0,NaN,NaN,0.379682487
0.0625,8.0,0.1,0.0,NaN,NaN,0.367766862
0.125,4.0,0.1,0.0,NaN,NaN,0.463524868
0.125,2.0,0.5,0.0,NaN,NaN,0.23858702
0.125,2.0,0.3,0.0,NaN,NaN,0.211267858
0.125,4.0,0.2,0.0,NaN,NaN,0.210601061
0.125,4.0,0.3,0.0,NaN,NaN,0.1567513
0.125,2.0,0.8,0.0,NaN,NaN,0.023502579
0.125,4.0,0.9,0.0,NaN,NaN,0.022772083
0.125,4.0,1.0,0.0,NaN,NaN,0.021217573
0.125,2.0,0.9,0.0,NaN,NaN,0.021604622
0.125,2.0,0.6,0.0,NaN,NaN,0.025497531
0.125,4.0,0.8,0.0,NaN,NaN,0.045545464
0.125,2.0,1.0,0.0,NaN,NaN,0.022820647
0.125,8.0,0.6,0.0,NaN,NaN,0.021152978
0.125,4.0,0.4,0.0,NaN,NaN,0.022977652
0.0625,8.0,0.7,0.0,NaN,NaN,0.024018712
0.125,4.0,0.5,0.0,NaN,NaN,0.030981281
0.125,4.0,0.05,0.0,NaN,NaN,0.031684439
0.125,8.0,0.5,0.0,NaN,NaN,0.028078636
0.125,4.0,0.6,0.0,NaN,NaN,0.027674251
0.0625,8.0,0.8,0.0,NaN,NaN,0.063500259
0.125,8.0,0.4,0.0,NaN,NaN,0.098420036
0.125,8.0,0.05,0.0,NaN,NaN,0.088099374
0.125,8.0,0.2,0.0,NaN,NaN,0.123445688
0.125,8.0,0.1,0.0,NaN,NaN,0.067748126
0.125,16.0,0.1,0.0,NaN,NaN,0.074733309
0.125,16.0,0.2,0.0,NaN,NaN,0.056705684
0.125,8.0,0.9,0.0,NaN,NaN,0.048520438
0.125,8.0,0.7,0.0,NaN,NaN,0.067223798
0.0625,8.0,1.0,0.0,NaN,NaN,0.100222946
0.125,16.0,0.9,0.0,NaN,NaN,0.06683451
0.125,4.0,0.7,0.0,NaN,NaN,0.133099186
0.125,16.0,0.05,0.0,NaN,NaN,0.194654144
0.125,8.0,0.8,0.0,NaN,NaN,0.130367069
0.125,16.0,0.8,0.0,NaN,NaN,0.090955561
0.125,16.0,0.7,0.0,NaN,NaN,0.198897328
0.125,32.0,0.5,0.0,NaN,NaN,0.170806135
0.125,16.0,0.3,0.0,NaN,NaN,0.204436784
0.125,16.0,0.4,0.0,NaN,NaN,0.214964123
0.125,8.0,0.3,0.0,NaN,NaN,0.186704453
0.125,32.0,0.4,0.0,NaN,NaN,0.095435892
0.125,32.0,0.1,0.0,NaN,NaN,0.095106463
0.125,64.0,0.05,0.0,NaN,NaN,0.07284666
0.125,32.0,1.0,0.0,NaN,NaN,0.095043295
0.125,32.0,0.05,0.0,NaN,NaN,0.060588611
0.125,32.0,0.3,0.0,NaN,NaN,0.104887642
0.125,16.0,1.0,0.0,NaN,NaN,0.054192069
0.125,8.0,1.0,0.0,NaN,NaN,0.090793507
0.125,16.0,0.5,0.0,NaN,NaN,0.090639296
0.0625,16.0,0.1,0.0,NaN,NaN,0.074344734
0.125,16.0,0.6,0.0,NaN,NaN,0.076383517
0.125,32.0,0.9,0.0,NaN,NaN,0.088805487
0.125,32.0,0.8,0.0,NaN,NaN,0.031669321
0.125,32.0,0.7,0.0,NaN,NaN,0.034334117
0.125,32.0,0.6,0.0,NaN,NaN,0.031277618
0.0625,16.0,0.7,0.0,NaN,NaN,0.025136123
0.125,32.0,0.2,0.0,NaN,NaN,0.036844165
0.125,64.0,0.1,0.0,NaN,NaN,0.049042405
0.0625,32.0,0.1,0.0,NaN,NaN,0.023412111
0.0625,16.0,0.8,0.0,NaN,NaN,0.025198865
0.0625,16.0,1.0,0.0,NaN,NaN,0.035733296
0.0625,32.0,0.7,0.0,NaN,NaN,0.023594084
0.0625,32.0,1.0,0.0,NaN,NaN,0.022713278
0.0625,32.0,0.8,0.0,NaN,NaN,0.065116459
0.125,1.0,0.3,0.0,NaN,NaN,0.027995595
0.125,1.0,0.2,0.0,NaN,NaN,0.028476926
0.125,1.0,0.4,0.0,NaN,NaN,0.025415528
0.125,1.0,0.5,0.0,NaN,NaN,0.030211702
0.125,1.0,0.6,0.0,NaN,NaN,0.023345521
0.125,1.0,0.7,0.0,NaN,NaN,0.024492276
0.125,1.0,0.8,0.0,NaN,NaN,0.023636923
0.125,1.0,0.9,0.0,NaN,NaN,0.023907827
0.25,0.0625,0.8,0.0,NaN,NaN,0.046896606
0.25,0.125,0.6,0.0,NaN,NaN,0.02158884
0.25,0.25,0.3,0.0,NaN,NaN,0.010935233
0.25,0.5,0.05,0.0,NaN,NaN,0.039212229
0.25,0.5,0.8,0.0,NaN,NaN,0.03890375
0.25,1.0,0.5,0.0,NaN,NaN,0.026992858
0.125,128.0,1.0,0.0,NaN,NaN,0.38336054
0.125,256.0,0.05,0.0,NaN,NaN,0.453135013
0.125,128.0,0.5,0.0,NaN,NaN,0.413549826
0.125,256.0,0.6,0.0,NaN,NaN,0.543320347
0.125,128.0,0.9,0.0,NaN,NaN,0.508180672
0.125,256.0,0.2,0.0,NaN,NaN,0.599622279
0.125,256.0,0.5,0.0,NaN,NaN,0.480720194
0.125,256.0,0.3,0.0,NaN,NaN,0.453305318
0.125,256.0,0.9,0.0,NaN,NaN,0.500745422
0.125,512.0,0.2,0.0,NaN,NaN,0.515186294
0.125,256.0,1.0,0.0,NaN,NaN,0.519985253
0.125,512.0,0.05,0.0,NaN,NaN,0.494250203
0.125,64.0,0.3,0.0,NaN,NaN,0.555826327
0.125,512.0,0.5,0.0,NaN,NaN,0.448661252
0.125,64.0,0.2,0.0,NaN,NaN,0.319769145
0.125,512.0,0.3,0.0,NaN,NaN,0.332997249
0.125,512.0,0.6,0.0,NaN,NaN,0.456299179
0.125,512.0,0.9,0.0,NaN,NaN,0.420094427
0.125,512.0,1.0,0.0,NaN,NaN,0.370415196
0.25,0.0625,0.2,0.0,NaN,NaN,0.475025292
0.125,64.0,0.4,0.0,NaN,NaN,0.443411556
0.25,0.0625,0.5,0.0,NaN,NaN,0.394253841
0.25,0.0625,0.6,0.0,NaN,NaN,0.486835276
0.25,0.0625,0.05,0.0,NaN,NaN,0.43823947
0.25,0.0625,0.3,0.0,NaN,NaN,0.311789353
0.125,64.0,0.5,0.0,NaN,NaN,0.463784925
0.25,0.125,0.05,0.0,NaN,NaN,0.316749426
0.25,0.0625,1.0,0.0,NaN,NaN,0.391499463
0.125,64.0,0.6,0.0,NaN,NaN,0.332395408
0.25,0.125,0.5,0.0,NaN,NaN,0.29898503
0.25,0.125,0.1,0.0,NaN,NaN,0.345202205
0.25,0.125,0.2,0.0,NaN,NaN,0.361697826
0.25,0.125,0.4,0.0,NaN,NaN,0.379557469
0.25,0.125,0.7,0.0,NaN,NaN,0.322246489
0.25,0.125,0.9,0.0,NaN,NaN,0.285336811
0.25,0.125,0.3,0.0,NaN,NaN,0.18015056
0.25,0.125,0.8,0.0,NaN,NaN,0.212124054
0.25,0.125,1.0,0.0,NaN,NaN,0.166803349
0.125,64.0,0.7,0.0,NaN,NaN,0.245850901
0.25,0.25,0.1,0.0,NaN,NaN,0.232471447
0.25,0.25,0.2,0.0,NaN,NaN,0.229573718
0.25,0.25,0.4,0.0,NaN,NaN,0.45905236
0.25,0.25,0.05,0.0,NaN,NaN,0.485927588
0.25,0.25,0.6,0.0,NaN,NaN,0.31281345
0.25,0.25,0.9,0.0,NaN,NaN,0.318851858
0.25,0.25,0.5,0.0,NaN,NaN,0.295678828
0.25,0.25,1.0,0.0,NaN,NaN,0.246622218
0.25,0.25,0.7,0.0,NaN,NaN,0.190930649
0.125,64.0,0.8,0.0,NaN,NaN,0.292980106
0.25,0.25,0.8,0.0,NaN,NaN,0.393656078
0.25,0.5,0.2,0.0,NaN,NaN,0.394505228
0.25,0.5,0.7,0.0,NaN,NaN,0.424505285
0.25,0.5,0.1,0.0,NaN,NaN,0.341677505
0.25,0.5,0.3,0.0,NaN,NaN,0.329267146
0.25,0.5,0.4,0.0,NaN,NaN,0.343346392
0.25,0.5,0.6,0.0,NaN,NaN,0.25494974
0.25,0.5,1.0,0.0,NaN,NaN,0.366166893
0.25,1.0,0.4,0.0,NaN,NaN,0.395857815
0.125,64.0,0.9,0.0,NaN,NaN,0.349550002
0.25,0.5,0.5,0.0,NaN,NaN,0.306436734
0.25,0.5,0.9,0.0,NaN,NaN,0.347490893
0.25,1.0,0.05,0.0,NaN,NaN,0.302239147
0.25,1.0,0.1,0.0,NaN,NaN,0.308053697
0.25,1.0,0.3,0.0,NaN,NaN,0.336109622
0.25,1.0,0.2,0.0,NaN,NaN,0.376602011
0.25,1.0,0.8,0.0,NaN,NaN,0.293074615
0.25,1.0,0.9,0.0,NaN,NaN,0.381229403
0.25,1.0,0.6,0.0,NaN,NaN,0.419542173
0.25,2.0,0.1,0.0,NaN,NaN,0.415512057
0.25,1.0,0.7,0.0,NaN,NaN,0.450428524
0.25,2.0,0.05,0.0,NaN,NaN,0.450339575
0.25,2.0,0.2,0.0,NaN,NaN,0.453551175
0.25,1.0,1.0,0.0,NaN,NaN,0.377647661
0.25,2.0,0.4,0.0,NaN,NaN,0.377080497
0.125,64.0,1.0,0.0,NaN,NaN,0.377561734
0.25,2.0,0.3,0.0,NaN,NaN,0.221829353
0.25,2.0,0.8,0.0,NaN,NaN,0.256316813
0.25,2.0,0.5,0.0,NaN,NaN,0.412940686
0.25,2.0,0.7,0.0,NaN,NaN,0.302525505
0.125,128.0,0.05,0.0,NaN,NaN,0.078807339
0.25,4.0,0.3,0.0,NaN,NaN,0.111381709
0.25,2.0,0.9,0.0,NaN,NaN,0.115273774
0.25,4.0,0.05,0.0,NaN,NaN,0.113939624
0.25,4.0,0.4,0.0,NaN,NaN,0.110804855
0.125,128.0,0.1,0.0,NaN,NaN,0.120493598
0.25,2.0,0.6,0.0,NaN,NaN,0.117310002
0.25,4.0,0.1,0.0,NaN,NaN,0.128412825
0.125,128.0,0.2,0.0,NaN,NaN,0.080113358
0.25,2.0,1.0,0.0,NaN,NaN,0.027636531
0.25,4.0,0.2,0.0,NaN,NaN,0.018087713
0.25,8.0,0.05,0.0,NaN,NaN,0.02002731
0.25,4.0,1.0,0.0,NaN,NaN,0.018456523
0.25,4.0,0.5,0.0,NaN,NaN,0.018545384
0.25,4.0,0.7,0.0,NaN,NaN,0.018879044
0.25,4.0,0.6,0.0,NaN,NaN,0.018132834
0.25,4.0,0.9,0.0,NaN,NaN,0.017925938
0.25,8.0,0.5,0.0,NaN,NaN,0.013476193
0.25,8.0,0.7,0.0,NaN,NaN,0.01706003
0.25,8.0,0.1,0.0,NaN,NaN,0.0298599
0.25,4.0,0.8,0.0,NaN,NaN,0.074211801
0.25,8.0,0.3,0.0,NaN,NaN,0.050731946
0.25,8.0,1.0,0.0,NaN,NaN,0.055312931
0.25,8.0,0.6,0.0,NaN,NaN,0.055423073
0.25,8.0,0.2,0.0,NaN,NaN,0.056021099
0.25,8.0,0.4,0.0,NaN,NaN,0.083332121
0.25,8.0,0.8,0.0,NaN,NaN,0.06197601
0.25,16.0,0.3,0.0,NaN,NaN,0.046379709
0.25,16.0,0.2,0.0,NaN,NaN,0.033733181
0.25,8.0,0.9,0.0,NaN,NaN,0.035137165
0.125,128.0,0.3,0.0,NaN,NaN,0.039702697
0.25,16.0,0.1,0.0,NaN,NaN,0.04032325
0.25,16.0,0.4,0.0,NaN,NaN,0.031173765
0.25,16.0,0.6,0.0,NaN,NaN,0.031206804
0.25,16.0,0.9,0.0,NaN,NaN,0.032722635
0.25,16.0,0.05,0.0,NaN,NaN,0.049186598
0.25,16.0,0.8,0.0,NaN,NaN,0.02642664
0.25,16.0,0.5,0.0,NaN,NaN,0.038702387
0.25,16.0,1.0,0.0,NaN,NaN,0.031076471
0.125,128.0,0.4,0.0,NaN,NaN,0.031537337
0.125,128.0,0.6,0.0,NaN,NaN,0.032267875
0.25,16.0,0.7,0.0,NaN,NaN,0.064155565
0.125,128.0,0.7,0.0,NaN,NaN,0.028517088
0.125,128.0,0.8,0.0,NaN,NaN,0.022486612
0.25,32.0,0.9,0.0,NaN,NaN,0.026370005
0.25,32.0,1.0,0.0,NaN,NaN,0.028749582
0.25,64.0,0.2,0.0,NaN,NaN,0.0373475
0.25,64.0,0.8,0.0,NaN,NaN,0.034686422
0.25,128.0,0.4,0.0,NaN,NaN,0.051272742
0.25,256.0,0.1,0.0,NaN,NaN,0.033683752
0.25,64.0,0.05,0.0,NaN,NaN,0.42716702
0.25,64.0,0.5,0.0,NaN,NaN,0.369946856
0.25,64.0,0.3,0.0,NaN,NaN,0.408741626
0.25,64.0,0.6,0.0,NaN,NaN,0.417908416
0.25,64.0,1.0,0.0,NaN,NaN,0.420796391
0.25,64.0,0.4,0.0,NaN,NaN,0.43114318
0.25,64.0,0.1,0.0,NaN,NaN,0.47046713
0.25,128.0,0.1,0.0,NaN,NaN,0.436138458
0.25,64.0,0.9,0.0,NaN,NaN,0.479673331
0.25,128.0,0.2,0.0,NaN,NaN,0.36854619
0.25,128.0,0.7,0.0,NaN,NaN,0.443428667
0.25,64.0,0.7,0.0,NaN,NaN,0.421633003
0.25,256.0,0.4,0.0,NaN,NaN,0.461397792
0.25,128.0,1.0,0.0,NaN,NaN,0.387955792
0.25,128.0,0.9,0.0,NaN,NaN,0.388046581
0.25,128.0,0.05,0.0,NaN,NaN,0.365033631
0.25,128.0,0.6,0.0,NaN,NaN,0.347211765
0.25,128.0,0.5,0.0,NaN,NaN,0.394470744
0.25,256.0,0.2,0.0,NaN,NaN,0.376934974
0.25,256.0,0.3,0.0,NaN,NaN,0.413763809
0.25,128.0,0.3,0.0,NaN,NaN,0.440772491
0.25,128.0,0.8,0.0,NaN,NaN,0.313660639
0.25,256.0,0.05,0.0,NaN,NaN,0.426959479
0.25,256.0,0.7,0.0,NaN,NaN,0.377833453
0.25,256.0,0.6,0.0,NaN,NaN,0.377711749
0.25,256.0,0.9,0.0,NaN,NaN,0.350891143
0.25,512.0,0.05,0.0,NaN,NaN,0.203173705
0.25,256.0,0.8,0.0,NaN,NaN,0.019741642
0.25,256.0,1.0,0.0,NaN,NaN,0.019357148
0.125,256.0,0.1,0.0,NaN,NaN,0.032983781
0.25,512.0,0.3,0.0,NaN,NaN,0.021531768
0.25,512.0,0.2,0.0,NaN,NaN,0.019612891
0.25,256.0,0.5,0.0,NaN,NaN,0.021055576
0.25,512.0,0.5,0.0,NaN,NaN,0.022140368
0.25,512.0,1.0,0.0,NaN,NaN,0.021537289
0.25,512.0,0.9,0.0,NaN,NaN,0.021570886
0.25,512.0,0.7,0.0,NaN,NaN,0.087887919
0.25,512.0,0.6,0.0,NaN,NaN,0.070174049
0.5,0.0625,0.1,0.0,NaN,NaN,0.071183753
0.25,512.0,0.4,0.0,NaN,NaN,0.105533811
0.25,512.0,0.1,0.0,NaN,NaN,0.072842321
0.5,0.0625,0.3,0.0,NaN,NaN,0.144364889
0.5,0.0625,0.5,0.0,NaN,NaN,0.232383598
0.5,0.0625,0.8,0.0,NaN,NaN,0.064090464
0.5,0.0625,0.6,0.0,NaN,NaN,0.047903806
0.25,512.0,0.8,0.0,NaN,NaN,0.039495269
0.5,0.0625,0.2,0.0,NaN,NaN,0.039265194
0.5,0.0625,0.05,0.0,NaN,NaN,0.021351154
0.5,0.125,0.1,0.0,NaN,NaN,0.019024093
0.5,0.125,0.4,0.0,NaN,NaN,0.019740883
0.5,0.0625,0.9,0.0,NaN,NaN,0.018436553
0.5,0.25,0.05,0.0,NaN,NaN,0.018728118
0.5,0.125,0.2,0.0,NaN,NaN,0.018505816
0.5,0.0625,0.4,0.0,NaN,NaN,0.018989225
0.5,0.0625,1.0,0.0,NaN,NaN,0.062995049
0.5,0.125,0.8,0.0,NaN,NaN,0.018742488
0.5,0.0625,0.7,0.0,NaN,NaN,0.019475198
0.5,0.125,0.05,0.0,NaN,NaN,0.017821113
0.5,0.125,0.5,0.0,NaN,NaN,0.018916015
0.5,0.125,0.9,0.0,NaN,NaN,0.018438133
0.5,0.125,0.3,0.0,NaN,NaN,0.019779021
0.5,0.25,0.3,0.0,NaN,NaN,0.018757037
0.5,0.125,0.7,0.0,NaN,NaN,0.019564475
0.5,0.25,0.4,0.0,NaN,NaN,0.019024505
0.5,0.125,0.6,0.0,NaN,NaN,0.060185473
0.5,0.25,0.5,0.0,NaN,NaN,0.019655733
0.5,0.125,1.0,0.0,NaN,NaN,0.018263076
0.5,0.25,0.1,0.0,NaN,NaN,0.019257163
0.125,256.0,0.4,0.0,NaN,NaN,0.041104968
0.5,0.25,0.2,0.0,NaN,NaN,0.060700057
0.125,256.0,0.7,0.0,NaN,NaN,0.038221701
0.125,512.0,0.4,0.0,NaN,NaN,0.034260772
0.125,512.0,0.1,0.0,NaN,NaN,0.031993166
0.125,256.0,0.8,0.0,NaN,NaN,0.028767061
0.125,512.0,0.7,0.0,NaN,NaN,0.029274262
0.25,32.0,0.5,0.0,NaN,NaN,0.027846122
0.25,0.0625,0.9,0.0,NaN,NaN,0.031025998
0.125,512.0,0.8,0.0,NaN,NaN,0.031075349
0.25,32.0,0.05,0.0,NaN,NaN,0.031842459
0.25,32.0,0.2,0.0,NaN,NaN,0.030333512
0.25,0.0625,0.7,0.0,NaN,NaN,0.028495047
0.25,32.0,0.4,0.0,NaN,NaN,0.02680111
0.25,0.0625,0.1,0.0,NaN,NaN,0.028828403
0.25,0.0625,0.4,0.0,NaN,NaN,0.026127535
0.25,32.0,0.6,0.0,NaN,NaN,0.026015818
0.25,32.0,0.3,0.0,NaN,NaN,0.025537988
0.25,32.0,0.8,0.0,NaN,NaN,0.029465834
0.25,32.0,0.1,0.0,NaN,NaN,0.025146737
0.25,32.0,0.7,0.0,NaN,NaN,0.024109406
0.5,8.0,0.1,0.0,NaN,NaN,0.024839721
0.5,8.0,1.0,0.0,NaN,NaN,0.028806214
0.5,16.0,0.7,0.0,NaN,NaN,0.031695662
0.5,32.0,0.4,0.0,NaN,NaN,0.037013453
0.5,64.0,0.1,0.0,NaN,NaN,0.050845127
0.5,64.0,0.9,0.0,NaN,NaN,0.041979803
0.5,0.5,1.0,0.0,NaN,NaN,0.448878187
0.5,1.0,0.5,0.0,NaN,NaN,0.403579364
0.5,1.0,0.9,0.0,NaN,NaN,0.433480807
0.5,1.0,0.3,0.0,NaN,NaN,0.525492537
0.5,1.0,0.2,0.0,NaN,NaN,0.494859633
0.5,1.0,0.8,0.0,NaN,NaN,0.590524456
0.5,1.0,0.7,0.0,NaN,NaN,0.518869697
0.5,2.0,0.2,0.0,NaN,NaN,0.468927415
0.5,2.0,0.5,0.0,NaN,NaN,0.446086501
0.5,2.0,0.3,0.0,NaN,NaN,0.444006117
0.5,2.0,0.9,0.0,NaN,NaN,0.315374533
0.5,2.0,0.05,0.0,NaN,NaN,0.259469036
0.5,2.0,0.8,0.0,NaN,NaN,0.342337952
0.5,4.0,0.05,0.0,NaN,NaN,0.340415385
0.5,0.25,0.7,0.0,NaN,NaN,0.368256607
0.5,0.25,0.6,0.0,NaN,NaN,0.368219815
0.5,2.0,0.7,0.0,NaN,NaN,0.390736608
0.5,0.25,0.8,0.0,NaN,NaN,0.394671599
0.5,4.0,0.5,0.0,NaN,NaN,0.369652471
0.5,4.0,0.2,0.0,NaN,NaN,0.367047155
0.5,4.0,0.9,0.0,NaN,NaN,0.392499409
0.5,4.0,0.3,0.0,NaN,NaN,0.494280699
0.5,4.0,0.8,0.0,NaN,NaN,0.491733211
0.5,0.25,0.9,0.0,NaN,NaN,0.439692167
0.5,8.0,0.3,0.0,NaN,NaN,0.41698371
0.5,8.0,0.05,0.0,NaN,NaN,0.353124238
0.5,4.0,0.7,0.0,NaN,NaN,0.426647082
0.5,0.25,1.0,0.0,NaN,NaN,0.352859536
0.5,8.0,0.4,0.0,NaN,NaN,0.336962553
0.5,8.0,0.5,0.0,NaN,NaN,0.341446947
0.5,8.0,0.8,0.0,NaN,NaN,0.254564334
0.5,8.0,0.9,0.0,NaN,NaN,0.281108152
0.5,16.0,0.1,0.0,NaN,NaN,0.320759843
0.5,8.0,0.7,0.0,NaN,NaN,0.285844318
0.5,8.0,0.6,0.0,NaN,NaN,0.273886679
0.5,16.0,0.05,0.0,NaN,NaN,0.223333217
0.5,0.5,0.05,0.0,NaN,NaN,0.225648881
0.5,16.0,0.2,0.0,NaN,NaN,0.22658981
0.5,16.0,0.4,0.0,NaN,NaN,0.175591235
0.5,16.0,0.5,0.0,NaN,NaN,0.14505554
0.5,16.0,0.6,0.0,NaN,NaN,0.407474111
0.5,16.0,0.8,0.0,NaN,NaN,0.489255045
0.5,16.0,0.9,0.0,NaN,NaN,0.523788415
0.5,16.0,0.3,0.0,NaN,NaN,0.560231068
0.5,16.0,1.0,0.0,NaN,NaN,0.460231295
0.5,32.0,0.2,0.0,NaN,NaN,0.364387169
0.5,32.0,0.3,0.0,NaN,NaN,0.371143698
0.5,32.0,0.1,0.0,NaN,NaN,0.474017037
0.5,0.5,0.1,0.0,NaN,NaN,0.488422534
0.5,32.0,0.5,0.0,NaN,NaN,0.423111718
0.5,32.0,0.05,0.0,NaN,NaN,0.244304874
0.5,32.0,0.7,0.0,NaN,NaN,0.331968085
0.5,32.0,0.6,0.0,NaN,NaN,0.331870292
0.5,32.0,1.0,0.0,NaN,NaN,0.371218607
0.5,0.5,0.2,0.0,NaN,NaN,0.386266462
0.5,32.0,0.9,0.0,NaN,NaN,0.398795567
0.5,64.0,0.05,0.0,NaN,NaN,0.376492275
0.5,64.0,0.4,0.0,NaN,NaN,0.364441503
0.5,64.0,0.2,0.0,NaN,NaN,0.339317226
0.5,32.0,0.8,0.0,NaN,NaN,0.358470731
0.5,64.0,0.7,0.0,NaN,NaN,0.21796429
0.5,64.0,0.3,0.0,NaN,NaN,0.282243458
0.5,64.0,0.6,0.0,NaN,NaN,0.367423902
0.5,128.0,0.1,0.0,NaN,NaN,0.419287836
0.5,64.0,0.8,0.0,NaN,NaN,0.349639805
0.5,64.0,0.5,0.0,NaN,NaN,0.325404315
0.5,64.0,1.0,0.0,NaN,NaN,0.416494641
0.5,128.0,0.4,0.0,NaN,NaN,0.41350044
0.5,128.0,0.3,0.0,NaN,NaN,0.33312464
0.5,128.0,0.2,0.0,NaN,NaN,0.422952607
0.5,128.0,0.05,0.0,NaN,NaN,0.439188799
0.5,128.0,0.5,0.0,NaN,NaN,0.314432433
0.5,0.5,0.3,0.0,NaN,NaN,0.349016686
0.5,128.0,0.6,0.0,NaN,NaN,0.326007307
0.5,128.0,0.8,0.0,NaN,NaN,0.290625717
0.5,256.0,0.1,0.0,NaN,NaN,0.287196203
0.5,128.0,0.7,0.0,NaN,NaN,0.196606759
0.5,256.0,0.05,0.0,NaN,NaN,0.173450606
0.5,128.0,1.0,0.0,NaN,NaN,0.18216042
0.5,256.0,0.3,0.0,NaN,NaN,0.08651249
0.5,0.5,0.4,0.0,NaN,NaN,0.083438968
0.5,0.5,0.5,0.0,NaN,NaN,0.076974956
0.5,256.0,0.2,0.0,NaN,NaN,0.020131231
0.5,128.0,0.9,0.0,NaN,NaN,0.020792443
0.5,256.0,0.8,0.0,NaN,NaN,0.037759892
0.5,0.5,0.6,0.0,NaN,NaN,0.03972475
0.5,256.0,0.4,0.0,NaN,NaN,0.161594644
0.5,256.0,0.7,0.0,NaN,NaN,0.158582991
0.5,256.0,0.9,0.0,NaN,NaN,0.251149242
0.5,256.0,0.6,0.0,NaN,NaN,0.379506905
1.0,0.25,0.1,0.0,NaN,NaN,0.032098872
1.0,0.25,0.2,0.0,NaN,NaN,0.038141481
0.5,256.0,0.5,0.0,NaN,NaN,0.205338989
1.0,0.25,0.3,0.0,NaN,NaN,0.039098877
1.0,0.25,0.4,0.0,NaN,NaN,0.011016509
0.5,256.0,1.0,0.0,NaN,NaN,0.139560134
1.0,0.25,0.7,0.0,NaN,NaN,0.029715323
1.0,0.25,1.0,0.0,NaN,NaN,0.025158312
0.5,512.0,0.5,0.0,NaN,NaN,0.149853964
0.5,512.0,0.2,0.0,NaN,NaN,0.189980014
0.5,512.0,0.05,0.0,NaN,NaN,0.102691534
0.5,512.0,0.4,0.0,NaN,NaN,0.100460332
0.5,512.0,0.3,0.0,NaN,NaN,0.052818325
1.0,0.0625,0.1,0.0,NaN,NaN,0.111338709
0.5,512.0,0.1,0.0,NaN,NaN,0.216840757
0.5,512.0,1.0,0.0,NaN,NaN,0.232843631
0.5,512.0,0.7,0.0,NaN,NaN,0.217789001
0.5,0.5,0.7,0.0,NaN,NaN,0.369352326
0.5,512.0,0.6,0.0,NaN,NaN,0.257627297
0.5,512.0,0.8,0.0,NaN,NaN,0.336741421
1.0,0.0625,0.3,0.0,NaN,NaN,0.303040374
1.0,0.0625,0.05,0.0,NaN,NaN,0.320274206
0.5,512.0,0.9,0.0,NaN,NaN,0.315657174
1.0,0.0625,0.2,0.0,NaN,NaN,0.292965732
1.0,0.0625,0.6,0.0,NaN,NaN,0.253827109
1.0,0.0625,0.7,0.0,NaN,NaN,0.242116952
1.0,0.0625,0.8,0.0,NaN,NaN,0.250851941
1.0,0.0625,0.5,0.0,NaN,NaN,0.283346544
0.5,0.5,0.8,0.0,NaN,NaN,0.253108435
1.0,0.0625,0.4,0.0,NaN,NaN,0.234389038
0.5,0.5,0.9,0.0,NaN,NaN,0.284945386
1.0,0.0625,1.0,0.0,NaN,NaN,0.17839175
1.0,0.0625,0.9,0.0,NaN,NaN,0.21361357
1.0,0.125,0.1,0.0,NaN,NaN,0.221379075
1.0,0.125,0.05,0.0,NaN,NaN,0.209553142
1.0,0.125,0.2,0.0,NaN,NaN,0.218010567
1.0,0.125,0.3,0.0,NaN,NaN,0.278535987
0.5,1.0,0.05,0.0,NaN,NaN,0.2946801
0.5,1.0,0.4,0.0,NaN,NaN,0.26534157
0.5,1.0,0.1,0.0,NaN,NaN,0.460812232
0.5,1.0,0.6,0.0,NaN,NaN,0.317098901
1.0,0.25,0.5,0.0,NaN,NaN,0.297339704
0.5,1.0,1.0,0.0,NaN,NaN,0.388615694
1.0,0.25,0.6,0.0,NaN,NaN,0.423379471
0.5,2.0,0.1,0.0,NaN,NaN,0.460597727
1.0,0.25,0.9,0.0,NaN,NaN,0.457233811
1.0,0.25,0.8,0.0,NaN,NaN,0.372450621
1.0,0.5,0.05,0.0,NaN,NaN,0.361666182
1.0,0.5,0.4,0.0,NaN,NaN,0.02372696
1.0,0.5,0.7,0.0,NaN,NaN,0.028698013
1.0,0.5,0.5,0.0,NaN,NaN,0.019722612
1.0,0.5,0.2,0.0,NaN,NaN,0.021149611
1.0,0.5,0.3,0.0,NaN,NaN,0.120437573
1.0,1.0,0.1,0.0,NaN,NaN,0.143330521
1.0,0.5,1.0,0.0,NaN,NaN,0.196435621
1.0,0.5,0.9,0.0,NaN,NaN,0.190836843
1.0,0.5,0.1,0.0,NaN,NaN,0.213750825
1.0,1.0,0.2,0.0,NaN,NaN,0.192948114
1.0,1.0,0.05,0.0,NaN,NaN,0.189377394
1.0,0.5,0.6,0.0,NaN,NaN,0.210317587
1.0,1.0,0.6,0.0,NaN,NaN,0.119066269
1.0,0.5,0.8,0.0,NaN,NaN,0.093457258
1.0,1.0,0.8,0.0,NaN,NaN,0.091932136
1.0,1.0,0.5,0.0,NaN,NaN,0.054742724
1.0,1.0,1.0,0.0,NaN,NaN,0.067267725
1.0,2.0,0.4,0.0,NaN,NaN,0.084134659
1.0,1.0,0.3,0.0,NaN,NaN,0.143496453
1.0,1.0,0.4,0.0,NaN,NaN,0.13597795
1.0,2.0,0.2,0.0,NaN,NaN,0.117362882
1.0,1.0,0.7,0.0,NaN,NaN,0.103275401
1.0,1.0,0.9,0.0,NaN,NaN,0.187891982
1.0,2.0,0.3,0.0,NaN,NaN,0.088769843
0.5,2.0,0.4,0.0,NaN,NaN,0.148999286
1.0,2.0,0.5,0.0,NaN,NaN,0.088474788
1.0,2.0,0.1,0.0,NaN,NaN,0.088304387
1.0,2.0,0.05,0.0,NaN,NaN,0.087254999
1.0,2.0,1.0,0.0,NaN,NaN,0.161599537
1.0,2.0,0.8,0.0,NaN,NaN,0.199727263
1.0,4.0,0.05,0.0,NaN,NaN,0.196318346
1.0,2.0,0.7,0.0,NaN,NaN,0.197788998
1.0,2.0,0.9,0.0,NaN,NaN,0.195776631
1.0,4.0,0.3,0.0,NaN,NaN,0.201676412
1.0,4.0,0.2,0.0,NaN,NaN,0.150100685
1.0,4.0,0.7,0.0,NaN,NaN,0.110735175
0.5,2.0,0.6,0.0,NaN,NaN,0.130421633
1.0,4.0,0.6,0.0,NaN,NaN,0.100496608
1.0,4.0,0.4,0.0,NaN,NaN,0.099696137
1.0,2.0,0.6,0.0,NaN,NaN,0.123946407
1.0,4.0,0.8,0.0,NaN,NaN,0.029199506
1.0,4.0,0.5,0.0,NaN,NaN,0.028121676
0.5,2.0,1.0,0.0,NaN,NaN,0.034769294
1.0,8.0,0.05,0.0,NaN,NaN,0.037463936
1.0,8.0,0.1,0.0,NaN,NaN,0.037012738
1.0,4.0,1.0,0.0,NaN,NaN,0.03553641
1.0,4.0,0.1,0.0,NaN,NaN,0.089583919
1.0,4.0,0.9,0.0,NaN,NaN,0.088936369
1.0,8.0,0.2,0.0,NaN,NaN,0.043371962
0.5,4.0,0.1,0.0,NaN,NaN,0.083628549
0.5,4.0,0.4,0.0,NaN,NaN,0.07144738
0.5,4.0,0.6,0.0,NaN,NaN,0.047629742
0.5,4.0,1.0,0.0,NaN,NaN,0.036484378
0.5,8.0,0.2,0.0,NaN,NaN,0.040463377
1.0,0.125,0.4,0.0,NaN,NaN,0.037292769
1.0,0.125,0.5,0.0,NaN,NaN,0.038181579
1.0,0.125,0.6,0.0,NaN,NaN,0.016761658
1.0,0.25,0.05,0.0,NaN,NaN,0.013401078
1.0,0.125,0.7,0.0,NaN,NaN,0.016900593
1.0,0.125,1.0,0.0,NaN,NaN,0.015940554
1.0,0.125,0.9,0.0,NaN,NaN,0.01522943
1.0,0.125,0.8,0.0,NaN,NaN,0.014613517
1.0,256.0,0.1,0.0,NaN,NaN,0.032332873
1.0,256.0,0.8,0.0,NaN,NaN,0.03397699
1.0,512.0,0.7,0.0,NaN,NaN,0.046038352
2.0,0.0625,0.2,0.0,NaN,NaN,0.033358628
2.0,0.125,0.1,0.0,NaN,NaN,0.042197929
2.0,0.125,0.7,0.0,NaN,NaN,0.036914692
1.0,16.0,1.0,0.0,NaN,NaN,0.632178796
1.0,32.0,0.2,0.0,NaN,NaN,0.603413072
1.0,32.0,0.5,0.0,NaN,NaN,0.540774846
1.0,16.0,0.6,0.0,NaN,NaN,0.607363216
1.0,32.0,0.7,0.0,NaN,NaN,0.505613741
1.0,32.0,0.05,0.0,NaN,NaN,0.539121721
1.0,16.0,0.9,0.0,NaN,NaN,0.471006999
1.0,8.0,0.3,0.0,NaN,NaN,0.469933246
1.0,64.0,0.05,0.0,NaN,NaN,0.391201556
1.0,8.0,0.4,0.0,NaN,NaN,0.434519874
1.0,32.0,0.4,0.0,NaN,NaN,0.387834423
1.0,32.0,0.9,0.0,NaN,NaN,0.327489011
1.0,64.0,0.2,0.0,NaN,NaN,0.31670937
1.0,32.0,1.0,0.0,NaN,NaN,0.39183721
1.0,64.0,0.5,0.0,NaN,NaN,0.334748717
1.0,64.0,0.7,0.0,NaN,NaN,0.396481778
1.0,8.0,0.5,0.0,NaN,NaN,0.380615717
1.0,64.0,0.4,0.0,NaN,NaN,0.402450078
1.0,64.0,1.0,0.0,NaN,NaN,0.390298206
1.0,64.0,0.9,0.0,NaN,NaN,0.440123463
1.0,128.0,0.05,0.0,NaN,NaN,0.452383794
1.0,128.0,0.5,0.0,NaN,NaN,0.353550434
1.0,128.0,0.2,0.0,NaN,NaN,0.381100583
1.0,8.0,0.6,0.0,NaN,NaN,0.371565067
1.0,128.0,0.7,0.0,NaN,NaN,0.375407556
1.0,128.0,0.9,0.0,NaN,NaN,0.34644547
1.0,128.0,0.4,0.0,NaN,NaN,0.317556855
1.0,256.0,0.6,0.0,NaN,NaN,0.317604336
1.0,256.0,0.05,0.0,NaN,NaN,0.226403238
1.0,256.0,0.3,0.0,NaN,NaN,0.330122842
1.0,256.0,0.5,0.0,NaN,NaN,0.258091591
1.0,128.0,1.0,0.0,NaN,NaN,0.251645803
1.0,8.0,0.7,0.0,NaN,NaN,0.37155784
1.0,256.0,0.9,0.0,NaN,NaN,0.466620167
1.0,256.0,0.7,0.0,NaN,NaN,0.27504092
1.0,256.0,0.4,0.0,NaN,NaN,0.274398576
1.0,256.0,1.0,0.0,NaN,NaN,0.393731286
1.0,512.0,0.05,0.0,NaN,NaN,0.370499236
1.0,512.0,0.3,0.0,NaN,NaN,0.332114496
1.0,512.0,0.2,0.0,NaN,NaN,0.355677567
1.0,8.0,0.8,0.0,NaN,NaN,0.434771765
1.0,512.0,0.8,0.0,NaN,NaN,0.47513984
1.0,512.0,0.1,0.0,NaN,NaN,0.42845341
1.0,512.0,0.5,0.0,NaN,NaN,0.504663713
1.0,512.0,1.0,0.0,NaN,NaN,0.468153425
1.0,512.0,0.4,0.0,NaN,NaN,0.473839244
1.0,512.0,0.6,0.0,NaN,NaN,0.293065165
2.0,0.0625,0.05,0.0,NaN,NaN,0.148811435
1.0,8.0,0.9,0.0,NaN,NaN,0.444700281
1.0,512.0,0.9,0.0,NaN,NaN,0.414176131
2.0,0.0625,0.3,0.0,NaN,NaN,0.393774222
2.0,0.0625,0.5,0.0,NaN,NaN,0.394049599
2.0,0.0625,0.4,0.0,NaN,NaN,0.297151726
2.0,0.0625,0.7,0.0,NaN,NaN,0.232995035
2.0,0.0625,0.1,0.0,NaN,NaN,0.220890177
2.0,0.0625,0.8,0.0,NaN,NaN,0.227435714
2.0,0.125,0.05,0.0,NaN,NaN,0.473102664
2.0,0.0625,0.9,0.0,NaN,NaN,0.403917906
2.0,0.125,0.2,0.0,NaN,NaN,0.420088104
2.0,0.125,0.4,0.0,NaN,NaN,0.330376327
2.0,0.0625,0.6,0.0,NaN,NaN,0.330112619
1.0,8.0,1.0,0.0,NaN,NaN,0.24812359
2.0,0.0625,1.0,0.0,NaN,NaN,0.245408544
2.0,0.125,0.5,0.0,NaN,NaN,0.209362162
2.0,0.125,1.0,0.0,NaN,NaN,0.292206169
2.0,0.25,0.1,0.0,NaN,NaN,0.455730535
2.0,0.125,0.6,0.0,NaN,NaN,0.469334306
2.0,0.125,0.3,0.0,NaN,NaN,0.505769278
2.0,0.125,0.8,0.0,NaN,NaN,0.5145828
2.0,0.25,0.2,0.0,NaN,NaN,0.449407818
2.0,0.25,0.4,0.0,NaN,NaN,0.394948408
2.0,0.125,0.9,0.0,NaN,NaN,0.297059916
1.0,16.0,0.05,0.0,NaN,NaN,0.265437357
2.0,0.25,0.6,0.0,NaN,NaN,0.183268823
2.0,0.25,0.05,0.0,NaN,NaN,0.187796383
2.0,0.25,0.3,0.0,NaN,NaN,0.115248544
2.0,0.25,0.9,0.0,NaN,NaN,0.116006153
2.0,0.25,0.5,0.0,NaN,NaN,0.104358858
1.0,16.0,0.1,0.0,NaN,NaN,0.089083801
2.0,0.25,0.8,0.0,NaN,NaN,0.024315632
2.0,0.25,0.7,0.0,NaN,NaN,0.02144194
1.0,16.0,0.2,0.0,NaN,NaN,0.02440391
2.0,0.5,0.5,0.0,NaN,NaN,0.021517799
2.0,0.5,0.2,0.0,NaN,NaN,0.029018833
2.0,0.5,0.05,0.0,NaN,NaN,0.031493543
2.0,0.25,1.0,0.0,NaN,NaN,0.050238488
2.0,0.5,0.1,0.0,NaN,NaN,0.095261644
2.0,0.5,0.4,0.0,NaN,NaN,0.068956468
2.0,0.5,0.3,0.0,NaN,NaN,0.066326036
2.0,0.5,0.8,0.0,NaN,NaN,0.094155209
2.0,1.0,0.05,0.0,NaN,NaN,0.078347468
2.0,0.5,0.9,0.0,NaN,NaN,0.132804538
2.0,0.5,1.0,0.0,NaN,NaN,0.203926904
2.0,0.5,0.7,0.0,NaN,NaN,0.277652548
2.0,1.0,0.3,0.0,NaN,NaN,0.240493774
2.0,0.5,0.6,0.0,NaN,NaN,0.232412481
2.0,1.0,0.1,0.0,NaN,NaN,0.23455703
2.0,1.0,0.5,0.0,NaN,NaN,0.233997254
2.0,1.0,0.7,0.0,NaN,NaN,0.186911305
1.0,16.0,0.3,0.0,NaN,NaN,0.170844394
2.0,1.0,0.6,0.0,NaN,NaN,0.121549142
2.0,1.0,0.2,0.0,NaN,NaN,0.217707793
2.0,1.0,0.4,0.0,NaN,NaN,0.213525942
2.0,2.0,0.3,0.0,NaN,NaN,0.246771687
2.0,1.0,0.8,0.0,NaN,NaN,0.238279313
2.0,2.0,0.05,0.0,NaN,NaN,0.194675787
2.0,1.0,1.0,0.0,NaN,NaN,0.196502655
2.0,1.0,0.9,0.0,NaN,NaN,0.129662322
1.0,16.0,0.4,0.0,NaN,NaN,0.167809996
2.0,2.0,0.1,0.0,NaN,NaN,0.154513006
2.0,2.0,0.4,0.0,NaN,NaN,0.145152975
2.0,2.0,0.6,0.0,NaN,NaN,0.071309986
2.0,2.0,0.9,0.0,NaN,NaN,0.093912819
2.0,2.0,0.2,0.0,NaN,NaN,0.094627514
2.0,2.0,1.0,0.0,NaN,NaN,0.093998505
2.0,2.0,0.7,0.0,NaN,NaN,0.106176931
1.0,16.0,0.5,0.0,NaN,NaN,0.064868015
2.0,2.0,0.8,0.0,NaN,NaN,0.051017734
1.0,16.0,0.7,0.0,NaN,NaN,0.069969298
2.0,2.0,0.5,0.0,NaN,NaN,0.071878433
2.0,4.0,0.05,0.0,NaN,NaN,0.084007344
1.0,16.0,0.8,0.0,NaN,NaN,0.035217342
1.0,32.0,0.1,0.0,NaN,NaN,0.03674302
1.0,32.0,0.3,0.0,NaN,NaN,0.122098101
1.0,32.0,0.6,0.0,NaN,NaN,0.099154393
1.0,32.0,0.8,0.0,NaN,NaN,0.070254132
2.0,8.0,0.1,0.0,NaN,NaN,0.023452849
2.0,8.0,0.3,0.0,NaN,NaN,0.041684073
2.0,8.0,1.0,0.0,NaN,NaN,0.066585101
2.0,16.0,0.6,0.0,NaN,NaN,0.052455519
2.0,32.0,0.3,0.0,NaN,NaN,0.048616788
2.0,64.0,0.05,0.0,NaN,NaN,0.025045647
1.0,64.0,0.1,0.0,NaN,NaN,0.565424002
2.0,8.0,0.2,0.0,NaN,NaN,0.488512516
2.0,8.0,0.5,0.0,NaN,NaN,0.42150565
2.0,8.0,0.4,0.0,NaN,NaN,0.396157725
2.0,8.0,0.9,0.0,NaN,NaN,0.513442274
2.0,8.0,0.8,0.0,NaN,NaN,0.427799423
2.0,8.0,0.6,0.0,NaN,NaN,0.446070362
2.0,16.0,0.1,0.0,NaN,NaN,0.415181499
2.0,16.0,0.05,0.0,NaN,NaN,0.436435338
2.0,16.0,0.5,0.0,NaN,NaN,0.399016335
2.0,8.0,0.7,0.0,NaN,NaN,0.493175974
2.0,16.0,0.2,0.0,NaN,NaN,0.404992042
2.0,16.0,0.7,0.0,NaN,NaN,0.450617148
2.0,16.0,0.4,0.0,NaN,NaN,0.447542413
2.0,16.0,0.9,0.0,NaN,NaN,0.390948848
2.0,16.0,0.8,0.0,NaN,NaN,0.420143281
2.0,16.0,0.3,0.0,NaN,NaN,0.408821077
2.0,16.0,1.0,0.0,NaN,NaN,0.52062589
2.0,32.0,0.2,0.0,NaN,NaN,0.469858492
2.0,32.0,0.6,0.0,NaN,NaN,0.337762091
2.0,32.0,0.05,0.0,NaN,NaN,0.355015345
2.0,32.0,0.5,0.0,NaN,NaN,0.432290471
2.0,32.0,0.1,0.0,NaN,NaN,0.392470526
2.0,32.0,0.4,0.0,NaN,NaN,0.415336568
1.0,64.0,0.3,0.0,NaN,NaN,0.433811841
2.0,32.0,0.7,0.0,NaN,NaN,0.433289413
2.0,64.0,0.2,0.0,NaN,NaN,0.312353225
2.0,32.0,1.0,0.0,NaN,NaN,0.232511738
2.0,32.0,0.8,0.0,NaN,NaN,0.40237559
2.0,32.0,0.9,0.0,NaN,NaN,0.392064881
2.0,64.0,0.4,0.0,NaN,NaN,0.353082229
2.0,64.0,0.9,0.0,NaN,NaN,0.268952087
2.0,64.0,0.3,0.0,NaN,NaN,0.271149584
1.0,64.0,0.6,0.0,NaN,NaN,0.271772631
2.0,64.0,0.1,0.0,NaN,NaN,0.249028966
2.0,64.0,0.7,0.0,NaN,NaN,0.310450256
1.0,64.0,0.8,0.0,NaN,NaN,0.233151295
1.0,128.0,0.3,0.0,NaN,NaN,0.175267761
2.0,64.0,0.5,0.0,NaN,NaN,0.207073618
2.0,64.0,0.6,0.0,NaN,NaN,0.163969162
1.0,128.0,0.6,0.0,NaN,NaN,0.170204337
1.0,128.0,0.1,0.0,NaN,NaN,0.105847006
1.0,256.0,0.2,0.0,NaN,NaN,0.076256136
1.0,128.0,0.8,0.0,NaN,NaN,0.162430217
2.0,128.0,0.5,0.0,NaN,NaN,0.211347949
2.0,64.0,1.0,0.0,NaN,NaN,0.211035044
2.0,128.0,0.3,0.0,NaN,NaN,0.212248203
2.0,64.0,0.8,0.0,NaN,NaN,0.215721871
2.0,128.0,0.05,0.0,NaN,NaN,0.235324713
2.0,128.0,0.1,0.0,NaN,NaN,0.307431424
2.0,128.0,0.2,0.0,NaN,NaN,0.247461404
2.0,256.0,0.1,0.0,NaN,NaN,0.184984138
2.0,128.0,0.4,0.0,NaN,NaN,0.166743944
2.0,128.0,0.9,0.0,NaN,NaN,0.150456528
2.0,128.0,0.6,0.0,NaN,NaN,0.11509235
2.0,128.0,0.7,0.0,NaN,NaN,0.109099397
2.0,128.0,1.0,0.0,NaN,NaN,0.109683387
2.0,128.0,0.8,0.0,NaN,NaN,0.132925395
2.0,256.0,0.8,0.0,NaN,NaN,0.09579736
2.0,256.0,0.05,0.0,NaN,NaN,0.119385373
2.0,256.0,0.2,0.0,NaN,NaN,0.082521952
2.0,512.0,0.4,0.0,NaN,NaN,0.101650567
2.0,256.0,0.3,0.0,NaN,NaN,0.113593497
2.0,256.0,0.6,0.0,NaN,NaN,0.114555909
2.0,256.0,0.4,0.0,NaN,NaN,0.173255374
2.0,256.0,0.5,0.0,NaN,NaN,0.09296558
2.0,256.0,0.7,0.0,NaN,NaN,0.126486053
2.0,256.0,0.9,0.0,NaN,NaN,0.202686859
2.0,256.0,1.0,0.0,NaN,NaN,0.217261362
2.0,512.0,0.3,0.0,NaN,NaN,0.199883286
2.0,512.0,0.2,0.0,NaN,NaN,0.073572154
2.0,512.0,0.1,0.0,NaN,NaN,0.072672988
2.0,512.0,0.5,0.0,NaN,NaN,0.094892998
2.0,512.0,0.05,0.0,NaN,NaN,0.127057888
2.0,512.0,0.6,0.0,NaN,NaN,0.096493666
2.0,512.0,0.9,0.0,NaN,NaN,0.092545472
2.0,512.0,0.7,0.0,NaN,NaN,0.119525283
2.0,512.0,0.8,0.0,NaN,NaN,0.045321731
2.0,512.0,1.0,0.0,NaN,NaN,0.062075965
4.0,0.0625,0.05,0.0,NaN,NaN,0.048302051
4.0,0.0625,0.2,0.0,NaN,NaN,0.082043141
4.0,0.0625,0.1,0.0,NaN,NaN,0.197365802
2.0,4.0,0.1,0.0,NaN,NaN,0.086427808
2.0,4.0,0.2,0.0,NaN,NaN,0.076877134
2.0,4.0,0.4,0.0,NaN,NaN,0.07788478
2.0,4.0,0.3,0.0,NaN,NaN,0.055788494
2.0,4.0,0.5,0.0,NaN,NaN,0.036569009
2.0,4.0,0.6,0.0,NaN,NaN,0.038050194
2.0,4.0,0.7,0.0,NaN,NaN,0.042432098
2.0,4.0,0.8,0.0,NaN,NaN,0.068348707
2.0,4.0,0.9,0.0,NaN,NaN,0.068818147
2.0,4.0,1.0,0.0,NaN,NaN,0.054621032
2.0,8.0,0.05,0.0,NaN,NaN,0.036082902
4.0,2.0,0.2,0.0,NaN,NaN,0.047582888
4.0,2.0,1.0,0.0,NaN,NaN,0.051997879
4.0,4.0,0.7,0.0,NaN,NaN,0.029465927
4.0,8.0,0.4,0.0,NaN,NaN,0.032528008
4.0,16.0,0.1,0.0,NaN,NaN,0.033666089
4.0,16.0,0.9,0.0,NaN,NaN,0.027410086
4.0,0.125,0.6,0.0,NaN,NaN,0.537929567
4.0,0.25,0.05,0.0,NaN,NaN,0.49829397
4.0,0.125,0.9,0.0,NaN,NaN,0.358406058
4.0,0.25,0.2,0.0,NaN,NaN,0.417293166
4.0,0.25,0.5,0.0,NaN,NaN,0.378213396
4.0,0.125,0.8,0.0,NaN,NaN,0.385220411
4.0,0.0625,0.3,0.0,NaN,NaN,0.426428279
4.0,0.25,0.7,0.0,NaN,NaN,0.304427238
4.0,0.25,0.4,0.0,NaN,NaN,0.319649083
4.0,0.5,0.5,0.0,NaN,NaN,0.403422392
4.0,0.25,0.9,0.0,NaN,NaN,0.310892696
4.0,0.0625,0.4,0.0,NaN,NaN,0.30076801
4.0,0.25,0.8,0.0,NaN,NaN,0.305788014
4.0,0.5,0.2,0.0,NaN,NaN,0.303542816
4.0,0.5,0.05,0.0,NaN,NaN,0.297789417
4.0,0.5,0.7,0.0,NaN,NaN,0.382443871
4.0,0.5,0.4,0.0,NaN,NaN,0.364779493
4.0,1.0,0.05,0.0,NaN,NaN,0.402460425
4.0,0.5,0.9,0.0,NaN,NaN,0.421307939
4.0,0.0625,0.5,0.0,NaN,NaN,0.509645157
4.0,0.5,0.8,0.0,NaN,NaN,0.450015176
4.0,1.0,0.5,0.0,NaN,NaN,0.470525627
4.0,1.0,0.2,0.0,NaN,NaN,0.416565831
4.0,1.0,0.7,0.0,NaN,NaN,0.41444668
4.0,0.0625,0.6,0.0,NaN,NaN,0.424412774
4.0,1.0,0.4,0.0,NaN,NaN,0.419711959
4.0,1.0,0.9,0.0,NaN,NaN,0.431841677
4.0,2.0,0.5,0.0,NaN,NaN,0.428966948
4.0,2.0,0.3,0.0,NaN,NaN,0.366916384
4.0,2.0,0.05,0.0,NaN,NaN,0.324733684
4.0,1.0,0.8,0.0,NaN,NaN,0.340658441
4.0,0.0625,0.7,0.0,NaN,NaN,0.287150346
4.0,2.0,0.6,0.0,NaN,NaN,0.321045515
4.0,4.0,0.05,0.0,NaN,NaN,0.340113015
4.0,2.0,0.4,0.0,NaN,NaN,0.31086498
4.0,2.0,0.8,0.0,NaN,NaN,0.361791516
4.0,2.0,0.7,0.0,NaN,NaN,0.425109254
4.0,2.0,0.9,0.0,NaN,NaN,0.361833851
4.0,4.0,0.2,0.0,NaN,NaN,0.376286701
4.0,4.0,0.3,0.0,NaN,NaN,0.424515501
4.0,4.0,0.1,0.0,NaN,NaN,0.367724074
4.0,0.0625,0.8,0.0,NaN,NaN,0.390032463
4.0,4.0,0.8,0.0,NaN,NaN,0.396892573
4.0,4.0,0.4,0.0,NaN,NaN,0.3996038
4.0,4.0,1.0,0.0,NaN,NaN,0.316548379
4.0,4.0,0.5,0.0,NaN,NaN,0.374122914
4.0,4.0,0.6,0.0,NaN,NaN,0.32478083
4.0,4.0,0.9,0.0,NaN,NaN,0.340478518
4.0,8.0,0.05,0.0,NaN,NaN,0.312177366
4.0,0.0625,0.9,0.0,NaN,NaN,0.504637324
4.0,8.0,0.5,0.0,NaN,NaN,0.502091256
4.0,8.0,0.2,0.0,NaN,NaN,0.501777388
4.0,8.0,0.7,0.0,NaN,NaN,0.425983288
4.0,8.0,0.3,0.0,NaN,NaN,0.381534611
4.0,8.0,0.1,0.0,NaN,NaN,0.396611554
4.0,8.0,0.8,0.0,NaN,NaN,0.408381952
4.0,8.0,0.6,0.0,NaN,NaN,0.38772492
4.0,16.0,0.4,0.0,NaN,NaN,0.399362264
4.0,8.0,0.9,0.0,NaN,NaN,0.39746286
4.0,16.0,0.2,0.0,NaN,NaN,0.354843744
4.0,16.0,0.5,0.0,NaN,NaN,0.351235916
4.0,0.0625,1.0,0.0,NaN,NaN,0.336675862
4.0,16.0,0.05,0.0,NaN,NaN,0.313942034
4.0,16.0,0.3,0.0,NaN,NaN,0.383942239
4.0,8.0,1.0,0.0,NaN,NaN,0.422118221
4.0,16.0,0.7,0.0,NaN,NaN,0.279233853
4.0,16.0,1.0,0.0,NaN,NaN,0.387144196
4.0,32.0,0.1,0.0,NaN,NaN,0.361750402
4.0,16.0,0.8,0.0,NaN,NaN,0.412649597
4.0,32.0,0.2,0.0,NaN,NaN,0.289795818
4.0,16.0,0.6,0.0,NaN,NaN,0.29256472
4.0,32.0,0.5,0.0,NaN,NaN,0.072641129
4.0,32.0,0.3,0.0,NaN,NaN,0.025781314
4.0,32.0,0.05,0.0,NaN,NaN,0.045609425
4.0,32.0,0.8,0.0,NaN,NaN,0.052385193
4.0,32.0,0.6,0.0,NaN,NaN,0.058343504
4.0,32.0,0.4,0.0,NaN,NaN,0.085249276
4.0,32.0,0.9,0.0,NaN,NaN,0.061118908
4.0,0.125,0.05,0.0,NaN,NaN,0.065363763
4.0,64.0,0.1,0.0,NaN,NaN,0.068191214
4.0,32.0,0.7,0.0,NaN,NaN,0.16518746
4.0,64.0,0.05,0.0,NaN,NaN,0.163916841
4.0,32.0,1.0,0.0,NaN,NaN,0.147470236
4.0,0.125,0.1,0.0,NaN,NaN,0.139345556
4.0,0.125,0.2,0.0,NaN,NaN,0.110021996
4.0,64.0,0.4,0.0,NaN,NaN,0.103020006
4.0,64.0,0.2,0.0,NaN,NaN,0.101076522
4.0,0.125,0.3,0.0,NaN,NaN,0.108131685
4.0,64.0,0.5,0.0,NaN,NaN,0.087582281
4.0,64.0,0.3,0.0,NaN,NaN,0.115495379
4.0,64.0,0.7,0.0,NaN,NaN,0.2320829
4.0,128.0,0.05,0.0,NaN,NaN,0.218530509
4.0,64.0,0.6,0.0,NaN,NaN,0.219056541
4.0,64.0,0.8,0.0,NaN,NaN,0.217005114
4.0,64.0,1.0,0.0,NaN,NaN,0.232020141
4.0,128.0,0.1,0.0,NaN,NaN,0.232620632
4.0,128.0,0.7,0.0,NaN,NaN,0.158724334
4.0,64.0,0.9,0.0,NaN,NaN,0.196072844
4.0,128.0,0.3,0.0,NaN,NaN,0.209531393
4.0,0.125,0.4,0.0,NaN,NaN,0.222836446
4.0,128.0,0.4,0.0,NaN,NaN,0.208743656
4.0,128.0,0.6,0.0,NaN,NaN,0.11336421
4.0,128.0,0.8,0.0,NaN,NaN,0.154850698
4.0,128.0,0.2,0.0,NaN,NaN,0.183033173
4.0,128.0,0.5,0.0,NaN,NaN,0.173903132
4.0,128.0,0.9,0.0,NaN,NaN,0.126480231
4.0,256.0,0.1,0.0,NaN,NaN,0.121251453
4.0,256.0,0.05,0.0,NaN,NaN,0.121845862
4.0,256.0,0.3,0.0,NaN,NaN,0.16930412
4.0,256.0,0.2,0.0,NaN,NaN,0.136329986
4.0,256.0,0.6,0.0,NaN,NaN,0.217042438
4.0,256.0,0.4,0.0,NaN,NaN,0.260254462
4.0,128.0,1.0,0.0,NaN,NaN,0.246499633
4.0,256.0,1.0,0.0,NaN,NaN,0.249006582
4.0,0.125,0.5,0.0,NaN,NaN,0.227823907
4.0,256.0,0.9,0.0,NaN,NaN,0.161413811
4.0,256.0,0.7,0.0,NaN,NaN,0.096285491
4.0,256.0,0.8,0.0,NaN,NaN,0.048776358
4.0,256.0,0.5,0.0,NaN,NaN,0.070116104
4.0,512.0,0.05,0.0,NaN,NaN,0.052355868
4.0,0.125,0.7,0.0,NaN,NaN,0.07941484
4.0,0.125,1.0,0.0,NaN,NaN,0.051852603
4.0,0.25,0.1,0.0,NaN,NaN,0.138139243
4.0,0.25,0.3,0.0,NaN,NaN,0.136050579
4.0,0.25,0.6,0.0,NaN,NaN,0.058926343
8.0,0.0625,0.05,0.0,NaN,NaN,0.030392957
8.0,0.0625,0.3,0.0,NaN,NaN,0.024864754
8.0,0.0625,0.7,0.0,NaN,NaN,0.028481095
8.0,0.125,0.4,0.0,NaN,NaN,0.032630864
4.0,0.5,0.1,0.0,NaN,NaN,0.5575822
4.0,0.25,1.0,0.0,NaN,NaN,0.59455429
8.0,0.25,0.1,0.0,NaN,NaN,0.038782927
8.0,0.25,0.9,0.0,NaN,NaN,0.031227861
4.0,0.5,0.3,0.0,NaN,NaN,0.517668916
8.0,0.0625,0.2,0.0,NaN,NaN,0.418937369
4.0,0.5,0.6,0.0,NaN,NaN,0.397660562
8.0,0.0625,0.5,0.0,NaN,NaN,0.732744283
8.0,0.125,0.05,0.0,NaN,NaN,0.522879066
8.0,0.0625,0.6,0.0,NaN,NaN,0.550919619
8.0,0.0625,0.4,0.0,NaN,NaN,0.495947623
8.0,0.0625,0.9,0.0,NaN,NaN,0.412107198
8.0,0.125,0.8,0.0,NaN,NaN,0.346019299
8.0,0.125,0.2,0.0,NaN,NaN,0.347105852
4.0,0.5,1.0,0.0,NaN,NaN,0.347694321
8.0,0.125,0.1,0.0,NaN,NaN,0.345778421
8.0,0.0625,1.0,0.0,NaN,NaN,0.348253536
8.0,0.125,0.3,0.0,NaN,NaN,0.251334912
8.0,0.125,0.6,0.0,NaN,NaN,0.111547716
8.0,0.0625,0.8,0.0,NaN,NaN,0.15721166
8.0,0.125,1.0,0.0,NaN,NaN,0.036839164
8.0,0.125,0.7,0.0,NaN,NaN,0.102517429
8.0,0.25,0.05,0.0,NaN,NaN,0.103595921
8.0,0.125,0.9,0.0,NaN,NaN,0.104719818
8.0,0.25,0.3,0.0,NaN,NaN,0.113633883
8.0,0.25,0.6,0.0,NaN,NaN,0.138273712
8.0,0.25,0.5,0.0,NaN,NaN,0.107166266
8.0,0.25,0.7,0.0,NaN,NaN,0.174244554
8.0,0.125,0.5,0.0,NaN,NaN,0.13158088
8.0,0.25,0.8,0.0,NaN,NaN,0.093812559
8.0,0.25,0.4,0.0,NaN,NaN,0.104272423
8.0,0.25,0.2,0.0,NaN,NaN,0.167892341
8.0,0.5,0.05,0.0,NaN,NaN,0.023748346
8.0,0.5,0.5,0.0,NaN,NaN,0.023299999
8.0,0.5,0.1,0.0,NaN,NaN,0.063300207
8.0,0.5,0.2,0.0,NaN,NaN,0.062538753
8.0,0.5,0.4,0.0,NaN,NaN,0.037283437
4.0,1.0,0.1,0.0,NaN,NaN,0.057985443
8.0,0.5,0.3,0.0,NaN,NaN,0.069318094
8.0,0.5,0.8,0.0,NaN,NaN,0.072613863
8.0,1.0,0.05,0.0,NaN,NaN,0.084264578
8.0,0.5,0.9,0.0,NaN,NaN,0.07888029
8.0,1.0,0.1,0.0,NaN,NaN,0.070550915
8.0,0.5,0.7,0.0,NaN,NaN,0.082737721
8.0,1.0,0.8,0.0,NaN,NaN,0.08116042
8.0,1.0,0.7,0.0,NaN,NaN,0.091742764
8.0,1.0,0.4,0.0,NaN,NaN,0.093836481
4.0,1.0,0.3,0.0,NaN,NaN,0.078083658
8.0,0.25,1.0,0.0,NaN,NaN,0.117790554
8.0,0.5,1.0,0.0,NaN,NaN,0.061375227
8.0,1.0,0.5,0.0,NaN,NaN,0.047743022
8.0,1.0,0.6,0.0,NaN,NaN,0.06038477
8.0,2.0,0.3,0.0,NaN,NaN,0.059212118
8.0,2.0,0.05,0.0,NaN,NaN,0.056004521
8.0,2.0,0.4,0.0,NaN,NaN,0.042295531
8.0,0.5,0.6,0.0,NaN,NaN,0.072213658
8.0,1.0,0.3,0.0,NaN,NaN,0.039379177
8.0,1.0,1.0,0.0,NaN,NaN,0.039117873
8.0,1.0,0.2,0.0,NaN,NaN,0.113622667
4.0,1.0,0.6,0.0,NaN,NaN,0.040109107
8.0,2.0,0.1,0.0,NaN,NaN,0.064966011
4.0,1.0,1.0,0.0,NaN,NaN,0.066936972
8.0,2.0,0.2,0.0,NaN,NaN,0.064479259
8.0,4.0,0.05,0.0,NaN,NaN,0.063954742
8.0,2.0,0.8,0.0,NaN,NaN,0.061557084
4.0,2.0,0.1,0.0,NaN,NaN,0.066713755
8.0,2.0,1.0,0.0,NaN,NaN,0.053369897
8.0,2.0,0.7,0.0,NaN,NaN,0.056038498
8.0,1.0,0.9,0.0,NaN,NaN,0.070889408
8.0,2.0,0.6,0.0,NaN,NaN,0.046241649
8.0,2.0,0.9,0.0,NaN,NaN,0.142588975
8.0,4.0,0.7,0.0,NaN,NaN,0.170166371
8.0,4.0,0.2,0.0,NaN,NaN,0.182276163
8.0,4.0,0.6,0.0,NaN,NaN,0.131826451
8.0,4.0,0.3,0.0,NaN,NaN,0.17011595
8.0,8.0,0.2,0.0,NaN,NaN,0.181888228
8.0,8.0,0.1,0.0,NaN,NaN,0.10932804
8.0,4.0,0.4,0.0,NaN,NaN,0.110181935
8.0,4.0,1.0,0.0,NaN,NaN,0.094793385
8.0,4.0,0.5,0.0,NaN,NaN,0.126645316
8.0,4.0,0.9,0.0,NaN,NaN,0.123144713
8.0,2.0,0.5,0.0,NaN,NaN,0.151486928
8.0,8.0,0.05,0.0,NaN,NaN,0.127932122
8.0,4.0,0.1,0.0,NaN,NaN,0.117445187
8.0,8.0,0.3,0.0,NaN,NaN,0.07028266
8.0,4.0,0.8,0.0,NaN,NaN,0.089419622
4.0,512.0,0.1,0.0,NaN,NaN,0.03844699
4.0,512.0,0.2,0.0,NaN,NaN,0.040405199
4.0,512.0,0.3,0.0,NaN,NaN,0.084526334
4.0,512.0,0.4,0.0,NaN,NaN,0.069630459
4.0,512.0,0.5,0.0,NaN,NaN,0.149957159
4.0,512.0,0.7,0.0,NaN,NaN,0.076076281
4.0,512.0,0.6,0.0,NaN,NaN,0.056579774
4.0,512.0,0.8,0.0,NaN,NaN,0.060296736
4.0,512.0,0.9,0.0,NaN,NaN,0.051599493
4.0,512.0,1.0,0.0,NaN,NaN,0.058278489
8.0,0.0625,0.1,0.0,NaN,NaN,0.038122191
8.0,128.0,0.8,0.0,NaN,NaN,0.037836961
8.0,256.0,0.7,0.0,NaN,NaN,0.02166663
8.0,512.0,0.4,0.0,NaN,NaN,0.044517024
16.0,0.0625,0.1,0.0,NaN,NaN,0.027823845
16.0,0.0625,0.9,0.0,NaN,NaN,0.028882559
16.0,0.125,0.6,0.0,NaN,NaN,0.031984484
8.0,32.0,0.1,0.0,NaN,NaN,0.548446899
8.0,32.0,0.2,0.0,NaN,NaN,0.496369355
8.0,16.0,0.7,0.0,NaN,NaN,0.508605134
8.0,32.0,0.5,0.0,NaN,NaN,0.478408914
8.0,16.0,1.0,0.0,NaN,NaN,0.401777195
8.0,8.0,0.4,0.0,NaN,NaN,0.403275057
8.0,32.0,0.05,0.0,NaN,NaN,0.353842863
8.0,64.0,0.2,0.0,NaN,NaN,0.319047169
8.0,32.0,0.8,0.0,NaN,NaN,0.331500111
8.0,32.0,1.0,0.0,NaN,NaN,0.322005503
8.0,8.0,0.5,0.0,NaN,NaN,0.307512401
8.0,32.0,0.6,0.0,NaN,NaN,0.305857891
8.0,64.0,0.1,0.0,NaN,NaN,0.378353072
8.0,64.0,0.05,0.0,NaN,NaN,0.265475913
8.0,64.0,0.8,0.0,NaN,NaN,0.319894288
8.0,64.0,0.5,0.0,NaN,NaN,0.312672289
8.0,8.0,0.6,0.0,NaN,NaN,0.410693732
8.0,64.0,1.0,0.0,NaN,NaN,0.418939609
8.0,64.0,0.6,0.0,NaN,NaN,0.394126215
8.0,128.0,0.2,0.0,NaN,NaN,0.433748824
8.0,128.0,0.1,0.0,NaN,NaN,0.347415895
8.0,128.0,0.9,0.0,NaN,NaN,0.326481314
8.0,128.0,0.05,0.0,NaN,NaN,0.321567529
8.0,128.0,0.5,0.0,NaN,NaN,0.251949336
8.0,8.0,0.7,0.0,NaN,NaN,0.353860606
8.0,128.0,0.6,0.0,NaN,NaN,0.29263225
8.0,256.0,0.05,0.0,NaN,NaN,0.281156155
8.0,256.0,0.2,0.0,NaN,NaN,0.257985783
8.0,256.0,0.5,0.0,NaN,NaN,0.283851321
8.0,256.0,0.1,0.0,NaN,NaN,0.32620148
8.0,256.0,0.3,0.0,NaN,NaN,0.379389304
8.0,256.0,0.8,0.0,NaN,NaN,0.321090715
8.0,8.0,0.8,0.0,NaN,NaN,0.335430479
8.0,512.0,0.05,0.0,NaN,NaN,0.265011401
8.0,256.0,0.6,0.0,NaN,NaN,0.289502305
8.0,256.0,0.9,0.0,NaN,NaN,0.301771002
8.0,512.0,0.2,0.0,NaN,NaN,0.29026756
8.0,512.0,0.5,0.0,NaN,NaN,0.276407301
8.0,256.0,1.0,0.0,NaN,NaN,0.343778854
8.0,512.0,0.1,0.0,NaN,NaN,0.297378444
8.0,8.0,0.9,0.0,NaN,NaN,0.288233095
8.0,512.0,0.3,0.0,NaN,NaN,0.380631313
8.0,512.0,0.6,0.0,NaN,NaN,0.37385386
8.0,512.0,1.0,0.0,NaN,NaN,0.331890543
8.0,512.0,0.7,0.0,NaN,NaN,0.349445595
8.0,512.0,0.8,0.0,NaN,NaN,0.378840866
8.0,512.0,0.9,0.0,NaN,NaN,0.309916909
16.0,0.0625,0.2,0.0,NaN,NaN,0.284401954
16.0,0.0625,0.3,0.0,NaN,NaN,0.33638239
8.0,8.0,1.0,0.0,NaN,NaN,0.410707527
16.0,0.0625,0.05,0.0,NaN,NaN,0.363779447
16.0,0.0625,0.7,0.0,NaN,NaN,0.364305493
16.0,0.0625,0.5,0.0,NaN,NaN,0.250388961
16.0,0.0625,0.4,0.0,NaN,NaN,0.244428376
16.0,0.0625,1.0,0.0,NaN,NaN,0.246190884
16.0,0.125,0.4,0.0,NaN,NaN,0.185777678
16.0,0.0625,0.6,0.0,NaN,NaN,0.230449356
16.0,0.125,0.2,0.0,NaN,NaN,0.280714447
16.0,0.125,0.05,0.0,NaN,NaN,0.298588613
16.0,0.125,0.3,0.0,NaN,NaN,0.369008633
16.0,0.0625,0.8,0.0,NaN,NaN,0.347104612
8.0,16.0,0.05,0.0,NaN,NaN,0.331493043
16.0,0.125,0.1,0.0,NaN,NaN,0.331065339
16.0,0.25,0.1,0.0,NaN,NaN,0.339199014
16.0,0.125,0.7,0.0,NaN,NaN,0.379192955
16.0,0.125,0.5,0.0,NaN,NaN,0.420684613
16.0,0.125,0.8,0.0,NaN,NaN,0.393647373
16.0,0.125,0.9,0.0,NaN,NaN,0.350831448
8.0,16.0,0.1,0.0,NaN,NaN,0.318177372
16.0,0.125,1.0,0.0,NaN,NaN,0.314144769
16.0,0.25,0.05,0.0,NaN,NaN,0.291536688
16.0,0.25,0.2,0.0,NaN,NaN,0.233792548
16.0,0.25,0.3,0.0,NaN,NaN,0.290979873
8.0,16.0,0.2,0.0,NaN,NaN,0.451333939
16.0,0.25,0.8,0.0,NaN,NaN,0.422374783
16.0,0.25,1.0,0.0,NaN,NaN,0.424942693
16.0,0.25,0.4,0.0,NaN,NaN,0.423370229
16.0,0.25,0.5,0.0,NaN,NaN,0.343294345
16.0,0.25,0.6,0.0,NaN,NaN,0.398267693
16.0,0.25,0.9,0.0,NaN,NaN,0.132687096
16.0,0.25,0.7,0.0,NaN,NaN,0.127451962
8.0,16.0,0.3,0.0,NaN,NaN,0.196466106
16.0,0.5,0.6,0.0,NaN,NaN,0.233167824
16.0,0.5,0.1,0.0,NaN,NaN,0.205682196
16.0,0.5,0.4,0.0,NaN,NaN,0.199916528
16.0,0.5,0.3,0.0,NaN,NaN,0.168553168
16.0,1.0,0.2,0.0,NaN,NaN,0.070316015
16.0,0.5,0.05,0.0,NaN,NaN,0.07011307
16.0,0.5,0.2,0.0,NaN,NaN,0.070068386
16.0,0.5,0.5,0.0,NaN,NaN,0.08058268
16.0,0.5,0.8,0.0,NaN,NaN,0.082099074
16.0,0.5,0.7,0.0,NaN,NaN,0.087696364
16.0,1.0,0.05,0.0,NaN,NaN,0.105990722
8.0,16.0,0.4,0.0,NaN,NaN,0.152901966
16.0,0.5,0.9,0.0,NaN,NaN,0.099639068
16.0,1.0,0.3,0.0,NaN,NaN,0.11783559
16.0,0.5,1.0,0.0,NaN,NaN,0.095294695
16.0,1.0,0.1,0.0,NaN,NaN,0.078577116
16.0,1.0,0.4,0.0,NaN,NaN,0.093365931
16.0,1.0,0.9,0.0,NaN,NaN,0.056827375
16.0,1.0,1.0,0.0,NaN,NaN,0.087803405
16.0,1.0,0.7,0.0,NaN,NaN,0.088316087
16.0,1.0,0.6,0.0,NaN,NaN,0.092434111
16.0,2.0,0.05,0.0,NaN,NaN,0.085562362
16.0,1.0,0.8,0.0,NaN,NaN,0.063423892
16.0,2.0,0.3,0.0,NaN,NaN,0.063595461
16.0,1.0,0.5,0.0,NaN,NaN,0.047352369
8.0,16.0,0.5,0.0,NaN,NaN,0.080980591
16.0,2.0,0.1,0.0,NaN,NaN,0.075638264
16.0,2.0,0.2,0.0,NaN,NaN,0.031238855
16.0,2.0,0.5,0.0,NaN,NaN,0.076804866
16.0,2.0,0.4,0.0,NaN,NaN,0.061346588
16.0,2.0,0.6,0.0,NaN,NaN,0.149810434
16.0,4.0,0.05,0.0,NaN,NaN,0.148780501
16.0,2.0,0.7,0.0,NaN,NaN,0.129739491
16.0,2.0,1.0,0.0,NaN,NaN,0.12718173
16.0,2.0,0.9,0.0,NaN,NaN,0.140568635
16.0,2.0,0.8,0.0,NaN,NaN,0.099854027
8.0,16.0,0.6,0.0,NaN,NaN,0.036936998
16.0,4.0,0.1,0.0,NaN,NaN,0.030768126
8.0,16.0,0.8,0.0,NaN,NaN,0.051784217
8.0,16.0,0.9,0.0,NaN,NaN,0.041680277
8.0,32.0,0.3,0.0,NaN,NaN,0.082825002
8.0,32.0,0.4,0.0,NaN,NaN,0.077062832
8.0,32.0,0.7,0.0,NaN,NaN,0.104076604
8.0,32.0,0.9,0.0,NaN,NaN,0.096692204
8.0,64.0,0.3,0.0,NaN,NaN,0.090624969
8.0,64.0,0.4,0.0,NaN,NaN,0.048350013
8.0,64.0,0.7,0.0,NaN,NaN,0.036236163
8.0,64.0,0.9,0.0,NaN,NaN,0.101145873
8.0,128.0,0.3,0.0,NaN,NaN,0.089388754
8.0,128.0,0.4,0.0,NaN,NaN,0.096098287
8.0,128.0,0.7,0.0,NaN,NaN,0.061505235
8.0,128.0,1.0,0.0,NaN,NaN,0.046218352
8.0,256.0,0.4,0.0,NaN,NaN,0.054789209
16.0,8.0,0.7,0.0,NaN,NaN,0.03777609
16.0,8.0,0.9,0.0,NaN,NaN,0.028713488
16.0,16.0,0.3,0.0,NaN,NaN,0.055730792
16.0,16.0,0.8,0.0,NaN,NaN,0.029768345
16.0,32.0,0.6,0.0,NaN,NaN,0.046442546
16.0,64.0,0.2,0.0,NaN,NaN,0.033073864
16.0,4.0,0.9,0.0,NaN,NaN,0.437791925
16.0,8.0,1.0,0.0,NaN,NaN,0.41800137
16.0,4.0,0.4,0.0,NaN,NaN,0.452827207
16.0,16.0,0.1,0.0,NaN,NaN,0.570423515
16.0,16.0,0.2,0.0,NaN,NaN,0.430235354
16.0,8.0,0.3,0.0,NaN,NaN,0.470137284
16.0,4.0,0.2,0.0,NaN,NaN,0.443699735
16.0,16.0,0.6,0.0,NaN,NaN,0.351922231
16.0,4.0,0.3,0.0,NaN,NaN,0.368610555
16.0,16.0,0.5,0.0,NaN,NaN,0.255773564
16.0,16.0,0.7,0.0,NaN,NaN,0.347521218
16.0,32.0,0.05,0.0,NaN,NaN,0.369893795
16.0,16.0,0.9,0.0,NaN,NaN,0.432151101
16.0,8.0,0.8,0.0,NaN,NaN,0.445200486
16.0,4.0,0.5,0.0,NaN,NaN,0.51563971
16.0,32.0,0.1,0.0,NaN,NaN,0.533596124
16.0,32.0,0.2,0.0,NaN,NaN,0.556243645
16.0,16.0,0.05,0.0,NaN,NaN,0.454175939
16.0,32.0,0.3,0.0,NaN,NaN,0.456528384
16.0,32.0,0.4,0.0,NaN,NaN,0.424238173
16.0,32.0,0.8,0.0,NaN,NaN,0.442823891
16.0,4.0,0.6,0.0,NaN,NaN,0.397965352
16.0,64.0,0.1,0.0,NaN,NaN,0.386660238
16.0,64.0,0.05,0.0,NaN,NaN,0.295503396
16.0,32.0,0.5,0.0,NaN,NaN,0.326639379
16.0,32.0,0.9,0.0,NaN,NaN,0.321289332
16.0,32.0,1.0,0.0,NaN,NaN,0.356169728
16.0,4.0,0.7,0.0,NaN,NaN,0.329356152
16.0,64.0,0.5,0.0,NaN,NaN,0.280994551
16.0,64.0,0.9,0.0,NaN,NaN,0.258674771
16.0,128.0,0.1,0.0,NaN,NaN,0.253551569
16.0,64.0,0.8,0.0,NaN,NaN,0.217338014
16.0,64.0,0.7,0.0,NaN,NaN,0.262895383
16.0,128.0,0.5,0.0,NaN,NaN,0.399922869
16.0,64.0,0.3,0.0,NaN,NaN,0.291620915
16.0,64.0,0.6,0.0,NaN,NaN,0.239107431
16.0,16.0,0.4,0.0,NaN,NaN,0.348223772
16.0,4.0,0.8,0.0,NaN,NaN,0.362962768
16.0,128.0,0.3,0.0,NaN,NaN,0.315948655
16.0,128.0,0.4,0.0,NaN,NaN,0.30416666
16.0,128.0,0.8,0.0,NaN,NaN,0.272972588
16.0,128.0,0.2,0.0,NaN,NaN,0.275686998
16.0,256.0,0.1,0.0,NaN,NaN,0.417817367
16.0,64.0,1.0,0.0,NaN,NaN,0.290780982
16.0,16.0,1.0,0.0,NaN,NaN,0.32187582
16.0,128.0,1.0,0.0,NaN,NaN,0.155970645
16.0,256.0,0.4,0.0,NaN,NaN,0.195015472
16.0,4.0,1.0,0.0,NaN,NaN,0.221952058
16.0,256.0,0.05,0.0,NaN,NaN,0.19613227
16.0,256.0,0.8,0.0,NaN,NaN,0.163468299
16.0,128.0,0.9,0.0,NaN,NaN,0.121467203
16.0,128.0,0.6,0.0,NaN,NaN,0.09159497
16.0,8.0,0.05,0.0,NaN,NaN,0.210447146
16.0,512.0,0.4,0.0,NaN,NaN,0.222425474
16.0,256.0,0.7,0.0,NaN,NaN,0.162455269
16.0,256.0,0.6,0.0,NaN,NaN,0.161368229
16.0,32.0,0.7,0.0,NaN,NaN,0.138147002
16.0,512.0,0.05,0.0,NaN,NaN,0.098490215
16.0,256.0,0.2,0.0,NaN,NaN,0.133388201
16.0,512.0,0.3,0.0,NaN,NaN,0.153537927
32.0,0.0625,0.05,0.0,NaN,NaN,0.230191124
16.0,64.0,0.4,0.0,NaN,NaN,0.232599832
16.0,512.0,0.2,0.0,NaN,NaN,0.1014272
16.0,256.0,0.9,0.0,NaN,NaN,0.054903224
16.0,512.0,0.7,0.0,NaN,NaN,0.032765344
16.0,256.0,0.5,0.0,NaN,NaN,0.031374264
32.0,0.0625,0.3,0.0,NaN,NaN,0.034313632
16.0,512.0,1.0,0.0,NaN,NaN,0.031799904
16.0,512.0,0.9,0.0,NaN,NaN,0.032719949
16.0,512.0,0.1,0.0,NaN,NaN,0.033911844
16.0,512.0,0.5,0.0,NaN,NaN,0.035733503
16.0,512.0,0.8,0.0,NaN,NaN,0.019710635
16.0,128.0,0.05,0.0,NaN,NaN,0.019595634
32.0,0.0625,0.4,0.0,NaN,NaN,0.019102137
16.0,8.0,0.1,0.0,NaN,NaN,0.025730869
16.0,128.0,0.7,0.0,NaN,NaN,0.019128626
32.0,0.0625,0.1,0.0,NaN,NaN,0.019654651
16.0,8.0,0.2,0.0,NaN,NaN,0.02384904
16.0,8.0,0.4,0.0,NaN,NaN,0.023853177
16.0,256.0,0.3,0.0,NaN,NaN,0.018931195
16.0,256.0,1.0,0.0,NaN,NaN,0.018565832
32.0,0.0625,0.5,0.0,NaN,NaN,0.020237122
16.0,512.0,0.6,0.0,NaN,NaN,0.019934058
16.0,8.0,0.5,0.0,NaN,NaN,0.022893368
32.0,0.0625,0.2,0.0,NaN,NaN,0.019342425
16.0,8.0,0.6,0.0,NaN,NaN,0.025223459
32.0,2.0,0.2,0.0,NaN,NaN,0.031130839
32.0,2.0,1.0,0.0,NaN,NaN,0.02851058
32.0,4.0,0.7,0.0,NaN,NaN,0.030809693
32.0,8.0,0.4,0.0,NaN,NaN,0.03314994
32.0,16.0,0.1,0.0,NaN,NaN,0.036739913
32.0,16.0,0.9,0.0,NaN,NaN,0.042398622
32.0,0.25,0.2,0.0,NaN,NaN,0.594848511
32.0,0.25,0.3,0.0,NaN,NaN,0.46115953
32.0,0.125,1.0,0.0,NaN,NaN,0.469364215
32.0,0.25,0.9,0.0,NaN,NaN,0.439114647
32.0,0.25,0.4,0.0,NaN,NaN,0.469213911
32.0,0.25,0.5,0.0,NaN,NaN,0.387867868
32.0,0.5,0.2,0.0,NaN,NaN,0.535326114
32.0,0.5,0.4,0.0,NaN,NaN,0.452487576
32.0,0.25,0.8,0.0,NaN,NaN,0.438486715
32.0,0.5,0.3,0.0,NaN,NaN,0.354993643
32.0,0.5,0.5,0.0,NaN,NaN,0.300414607
32.0,0.0625,0.7,0.0,NaN,NaN,0.369093104
32.0,0.5,1.0,0.0,NaN,NaN,0.300000698
32.0,0.25,1.0,0.0,NaN,NaN,0.269153092
32.0,0.5,0.8,0.0,NaN,NaN,0.276122683
32.0,0.0625,0.6,0.0,NaN,NaN,0.331925025
32.0,0.5,0.9,0.0,NaN,NaN,0.277085636
32.0,1.0,0.2,0.0,NaN,NaN,0.26155659
32.0,1.0,0.3,0.0,NaN,NaN,0.326244204
32.0,1.0,0.5,0.0,NaN,NaN,0.392981735
32.0,1.0,0.4,0.0,NaN,NaN,0.331791601
32.0,0.0625,0.8,0.0,NaN,NaN,0.449482785
32.0,1.0,0.8,0.0,NaN,NaN,0.401110183
32.0,0.0625,0.9,0.0,NaN,NaN,0.514580002
32.0,1.0,1.0,0.0,NaN,NaN,0.383141217
32.0,2.0,0.3,0.0,NaN,NaN,0.317095734
32.0,2.0,0.4,0.0,NaN,NaN,0.369235469
32.0,2.0,0.6,0.0,NaN,NaN,0.353332943
32.0,2.0,0.7,0.0,NaN,NaN,0.411334528
32.0,1.0,0.9,0.0,NaN,NaN,0.337534982
32.0,0.0625,1.0,0.0,NaN,NaN,0.438907922
32.0,2.0,0.9,0.0,NaN,NaN,0.344144495
32.0,2.0,0.5,0.0,NaN,NaN,0.406811703
32.0,4.0,0.05,0.0,NaN,NaN,0.278737432
32.0,2.0,0.8,0.0,NaN,NaN,0.336502613
32.0,4.0,0.3,0.0,NaN,NaN,0.419897252
32.0,4.0,0.6,0.0,NaN,NaN,0.284195379
32.0,4.0,0.2,0.0,NaN,NaN,0.292476917
32.0,0.125,0.05,0.0,NaN,NaN,0.341275956
32.0,4.0,0.1,0.0,NaN,NaN,0.210128387
32.0,4.0,0.4,0.0,NaN,NaN,0.178786949
32.0,4.0,0.5,0.0,NaN,NaN,0.17605673
32.0,8.0,0.05,0.0,NaN,NaN,0.335279008
32.0,4.0,1.0,0.0,NaN,NaN,0.37947406
32.0,8.0,0.1,0.0,NaN,NaN,0.384380993
32.0,4.0,0.9,0.0,NaN,NaN,0.386880094
32.0,8.0,0.3,0.0,NaN,NaN,0.371816366
32.0,4.0,0.8,0.0,NaN,NaN,0.281374155
32.0,0.125,0.1,0.0,NaN,NaN,0.273559484
32.0,8.0,0.2,0.0,NaN,NaN,0.223938678
32.0,8.0,0.5,0.0,NaN,NaN,0.561305426
32.0,8.0,0.9,0.0,NaN,NaN,0.501250787
32.0,8.0,0.8,0.0,NaN,NaN,0.455662467
32.0,8.0,0.6,0.0,NaN,NaN,0.438976025
32.0,0.125,0.2,0.0,NaN,NaN,0.440243701
32.0,8.0,0.7,0.0,NaN,NaN,0.424504867
32.0,16.0,0.05,0.0,NaN,NaN,0.219930044
32.0,8.0,1.0,0.0,NaN,NaN,0.207351433
32.0,16.0,0.5,0.0,NaN,NaN,0.481784818
32.0,16.0,0.3,0.0,NaN,NaN,0.457200819
32.0,16.0,0.7,0.0,NaN,NaN,0.445425702
32.0,16.0,0.4,0.0,NaN,NaN,0.444149271
32.0,16.0,0.2,0.0,NaN,NaN,0.223287396
32.0,16.0,0.6,0.0,NaN,NaN,0.099858194
32.0,16.0,0.8,0.0,NaN,NaN,0.125863033
32.0,32.0,0.2,0.0,NaN,NaN,0.115745406
32.0,32.0,0.05,0.0,NaN,NaN,0.11349134
32.0,32.0,0.4,0.0,NaN,NaN,0.114655701
32.0,16.0,1.0,0.0,NaN,NaN,0.119366402
32.0,32.0,0.1,0.0,NaN,NaN,0.150624602
32.0,32.0,0.3,0.0,NaN,NaN,0.019415031
32.0,0.125,0.3,0.0,NaN,NaN,0.028597689
32.0,32.0,1.0,0.0,NaN,NaN,0.02990267
32.0,32.0,0.5,0.0,NaN,NaN,0.038939056
32.0,32.0,0.6,0.0,NaN,NaN,0.044391204
32.0,64.0,0.1,0.0,NaN,NaN,0.055032393
32.0,32.0,0.9,0.0,NaN,NaN,0.085851734
32.0,32.0,0.7,0.0,NaN,NaN,0.118760197
32.0,32.0,0.8,0.0,NaN,NaN,0.180350664
32.0,0.125,0.4,0.0,NaN,NaN,0.11434123
32.0,64.0,0.6,0.0,NaN,NaN,0.122973162
32.0,64.0,0.8,0.0,NaN,NaN,0.113268887
32.0,64.0,0.05,0.0,NaN,NaN,0.174667913
32.0,64.0,0.3,0.0,NaN,NaN,0.206472896
32.0,64.0,0.4,0.0,NaN,NaN,0.294988554
32.0,0.125,0.5,0.0,NaN,NaN,0.281098565
32.0,64.0,0.7,0.0,NaN,NaN,0.190277157
32.0,64.0,0.5,0.0,NaN,NaN,0.142021032
32.0,128.0,0.4,0.0,NaN,NaN,0.120571503
32.0,64.0,0.2,0.0,NaN,NaN,0.196233903
32.0,128.0,0.1,0.0,NaN,NaN,0.194443096
32.0,64.0,1.0,0.0,NaN,NaN,0.194639303
32.0,0.125,0.6,0.0,NaN,NaN,0.1956727
32.0,64.0,0.9,0.0,NaN,NaN,0.194785598
32.0,128.0,0.2,0.0,NaN,NaN,0.170117095
32.0,128.0,0.05,0.0,NaN,NaN,0.159064518
32.0,128.0,0.3,0.0,NaN,NaN,0.128362114
32.0,128.0,0.5,0.0,NaN,NaN,0.206928758
32.0,128.0,0.8,0.0,NaN,NaN,0.181668856
32.0,128.0,1.0,0.0,NaN,NaN,0.138356535
32.0,128.0,0.9,0.0,NaN,NaN,0.177324137
32.0,256.0,0.05,0.0,NaN,NaN,0.105059993
32.0,128.0,0.7,0.0,NaN,NaN,0.148265612
32.0,128.0,0.6,0.0,NaN,NaN,0.126315451
32.0,0.125,0.7,0.0,NaN,NaN,0.241507428
32.0,256.0,0.2,0.0,NaN,NaN,0.223783383
32.0,256.0,0.6,0.0,NaN,NaN,0.21059337
32.0,256.0,0.5,0.0,NaN,NaN,0.212101934
32.0,256.0,0.1,0.0,NaN,NaN,0.220400775
32.0,256.0,0.4,0.0,NaN,NaN,0.134784329
32.0,512.0,0.1,0.0,NaN,NaN,0.143795807
32.0,256.0,0.7,0.0,NaN,NaN,0.14361437
32.0,256.0,0.3,0.0,NaN,NaN,0.17472423
32.0,256.0,0.9,0.0,NaN,NaN,0.131241106
32.0,512.0,0.05,0.0,NaN,NaN,0.105561313
32.0,256.0,0.8,0.0,NaN,NaN,0.09079228
32.0,512.0,0.2,0.0,NaN,NaN,0.054955862
32.0,512.0,0.3,0.0,NaN,NaN,0.063396727
32.0,256.0,1.0,0.0,NaN,NaN,0.071521915
32.0,0.125,0.8,0.0,NaN,NaN,0.060633549
32.0,0.125,0.9,0.0,NaN,NaN,0.069276377
32.0,0.25,0.05,0.0,NaN,NaN,0.071134186
32.0,0.25,0.1,0.0,NaN,NaN,0.073902654
32.0,0.25,0.7,0.0,NaN,NaN,0.050604654
32.0,0.25,0.6,0.0,NaN,NaN,0.038145426
32.0,0.5,0.05,0.0,NaN,NaN,0.046862937
32.0,0.5,0.1,0.0,NaN,NaN,0.046628742
32.0,0.5,0.6,0.0,NaN,NaN,0.254968032
32.0,0.5,0.7,0.0,NaN,NaN,0.244633486
32.0,1.0,0.05,0.0,NaN,NaN,0.233207414
64.0,0.0625,1.0,0.0,NaN,NaN,0.046109212
32.0,1.0,0.1,0.0,NaN,NaN,0.511805096
64.0,0.125,0.7,0.0,NaN,NaN,0.039752163
64.0,0.25,0.4,0.0,NaN,NaN,0.034353308
64.0,0.5,0.1,0.0,NaN,NaN,0.031326873
64.0,0.5,0.9,0.0,NaN,NaN,0.043269537
64.0,1.0,0.6,0.0,NaN,NaN,0.046035376
32.0,1.0,0.6,0.0,NaN,NaN,0.51130359
64.0,0.0625,0.6,0.0,NaN,NaN,0.521938879
64.0,0.0625,0.3,0.0,NaN,NaN,0.58951112
64.0,0.0625,0.8,0.0,NaN,NaN,0.549769927
64.0,0.0625,0.9,0.0,NaN,NaN,0.596327236
64.0,0.125,0.3,0.0,NaN,NaN,0.444469292
64.0,0.125,0.2,0.0,NaN,NaN,0.444637008
32.0,1.0,0.7,0.0,NaN,NaN,0.434263418
64.0,0.125,0.1,0.0,NaN,NaN,0.581432332
32.0,2.0,0.05,0.0,NaN,NaN,0.376563702
64.0,0.125,0.05,0.0,NaN,NaN,0.573405194
64.0,0.125,0.5,0.0,NaN,NaN,0.61624398
64.0,0.125,0.8,0.0,NaN,NaN,0.565204546
64.0,0.125,0.4,0.0,NaN,NaN,0.574002983
64.0,0.125,0.6,0.0,NaN,NaN,0.447343363
64.0,0.125,1.0,0.0,NaN,NaN,0.43957508
32.0,2.0,0.1,0.0,NaN,NaN,0.332050269
64.0,0.25,0.3,0.0,NaN,NaN,0.462865022
64.0,0.25,0.05,0.0,NaN,NaN,0.445783574
64.0,0.25,0.5,0.0,NaN,NaN,0.463978934
64.0,0.125,0.9,0.0,NaN,NaN,0.470643556
64.0,0.25,0.7,0.0,NaN,NaN,0.430601851
64.0,0.25,0.2,0.0,NaN,NaN,0.521321053
64.0,0.25,0.1,0.0,NaN,NaN,0.466903722
64.0,0.25,1.0,0.0,NaN,NaN,0.436492298
64.0,0.25,0.6,0.0,NaN,NaN,0.48293601
64.0,0.5,0.05,0.0,NaN,NaN,0.469059873
64.0,0.5,0.2,0.0,NaN,NaN,0.42969159
64.0,0.25,0.9,0.0,NaN,NaN,0.451754101
64.0,0.25,0.8,0.0,NaN,NaN,0.424769016
64.0,0.5,0.4,0.0,NaN,NaN,0.301602752
64.0,0.5,0.6,0.0,NaN,NaN,0.453582335
64.0,0.5,0.3,0.0,NaN,NaN,0.369440383
64.0,0.5,0.5,0.0,NaN,NaN,0.336110388
64.0,0.5,0.8,0.0,NaN,NaN,0.312655204
64.0,0.5,0.7,0.0,NaN,NaN,0.311438606
64.0,1.0,0.1,0.0,NaN,NaN,0.244476101
64.0,0.5,1.0,0.0,NaN,NaN,0.225329045
64.0,1.0,0.3,0.0,NaN,NaN,0.233908856
64.0,1.0,0.05,0.0,NaN,NaN,0.136507321
64.0,1.0,0.2,0.0,NaN,NaN,0.136960266
64.0,1.0,0.4,0.0,NaN,NaN,0.137789447
64.0,1.0,0.9,0.0,NaN,NaN,0.136821579
64.0,1.0,0.5,0.0,NaN,NaN,0.137975109
64.0,1.0,0.7,0.0,NaN,NaN,0.170256983
64.0,2.0,0.05,0.0,NaN,NaN,0.060828729
64.0,2.0,0.1,0.0,NaN,NaN,0.036418987
64.0,1.0,1.0,0.0,NaN,NaN,0.070423844
64.0,2.0,0.2,0.0,NaN,NaN,0.11518224
64.0,2.0,0.5,0.0,NaN,NaN,0.112470171
64.0,1.0,0.8,0.0,NaN,NaN,0.089036697
64.0,2.0,0.6,0.0,NaN,NaN,0.116042834
64.0,2.0,0.3,0.0,NaN,NaN,0.091991527
64.0,2.0,0.7,0.0,NaN,NaN,0.111299087
64.0,4.0,0.1,0.0,NaN,NaN,0.074616912
64.0,2.0,0.4,0.0,NaN,NaN,0.075846971
64.0,2.0,0.9,0.0,NaN,NaN,0.218223066
64.0,4.0,0.5,0.0,NaN,NaN,0.192289582
64.0,2.0,0.8,0.0,NaN,NaN,0.193001312
64.0,4.0,0.2,0.0,NaN,NaN,0.155137411
64.0,4.0,0.3,0.0,NaN,NaN,0.184986496
64.0,8.0,0.05,0.0,NaN,NaN,0.109247725
64.0,4.0,0.8,0.0,NaN,NaN,0.098067767
64.0,4.0,0.4,0.0,NaN,NaN,0.105128911
64.0,4.0,0.05,0.0,NaN,NaN,0.124403676
64.0,2.0,1.0,0.0,NaN,NaN,0.111889552
64.0,4.0,0.6,0.0,NaN,NaN,0.111724288
64.0,8.0,0.1,0.0,NaN,NaN,0.082316082
64.0,8.0,0.4,0.0,NaN,NaN,0.092268466
64.0,8.0,0.2,0.0,NaN,NaN,0.095410133
64.0,4.0,0.9,0.0,NaN,NaN,0.069950906
64.0,4.0,1.0,0.0,NaN,NaN,0.095025462
64.0,4.0,0.7,0.0,NaN,NaN,0.052339713
32.0,512.0,0.4,0.0,NaN,NaN,0.019238006
64.0,8.0,0.8,0.0,NaN,NaN,0.038628722
64.0,8.0,0.6,0.0,NaN,NaN,0.060230322
64.0,8.0,0.9,0.0,NaN,NaN,0.036785102
64.0,8.0,0.5,0.0,NaN,NaN,0.038017422
64.0,8.0,0.7,0.0,NaN,NaN,0.022150367
64.0,8.0,0.3,0.0,NaN,NaN,0.042087551
64.0,16.0,0.05,0.0,NaN,NaN,0.059675534
64.0,8.0,1.0,0.0,NaN,NaN,0.059713906
32.0,512.0,0.5,0.0,NaN,NaN,0.052082303
64.0,16.0,0.4,0.0,NaN,NaN,0.059673267
64.0,16.0,0.1,0.0,NaN,NaN,0.057251383
64.0,16.0,0.6,0.0,NaN,NaN,0.057602378
64.0,16.0,0.2,0.0,NaN,NaN,0.066776979
64.0,16.0,0.3,0.0,NaN,NaN,0.044123497
64.0,16.0,0.7,0.0,NaN,NaN,0.040339496
64.0,16.0,0.5,0.0,NaN,NaN,0.033462516
64.0,16.0,0.8,0.0,NaN,NaN,0.027716571
32.0,512.0,0.6,0.0,NaN,NaN,0.023656591
32.0,512.0,0.7,0.0,NaN,NaN,0.025173535
32.0,512.0,0.8,0.0,NaN,NaN,0.023949166
32.0,512.0,0.9,0.0,NaN,NaN,0.133167211
32.0,512.0,1.0,0.0,NaN,NaN,0.037410507
64.0,0.0625,0.05,0.0,NaN,NaN,0.071935699
64.0,0.0625,0.1,0.0,NaN,NaN,0.082841926
64.0,0.0625,0.2,0.0,NaN,NaN,0.084530116
64.0,0.0625,0.4,0.0,NaN,NaN,0.084575691
64.0,0.0625,0.5,0.0,NaN,NaN,0.038098103
64.0,0.0625,0.7,0.0,NaN,NaN,0.064175346
64.0,512.0,0.8,0.0,NaN,NaN,0.030031195
128.0,0.0625,0.5,0.0,NaN,NaN,0.042604268
128.0,0.125,0.2,0.0,NaN,NaN,0.032447612
128.0,0.125,1.0,0.0,NaN,NaN,0.030811117
128.0,0.25,0.7,0.0,NaN,NaN,0.030421741
128.0,0.5,0.4,0.0,NaN,NaN,0.043807797
64.0,64.0,0.4,0.0,NaN,NaN,0.61820006
64.0,64.0,1.0,0.0,NaN,NaN,0.529643601
64.0,64.0,0.7,0.0,NaN,NaN,0.455098457
64.0,64.0,0.1,0.0,NaN,NaN,0.526010217
64.0,128.0,0.2,0.0,NaN,NaN,0.526635729
64.0,64.0,0.6,0.0,NaN,NaN,0.567256601
64.0,128.0,0.05,0.0,NaN,NaN,0.461426757
64.0,64.0,0.9,0.0,NaN,NaN,0.484041268
64.0,128.0,0.4,0.0,NaN,NaN,0.454817866
64.0,128.0,0.6,0.0,NaN,NaN,0.391247528
64.0,16.0,0.9,0.0,NaN,NaN,0.475401882
64.0,16.0,1.0,0.0,NaN,NaN,0.390050627
64.0,128.0,1.0,0.0,NaN,NaN,0.321468235
64.0,128.0,0.7,0.0,NaN,NaN,0.335618874
64.0,256.0,0.7,0.0,NaN,NaN,0.298791139
64.0,256.0,0.05,0.0,NaN,NaN,0.391807532
64.0,256.0,0.2,0.0,NaN,NaN,0.352204186
64.0,128.0,0.9,0.0,NaN,NaN,0.360339448
64.0,256.0,0.4,0.0,NaN,NaN,0.42257021
64.0,256.0,0.6,0.0,NaN,NaN,0.366445509
64.0,32.0,0.05,0.0,NaN,NaN,0.516634669
64.0,256.0,1.0,0.0,NaN,NaN,0.469700008
64.0,512.0,0.05,0.0,NaN,NaN,0.416075045
64.0,512.0,0.2,0.0,NaN,NaN,0.401035382
64.0,256.0,0.9,0.0,NaN,NaN,0.434398805
128.0,0.0625,0.05,0.0,NaN,NaN,0.380813634
64.0,32.0,0.1,0.0,NaN,NaN,0.380564974
64.0,512.0,0.7,0.0,NaN,NaN,0.355137117
128.0,0.0625,0.1,0.0,NaN,NaN,0.352959399
64.0,512.0,1.0,0.0,NaN,NaN,0.362785829
64.0,512.0,0.6,0.0,NaN,NaN,0.223707876
64.0,512.0,0.4,0.0,NaN,NaN,0.288616851
64.0,32.0,0.2,0.0,NaN,NaN,0.336210337
64.0,512.0,0.9,0.0,NaN,NaN,0.311284564
128.0,0.0625,0.2,0.0,NaN,NaN,0.283696544
128.0,0.0625,0.8,0.0,NaN,NaN,0.197365609
128.0,0.0625,0.4,0.0,NaN,NaN,0.281730743
64.0,32.0,0.3,0.0,NaN,NaN,0.27406496
128.0,0.0625,0.3,0.0,NaN,NaN,0.333150685
128.0,0.0625,0.7,0.0,NaN,NaN,0.390931805
128.0,0.0625,0.9,0.0,NaN,NaN,0.321612841
128.0,0.0625,0.6,0.0,NaN,NaN,0.334834394
128.0,0.0625,1.0,0.0,NaN,NaN,0.323197101
128.0,0.125,0.4,0.0,NaN,NaN,0.235422915
128.0,0.125,0.6,0.0,NaN,NaN,0.23892814
128.0,0.125,0.05,0.0,NaN,NaN,0.240140559
128.0,0.125,0.5,0.0,NaN,NaN,0.238274058
128.0,0.125,0.1,0.0,NaN,NaN,0.150989589
64.0,32.0,0.4,0.0,NaN,NaN,0.131853305
128.0,0.125,0.3,0.0,NaN,NaN,0.159948042
128.0,0.125,0.7,0.0,NaN,NaN,0.573679192
128.0,0.125,0.8,0.0,NaN,NaN,0.520712706
128.0,0.25,0.2,0.0,NaN,NaN,0.471490907
128.0,0.25,0.3,0.0,NaN,NaN,0.353537589
128.0,0.25,0.1,0.0,NaN,NaN,0.287296698
128.0,0.25,0.05,0.0,NaN,NaN,0.450679709
64.0,32.0,0.5,0.0,NaN,NaN,0.397514926
128.0,0.125,0.9,0.0,NaN,NaN,0.523230925
128.0,0.25,0.4,0.0,NaN,NaN,0.499698199
128.0,0.25,0.5,0.0,NaN,NaN,0.376597316
128.0,0.5,0.05,0.0,NaN,NaN,0.284651052
128.0,0.25,0.9,0.0,NaN,NaN,0.308034429
128.0,0.25,1.0,0.0,NaN,NaN,0.530176996
128.0,0.25,0.8,0.0,NaN,NaN,0.488764379
128.0,0.5,0.8,0.0,NaN,NaN,0.450911316
128.0,0.25,0.6,0.0,NaN,NaN,0.464918725
128.0,0.5,0.6,0.0,NaN,NaN,0.465358131
128.0,0.5,0.5,0.0,NaN,NaN,0.435038568
128.0,0.5,0.2,0.0,NaN,NaN,0.450857509
128.0,0.5,0.1,0.0,NaN,NaN,0.475294069
128.0,0.5,0.7,0.0,NaN,NaN,0.371734243
128.0,0.5,0.9,0.0,NaN,NaN,0.226281635
128.0,0.5,0.3,0.0,NaN,NaN,0.231015465
128.0,1.0,0.3,0.0,NaN,NaN,0.265081004
128.0,0.5,1.0,0.0,NaN,NaN,0.247121352
64.0,32.0,0.6,0.0,NaN,NaN,0.255944437
128.0,1.0,0.4,0.0,NaN,NaN,0.168146516
128.0,1.0,0.05,0.0,NaN,NaN,0.128306786
64.0,32.0,0.7,0.0,NaN,NaN,0.072408857
128.0,1.0,0.2,0.0,NaN,NaN,0.064983595
128.0,1.0,1.0,0.0,NaN,NaN,0.024347408
64.0,32.0,0.8,0.0,NaN,NaN,0.025410649
128.0,1.0,0.7,0.0,NaN,NaN,0.020560102
128.0,1.0,0.1,0.0,NaN,NaN,0.018868585
128.0,1.0,0.6,0.0,NaN,NaN,0.023081982
128.0,2.0,0.05,0.0,NaN,NaN,0.019792613
128.0,1.0,0.5,0.0,NaN,NaN,0.046749084
128.0,1.0,0.9,0.0,NaN,NaN,0.019721196
64.0,32.0,0.9,0.0,NaN,NaN,0.038630583
128.0,1.0,0.8,0.0,NaN,NaN,0.079031522
128.0,2.0,0.5,0.0,NaN,NaN,0.07400977
128.0,2.0,0.2,0.0,NaN,NaN,0.074988285
128.0,2.0,0.7,0.0,NaN,NaN,0.199392881
128.0,2.0,0.1,0.0,NaN,NaN,0.217856824
128.0,2.0,0.3,0.0,NaN,NaN,0.162007097
128.0,2.0,0.6,0.0,NaN,NaN,0.126366784
128.0,2.0,0.4,0.0,NaN,NaN,0.168092209
128.0,2.0,0.9,0.0,NaN,NaN,0.262635634
128.0,2.0,0.8,0.0,NaN,NaN,0.261800427
128.0,4.0,0.05,0.0,NaN,NaN,0.169923112
128.0,4.0,0.3,0.0,NaN,NaN,0.142650804
128.0,4.0,0.1,0.0,NaN,NaN,0.196269731
128.0,4.0,1.0,0.0,NaN,NaN,0.217379849
64.0,32.0,1.0,0.0,NaN,NaN,0.251351884
128.0,4.0,0.7,0.0,NaN,NaN,0.195029951
128.0,4.0,0.8,0.0,NaN,NaN,0.195124016
128.0,2.0,1.0,0.0,NaN,NaN,0.19582462
128.0,4.0,0.5,0.0,NaN,NaN,0.183341941
128.0,4.0,0.2,0.0,NaN,NaN,0.131651537
128.0,4.0,0.6,0.0,NaN,NaN,0.09546222
128.0,4.0,0.9,0.0,NaN,NaN,0.095407985
128.0,4.0,0.4,0.0,NaN,NaN,0.105009898
128.0,8.0,0.3,0.0,NaN,NaN,0.057409058
128.0,8.0,0.1,0.0,NaN,NaN,0.058388051
128.0,8.0,0.5,0.0,NaN,NaN,0.029485142
128.0,8.0,0.4,0.0,NaN,NaN,0.075600946
64.0,64.0,0.05,0.0,NaN,NaN,0.10560418
128.0,8.0,0.2,0.0,NaN,NaN,0.070578499
128.0,8.0,0.05,0.0,NaN,NaN,0.116083388
64.0,64.0,0.2,0.0,NaN,NaN,0.098943363
128.0,8.0,0.6,0.0,NaN,NaN,0.039740214
64.0,64.0,0.5,0.0,NaN,NaN,0.050142379
64.0,64.0,0.8,0.0,NaN,NaN,0.073125226
64.0,64.0,0.3,0.0,NaN,NaN,0.055884661
64.0,128.0,0.3,0.0,NaN,NaN,0.102999973
64.0,128.0,0.1,0.0,NaN,NaN,0.092225829
64.0,128.0,0.5,0.0,NaN,NaN,0.128831189
128.0,16.0,0.8,0.0,NaN,NaN,0.054077438
64.0,128.0,0.8,0.0,NaN,NaN,0.181483301
128.0,32.0,0.05,0.0,NaN,NaN,0.028303204
128.0,32.0,0.8,0.0,NaN,NaN,0.027492569
128.0,64.0,0.5,0.0,NaN,NaN,0.038240607
128.0,128.0,0.2,0.0,NaN,NaN,0.045899592
64.0,256.0,0.1,0.0,NaN,NaN,0.87759163
128.0,128.0,1.0,0.0,NaN,NaN,0.032822067
64.0,256.0,0.3,0.0,NaN,NaN,0.867294624
64.0,256.0,0.5,0.0,NaN,NaN,0.754433946
64.0,256.0,0.8,0.0,NaN,NaN,0.517444477
128.0,16.0,0.9,0.0,NaN,NaN,0.587351911
64.0,512.0,0.1,0.0,NaN,NaN,0.383565258
128.0,32.0,0.2,0.0,NaN,NaN,0.475964197
128.0,16.0,1.0,0.0,NaN,NaN,0.529591724
128.0,32.0,0.4,0.0,NaN,NaN,0.348316764
128.0,32.0,0.6,0.0,NaN,NaN,0.34409842
128.0,32.0,0.1,0.0,NaN,NaN,0.275264137
64.0,512.0,0.3,0.0,NaN,NaN,0.242431808
128.0,32.0,0.5,0.0,NaN,NaN,0.459212522
128.0,32.0,0.3,0.0,NaN,NaN,0.424530325
128.0,32.0,0.7,0.0,NaN,NaN,0.426324447
64.0,512.0,0.5,0.0,NaN,NaN,0.328628755
128.0,32.0,1.0,0.0,NaN,NaN,0.527433413
128.0,32.0,0.9,0.0,NaN,NaN,0.4576362
128.0,64.0,0.1,0.0,NaN,NaN,0.575722868
128.0,64.0,0.4,0.0,NaN,NaN,0.50550486
128.0,64.0,0.3,0.0,NaN,NaN,0.416486815
128.0,64.0,0.05,0.0,NaN,NaN,0.488800485
128.0,64.0,0.9,0.0,NaN,NaN,0.462689388
128.0,64.0,0.2,0.0,NaN,NaN,0.430644659
128.0,64.0,0.6,0.0,NaN,NaN,0.382906261
128.0,64.0,0.7,0.0,NaN,NaN,0.351193662
128.0,128.0,0.1,0.0,NaN,NaN,0.41100738
128.0,64.0,1.0,0.0,NaN,NaN,0.331406115
128.0,128.0,0.05,0.0,NaN,NaN,0.362478946
128.0,64.0,0.8,0.0,NaN,NaN,0.398692129
128.0,128.0,0.4,0.0,NaN,NaN,0.415393402
128.0,128.0,0.5,0.0,NaN,NaN,0.47678577
128.0,128.0,0.6,0.0,NaN,NaN,0.464238795
128.0,128.0,0.3,0.0,NaN,NaN,0.450686497
128.0,128.0,0.8,0.0,NaN,NaN,0.316477819
128.0,128.0,0.7,0.0,NaN,NaN,0.14789055
128.0,256.0,0.3,0.0,NaN,NaN,0.133248802
128.0,128.0,0.9,0.0,NaN,NaN,0.199853556
128.0,256.0,0.05,0.0,NaN,NaN,0.249531765
128.0,256.0,0.5,0.0,NaN,NaN,0.2326954
128.0,256.0,0.6,0.0,NaN,NaN,0.302012788
128.0,256.0,0.2,0.0,NaN,NaN,0.246751599
128.0,256.0,0.4,0.0,NaN,NaN,0.175963985
128.0,256.0,0.1,0.0,NaN,NaN,0.155350648
128.0,256.0,1.0,0.0,NaN,NaN,0.181464103
128.0,256.0,0.7,0.0,NaN,NaN,0.085665621
128.0,256.0,0.9,0.0,NaN,NaN,0.198479644
128.0,512.0,0.1,0.0,NaN,NaN,0.196963665
128.0,256.0,0.8,0.0,NaN,NaN,0.201701077
128.0,512.0,0.05,0.0,NaN,NaN,0.191666421
128.0,512.0,0.6,0.0,NaN,NaN,0.199490095
128.0,512.0,0.2,0.0,NaN,NaN,0.200087593
256.0,0.0625,0.2,0.0,NaN,NaN,0.314255122
128.0,512.0,0.8,0.0,NaN,NaN,0.303830091
128.0,512.0,0.4,0.0,NaN,NaN,0.303614153
128.0,512.0,0.7,0.0,NaN,NaN,0.304376851
128.0,512.0,0.3,0.0,NaN,NaN,0.294865911
128.0,512.0,0.9,0.0,NaN,NaN,0.26929707
128.0,512.0,0.5,0.0,NaN,NaN,0.261737449
256.0,0.0625,0.05,0.0,NaN,NaN,0.20554095
256.0,0.0625,0.1,0.0,NaN,NaN,0.189765342
256.0,0.0625,0.9,0.0,NaN,NaN,0.175293905
256.0,0.0625,0.5,0.0,NaN,NaN,0.225201449
128.0,512.0,1.0,0.0,NaN,NaN,0.225224048
256.0,0.0625,0.4,0.0,NaN,NaN,0.226297383
256.0,0.0625,0.3,0.0,NaN,NaN,0.249334987
256.0,0.125,0.1,0.0,NaN,NaN,0.269256138
256.0,0.0625,0.8,0.0,NaN,NaN,0.243383491
256.0,0.0625,1.0,0.0,NaN,NaN,0.171140147
256.0,0.125,0.5,0.0,NaN,NaN,0.162175062
256.0,0.0625,0.6,0.0,NaN,NaN,0.184116376
256.0,0.0625,0.7,0.0,NaN,NaN,0.135214194
256.0,0.125,0.05,0.0,NaN,NaN,0.104101124
256.0,0.125,0.8,0.0,NaN,NaN,0.133194758
256.0,0.125,0.3,0.0,NaN,NaN,0.133753255
256.0,0.25,0.05,0.0,NaN,NaN,0.097444516
256.0,0.125,0.6,0.0,NaN,NaN,0.100989708
256.0,0.125,0.2,0.0,NaN,NaN,0.099431059
256.0,0.125,0.7,0.0,NaN,NaN,0.101905566
256.0,0.125,0.4,0.0,NaN,NaN,0.12923231
128.0,8.0,0.7,0.0,NaN,NaN,0.147185926
256.0,0.25,0.1,0.0,NaN,NaN,0.108895334
256.0,0.125,1.0,0.0,NaN,NaN,0.104311932
256.0,0.125,0.9,0.0,NaN,NaN,0.079783688
128.0,8.0,0.8,0.0,NaN,NaN,0.103999474
128.0,8.0,0.9,0.0,NaN,NaN,0.075186368
128.0,8.0,1.0,0.0,NaN,NaN,0.08650808
128.0,16.0,0.05,0.0,NaN,NaN,0.060411702
128.0,16.0,0.1,0.0,NaN,NaN,0.042092553
128.0,16.0,0.3,0.0,NaN,NaN,0.022388677
128.0,16.0,0.2,0.0,NaN,NaN,0.01969064
128.0,16.0,0.4,0.0,NaN,NaN,0.022368255
128.0,16.0,0.5,0.0,NaN,NaN,0.023038994
128.0,16.0,0.6,0.0,NaN,NaN,0.023466363
128.0,16.0,0.7,0.0,NaN,NaN,0.024814322
256.0,8.0,0.1,0.0,NaN,NaN,0.032840256
256.0,8.0,0.9,0.0,NaN,NaN,0.038587649
256.0,16.0,0.6,0.0,NaN,NaN,0.039393767
256.0,32.0,0.3,0.0,NaN,NaN,0.039018909
256.0,64.0,0.05,0.0,NaN,NaN,0.047423959
256.0,64.0,0.8,0.0,NaN,NaN,0.034167396
256.0,0.5,0.5,0.0,NaN,NaN,0.379397639
256.0,0.25,0.2,0.0,NaN,NaN,0.369306033
256.0,0.5,1.0,0.0,NaN,NaN,0.431374042
256.0,0.5,0.8,0.0,NaN,NaN,0.280121611
256.0,1.0,0.05,0.0,NaN,NaN,0.365678302
256.0,1.0,0.2,0.0,NaN,NaN,0.364638104
256.0,1.0,0.4,0.0,NaN,NaN,0.463571262
256.0,1.0,1.0,0.0,NaN,NaN,0.406864139
256.0,1.0,0.8,0.0,NaN,NaN,0.49190697
256.0,1.0,0.6,0.0,NaN,NaN,0.40400187
256.0,2.0,0.05,0.0,NaN,NaN,0.41360186
256.0,0.25,0.3,0.0,NaN,NaN,0.367626312
256.0,1.0,0.3,0.0,NaN,NaN,0.366833102
256.0,2.0,0.2,0.0,NaN,NaN,0.349327856
256.0,2.0,0.6,0.0,NaN,NaN,0.368620716
256.0,2.0,1.0,0.0,NaN,NaN,0.387390802
256.0,2.0,0.8,0.0,NaN,NaN,0.352796268
256.0,2.0,0.4,0.0,NaN,NaN,0.403388957
256.0,2.0,0.3,0.0,NaN,NaN,0.410627836
256.0,0.25,0.4,0.0,NaN,NaN,0.404265343
256.0,4.0,0.05,0.0,NaN,NaN,0.417588802
256.0,4.0,0.2,0.0,NaN,NaN,0.450403806
256.0,4.0,0.6,0.0,NaN,NaN,0.463349481
256.0,0.25,0.5,0.0,NaN,NaN,0.389215089
256.0,4.0,0.4,0.0,NaN,NaN,0.538366579
256.0,4.0,0.3,0.0,NaN,NaN,0.409318896
256.0,8.0,0.5,0.0,NaN,NaN,0.464106728
256.0,4.0,0.8,0.0,NaN,NaN,0.383600688
256.0,8.0,0.05,0.0,NaN,NaN,0.41837357
256.0,8.0,0.2,0.0,NaN,NaN,0.346143896
256.0,8.0,0.3,0.0,NaN,NaN,0.335198786
256.0,4.0,1.0,0.0,NaN,NaN,0.219747039
256.0,16.0,0.1,0.0,NaN,NaN,0.286499505
256.0,8.0,0.6,0.0,NaN,NaN,0.429116383
256.0,8.0,0.7,0.0,NaN,NaN,0.381924172
256.0,0.25,0.6,0.0,NaN,NaN,0.402839779
256.0,16.0,0.2,0.0,NaN,NaN,0.34218829
256.0,8.0,0.4,0.0,NaN,NaN,0.284988175
256.0,8.0,1.0,0.0,NaN,NaN,0.242812766
256.0,8.0,0.8,0.0,NaN,NaN,0.366646698
256.0,16.0,0.05,0.0,NaN,NaN,0.368357173
256.0,16.0,1.0,0.0,NaN,NaN,0.488708994
256.0,16.0,0.5,0.0,NaN,NaN,0.547371943
256.0,16.0,0.3,0.0,NaN,NaN,0.511827893
256.0,16.0,0.4,0.0,NaN,NaN,0.513754899
256.0,0.25,0.7,0.0,NaN,NaN,0.45352355
256.0,16.0,0.7,0.0,NaN,NaN,0.350686696
256.0,16.0,0.8,0.0,NaN,NaN,0.353698984
256.0,32.0,0.7,0.0,NaN,NaN,0.495976064
256.0,16.0,0.9,0.0,NaN,NaN,0.466206196
256.0,32.0,0.2,0.0,NaN,NaN,0.518323895
256.0,0.25,0.8,0.0,NaN,NaN,0.475382272
256.0,32.0,0.4,0.0,NaN,NaN,0.420017549
256.0,32.0,0.6,0.0,NaN,NaN,0.409646607
256.0,32.0,0.1,0.0,NaN,NaN,0.209678604
256.0,32.0,0.05,0.0,NaN,NaN,0.184474864
256.0,32.0,0.8,0.0,NaN,NaN,0.366245881
256.0,32.0,0.5,0.0,NaN,NaN,0.313841753
256.0,32.0,1.0,0.0,NaN,NaN,0.335460196
256.0,32.0,0.9,0.0,NaN,NaN,0.280230683
256.0,0.25,0.9,0.0,NaN,NaN,0.222614315
256.0,64.0,0.1,0.0,NaN,NaN,0.179398275
256.0,64.0,0.4,0.0,NaN,NaN,0.102988153
256.0,64.0,0.2,0.0,NaN,NaN,0.280817807
256.0,64.0,0.6,0.0,NaN,NaN,0.5241637
256.0,64.0,0.7,0.0,NaN,NaN,0.52758536
256.0,64.0,0.5,0.0,NaN,NaN,0.489705284
256.0,0.25,1.0,0.0,NaN,NaN,0.546531584
256.0,64.0,0.9,0.0,NaN,NaN,0.430977623
256.0,64.0,0.3,0.0,NaN,NaN,0.397993664
256.0,128.0,0.05,0.0,NaN,NaN,0.111328426
256.0,128.0,0.1,0.0,NaN,NaN,0.142232663
256.0,64.0,1.0,0.0,NaN,NaN,0.108195099
256.0,128.0,0.2,0.0,NaN,NaN,0.05489739
256.0,128.0,0.5,0.0,NaN,NaN,0.052281009
256.0,128.0,0.8,0.0,NaN,NaN,0.059263128
256.0,128.0,0.6,0.0,NaN,NaN,0.051882561
256.0,0.5,0.05,0.0,NaN,NaN,0.057802285
256.0,128.0,0.3,0.0,NaN,NaN,0.052687913
256.0,128.0,0.4,0.0,NaN,NaN,0.066935027
256.0,256.0,0.3,0.0,NaN,NaN,0.062248136
256.0,256.0,0.4,0.0,NaN,NaN,0.060007168
256.0,128.0,0.7,0.0,NaN,NaN,0.080389647
256.0,0.5,0.1,0.0,NaN,NaN,0.08993354
256.0,128.0,1.0,0.0,NaN,NaN,0.11023109
256.0,128.0,0.9,0.0,NaN,NaN,0.10921344
256.0,256.0,0.1,0.0,NaN,NaN,0.089701058
256.0,256.0,0.05,0.0,NaN,NaN,0.104064212
256.0,256.0,0.8,0.0,NaN,NaN,0.127162078
256.0,256.0,0.2,0.0,NaN,NaN,0.129356358
256.0,256.0,0.9,0.0,NaN,NaN,0.127694973
256.0,512.0,0.05,0.0,NaN,NaN,0.126887634
256.0,256.0,0.6,0.0,NaN,NaN,0.126626321
256.0,256.0,0.7,0.0,NaN,NaN,0.151234702
256.0,256.0,0.5,0.0,NaN,NaN,0.09409499
256.0,0.5,0.2,0.0,NaN,NaN,0.172296186
256.0,512.0,0.7,0.0,NaN,NaN,0.146779561
256.0,512.0,0.6,0.0,NaN,NaN,0.142845301
256.0,256.0,1.0,0.0,NaN,NaN,0.141926283
256.0,512.0,0.1,0.0,NaN,NaN,0.142953286
256.0,512.0,0.4,0.0,NaN,NaN,0.146386468
256.0,512.0,0.3,0.0,NaN,NaN,0.170389361
256.0,512.0,0.2,0.0,NaN,NaN,0.087819827
256.0,0.5,0.3,0.0,NaN,NaN,0.104448572
512.0,0.0625,0.05,0.0,NaN,NaN,0.08294346
256.0,512.0,0.5,0.0,NaN,NaN,0.093773323
256.0,512.0,1.0,0.0,NaN,NaN,0.117771732
256.0,512.0,0.8,0.0,NaN,NaN,0.069541908
256.0,512.0,0.9,0.0,NaN,NaN,0.131685451
512.0,0.0625,0.9,0.0,NaN,NaN,0.101071244
512.0,0.0625,0.1,0.0,NaN,NaN,0.100945415
512.0,0.0625,0.3,0.0,NaN,NaN,0.131146212
512.0,0.0625,0.2,0.0,NaN,NaN,0.125399309
512.0,0.0625,0.6,0.0,NaN,NaN,0.143341112
512.0,0.0625,0.7,0.0,NaN,NaN,0.105971497
512.0,0.0625,0.8,0.0,NaN,NaN,0.098739389
256.0,0.5,0.4,0.0,NaN,NaN,0.100816493
512.0,0.0625,0.4,0.0,NaN,NaN,0.083477165
512.0,0.0625,0.5,0.0,NaN,NaN,0.069323084
256.0,0.5,0.6,0.0,NaN,NaN,0.069882104
512.0,0.0625,1.0,0.0,NaN,NaN,0.039937153
256.0,0.5,0.7,0.0,NaN,NaN,0.044132179
256.0,0.5,0.9,0.0,NaN,NaN,0.091614428
256.0,1.0,0.1,0.0,NaN,NaN,0.085274133
256.0,1.0,0.5,0.0,NaN,NaN,0.030541848
256.0,1.0,0.7,0.0,NaN,NaN,0.049302889
256.0,2.0,0.1,0.0,NaN,NaN,0.094306944
256.0,1.0,0.9,0.0,NaN,NaN,0.091957507
256.0,2.0,0.5,0.0,NaN,NaN,0.061175744
256.0,2.0,0.7,0.0,NaN,NaN,0.042686291
256.0,2.0,0.9,0.0,NaN,NaN,0.046036924
256.0,4.0,0.5,0.0,NaN,NaN,0.060658513
256.0,4.0,0.1,0.0,NaN,NaN,0.054280862
256.0,4.0,0.7,0.0,NaN,NaN,0.037562716
256.0,4.0,0.9,0.0,NaN,NaN,0.022346118
512.0,0.5,0.6,0.0,NaN,NaN,0.040969243
512.0,1.0,0.1,0.0,NaN,NaN,0.03120033
512.0,1.0,0.7,0.0,NaN,NaN,0.052451844
512.0,2.0,0.3,0.0,NaN,NaN,0.027348065
512.0,2.0,1.0,0.0,NaN,NaN,0.049168298
512.0,4.0,0.7,0.0,NaN,NaN,0.034097187
512.0,0.125,0.6,0.0,NaN,NaN,0.512024972
512.0,0.125,0.1,0.0,NaN,NaN,0.548364354
512.0,0.25,0.05,0.0,NaN,NaN,0.484479077
512.0,0.125,0.5,0.0,NaN,NaN,0.558538652
512.0,0.125,0.8,0.0,NaN,NaN,0.416157485
512.0,0.25,0.2,0.0,NaN,NaN,0.49221841
512.0,0.25,0.3,0.0,NaN,NaN,0.404709851
512.0,0.25,0.8,0.0,NaN,NaN,0.432405288
512.0,0.25,0.5,0.0,NaN,NaN,0.418375553
512.0,0.5,0.05,0.0,NaN,NaN,0.362566338
512.0,0.25,1.0,0.0,NaN,NaN,0.439184573
512.0,0.5,0.4,0.0,NaN,NaN,0.414379207
512.0,0.5,0.2,0.0,NaN,NaN,0.37334028
512.0,0.5,0.7,0.0,NaN,NaN,0.355685447
512.0,0.5,0.5,0.0,NaN,NaN,0.298965592
512.0,0.5,0.9,0.0,NaN,NaN,0.372452225
512.0,1.0,0.05,0.0,NaN,NaN,0.379002379
512.0,1.0,1.0,0.0,NaN,NaN,0.366316073
512.0,1.0,0.6,0.0,NaN,NaN,0.345910661
512.0,0.5,0.8,0.0,NaN,NaN,0.317840057
512.0,2.0,0.2,0.0,NaN,NaN,0.392355054
512.0,2.0,0.6,0.0,NaN,NaN,0.411908791
512.0,4.0,0.4,0.0,NaN,NaN,0.440354056
512.0,4.0,0.2,0.0,NaN,NaN,0.344957394
512.0,0.5,1.0,0.0,NaN,NaN,0.367812607
512.0,1.0,0.4,0.0,NaN,NaN,0.309522764
512.0,8.0,0.1,0.0,NaN,NaN,0.222303494
512.0,1.0,0.2,0.0,NaN,NaN,0.249011377
512.0,1.0,0.3,0.0,NaN,NaN,0.216609591
512.0,0.125,0.05,0.0,NaN,NaN,0.195014766
512.0,4.0,1.0,0.0,NaN,NaN,0.310405991
512.0,1.0,0.8,0.0,NaN,NaN,0.281441904
512.0,2.0,0.05,0.0,NaN,NaN,0.28203116
512.0,8.0,0.8,0.0,NaN,NaN,0.28961426
512.0,2.0,0.9,0.0,NaN,NaN,0.290400553
512.0,0.125,0.2,0.0,NaN,NaN,0.36383513
512.0,16.0,0.4,0.0,NaN,NaN,0.322307039
512.0,1.0,0.5,0.0,NaN,NaN,0.343821946
512.0,1.0,0.9,0.0,NaN,NaN,0.36573843
512.0,4.0,0.6,0.0,NaN,NaN,0.408535904
512.0,8.0,0.6,0.0,NaN,NaN,0.329074177
512.0,2.0,0.4,0.0,NaN,NaN,0.329984086
512.0,2.0,0.7,0.0,NaN,NaN,0.295481379
512.0,0.125,0.3,0.0,NaN,NaN,0.32916497
512.0,2.0,0.1,0.0,NaN,NaN,0.233538835
512.0,8.0,0.3,0.0,NaN,NaN,0.227342596
512.0,32.0,0.05,0.0,NaN,NaN,0.236444394
512.0,0.125,0.4,0.0,NaN,NaN,0.252152138
512.0,2.0,0.5,0.0,NaN,NaN,0.208613323
512.0,16.0,0.2,0.0,NaN,NaN,0.088579039
512.0,4.0,0.05,0.0,NaN,NaN,0.076788118
512.0,4.0,0.3,0.0,NaN,NaN,0.113685793
512.0,0.125,0.7,0.0,NaN,NaN,0.261434794
512.0,2.0,0.8,0.0,NaN,NaN,0.317248033
512.0,4.0,0.1,0.0,NaN,NaN,0.298810251
512.0,8.0,1.0,0.0,NaN,NaN,0.205454983
512.0,32.0,0.7,0.0,NaN,NaN,0.181032244
512.0,16.0,0.9,0.0,NaN,NaN,0.178594628
512.0,4.0,0.8,0.0,NaN,NaN,0.300098606
512.0,8.0,0.05,0.0,NaN,NaN,0.304439019
512.0,4.0,0.5,0.0,NaN,NaN,0.328359737
512.0,32.0,0.5,0.0,NaN,NaN,0.164031011
512.0,8.0,0.2,0.0,NaN,NaN,0.23048676
512.0,64.0,0.3,0.0,NaN,NaN,0.142240489
512.0,4.0,0.9,0.0,NaN,NaN,0.142659638
512.0,8.0,0.4,0.0,NaN,NaN,0.145651203
512.0,16.0,0.6,0.0,NaN,NaN,0.142583136
512.0,8.0,0.7,0.0,NaN,NaN,0.145653611
512.0,64.0,0.1,0.0,NaN,NaN,0.122036052
512.0,0.125,0.9,0.0,NaN,NaN,0.144839714
512.0,64.0,0.8,0.0,NaN,NaN,0.127484728
512.0,8.0,0.9,0.0,NaN,NaN,0.141234077
512.0,32.0,0.2,0.0,NaN,NaN,0.106546884
512.0,32.0,0.9,0.0,NaN,NaN,0.113148474
512.0,8.0,0.5,0.0,NaN,NaN,0.129969051
512.0,0.125,1.0,0.0,NaN,NaN,0.077836941
512.0,16.0,0.05,0.0,NaN,NaN,0.042273398
512.0,16.0,0.3,0.0,NaN,NaN,0.056391619
512.0,16.0,0.1,0.0,NaN,NaN,0.05519031
512.0,16.0,1.0,0.0,NaN,NaN,0.051478638
512.0,16.0,0.7,0.0,NaN,NaN,0.054404446
512.0,64.0,0.5,0.0,NaN,NaN,0.054936751
512.0,16.0,0.5,0.0,NaN,NaN,0.069997515
512.0,16.0,0.8,0.0,NaN,NaN,0.037595112
512.0,0.25,0.1,0.0,NaN,NaN,0.062618252
512.0,32.0,0.6,0.0,NaN,NaN,0.064665431
512.0,64.0,0.2,0.0,NaN,NaN,0.067607392
512.0,32.0,0.1,0.0,NaN,NaN,0.106050063
512.0,0.25,0.4,0.0,NaN,NaN,0.070541428
512.0,32.0,1.0,0.0,NaN,NaN,0.055900288
512.0,32.0,0.3,0.0,NaN,NaN,0.054570717
512.0,32.0,0.4,0.0,NaN,NaN,0.088426114
512.0,64.0,0.7,0.0,NaN,NaN,0.054699481
512.0,32.0,0.8,0.0,NaN,NaN,0.07742681
512.0,64.0,0.6,0.0,NaN,NaN,0.053018339
512.0,0.25,0.6,0.0,NaN,NaN,0.061050696
512.0,64.0,0.05,0.0,NaN,NaN,0.018203211
512.0,64.0,0.4,0.0,NaN,NaN,0.047660525
512.0,0.25,0.7,0.0,NaN,NaN,0.024930577
512.0,0.5,0.1,0.0,NaN,NaN,0.024562067
512.0,0.25,0.9,0.0,NaN,NaN,0.024268515
512.0,0.5,0.3,0.0,NaN,NaN,0.034205718
512.0,256.0,0.2,0.0,NaN,NaN,0.617426265
512.0,512.0,0.4,0.0,NaN,NaN,0.446766879
512.0,256.0,0.6,0.0,NaN,NaN,0.528736533
512.0,256.0,1.0,0.0,NaN,NaN,0.480132892
512.0,512.0,0.05,0.0,NaN,NaN,0.466681494
512.0,256.0,0.8,0.0,NaN,NaN,0.400640545
512.0,512.0,0.1,0.0,NaN,NaN,0.39314718
512.0,256.0,0.9,0.0,NaN,NaN,0.387398044
512.0,512.0,0.6,0.0,NaN,NaN,0.338187607
512.0,512.0,0.9,0.0,NaN,NaN,0.393856
512.0,64.0,1.0,0.0,NaN,NaN,0.427349948
512.0,64.0,0.9,0.0,NaN,NaN,0.438175899
512.0,512.0,1.0,0.0,NaN,NaN,0.352452416
0.0625,0.0625,0.05,0.0,NaN,NaN,0.471352096
512.0,512.0,0.8,0.0,NaN,NaN,0.46531335
512.0,128.0,0.05,0.0,NaN,NaN,0.497438631
512.0,128.0,0.1,0.0,NaN,NaN,0.407516522
512.0,128.0,0.2,0.0,NaN,NaN,0.396582146
512.0,128.0,0.3,0.0,NaN,NaN,0.314340567
512.0,128.0,0.4,0.0,NaN,NaN,0.342859733
512.0,128.0,0.5,0.0,NaN,NaN,0.306121987
512.0,128.0,0.6,0.0,NaN,NaN,0.065411759
512.0,128.0,0.7,0.0,NaN,NaN,0.255284646
512.0,128.0,0.8,0.0,NaN,NaN,0.203537378
512.0,128.0,0.9,0.0,NaN,NaN,0.064566709
512.0,128.0,1.0,0.0,NaN,NaN,0.085426577
512.0,256.0,0.05,0.0,NaN,NaN,0.038962813
512.0,256.0,0.1,0.0,NaN,NaN,0.049977943
512.0,256.0,0.4,0.0,NaN,NaN,0.030261541
512.0,256.0,0.3,0.0,NaN,NaN,0.053383535
512.0,256.0,0.5,0.0,NaN,NaN,0.112799079
512.0,256.0,0.7,0.0,NaN,NaN,0.111804604
512.0,512.0,0.2,0.0,NaN,NaN,0.071437911
512.0,512.0,0.3,0.0,NaN,NaN,0.037288343
512.0,512.0,0.5,0.0,NaN,NaN,0.039957521
512.0,512.0,0.7,0.0,NaN,NaN,0.035318437
