gamma_s,gamma_h,alpha,weight_h,sensitivity,ppv,fmeasure,time
1.0,1.0,0.1,0.3,0.13333333333333333,0.5,0.2105263157894737,83.357553007
1.0,1.0,0.7,0.3,0.13333333333333333,0.5,0.2105263157894737,80.093538288
1.0,2.0,0.5,0.3,0.31666666666666665,0.6551724137931034,0.42696629213483145,80.246964261
1.0,1.0,0.3,0.3,0.13333333333333333,0.5,0.2105263157894737,80.503997853
1.0,2.0,0.1,0.3,0.31666666666666665,0.6551724137931034,0.42696629213483145,80.130291613
1.0,4.0,0.3,0.3,0.36666666666666664,0.6470588235294118,0.46808510638297873,80.071828326
1.0,8.0,0.1,0.3,0.3333333333333333,0.47619047619047616,0.39215686274509803,80.468089892
1.0,8.0,0.8,0.3,0.26666666666666666,0.2962962962962963,0.28070175438596495,80.621022327
1.0,2.0,0.8,0.3,0.3333333333333333,0.6896551724137931,0.449438202247191,80.232211458
1.0,4.0,0.6,0.3,0.31666666666666665,0.5,0.3877551020408163,80.094589458
1.0,8.0,0.4,0.3,0.31666666666666665,0.3584905660377358,0.336283185840708,80.128886734
1.0,1.0,0.4,0.3,0.13333333333333333,0.5,0.2105263157894737,80.777650738
1.0,2.0,0.2,0.3,0.31666666666666665,0.6551724137931034,0.42696629213483145,80.709290059
1.0,16.0,0.2,0.3,0.31666666666666665,0.35185185185185186,0.33333333333333337,80.18349288
1.0,2.0,0.9,0.3,0.35,0.7241379310344828,0.4719101123595506,81.495694091
1.0,4.0,0.7,0.3,0.31666666666666665,0.5,0.3877551020408163,80.619790403
1.0,8.0,0.5,0.3,0.26666666666666666,0.2962962962962963,0.28070175438596495,80.82468506
1.0,16.0,0.3,0.3,0.2833333333333333,0.288135593220339,0.2857142857142857,80.968804428
1.0,1.0,0.6,0.3,0.13333333333333333,0.5,0.2105263157894737,79.197117743
1.0,1.0,0.2,0.3,0.13333333333333333,0.5,0.2105263157894737,80.720192346
1.0,16.0,0.8,0.3,0.26666666666666666,0.2909090909090909,0.2782608695652174,80.796116558
1.0,1.0,0.8,0.3,0.13333333333333333,0.5,0.2105263157894737,80.738121288
1.0,2.0,0.4,0.3,0.31666666666666665,0.6551724137931034,0.42696629213483145,78.98540601
1.0,1.0,0.5,0.3,0.13333333333333333,0.5,0.2105263157894737,80.882479769
1.0,1.0,0.9,0.3,0.13333333333333333,0.5,0.2105263157894737,80.652269416
1.0,2.0,0.6,0.3,0.31666666666666665,0.6551724137931034,0.42696629213483145,80.725930756
1.0,4.0,0.2,0.3,0.3333333333333333,0.625,0.43478260869565216,79.153929807
1.0,2.0,0.3,0.3,0.31666666666666665,0.6551724137931034,0.42696629213483145,80.983773462
1.0,2.0,0.7,0.3,0.31666666666666665,0.6551724137931034,0.42696629213483145,80.774231105
1.0,4.0,0.4,0.3,0.36666666666666664,0.6470588235294118,0.46808510638297873,81.179788084
1.0,4.0,0.5,0.3,0.35,0.5833333333333334,0.4375,80.718882595
1.0,8.0,0.2,0.3,0.36666666666666664,0.5,0.423076923076923,81.195981069
1.0,16.0,0.7,0.3,0.26666666666666666,0.2909090909090909,0.2782608695652174,80.703393291
1.0,16.0,0.6,0.3,0.26666666666666666,0.2909090909090909,0.2782608695652174,81.195818555
1.0,8.0,0.9,0.3,0.26666666666666666,0.2962962962962963,0.28070175438596495,80.820391849
1.0,16.0,0.1,0.3,0.36666666666666664,0.46808510638297873,0.411214953271028,81.112322429
1.0,8.0,0.3,0.3,0.35,0.4117647058823529,0.37837837837837834,80.703472309
1.0,16.0,0.5,0.3,0.26666666666666666,0.2909090909090909,0.2782608695652174,79.023223809
1.0,4.0,0.9,0.3,0.26666666666666666,0.41025641025641024,0.3232323232323232,78.944857098
1.0,8.0,0.7,0.3,0.26666666666666666,0.2962962962962963,0.28070175438596495,79.258590829
1.0,32.0,0.1,0.3,0.31666666666666665,0.35185185185185186,0.33333333333333337,79.968788891
1.0,16.0,0.4,0.3,0.26666666666666666,0.2909090909090909,0.2782608695652174,81.238465617
1.0,8.0,0.6,0.3,0.26666666666666666,0.2962962962962963,0.28070175438596495,81.270771985
1.0,4.0,0.1,0.3,0.3333333333333333,0.625,0.43478260869565216,80.953120025
1.0,4.0,0.8,0.3,0.31666666666666665,0.5,0.3877551020408163,80.932590881
1.0,32.0,0.3,0.3,0.26666666666666666,0.2909090909090909,0.2782608695652174,80.615955197
1.0,32.0,0.2,0.3,0.26666666666666666,0.2909090909090909,0.2782608695652174,80.664851678
1.0,32.0,0.6,0.3,0.26666666666666666,0.2909090909090909,0.2782608695652174,79.182266784
1.0,32.0,0.4,0.3,0.26666666666666666,0.2909090909090909,0.2782608695652174,80.717618748
1.0,16.0,0.9,0.3,0.26666666666666666,0.2909090909090909,0.2782608695652174,80.679957361
1.0,32.0,0.5,0.3,0.26666666666666666,0.2909090909090909,0.2782608695652174,79.029909425
1.0,32.0,0.7,0.3,0.26666666666666666,0.2909090909090909,0.2782608695652174,85.53039853
1.0,32.0,0.9,0.3,0.26666666666666666,0.2909090909090909,0.2782608695652174,84.722408919
1.0,32.0,0.8,0.3,0.26666666666666666,0.2909090909090909,0.2782608695652174,85.371080377
2.0,1.0,0.1,0.3,0.2833333333333333,0.6538461538461539,0.39534883720930236,84.90681754
2.0,1.0,0.2,0.3,0.2833333333333333,0.6538461538461539,0.39534883720930236,84.59154598
2.0,1.0,0.3,0.3,0.2833333333333333,0.6538461538461539,0.39534883720930236,84.969433944
2.0,1.0,0.4,0.3,0.2833333333333333,0.6538461538461539,0.39534883720930236,80.426665124
2.0,1.0,0.6,0.3,0.2833333333333333,0.6538461538461539,0.39534883720930236,80.160009947
2.0,1.0,0.5,0.3,0.2833333333333333,0.6538461538461539,0.39534883720930236,80.444623062
2.0,2.0,0.9,0.3,0.4666666666666667,0.717948717948718,0.5656565656565657,79.897483424
2.0,1.0,0.8,0.3,0.2833333333333333,0.6538461538461539,0.39534883720930236,80.215278258
2.0,1.0,0.7,0.3,0.2833333333333333,0.6538461538461539,0.39534883720930236,80.24598241
2.0,2.0,0.1,0.3,0.4666666666666667,0.717948717948718,0.5656565656565657,80.477555814
2.0,1.0,0.9,0.3,0.2833333333333333,0.6538461538461539,0.39534883720930236,80.333032731
2.0,2.0,0.3,0.3,0.4666666666666667,0.717948717948718,0.5656565656565657,80.328397794
2.0,2.0,0.2,0.3,0.4666666666666667,0.717948717948718,0.5656565656565657,80.16158995
2.0,2.0,0.5,0.3,0.4666666666666667,0.717948717948718,0.5656565656565657,80.500639819
2.0,2.0,0.4,0.3,0.4666666666666667,0.717948717948718,0.5656565656565657,80.123190124
2.0,2.0,0.7,0.3,0.4666666666666667,0.717948717948718,0.5656565656565657,80.403396873
2.0,2.0,0.6,0.3,0.4666666666666667,0.717948717948718,0.5656565656565657,80.178717357
2.0,4.0,0.1,0.3,0.48333333333333334,0.6904761904761905,0.5686274509803921,80.399536483
2.0,2.0,0.8,0.3,0.4666666666666667,0.717948717948718,0.5656565656565657,80.279510202
2.0,4.0,0.2,0.3,0.48333333333333334,0.6904761904761905,0.5686274509803921,80.295979343
2.0,4.0,0.3,0.3,0.48333333333333334,0.6904761904761905,0.5686274509803921,92.279800673
2.0,4.0,0.4,0.3,0.48333333333333334,0.6904761904761905,0.5686274509803921,87.744711823
2.0,4.0,0.5,0.3,0.5166666666666667,0.7045454545454546,0.5961538461538463,88.723688075
2.0,4.0,0.6,0.3,0.5166666666666667,0.7045454545454546,0.5961538461538463,88.047062729
2.0,4.0,0.7,0.3,0.5,0.6521739130434783,0.5660377358490566,88.289848694
2.0,4.0,0.8,0.3,0.5,0.6521739130434783,0.5660377358490566,89.044063046
2.0,4.0,0.9,0.3,0.5,0.6521739130434783,0.5660377358490566,92.550702398
2.0,8.0,0.1,0.3,0.48333333333333334,0.5918367346938775,0.5321100917431193,88.539015285
2.0,8.0,0.2,0.3,0.48333333333333334,0.5918367346938775,0.5321100917431193,89.051728844
2.0,8.0,0.3,0.3,0.5166666666666667,0.6078431372549019,0.5585585585585585,88.981621293
2.0,8.0,0.4,0.3,0.5,0.5454545454545454,0.5217391304347826,89.64113305
2.0,8.0,0.5,0.3,0.5,0.5172413793103449,0.5084745762711865,89.196166143
2.0,8.0,0.6,0.3,0.5,0.5172413793103449,0.5084745762711865,92.795476548
2.0,8.0,0.7,0.3,0.48333333333333334,0.4915254237288136,0.48739495798319327,89.783861143
2.0,8.0,0.8,0.3,0.4,0.4067796610169492,0.40336134453781514,92.172669786
2.0,8.0,0.9,0.3,0.4,0.4067796610169492,0.40336134453781514,90.856279296
2.0,16.0,0.1,0.3,0.48333333333333334,0.5686274509803921,0.5225225225225224,88.92599494
2.0,16.0,0.2,0.3,0.5,0.5172413793103449,0.5084745762711865,92.310716908
2.0,16.0,0.3,0.3,0.5,0.4918032786885246,0.49586776859504134,90.413728773
2.0,16.0,0.4,0.3,0.4,0.4067796610169492,0.40336134453781514,88.828872923
2.0,16.0,0.5,0.3,0.4,0.4067796610169492,0.40336134453781514,90.753740107
2.0,16.0,0.6,0.3,0.31666666666666665,0.3333333333333333,0.3247863247863248,92.154157712
2.0,16.0,0.7,0.3,0.31666666666666665,0.3333333333333333,0.3247863247863248,89.940873935
2.0,32.0,0.1,0.3,0.5,0.5084745762711864,0.5042016806722689,91.748746707
2.0,16.0,0.8,0.3,0.31666666666666665,0.3333333333333333,0.3247863247863248,91.076459545
2.0,32.0,0.2,0.3,0.5,0.4838709677419355,0.4918032786885246,93.3613253
2.0,16.0,0.9,0.3,0.3,0.3157894736842105,0.3076923076923077,92.409594207
2.0,32.0,0.6,0.3,0.3,0.3157894736842105,0.3076923076923077,79.966059222
2.0,32.0,0.3,0.3,0.31666666666666665,0.3333333333333333,0.3247863247863248,91.502799404
2.0,32.0,0.5,0.3,0.3,0.3157894736842105,0.3076923076923077,93.219471507
2.0,32.0,0.4,0.3,0.31666666666666665,0.3333333333333333,0.3247863247863248,90.68477607
2.0,32.0,0.7,0.3,0.3,0.3157894736842105,0.3076923076923077,92.461398947
4.0,1.0,0.3,0.3,0.5666666666666667,0.723404255319149,0.6355140186915887,81.044694732
2.0,32.0,0.9,0.3,0.3,0.3157894736842105,0.3076923076923077,80.806266594
4.0,8.0,0.2,0.3,0.75,0.7142857142857143,0.7317073170731706,80.214368488
4.0,8.0,0.9,0.3,0.6333333333333333,0.59375,0.6129032258064516,80.158745849
4.0,1.0,0.1,0.3,0.5666666666666667,0.723404255319149,0.6355140186915887,81.120254464
4.0,1.0,0.2,0.3,0.5666666666666667,0.723404255319149,0.6355140186915887,79.367419133
4.0,1.0,0.8,0.3,0.5666666666666667,0.723404255319149,0.6355140186915887,81.006424951
4.0,1.0,0.5,0.3,0.5666666666666667,0.723404255319149,0.6355140186915887,80.967514024
4.0,16.0,0.7,0.3,0.5833333333333334,0.5223880597014925,0.5511811023622046,80.365529045
2.0,32.0,0.8,0.3,0.3,0.3157894736842105,0.3076923076923077,81.080926411
4.0,8.0,0.8,0.3,0.6666666666666666,0.625,0.6451612903225806,80.754548656
4.0,1.0,0.6,0.3,0.5666666666666667,0.723404255319149,0.6355140186915887,80.972842015
4.0,2.0,0.4,0.3,0.7333333333333333,0.7719298245614035,0.7521367521367521,80.879147837
4.0,16.0,0.6,0.3,0.6,0.5294117647058824,0.5625,80.388723281
4.0,1.0,0.7,0.3,0.5666666666666667,0.723404255319149,0.6355140186915887,79.717925763
4.0,32.0,0.5,0.3,0.43333333333333335,0.3880597014925373,0.4094488188976378,81.133243729
4.0,1.0,0.4,0.3,0.5666666666666667,0.723404255319149,0.6355140186915887,81.21369935
4.0,2.0,0.1,0.3,0.7333333333333333,0.7719298245614035,0.7521367521367521,81.034506479
4.0,2.0,0.3,0.3,0.7333333333333333,0.7719298245614035,0.7521367521367521,79.209222979
4.0,2.0,0.2,0.3,0.7333333333333333,0.7719298245614035,0.7521367521367521,80.888601695
8.0,1.0,0.3,0.3,0.6166666666666667,0.74,0.6727272727272727,80.604318347
4.0,1.0,0.9,0.3,0.5666666666666667,0.723404255319149,0.6355140186915887,81.246110079
4.0,2.0,0.6,0.3,0.7333333333333333,0.7719298245614035,0.7521367521367521,80.820061488
4.0,2.0,0.9,0.3,0.7333333333333333,0.7719298245614035,0.7521367521367521,80.888965324
4.0,2.0,0.8,0.3,0.7333333333333333,0.7719298245614035,0.7521367521367521,79.579980035
4.0,32.0,0.4,0.3,0.55,0.4852941176470588,0.5156249999999999,80.536311094
8.0,2.0,0.1,0.3,0.7833333333333333,0.7833333333333333,0.7833333333333333,80.325011567
4.0,4.0,0.5,0.3,0.75,0.7758620689655172,0.7627118644067795,80.791624354
4.0,2.0,0.5,0.3,0.7333333333333333,0.7719298245614035,0.7521367521367521,81.3981673
8.0,1.0,0.2,0.3,0.6166666666666667,0.74,0.6727272727272727,80.549872412
4.0,4.0,0.2,0.3,0.75,0.7758620689655172,0.7627118644067795,80.800850992
4.0,8.0,0.1,0.3,0.75,0.7142857142857143,0.7317073170731706,80.772008522
4.0,2.0,0.7,0.3,0.7333333333333333,0.7719298245614035,0.7521367521367521,81.12809642
8.0,2.0,0.8,0.3,0.7833333333333333,0.7833333333333333,0.7833333333333333,80.335982988
4.0,4.0,0.1,0.3,0.75,0.7758620689655172,0.7627118644067795,80.843472991
8.0,1.0,0.9,0.3,0.6166666666666667,0.74,0.6727272727272727,80.457401846
4.0,4.0,0.3,0.3,0.75,0.7758620689655172,0.7627118644067795,80.860107733
4.0,4.0,0.4,0.3,0.75,0.7758620689655172,0.7627118644067795,80.005233493
4.0,4.0,0.7,0.3,0.7666666666666667,0.7931034482758621,0.7796610169491527,80.988629525
4.0,4.0,0.6,0.3,0.7666666666666667,0.7931034482758621,0.7796610169491527,80.7904583
4.0,4.0,0.8,0.3,0.7666666666666667,0.7931034482758621,0.7796610169491527,80.715022929
8.0,2.0,0.7,0.3,0.7833333333333333,0.7833333333333333,0.7833333333333333,80.21712275
4.0,4.0,0.9,0.3,0.7,0.7241379310344828,0.711864406779661,79.103149879
4.0,8.0,0.7,0.3,0.7,0.6666666666666666,0.6829268292682926,80.716877718
4.0,8.0,0.5,0.3,0.7,0.6666666666666666,0.6829268292682926,80.666384721
4.0,8.0,0.6,0.3,0.7,0.6666666666666666,0.6829268292682926,79.573377026
4.0,8.0,0.4,0.3,0.7666666666666667,0.7301587301587301,0.7479674796747968,80.951061181
4.0,8.0,0.3,0.3,0.75,0.7142857142857143,0.7317073170731706,80.794621263
4.0,16.0,0.5,0.3,0.6333333333333333,0.5588235294117647,0.59375,80.723936124
4.0,16.0,0.3,0.3,0.7,0.6363636363636364,0.6666666666666666,80.845068918
4.0,16.0,0.4,0.3,0.6666666666666666,0.5970149253731343,0.6299212598425197,79.149106007
4.0,16.0,0.2,0.3,0.7666666666666667,0.696969696969697,0.7301587301587302,80.984472369
4.0,32.0,0.3,0.3,0.6,0.5217391304347826,0.5581395348837209,80.66499585
4.0,32.0,0.1,0.3,0.7666666666666667,0.6764705882352942,0.71875,80.801271006
4.0,32.0,0.2,0.3,0.7,0.6176470588235294,0.65625,79.085859519
4.0,16.0,0.9,0.3,0.43333333333333335,0.3939393939393939,0.4126984126984127,80.829464851
4.0,16.0,0.1,0.3,0.75,0.6818181818181818,0.7142857142857143,80.6347602
4.0,32.0,0.7,0.3,0.31666666666666665,0.3275862068965517,0.3220338983050847,81.109064367
8.0,1.0,0.1,0.3,0.6166666666666667,0.74,0.6727272727272727,80.648313654
4.0,16.0,0.8,0.3,0.43333333333333335,0.3939393939393939,0.4126984126984127,81.281174677
4.0,32.0,0.8,0.3,0.31666666666666665,0.3275862068965517,0.3220338983050847,80.917858911
4.0,32.0,0.9,0.3,0.31666666666666665,0.3275862068965517,0.3220338983050847,79.026422727
8.0,1.0,0.5,0.3,0.6166666666666667,0.74,0.6727272727272727,80.841179433
8.0,1.0,0.7,0.3,0.6166666666666667,0.74,0.6727272727272727,78.970899208
8.0,1.0,0.6,0.3,0.6166666666666667,0.74,0.6727272727272727,80.78338584
8.0,1.0,0.8,0.3,0.6166666666666667,0.74,0.6727272727272727,80.900299808
8.0,2.0,0.4,0.3,0.7833333333333333,0.7833333333333333,0.7833333333333333,80.668551557
4.0,32.0,0.6,0.3,0.31666666666666665,0.3275862068965517,0.3220338983050847,80.725678624
8.0,2.0,0.5,0.3,0.7833333333333333,0.7833333333333333,0.7833333333333333,79.083817524
8.0,2.0,0.6,0.3,0.7833333333333333,0.7833333333333333,0.7833333333333333,80.795297125
8.0,4.0,0.2,0.3,0.8,0.7868852459016393,0.7933884297520661,80.877857661
8.0,1.0,0.4,0.3,0.6166666666666667,0.74,0.6727272727272727,80.855156077
8.0,4.0,0.4,0.3,0.8,0.7868852459016393,0.7933884297520661,81.134195423
8.0,4.0,0.3,0.3,0.8,0.7868852459016393,0.7933884297520661,79.374995917
8.0,4.0,0.7,0.3,0.8,0.7868852459016393,0.7933884297520661,80.678353692
8.0,2.0,0.3,0.3,0.7833333333333333,0.7833333333333333,0.7833333333333333,80.613147024
8.0,4.0,0.1,0.3,0.8,0.7868852459016393,0.7933884297520661,80.71812801
8.0,4.0,0.9,0.3,0.8,0.7868852459016393,0.7933884297520661,80.834319513
8.0,2.0,0.2,0.3,0.7833333333333333,0.7833333333333333,0.7833333333333333,80.886059782
8.0,4.0,0.6,0.3,0.8,0.7868852459016393,0.7933884297520661,80.591690263
8.0,2.0,0.9,0.3,0.7833333333333333,0.7833333333333333,0.7833333333333333,80.721359684
8.0,4.0,0.8,0.3,0.8,0.7868852459016393,0.7933884297520661,79.247942786
8.0,8.0,0.3,0.3,0.8,0.7272727272727273,0.761904761904762,80.607117196
8.0,4.0,0.5,0.3,0.8,0.7868852459016393,0.7933884297520661,81.155644967
8.0,8.0,0.2,0.3,0.8,0.7272727272727273,0.761904761904762,80.949652179
8.0,8.0,0.5,0.3,0.8,0.7272727272727273,0.761904761904762,78.943872164
8.0,8.0,0.4,0.3,0.8,0.7272727272727273,0.761904761904762,79.189606871
8.0,8.0,0.1,0.3,0.8,0.7272727272727273,0.761904761904762,80.886302253
8.0,8.0,0.6,0.3,0.8166666666666667,0.7424242424242424,0.7777777777777778,84.956345664
8.0,8.0,0.7,0.3,0.8166666666666667,0.7424242424242424,0.7777777777777778,84.254071738
8.0,8.0,0.8,0.3,0.8166666666666667,0.7424242424242424,0.7777777777777778,84.840832827
8.0,8.0,0.9,0.3,0.75,0.6818181818181818,0.7142857142857143,84.799319283
8.0,16.0,0.1,0.3,0.8,0.7164179104477612,0.7559055118110236,84.503785386
8.0,16.0,0.2,0.3,0.8,0.7164179104477612,0.7559055118110236,84.804260926
8.0,16.0,0.4,0.3,0.8166666666666667,0.7313432835820896,0.7716535433070867,80.121598928
8.0,16.0,0.3,0.3,0.8,0.7164179104477612,0.7559055118110236,80.2030402
8.0,16.0,0.6,0.3,0.75,0.6716417910447762,0.7086614173228347,80.17207214
8.0,16.0,0.5,0.3,0.75,0.6716417910447762,0.7086614173228347,80.747027772
16.0,1.0,0.1,0.3,0.5833333333333334,0.6481481481481481,0.6140350877192983,80.16337839
8.0,16.0,0.8,0.3,0.65,0.5652173913043478,0.6046511627906976,80.378852869
8.0,32.0,0.1,0.3,0.8,0.7164179104477612,0.7559055118110236,80.389921727
8.0,16.0,0.7,0.3,0.75,0.6716417910447762,0.7086614173228347,80.369752793
8.0,32.0,0.3,0.3,0.7333333333333333,0.6285714285714286,0.6769230769230768,80.529219241
8.0,16.0,0.9,0.3,0.65,0.5652173913043478,0.6046511627906976,80.185371075
8.0,32.0,0.5,0.3,0.65,0.5571428571428572,0.6,80.832341171
8.0,32.0,0.7,0.3,0.6,0.5217391304347826,0.5581395348837209,80.42695867
8.0,32.0,0.9,0.3,0.45,0.39705882352941174,0.421875,80.573362653
8.0,32.0,0.2,0.3,0.8166666666666667,0.7313432835820896,0.7716535433070867,80.244911582
8.0,32.0,0.4,0.3,0.7,0.5915492957746479,0.6412213740458015,80.318261044
8.0,32.0,0.6,0.3,0.6,0.5217391304347826,0.5581395348837209,80.410127637
8.0,32.0,0.8,0.3,0.45,0.39705882352941174,0.421875,80.571326926
16.0,1.0,0.2,0.3,0.5833333333333334,0.6481481481481481,0.6140350877192983,93.622967867
16.0,1.0,0.3,0.3,0.5833333333333334,0.6481481481481481,0.6140350877192983,89.561204913
16.0,1.0,0.4,0.3,0.5833333333333334,0.6481481481481481,0.6140350877192983,90.809416056
16.0,1.0,0.5,0.3,0.5833333333333334,0.6481481481481481,0.6140350877192983,92.742389121
16.0,1.0,0.7,0.3,0.5833333333333334,0.6481481481481481,0.6140350877192983,88.05644781
16.0,1.0,0.8,0.3,0.5833333333333334,0.6481481481481481,0.6140350877192983,91.013038413
16.0,1.0,0.6,0.3,0.5833333333333334,0.6481481481481481,0.6140350877192983,88.887976232
16.0,1.0,0.9,0.3,0.5833333333333334,0.6481481481481481,0.6140350877192983,89.361324185
16.0,2.0,0.1,0.3,0.7,0.6885245901639344,0.6942148760330578,94.670780098
16.0,2.0,0.2,0.3,0.7,0.6885245901639344,0.6942148760330578,90.87257814
16.0,8.0,0.2,0.3,0.7333333333333333,0.6666666666666666,0.6984126984126984,79.814742321
16.0,2.0,0.3,0.3,0.7,0.6885245901639344,0.6942148760330578,94.768904269
16.0,2.0,0.4,0.3,0.7,0.6885245901639344,0.6942148760330578,91.468322256
16.0,2.0,0.5,0.3,0.7,0.6885245901639344,0.6942148760330578,90.475163116
16.0,2.0,0.6,0.3,0.7333333333333333,0.7096774193548387,0.7213114754098361,92.007315488
16.0,2.0,0.7,0.3,0.7333333333333333,0.7096774193548387,0.7213114754098361,94.443726535
16.0,2.0,0.8,0.3,0.7333333333333333,0.7096774193548387,0.7213114754098361,90.321218864
16.0,4.0,0.1,0.3,0.7,0.6885245901639344,0.6942148760330578,95.572670746
16.0,2.0,0.9,0.3,0.7333333333333333,0.7096774193548387,0.7213114754098361,95.631441393
16.0,4.0,0.2,0.3,0.7,0.6885245901639344,0.6942148760330578,91.640769671
16.0,4.0,0.3,0.3,0.7,0.6885245901639344,0.6942148760330578,89.742191299
16.0,4.0,0.6,0.3,0.7333333333333333,0.7096774193548387,0.7213114754098361,91.724811603
16.0,4.0,0.7,0.3,0.7666666666666667,0.7419354838709677,0.7540983606557377,88.302938432
16.0,4.0,0.8,0.3,0.8,0.7741935483870968,0.7868852459016393,94.610167918
16.0,8.0,0.1,0.3,0.7,0.6666666666666666,0.6829268292682926,95.927055767
16.0,4.0,0.9,0.3,0.8,0.7741935483870968,0.7868852459016393,102.37358056
16.0,4.0,0.5,0.3,0.7333333333333333,0.7096774193548387,0.7213114754098361,90.62312124
16.0,4.0,0.4,0.3,0.7333333333333333,0.7096774193548387,0.7213114754098361,91.785610276
16.0,8.0,0.3,0.3,0.7333333333333333,0.6666666666666666,0.6984126984126984,95.999546546
16.0,8.0,0.4,0.3,0.7666666666666667,0.6865671641791045,0.7244094488188977,91.023862215
16.0,8.0,0.5,0.3,0.8,0.7164179104477612,0.7559055118110236,91.887115674
32.0,2.0,0.7,0.3,0.7166666666666667,0.6417910447761194,0.6771653543307087,80.191246606
16.0,8.0,0.9,0.3,0.8,0.7164179104477612,0.7559055118110236,80.948458549
16.0,8.0,0.7,0.3,0.8,0.7164179104477612,0.7559055118110236,81.051069953
16.0,16.0,0.5,0.3,0.8,0.7058823529411765,0.7500000000000001,80.812435077
16.0,8.0,0.8,0.3,0.8,0.7164179104477612,0.7559055118110236,80.97431229
32.0,2.0,0.1,0.3,0.65,0.6,0.624,80.303380502
32.0,2.0,0.8,0.3,0.7166666666666667,0.6417910447761194,0.6771653543307087,80.218067735
32.0,4.0,0.5,0.3,0.7166666666666667,0.6417910447761194,0.6771653543307087,80.188005062
16.0,16.0,0.1,0.3,0.7333333333333333,0.6666666666666666,0.6984126984126984,79.388953446
16.0,16.0,0.3,0.3,0.8,0.7058823529411765,0.7500000000000001,80.853277861
16.0,16.0,0.4,0.3,0.8,0.7058823529411765,0.7500000000000001,80.958132024
16.0,16.0,0.6,0.3,0.8166666666666667,0.7205882352941176,0.7656250000000001,79.534949801
16.0,8.0,0.6,0.3,0.8,0.7164179104477612,0.7559055118110236,81.806672806
32.0,4.0,0.6,0.3,0.7166666666666667,0.6417910447761194,0.6771653543307087,80.190230214
32.0,8.0,0.3,0.3,0.7166666666666667,0.6231884057971014,0.6666666666666667,80.253394035
32.0,16.0,0.1,0.3,0.7166666666666667,0.6231884057971014,0.6666666666666667,80.212837163
16.0,16.0,0.2,0.3,0.7666666666666667,0.6764705882352942,0.71875,81.405774917
16.0,32.0,0.1,0.3,0.7666666666666667,0.6764705882352942,0.71875,80.868068152
32.0,8.0,0.4,0.3,0.7166666666666667,0.6231884057971014,0.6666666666666667,80.285119531
16.0,16.0,0.9,0.3,0.75,0.6617647058823529,0.7031250000000001,80.992608527
16.0,16.0,0.8,0.3,0.8166666666666667,0.7205882352941176,0.7656250000000001,81.263522415
16.0,16.0,0.7,0.3,0.8166666666666667,0.7205882352941176,0.7656250000000001,81.206100173
16.0,32.0,0.6,0.3,0.7333333333333333,0.6197183098591549,0.6717557251908396,80.800914345
32.0,16.0,0.8,0.3,0.8166666666666667,0.6805555555555556,0.7424242424242424,80.308028126
16.0,32.0,0.2,0.3,0.8,0.7058823529411765,0.7500000000000001,79.434080811
16.0,32.0,0.4,0.3,0.8166666666666667,0.7205882352941176,0.7656250000000001,81.148300763
32.0,16.0,0.2,0.3,0.7166666666666667,0.6231884057971014,0.6666666666666667,80.138520618
16.0,32.0,0.5,0.3,0.7333333333333333,0.6197183098591549,0.6717557251908396,81.388251917
16.0,32.0,0.3,0.3,0.8166666666666667,0.7205882352941176,0.7656250000000001,80.851594729
16.0,32.0,0.7,0.3,0.7333333333333333,0.6197183098591549,0.6717557251908396,79.641943811
32.0,1.0,0.2,0.3,0.6,0.5806451612903226,0.5901639344262295,80.938116467
32.0,32.0,0.6,0.3,0.8333333333333334,0.6944444444444444,0.7575757575757577,80.40292064
32.0,16.0,0.9,0.3,0.8166666666666667,0.6805555555555556,0.7424242424242424,80.163713831
32.0,32.0,0.7,0.3,0.8333333333333334,0.6944444444444444,0.7575757575757577,80.486649937
32.0,1.0,0.1,0.3,0.6,0.5806451612903226,0.5901639344262295,80.792043848
16.0,32.0,0.9,0.3,0.65,0.5571428571428572,0.6,80.864872516
32.0,1.0,0.3,0.3,0.6,0.5806451612903226,0.5901639344262295,79.115687572
16.0,32.0,0.8,0.3,0.7,0.5915492957746479,0.6412213740458015,80.825038458
32.0,1.0,0.7,0.3,0.6,0.5806451612903226,0.5901639344262295,81.28399101
32.0,1.0,0.5,0.3,0.6,0.5806451612903226,0.5901639344262295,80.802179577
32.0,1.0,0.6,0.3,0.6,0.5806451612903226,0.5901639344262295,80.698638059
32.0,1.0,0.8,0.3,0.6,0.5806451612903226,0.5901639344262295,79.123695347
32.0,1.0,0.4,0.3,0.6,0.5806451612903226,0.5901639344262295,81.100339852
32.0,2.0,0.4,0.3,0.7166666666666667,0.6417910447761194,0.6771653543307087,80.824119304
32.0,2.0,0.3,0.3,0.65,0.6,0.624,80.849422004
32.0,1.0,0.9,0.3,0.6,0.5806451612903226,0.5901639344262295,80.881038784
32.0,2.0,0.2,0.3,0.65,0.6,0.624,80.772389249
32.0,2.0,0.5,0.3,0.7166666666666667,0.6417910447761194,0.6771653543307087,79.158349468
32.0,4.0,0.2,0.3,0.65,0.6,0.624,80.803984865
32.0,2.0,0.9,0.3,0.7166666666666667,0.6417910447761194,0.6771653543307087,80.696053479
32.0,4.0,0.3,0.3,0.7166666666666667,0.6417910447761194,0.6771653543307087,79.004307934
32.0,4.0,0.1,0.3,0.65,0.6,0.624,80.635472436
32.0,4.0,0.9,0.3,0.7166666666666667,0.6417910447761194,0.6771653543307087,81.200445102
32.0,2.0,0.6,0.3,0.7166666666666667,0.6417910447761194,0.6771653543307087,80.747794413
32.0,8.0,0.7,0.3,0.7833333333333333,0.6619718309859155,0.717557251908397,80.77517864
32.0,4.0,0.7,0.3,0.7166666666666667,0.6417910447761194,0.6771653543307087,81.345470668
32.0,4.0,0.8,0.3,0.7166666666666667,0.6417910447761194,0.6771653543307087,80.657757626
32.0,8.0,0.1,0.3,0.65,0.582089552238806,0.6141732283464567,79.185953582
32.0,8.0,0.5,0.3,0.7166666666666667,0.6231884057971014,0.6666666666666667,80.654749892
32.0,8.0,0.6,0.3,0.7833333333333333,0.6619718309859155,0.717557251908397,81.215296395
32.0,4.0,0.4,0.3,0.7166666666666667,0.6417910447761194,0.6771653543307087,80.853529481
32.0,16.0,0.5,0.3,0.8166666666666667,0.6805555555555556,0.7424242424242424,80.686975033
32.0,16.0,0.4,0.3,0.7833333333333333,0.6527777777777778,0.7121212121212122,80.650520115
32.0,16.0,0.3,0.3,0.75,0.6338028169014085,0.6870229007633588,80.75654597
32.0,8.0,0.8,0.3,0.7833333333333333,0.6619718309859155,0.717557251908397,78.991057575
32.0,8.0,0.2,0.3,0.7166666666666667,0.6231884057971014,0.6666666666666667,80.717821173
32.0,8.0,0.9,0.3,0.8166666666666667,0.6901408450704225,0.748091603053435,80.76908476
32.0,32.0,0.3,0.3,0.8166666666666667,0.6805555555555556,0.7424242424242424,80.681858988
32.0,16.0,0.6,0.3,0.8166666666666667,0.6805555555555556,0.7424242424242424,79.013821711
32.0,32.0,0.2,0.3,0.7833333333333333,0.6527777777777778,0.7121212121212122,80.67374641
32.0,32.0,0.1,0.3,0.7166666666666667,0.6231884057971014,0.6666666666666667,80.657472778
32.0,32.0,0.8,0.3,0.8333333333333334,0.6944444444444444,0.7575757575757577,80.821588294
32.0,32.0,0.4,0.3,0.8166666666666667,0.6805555555555556,0.7424242424242424,79.227553866
32.0,32.0,0.9,0.3,0.7333333333333333,0.5945945945945946,0.6567164179104478,80.742060482
32.0,16.0,0.7,0.3,0.8166666666666667,0.6805555555555556,0.7424242424242424,81.01866562
32.0,32.0,0.5,0.3,0.8166666666666667,0.6805555555555556,0.7424242424242424,80.658643151
