24.538391123,159.059818694
24.979143447,172.788743434
23.399559743,173.167832581
24.173436376,173.289216833
24.11668453,173.985307838
23.948141813,175.755658701
24.065133112,173.977099243
24.072388138,173.147912194
23.432855101,162.788280123
24.008285,162.807753041
24.088658084,162.844621657
24.625939365,162.523494859
24.012963129,163.277347314
24.125514626,162.567054848
23.736174403,163.01949498
23.722691632,162.929027658
23.933239968,159.166220717
23.385520508,171.572886716
23.92147275,177.782794055
23.829031464,162.959317768
23.893997697,172.595803563
23.956362733,174.68477911
23.69720365,168.364644835
23.990474177,170.2083414
23.980971108,170.157048117
23.950218259,171.224331208
24.099357185,173.440401622
23.998554636,171.542529918
23.915186987,170.331629962
24.380257728,170.833861384
23.565161032,172.743817697
24.58430955,175.305352266
24.046918189,174.178541485
23.929883277,169.670693541
23.936457904,181.492795072
24.015161927,178.688274052
24.054698881,178.594479596
24.438607504,179.214355986
23.915123466,179.271969596
23.973495171,190.050096529
24.239309007,177.206594678
23.981599742,180.568926841
23.967048178,177.325274835
23.923618443,183.520202118
23.723559495,180.259764942
23.995809283,190.685850354
24.068763539,164.483718454
23.995312497,166.890947805
23.9930175,165.722838506
23.965391007,164.904191684
24.094771272,164.404951103
24.006406327,164.433074302
23.898885996,164.430027668
24.022635987,165.160882
24.029867882,164.647179175
23.926415142,164.688783519
23.948522625,164.627719722
23.92230133,164.396004243
23.46480241,164.28779824
23.918372217,161.037024316
23.960525787,164.886198376
24.176800583,164.387703391
23.879933639,164.573013095
23.884212759,164.425264101
23.956024603,164.765448531
24.081357727,164.356201298
23.945733154,160.886708286
23.84564487,164.329467642
23.91447198,164.42133887
23.955370576,164.53286263
23.913495091,164.563013114
23.909377193,165.757161076
23.408827868,164.254795894
23.905518765,160.905653507
23.872039387,165.104955569
24.166551396,166.603413687
23.950735979,164.519716353
23.908419033,164.597216451
23.899656287,164.456529673
23.94648762,164.313444668
23.956592883,160.760588031
23.961801501,164.376278837
23.973303228,164.435836237
23.918721097,164.117121729
23.920443109,164.366949448
23.955146376,164.491708503
23.939962401,164.314468383
23.957654125,161.772923823
23.427313997,164.500560603
23.978503937,164.493487602
23.923157383,164.821217966
23.97353934,165.059789757
24.066289691,164.610126749
23.977708674,164.295662786
23.908685067,160.754469491
23.906840625,164.260158668
23.974691769,164.354647304
24.083781057,164.418266674
23.953538626,164.496298136
23.995463934,166.256975465
24.009270801,164.290708291
23.967083566,161.514503138
23.980835485,164.3103195
23.949714581,164.491730375
24.004087961,164.468752225
23.407877569,164.354100613
23.931410346,164.288509627
23.984867224,164.21415183
23.909595999,160.753514458
23.951984404,164.766660193
24.01786422,164.592077022
24.03087199,165.578318338
24.018456703,164.712608513
24.042935706,164.579008801
23.987589144,164.668245064
24.08550031,160.88599481
24.173777132,164.620188626
23.977832134,164.449527778
24.000950442,165.204352957
24.044124895,164.481978158
24.038438067,166.323987119
24.038750518,166.284892133
24.050025056,162.781052546
23.54455717,166.335586297
24.109218883,166.832808431
24.040478577,166.195121604
24.008926829,166.18134819
24.062851041,166.214118037
24.336053022,166.375287517
24.100990125,162.929049927
24.187988365,166.204299136
24.716711358,200.301032301
24.742492437,200.955484783
24.841247864,200.743573882
25.154076739,191.098459563
24.673388902,198.081098302
24.708738679,195.132210051
24.692583842,194.1826306
24.700460102,194.499840777
24.689441392,198.417736527
24.68180368,194.605925728
24.114719561,194.393574222
28.244903075,282.802792014
28.482608536,276.138691414
28.897106489,268.564692575
28.565087425,272.493334445
28.250226369,269.596060968
28.570715273,288.889656836
27.602737914,275.786089705
27.263495113,296.251401378
27.266749347,294.727785588
27.807037474,351.973622977
27.535322168,353.784979772
24.132024459,169.493492658
24.056943034,170.77997354
23.845740613,170.367437322
24.096476165,171.402029868
23.8496662,169.981567331
23.814013698,163.18936283
23.440361988,169.989735464
23.932367952,169.671992669
23.989661622,169.354544885
23.610262117,169.540165041
23.917801282,169.049795307
24.561446643,168.998165268
23.97021845,168.957926429
24.044690446,171.552240658
23.909699301,172.392545523
23.963434772,170.818388919
23.989211695,172.298270447
23.959150363,170.873540578
23.940850528,170.869144875
23.902811315,169.545142001
24.088477162,169.434066007
24.222831896,169.601745414
24.129527803,164.578905927
23.926194211,165.21918645
23.399313077,165.019277791
23.777326213,164.742631195
23.808468208,165.248833378
23.843118602,164.404720293
23.910711163,164.587869286
24.148744368,164.509674833
23.986050385,164.592075081
24.379375873,164.939136963
24.087245584,164.630050989
24.105050784,164.299334065
24.283785592,165.165073771
23.949798193,164.823155895
24.099806944,164.398985284
24.099210802,164.697794485
23.947669158,165.201105649
23.912984026,164.344147736
24.127751348,165.13539174
23.901933054,164.57067244
23.904197104,161.005081128
23.444269989,165.548097071
24.065865323,164.796073666
23.940511029,165.411751722
23.972704482,164.425047799
23.91471455,164.664627922
24.045924888,164.435382075
24.133308215,161.941564531
23.974432188,165.421668333
24.648800175,164.589592285
23.90942147,164.681417433
23.931970047,165.650695843
23.907156749,164.661191276
24.124375331,164.992761037
23.951809775,160.916498765
24.288933521,164.654509334
23.952826281,164.778668775
24.133638842,165.297004571
23.926633362,164.280927112
23.905571329,164.866806251
23.380487531,164.44312801
23.921469191,161.185568196
23.952395345,164.818345422
23.926678717,164.754652995
23.940886978,165.049175378
24.14222884,164.473460624
23.940585951,164.99284456
23.92933122,164.519383883
24.138178252,162.735702548
24.026657806,165.292583626
23.920461162,164.79471538
24.110725516,164.459642335
24.538052278,164.179684376
24.08896882,164.521184205
23.947910726,164.485609253
23.916917297,161.885543697
23.942324896,164.212640207
23.940272704,164.764924112
23.916752907,164.55938509
23.452714383,164.201479609
23.755029982,164.412668836
23.759684357,164.846979843
23.94617688,161.832052523
23.485629745,165.461087511
23.871585363,165.294458332
29.382973324,165.396861675
23.874296499,164.497067126
27.966867934,164.426536143
31.611708541,164.149174415
29.126143971,161.748158251
32.286687669,164.312659251
34.576289462,165.305720465
28.730508946,164.484947155
31.113712471,164.214201286
34.449097554,165.167204552
27.81817533,164.293935236
29.57883982,161.803177329
26.285795028,164.307138062
23.432083907,164.731439898
23.897833004,164.361514171
23.844108655,164.516375593
23.87931984,164.947877767
23.661957194,164.169835745
23.291599716,160.779409577
23.497411778,160.733690919
23.192769482,169.17488489
23.422810748,190.489607849
30.533205512,179.967785984
42.325741584,190.892105557
44.21559412,187.86512188
44.167704604,185.863876392
24.312274599,172.825816734
31.640638977,178.91545265
24.023549606,195.813849783
54.462468951,179.16139879
49.97514824,177.42831951
24.441621552,164.514800758
38.656860133,161.347173664
55.18043279,159.666862289
78.687924584,178.230625877
50.485724532,166.055170156
49.153140877,165.406902989
23.520834339,165.559528863
30.869070703,166.236333794
26.165593969,167.114556137
27.970108007,166.081089292
28.690684902,162.062901142
30.088880257,165.791208233
30.412840669,171.96101956
31.823486574,173.105925535
30.326536182,202.97654633
26.522123667,206.233647711
31.291409128,205.178803121
24.074375822,204.390220159
49.690674868,204.996196619
38.174829053,194.942854385
40.770522275,207.252213495
50.725179648,205.422654919
30.418060016,213.925883565
37.140038727,215.311789218
50.393320388,204.190719501
27.181385706,367.048450677
36.483480749,360.301175778
37.280295613,365.513191658
26.865477165,354.869607051
51.434065436,361.230255764
53.379269044,363.178167535
51.85250914,314.886528762
49.969320948,328.701059618
53.561903938,288.986359263
28.102443037,272.595397726
49.993172749,278.005017452
25.433898418,164.496385696
33.232529594,164.846861017
36.634878592,164.449413701
35.038992229,164.55290454
32.805654839,164.625125311
32.504595033,164.45456574
23.433449398,166.437986286
27.486320847,164.173393368
25.589155473,164.428749357
31.280037541,165.333703641
38.207511635,164.503782216
41.034962412,164.614103481
26.829961364,164.254872398
38.888087834,164.579773575
22.718051196,164.54189617
23.409491362,165.063747412
22.623910134,165.151564685
22.652280321,161.366646817
24.17289992,164.247111506
24.039608642,164.40616146
24.670565155,164.562863997
24.551872586,164.357253922
23.963197418,165.235327615
25.804526833,164.946913293
24.0294924,161.318074097
24.021976488,164.082747788
23.941460836,164.506301698
24.169830334,164.554741518
24.054791616,164.762154402
24.04061366,164.642230934
24.087484782,165.060517226
24.007232335,162.182141671
22.508703575,164.186696815
22.729222997,164.474613241
22.405236665,165.113842304
23.909438352,164.48740841
23.965416836,164.419233453
24.067275053,164.343256973
23.801883414,161.033022073
23.408547067,164.656226586
22.56950147,164.38559587
22.555810488,164.278080503
22.541248369,164.989544125
22.564849257,164.771870062
22.550535628,164.50035685
22.511201305,160.873870689
22.469072229,164.120328526
24.108388407,164.255224208
24.133777277,164.516172024
23.953114076,164.288373892
23.958356236,164.492719846
24.127688952,164.366901233
23.916746603,160.920676895
24.040265852,163.914576635
23.910713335,164.282235897
24.04329276,164.088338253
23.925566976,164.256432675
23.906278462,164.851191705
24.035778818,164.189714498
24.042845571,160.770665471
23.926046096,163.783953226
24.034507135,164.275147477
22.376442336,163.936984369
22.328002275,164.285804608
22.357685997,164.889347931
22.601654378,164.771169869
23.679638712,160.886328225
23.90178002,164.08101332
23.969403916,164.308535064
23.627130998,164.436095732
23.4518935,166.262309044
22.185042477,164.297995687
22.171174524,164.301802437
22.485530502,161.031644021
22.458083189,164.156875523
22.435830182,164.348763649
22.422554798,164.1621311
22.159338972,164.128746486
24.031371068,164.137286962
23.873872796,164.21871357
24.062625542,160.911155312
24.035521073,164.237760367
23.936824036,160.843163703
24.063284639,169.72728043
24.050423586,171.09793468
23.92066835,163.978287608
23.882135878,163.632385806
23.91245163,160.537198771
23.942954079,160.177456007
24.163071758,170.995599006
23.898039912,171.519949533
24.497529344,170.387741229
23.906672346,169.521389489
22.276682349,170.977236822
22.280803367,171.864410748
22.296676835,172.642172416
22.311608314,170.09180091
22.304363108,163.090479254
22.510406119,163.203807251
22.326064225,163.565215482
23.804969245,163.089464623
24.240112035,163.422925503
23.538299472,159.554644974
23.68092996,169.070603064
23.776880849,171.207803298
23.84773434,163.365535978
23.475646174,163.587488088
22.306634465,164.443722782
22.499807166,163.359333707
22.339564837,163.5284455
22.574994316,163.593827795
22.563030955,163.318299132
22.54658222,159.885598318
22.291273448,160.547163495
22.399835006,163.833874332
23.893248334,171.180347354
23.806328668,169.376493693
23.538269763,170.32795584
23.82746187,171.325570688
23.556040574,170.855958045
26.919467454,171.853201106
24.923009002,174.849997813
26.770128616,171.110142288
26.727820334,172.329399365
25.3313072,165.658571638
34.638696991,171.977649411
26.866459651,172.547186111
35.059379632,167.667119735
34.633622313,166.883868326
25.437341039,168.670830882
22.441451896,169.695202883
22.424076893,166.577350311
23.061979072,196.357255759
23.062665214,195.075351142
23.099019651,202.741577261
22.968294942,195.22237806
23.086588937,195.372776384
38.403064624,202.179236074
25.24028276,198.789325118
39.800469453,203.632316735
39.588337808,204.089363918
25.916293647,197.999449197
30.477437012,199.209791378
26.771128803,283.396983661
26.769790104,331.544223495
26.928779026,279.136275559
27.077280618,345.985474064
27.007328242,283.803814544
27.128103767,279.079058186
27.103771083,276.817080948
26.997652634,280.07322645
27.019051188,301.801863695
26.90597341,277.335946207
26.747905015,315.586965915
23.340988615,165.188541594
23.333794555,165.088045003
22.672694628,161.170719618
22.627541611,164.211609528
22.698409598,164.631616844
22.642667873,164.402405757
22.671736657,164.374166448
22.607216573,164.952979419
22.687775475,164.479574978
23.968231895,161.479462982
24.166896965,165.112777922
24.02636274,164.623668923
24.005441948,164.685794151
23.996698995,164.538724734
23.950698533,164.731230556
24.303136833,164.336596541
24.351797851,161.427725985
24.549720937,164.215073248
23.768202895,164.728023058
23.713736847,164.294816185
24.009777639,164.554791864
23.9217826,164.229981594
24.194810595,165.300087992
23.868261398,161.139611954
24.619632437,164.884266923
23.929455313,164.313860623
23.368770098,165.136299041
23.290216538,164.442207103
23.181188117,164.736611921
23.512708579,164.74410275
23.205170924,160.817415402
22.532354262,163.913503124
22.559279277,164.507967075
22.421824659,164.262166797
22.523946334,164.553210942
22.507288743,164.539140532
22.297877066,164.536587994
22.497443261,161.481505773
22.6309512,164.269424927
22.289842214,164.429359087
23.764321478,163.934334164
23.801109127,164.24210679
23.725928853,164.244924319
23.628007165,164.803384026
23.298505435,161.086667259
23.325825402,164.365707826
23.286466586,164.512589769
23.297416878,163.974034396
23.281222906,164.178044719
23.071390207,164.483474958
23.162753787,164.263590795
23.280208155,161.590185081
23.29952627,163.952540593
22.24160512,164.418409602
22.264050608,163.904707004
22.241229154,164.363605742
22.27314146,165.59144503
22.266390831,160.676282417
22.295688935,160.607871953
22.225015308,160.739257122
24.382303737,170.023124007
24.141504934,169.97681487
24.327007861,170.264844847
23.927382331,170.884454342
24.055346641,164.753426664
23.995662509,163.877928087
23.956388026,163.913791729
23.973901815,164.198143323
24.249378802,161.050926685
23.916280325,169.655195468
23.9958142,170.165189915
23.91374789,170.405180743
24.104477619,170.057734988
24.060707029,169.427294133
23.875714237,170.410853287
24.875274905,170.124125616
24.010266044,169.230596898
23.336282405,169.179240006
23.324971643,164.001117082
23.325645376,163.686025762
23.346171656,158.989762035
23.345295183,159.872450498
23.322781506,169.620430984
23.16060411,169.829512278
23.360022205,163.816617233
23.517465775,163.82424487
23.185242595,164.108194375
23.359478898,164.110010175
23.322291864,163.969078133
23.303386937,163.794748784
22.405002774,163.653786465
22.431375719,163.729829408
22.525871431,163.50806542
22.366448432,169.777438207
22.468460344,169.546386782
22.508084145,169.50741461
22.487694205,169.589704681
22.47585428,170.005660235
22.575114533,169.321565474
23.785927468,169.953528461
23.829634738,169.7518009
23.793331271,169.516095967
23.791854474,170.317596974
23.130404637,170.824806748
23.919265716,169.228262643
23.387736085,165.42003551
23.30342408,171.820737556
23.270755602,170.74858802
23.124905454,169.054879888
23.329004322,164.631672045
23.350618625,165.197314234
23.559082033,164.79028898
23.183944701,165.253062114
23.166463354,165.629718083
23.213238377,164.730143325
22.325822699,165.057534375
22.317338777,161.16231576
22.345725091,164.831534593
22.336355839,165.173776201
22.364214763,165.222569551
22.372610746,164.807240575
22.663835986,172.897436026
24.303412715,169.859039211
24.161744736,164.473979373
24.182504384,168.3047735
24.302606484,167.938278677
24.309201476,166.736835497
24.378395056,167.246904924
24.328812069,168.667242987
24.172927172,167.989249004
24.139645744,163.520981251
24.19750668,167.916065014
24.711585255,195.24748208
24.486561332,180.470179358
24.272547394,201.155798145
24.397510032,182.88616595
25.131568814,193.397145349
24.516381498,189.846040239
24.534015568,197.835317232
23.872238332,195.174145145
23.898253519,189.97164357
23.719397882,179.73724561
23.78534602,192.459819654
24.899951642,297.550015549
25.404663256,257.812508094
26.314853037,311.811208476
25.527852299,271.001326684
27.243341915,273.71092282
26.999277376,276.813502722
24.995581589,271.798415121
26.058157333,261.380441415
24.703484104,271.029206615
26.893907574,309.274993471
24.501967954,285.709023843
23.309641048,164.326293234
23.200326519,164.487069923
22.49949171,165.344230617
22.388354123,164.710325658
22.343105505,160.898737896
22.354435699,164.880659547
22.325492682,164.360417324
22.553649256,165.491619962
22.465448928,164.861872291
22.47778964,164.291571933
22.458616839,166.460392157
23.975486265,161.133679001
23.765038342,164.512483378
23.716865757,164.433535283
23.625838127,164.959031828
23.160831765,164.47289184
23.268635224,164.395169464
23.198454801,165.659157733
23.307648256,160.809236541
23.125466372,164.688006069
23.203668751,164.452237599
23.280068933,160.987251086
23.268686178,160.875461366
23.280861818,160.760330678
23.281853957,170.855336766
23.175028965,170.416921388
23.15012641,171.162694305
23.196522908,170.532078121
23.319745362,170.350210501
23.305486571,168.85328539
22.364461531,169.189495004
22.373437498,169.099003664
22.304512063,168.842337756
22.32385183,165.370470348
22.324754279,164.76007913
22.316945679,160.951347189
22.254606724,160.654603881
24.019245101,170.677824301
24.015604807,170.320411847
24.009929443,170.30964535
24.036974892,169.390200813
24.0872162,169.847918152
23.985991773,169.66936304
24.094232575,169.510609064
24.26988092,169.760110755
24.117912402,169.173133505
23.990384099,164.086039472
24.076302081,163.713299211
23.990494246,164.181076376
23.969724153,163.975895434
24.130943979,164.974329925
24.268801199,163.771150494
24.021828071,163.895021642
24.001982405,164.623780914
23.214452018,164.477948282
23.334679834,164.348646426
23.371012814,163.778054828
23.381625704,165.2070123
23.124313865,164.042996439
23.04278192,163.872402564
23.290274373,164.186849504
23.178933656,163.574912217
23.342578152,165.06162863
23.13544812,160.198023192
23.109491116,179.658030123
23.30990081,172.266406798
23.127424585,164.825144965
23.205728911,163.998270279
23.121019787,164.433124242
23.183692781,164.102872443
23.127120353,161.945381913
22.310121801,170.216031805
22.682221342,170.150578787
22.315783879,172.144267339
22.483876833,169.457011811
22.318221819,169.23929731
22.47348025,165.217660408
22.483426596,163.664307734
22.75907171,163.360325374
22.468396884,163.4777425
23.730480314,163.427953203
23.88684968,163.921816835
24.381097597,169.039317677
24.001043491,169.496018101
23.089800428,170.414546553
23.248666446,169.747256286
23.266975832,163.437886533
23.135062183,171.849792236
23.153154603,170.129748404
23.047769927,170.369299241
23.289080676,163.741816418
23.305737374,164.364006406
23.155586878,170.434902329
23.165418518,170.32658337
23.080076318,169.657573044
22.916782243,161.178678078
23.267776135,164.194302062
23.090694972,164.849764182
23.112192733,164.179172595
23.123198893,164.657120985
23.145899457,161.13930765
22.347727949,164.53611513
22.445221998,164.690741477
22.304463107,164.182111623
22.312394276,164.428731786
22.275092539,164.075293953
22.283737694,164.005921087
22.301030641,161.225906641
24.228770692,164.471045765
24.302998499,163.869759186
24.152343104,165.998969454
24.081172951,164.614246215
24.241047022,164.758195531
24.013999614,165.022563694
24.122056653,161.384724061
24.13389638,164.472812661
24.119536898,164.235531101
24.020096953,164.173682566
24.08557925,164.569155711
24.119708195,164.310619598
24.540313701,164.555215793
24.257064714,162.008183072
24.044392146,167.947295553
24.269683128,168.969008676
24.09092503,168.215517088
23.521157762,168.199981628
23.432535483,167.459988375
23.489566623,169.057696686
23.517938747,165.254701261
23.381374806,168.811065172
23.339475656,166.905653793
23.450323896,166.998380586
23.693772196,216.746174978
23.780711955,189.476682444
23.815810713,199.193290986
23.596506489,194.149086087
23.616931461,182.110679385
23.491887538,188.109126717
23.783112212,186.021390489
23.84786728,198.825562368
23.799249907,186.918163235
23.53462173,184.988037174
23.561374146,191.347299235
25.178481181,286.621706695
25.130408526,262.075381598
23.995146521,284.564969891
25.13048447,276.59020716
26.816223544,277.290213417
27.555834246,251.347468732
26.051310053,275.443635643
27.610656554,290.346319174
24.271233232,443.161651628
25.578079639,329.139598066
25.086533764,283.745732941
23.697494641,163.897176855
23.856111416,163.517932504
24.007714298,164.646073793
23.162202675,164.103766898
23.191684339,163.848790639
23.23119055,160.716022708
23.176125163,170.03120927
23.172624336,169.814407305
23.270529257,170.989454027
23.145948155,169.646070052
23.137000653,170.242831022
23.122845983,169.699482928
23.173897104,170.141133324
23.284324955,169.772398778
23.163332131,169.100698889
23.115984862,164.66443826
23.156219717,164.294073086
23.175676564,164.219072198
23.270523401,164.762204291
23.11819123,164.216672515
22.416715433,164.129406264
22.433692908,164.108546091
22.803915736,166.282781536
22.388622178,163.808807264
22.463410275,163.774553211
22.422265309,163.990732934
22.40718995,163.979631422
23.88583684,164.057709309
24.051504977,164.774158408
23.91380581,164.57376922
24.025543458,164.226711695
23.857836005,163.908366434
23.920710177,164.134390511
23.916430081,164.083496743
23.896300723,164.21911006
23.936947162,164.245899746
23.881495988,163.746381623
24.036277591,164.118742207
24.046076253,164.26041602
24.036155227,161.246267328
24.026739525,169.510902384
23.928011949,169.967620372
24.032988999,163.515596507
23.887545156,163.833871301
23.157523026,163.444113933
23.137953377,163.622961809
23.151667314,160.256277535
23.330957408,160.252404773
23.129135695,163.312048902
23.30219104,163.234056533
23.123631776,163.592966186
23.149344325,163.604153813
23.271390267,163.531614481
23.107073357,163.76574503
23.250344504,161.78282955
23.112968125,169.932318348
23.111407205,169.815479543
23.129397362,170.574969966
23.268146348,170.111011029
23.13092955,170.178637076
23.293549842,165.654272973
23.132965659,163.250308143
23.090958712,163.572279491
23.109769611,163.64458368
23.097504058,164.087500229
23.08906059,163.308737394
21.822935325,164.013953393
21.878621761,163.823666624
21.79101453,170.248967677
21.863133692,171.026579895
23.765264777,170.559096928
23.862985685,172.097480654
23.893737074,163.670732517
23.919195737,164.006476057
23.160848512,169.636029295
23.137060811,170.165196694
22.537874244,170.004348111
23.183085727,163.440964143
23.155406815,163.607113375
23.234468686,171.836046502
22.53621337,171.246803631
23.187430345,170.910232941
23.116074705,164.761931305
23.262347382,163.782770159
23.161137824,163.874553334
22.524139614,164.057946226
23.095826652,165.002108819
23.13310396,163.89707399
23.097936525,163.739615697
23.132192867,160.740993568
23.247593477,163.912680579
23.100151368,163.620505154
23.256568906,163.800196442
22.564988501,163.885948958
23.089269094,164.125317479
22.512300978,163.801450373
23.140321443,162.0153563
22.550440909,163.625308213
22.523576714,163.844036571
22.564154434,164.166793116
22.550683512,164.847858028
22.558425756,164.294395576
22.514791636,164.055262825
22.529165108,161.436044846
27.050001437,164.125766086
24.056116694,164.294174549
23.984697297,164.124837149
24.063670834,164.436005143
23.952640597,164.022755478
23.952498438,163.926239515
24.292238512,161.628993753
24.010234672,164.027368865
24.002537072,163.840593744
23.951691272,164.286958171
26.851035781,164.442945905
24.076545309,164.462577528
24.062551635,164.128835454
24.028018993,162.321152474
24.222198329,164.645955212
24.19148576,162.512784974
23.650495019,161.816812574
23.710191404,164.217449054
23.363953345,164.478487492
23.385153591,169.563461119
23.858021097,167.949735135
23.463932628,166.504542674
23.291289795,166.330125754
23.423615548,166.642335986
23.392078536,166.640462451
23.343783159,166.439548814
23.384796931,164.654122027
23.243251353,164.067062664
24.510838815,188.251927996
23.691783107,244.168734507
23.51690934,214.774928853
23.95035136,211.439258077
23.965195921,220.873297755
23.630249092,219.290465328
23.489462906,197.786075065
23.476386068,214.679213587
23.612400328,208.225092251
23.755859252,197.959725945
22.61411217,212.336838267
26.089261509,389.840093307
23.84127323,218.892072667
23.877468463,252.176175276
25.02512724,250.397156481
25.314638752,311.283677883
25.398601679,251.565907816
28.82807461,254.560735012
24.969675603,278.268117019
25.402863468,284.888083137
25.922315633,222.43168971
23.834628139,328.932274323
23.205187288,163.904061659
23.173443653,163.5817882
23.173671849,163.535644643
22.678306837,164.026089475
23.182497651,165.242134339
23.217361949,163.554300342
23.291569544,163.705305419
23.194093851,163.719266259
22.631486879,163.383936086
23.221939687,163.897486886
23.157798072,163.44266671
23.208902523,163.752371316
23.140371252,160.31409845
23.125984219,163.608780222
23.630528564,160.905184218
22.637554086,169.949056462
23.135129946,170.647564353
23.134492489,163.50215221
22.561692589,164.55475519
23.103508666,164.239207658
22.65698677,164.622969894
22.596124993,163.303768038
22.63674522,160.632947536
22.580339449,160.142129243
22.567330931,170.668228268
22.626973069,163.37559082
22.652397319,164.724276068
23.738398172,163.51490197
23.987648067,163.955264707
23.978664515,163.639540125
24.050847574,163.991585531
24.109236057,160.245458868
24.068648386,160.21391656
23.945427656,163.817477384
23.975208709,163.532441867
23.947064281,170.963519015
23.973892779,170.480343183
23.944590201,170.124695636
23.922995922,169.611803618
23.966467787,169.098997901
23.656798,170.084789269
23.216063634,170.688496824
23.334825248,170.934183783
23.401510806,164.274287594
23.175519531,163.516396593
23.155710615,165.005702252
23.316965696,163.579528306
23.234404848,163.68064329
23.198173961,164.965750412
23.311382845,160.288478515
23.132844704,169.942121462
23.171848068,170.091635361
23.183511226,169.546239026
23.192209271,163.767213763
23.167419803,163.540574345
23.200695073,169.343983628
23.114592704,170.538055991
23.611558649,169.457793156
23.177126336,169.955867937
23.148113532,163.637119368
23.570197081,163.362683918
23.410257725,170.24702456
23.349788589,168.333029637
22.210609352,169.984920511
22.176851688,160.191539551
22.25387964,170.425921255
22.189663892,170.645255275
23.712687875,170.347876816
23.770644677,169.517643383
23.931001762,164.405266072
23.68443325,165.74301356
23.707888228,166.334277235
23.783606111,164.636267215
23.288633252,163.901081405
23.242300381,164.51912547
22.567533721,163.999518466
23.148275923,164.338606888
23.1816319,164.656516185
23.19422758,165.165629975
22.535597556,164.444076758
23.233350373,164.553122972
23.297955585,164.539528392
23.294695024,164.365627611
23.136547228,163.895860673
22.598859506,163.718134286
23.178361589,164.231769375
23.135438694,164.032887265
23.11548131,160.857878127
23.149784135,163.994203122
23.162139469,165.570959194
23.113667736,164.368873782
22.591259315,163.587006147
23.136757066,164.41044774
23.408362918,163.825723828
23.120728917,160.723804102
22.555928066,165.231781629
23.237796023,164.441640057
22.556494058,164.417476187
22.511146619,164.62033011
22.831395349,164.263158614
22.514975105,163.599218637
22.520050066,160.650927465
22.714559007,164.285528909
22.907346783,163.634037812
24.648818132,160.604516349
24.448345376,160.870745766
24.497453274,160.750593125
24.105776274,164.803337105
24.01199454,163.578463484
23.965538304,164.902935703
24.244646304,165.793477687
23.984860671,164.249313414
23.944079635,163.877846653
24.026434625,163.953444568
23.9866109,164.362287947
24.024179048,164.651974613
23.995457097,161.304089984
24.040996536,162.037139784
24.070171732,161.576748537
24.024427611,161.273501362
23.990465729,164.146992712
24.200521765,165.570860556
23.420465459,164.742431295
23.380610474,165.305941388
23.351687128,172.829309637
23.383086857,171.724743157
23.490217311,170.366282859
23.292959593,167.707952796
23.527960277,166.605676109
23.47572703,172.119591542
23.254992433,166.159675333
23.442684121,167.160136838
23.452238068,166.087482239
23.562635545,175.615696713
23.450618833,208.887516057
23.53351381,195.391988169
23.578257029,192.846634892
23.60398094,196.944620581
23.433717603,190.40311579
23.545183492,187.458630752
23.565131528,196.431937257
23.495775304,200.238835924
23.536286971,179.538316424
24.152414295,292.984574644
25.25434775,526.17070601
24.125601689,688.832650203
23.709262596,375.897084024
24.441797218,787.425187386
24.349438576,344.95351055
25.847834679,496.417241445
28.753041678,757.318645901
27.269158385,270.143054041
26.406759824,237.516666877
25.043457781,231.030485166
23.907807818,164.728009228
23.304294241,160.54635363
23.313010235,161.280936196
22.683259288,170.209737901
23.229063772,163.758390173
23.378847045,163.043023867
22.718478207,163.217159339
23.204351989,163.796761001
23.145593637,164.651521814
23.156258747,163.700148291
23.131536811,164.623794018
22.62393386,169.785553465
23.165643902,169.912512875
23.150024895,163.493492103
23.174877418,161.351387007
23.200556068,171.192130359
23.146607499,170.367283417
23.121462197,170.172484481
22.68242576,170.44663154
23.600796278,171.098038443
23.136634574,169.58922881
23.209636824,170.25238302
23.153071876,169.677599482
22.589350818,163.215137161
23.087454965,164.789771823
22.611746879,163.078977676
22.652567391,163.935505489
22.657912627,163.391340557
22.64692178,164.253499745
22.605296633,164.06261357
22.554932835,163.984273648
22.553052334,163.914719361
24.45936351,163.765815763
24.457005621,163.902895074
24.459794282,170.113285037
24.145206105,170.161482593
24.070540434,170.143429382
24.070710625,163.289030002
23.776653507,163.784484829
23.995438865,163.352929599
24.097378445,169.738226082
23.877506275,170.047680473
24.032688438,171.348690011
24.232749295,171.797074922
23.98964185,163.644440888
24.010950083,161.247319767
24.188468261,171.286277236
23.712452077,169.298568938
24.057596569,170.981339529
24.196786019,160.836344487
23.216307258,163.218317073
23.302254477,160.913597339
23.263809762,160.574448514
23.416897523,160.874829144
23.331566515,160.797408705
23.188124553,160.915622058
23.167845215,170.378634674
23.143277496,171.395858855
23.190214602,169.329142382
23.1893324,170.505960505
23.363537942,163.845071802
23.140626069,164.686180075
23.116879674,163.885968949
23.163342546,164.547405784
23.319859101,164.637376829
23.152982974,164.8536531
23.140101363,164.595026909
23.160112298,163.638447001
23.134532092,163.801929196
23.139875554,164.415311484
23.324438485,163.54861486
23.715825973,163.686926005
23.156396575,165.852541938
22.247203129,163.461268047
22.182138116,163.633650664
22.268028751,164.739455785
22.326965139,163.779499238
24.427922047,163.993253265
23.814913409,164.149932742
23.851591359,164.080647489
23.491296356,163.466147256
23.638969716,164.308248682
23.319809069,164.026544212
23.300312996,165.35999976
22.610063136,164.102243354
23.191223675,163.772754409
23.307297651,163.447973676
22.578405835,164.876092303
23.318076668,163.604136416
23.239910217,163.992535851
23.338829882,164.221838451
23.177036448,163.442458913
22.597477434,160.681964696
23.163279317,160.662250366
23.1891534,161.287844578
23.234109563,160.879415921
23.185538786,163.713688761
23.175374472,163.52713404
23.191103775,163.492778226
22.614846569,164.121625148
23.190203819,163.65454823
23.197002391,163.422938735
23.142962196,163.680412326
23.173163368,163.448750266
23.170808684,164.060495972
22.569875385,164.173425632
23.118960816,163.637055256
22.737959794,164.567739229
22.55639252,164.17369312
22.55990208,164.399032896
22.774658607,163.74165975
22.583599566,163.54798186
22.574535312,163.105980623
22.521838807,163.473570281
24.283768777,163.549547337
24.3869629,164.085424655
24.498662542,164.037480552
24.104467215,162.700459756
24.091658209,163.549732748
24.0815911,164.788608006
24.070765212,169.805569436
24.255652722,160.995938588
24.351478067,160.903190521
24.188740022,170.08778949
24.048732107,164.087364
24.065392882,169.279747213
24.126224748,171.65276036
24.282730665,168.069188099
24.233466616,170.410119956
24.251857354,168.046322688
24.151252765,165.875050462
24.07895041,173.083557659
24.533044549,178.799803954
24.281423089,179.811599899
23.567533652,173.31517512
23.813637076,212.486465182
23.439641619,195.297199885
23.500422001,188.106117754
23.759863218,185.617928247
23.562403347,196.359413032
23.5114517,190.25386466
23.53712357,179.395268088
23.958301129,175.043427512
23.806938932,217.887747544
23.929707683,502.796931789
24.160588585,237.84693544
24.075127901,311.236499967
24.951999741,333.21111515
24.19287814,518.574757428
24.270445095,442.353540052
26.247760962,536.860903557
26.124864223,559.663101341
25.78914647,351.795115191
26.667397485,378.072978992
23.013229557,163.625276209
23.202932309,163.302687454
23.11911883,163.356063097
22.221020057,163.603720067
22.198013229,163.927344073
22.072631928,163.483229598
22.192567728,163.507695534
24.344483725,163.412619932
24.047443921,163.819795026
23.780698617,163.779750183
23.671569413,164.721425892
23.781280185,164.409984358
23.388305264,163.752512712
23.297124962,170.573337101
22.630025515,170.841475876
23.240695852,169.91111606
23.22103653,163.604036755
22.598308311,164.589462633
23.18521271,163.273950585
23.302961,160.651430804
23.477767374,172.263279171
23.282071802,170.634665478
23.181142595,174.223895858
22.595723061,168.767893146
23.192352287,161.550866191
23.357329635,162.908015425
23.176933712,160.73893992
23.094461326,160.671964909
23.151474962,160.739276589
23.229084651,160.941975153
22.567025077,160.954514818
23.164394132,168.500970485
23.188223276,168.80156182
23.166900387,171.714362782
23.155558194,160.494449057
23.18536277,160.62524376
22.533969063,161.203216633
22.539603438,160.755529995
22.51085992,171.173441836
22.518366934,171.530855701
22.591460841,174.046153768
22.535277578,176.099905715
22.520774531,164.571967184
22.515646974,164.536720332
24.320258972,164.61977319
24.369909099,164.051021184
24.391274631,164.211543439
24.103516175,164.140319245
24.063607081,163.986597443
23.905598355,164.316055645
24.031717284,163.899798164
23.91299822,163.958434795
23.913426821,164.321495299
23.906405142,165.848943306
24.161401796,164.407269599
23.93040893,164.253710627
23.894139742,163.762147586
24.042640096,164.627455255
24.32029098,164.063016333
23.872140051,164.192558602
23.882815112,164.228023694
23.90282871,164.413256243
23.906456669,165.224810071
24.004869858,163.805810352
23.220631746,164.998089493
23.283235617,164.503059688
23.204700178,163.98546452
23.459342011,166.491819861
23.140066372,163.786621891
23.075829251,163.851506779
23.144619278,163.711088166
23.304817277,164.072058487
23.139020011,163.919818712
23.116069168,163.839620962
23.373177266,164.906213283
23.138783776,163.907193862
23.123963616,163.89956744
22.970491971,163.975450249
23.11173707,165.226667965
23.10314108,163.888958808
23.171186372,160.513805927
23.129362354,163.944506888
23.122822094,163.435228359
23.102855147,163.478821071
23.120487861,163.694221519
22.159960077,163.77328094
22.153916966,163.803079654
22.21931971,163.456536544
22.286239123,164.062242432
24.318072088,163.91880235
23.374188247,163.290222435
23.529406102,163.62773039
23.368418907,163.315519262
23.597263533,163.853334264
23.344165623,163.520964821
23.320777449,163.805434427
22.547629445,163.20235987
23.157085702,163.609902415
23.310775046,163.284704652
22.994124661,163.208493016
23.177368779,160.742835816
22.569049397,160.862747501
22.757601531,169.554907296
23.151861518,164.102807727
22.966935703,168.694363157
23.184780906,167.876850972
23.164267941,163.698952496
22.586034715,163.566941839
23.107324994,163.413500223
23.154999727,164.048992028
23.178654667,163.506837097
23.30743636,160.487311092
23.162394462,171.200505169
23.157985,163.290928768
22.522105425,160.772927938
23.095055623,180.549764866
23.090308889,169.776654546
22.984169658,168.581609763
23.024026001,163.549015141
23.109807754,164.347745281
22.511590456,163.162147555
22.66955307,163.528829487
22.646129517,164.397175666
22.586189248,164.046635094
22.594129872,163.463368384
22.56354043,164.429259344
22.562208055,164.163026809
22.600152638,164.671721451
24.462926457,163.987307126
24.611714792,165.854780619
24.625685456,167.683757561
23.928609141,167.710364607
26.103968344,163.860079339
23.886325618,164.62607013
23.828346954,164.498203268
24.028725393,166.590170622
23.596132416,187.535649259
23.946305149,212.350847072
23.363853669,212.774939549
23.661465409,189.463813547
23.326795848,216.4436622
23.435931855,242.164030164
23.346465067,200.689541818
24.436424097,169.368399634
23.765215645,181.697167984
23.804458464,243.916291922
23.978443271,442.577297435
23.898322392,213.345121644
25.048895726,361.395845115
24.417545316,317.450643315
25.821930752,344.629555177
24.473980968,283.810506562
24.555557652,374.880821102
25.335058263,343.614287109
23.044195407,172.752587027
22.927861076,172.309675948
23.100783675,170.400490569
22.600179322,161.043890956
22.861929261,161.533387561
23.082349072,160.816934457
23.031311355,163.157490633
22.924513808,185.886650016
23.102011506,185.322676892
21.995405491,185.997319439
22.071060304,160.942383574
22.102516314,171.203561597
22.136172612,170.775969444
24.43367585,164.662461669
24.050027679,164.605025451
23.99775167,164.406789091
24.040104988,164.21886928
24.031252297,164.345729059
23.969689209,165.26729432
23.905930168,164.878538786
23.872356507,164.374986891
23.984462642,164.740206136
24.001978791,164.615338114
24.059927111,163.80317605
23.881802441,164.734157384
23.897230779,163.95006735
24.014839334,164.436509001
23.964516408,164.822778082
23.152296711,164.457852367
23.028730344,163.812139475
22.673569801,164.398321423
23.401792685,163.815832545
23.113410877,164.20893272
22.642231595,164.003123546
23.144873671,164.462816446
23.28686889,164.419471681
23.17095837,164.205413528
23.019904119,164.562580667
22.626229005,164.333872606
23.433951571,164.170858357
23.116864112,164.470141846
23.177760432,163.570734391
23.082287712,163.993901368
22.738844778,165.671001239
23.149542304,164.631698169
23.126900866,163.810946944
23.100402427,165.957230722
23.092440111,164.350344297
23.184736386,164.556693786
22.933605108,164.375632797
22.5387095,164.361114948
23.13989411,164.081192411
23.092652754,164.389388159
23.052702888,163.923912244
23.207083925,164.395817477
23.194149097,165.452402642
23.099676285,164.458926031
22.554494203,164.125750504
23.109943754,169.240890832
23.142596768,172.474143241
23.066122943,172.636774141
23.138513714,163.430075906
22.890247356,163.705416884
22.531888566,163.522659085
23.00879315,163.395926305
22.575211841,164.828312286
22.545512805,163.423612692
22.529804821,164.358065103
22.569924228,164.063386913
22.520233672,164.309069329
24.492259671,165.152005437
24.492530236,163.541734672
24.438585773,163.622752249
23.859870999,162.338787407
23.977783507,161.598019609
23.841308853,169.861133234
23.73917932,162.891521508
23.911239747,172.222047032
23.966915222,163.646010192
24.040290669,163.614310821
23.083053368,163.190383932
23.078432686,163.166420415
23.092645493,163.347425457
23.070589103,161.682900512
22.958866973,170.246290876
23.129427367,169.689770879
23.112540495,172.38346572
23.243159484,170.334641511
23.090732154,163.06747469
23.106456259,161.875737699
22.966651253,170.257330938
22.929373173,163.535054292
22.958960424,163.303178183
23.122169462,164.115931098
23.048845659,171.004703909
22.979114657,169.654071086
22.899028213,170.93191633
22.956723039,163.118400931
22.877923153,170.851107764
23.075762476,170.788089807
23.075643655,163.489465165
23.052374973,163.475740412
22.929427228,163.805319932
22.88512008,163.52332667
22.913875784,163.58298416
23.104285546,163.347701399
22.914693787,163.843959012
22.925945266,163.30725525
22.809195939,164.205046839
23.075997772,163.243600348
22.863809578,163.042675303
22.055689438,162.988905529
22.067816507,163.533753252
22.194464805,163.806825504
22.117831497,163.286714107
24.488173732,163.28779195
24.455022968,163.175593927
24.116592008,163.397455109
24.19640484,163.400830087
24.066292411,162.866757711
24.085793194,163.801890153
24.228498694,189.561660326
24.364114164,176.144348578
24.126050184,170.277149794
24.337797768,162.700724878
23.995856922,163.51844639
24.096612339,163.137923993
23.965224444,163.170279959
24.028343202,164.215057034
23.979609998,170.599441407
24.186192762,171.354879792
22.754728131,171.379721772
24.258966064,174.737479074
24.908400496,171.114333587
23.78945892,171.137769235
23.414197109,173.316872433
23.645609222,167.036408539
23.716724458,164.762135661
22.907606385,168.963182452
23.430416753,169.740842655
23.329805736,195.853217748
23.326232996,204.423022936
23.881127325,224.314644549
35.027247253,167.942169501
23.689153591,176.107357956
24.163811203,196.831414833
23.881886683,192.716404263
23.620669393,254.785974217
25.818241876,395.981131273
24.57983417,237.992686651
24.445284677,220.794173366
23.995715425,287.934124005
24.197980445,309.501652243
24.486974035,266.966150741
23.116220753,163.827754638
23.046890545,164.288759602
22.549359153,164.126880218
23.164002165,164.007582472
23.317902552,164.308416943
23.173932205,163.814073577
23.072108915,164.376897273
23.183302328,164.38161894
22.947400471,163.981386023
22.525715613,163.505988747
23.091711004,163.881678769
22.849000972,163.776333032
23.064659421,164.098718763
23.065820584,164.732292329
23.114262688,163.903025745
23.082608106,163.706806284
22.527795771,164.149719082
22.912683189,164.02586214
23.063359564,163.880119834
23.053864525,163.965282868
22.943924395,163.606261459
22.538506743,163.666923341
22.724466422,164.394738856
23.089054886,163.733539264
23.020878375,163.953902979
22.539822854,163.435375242
22.544023348,164.124995506
22.567563948,163.828598287
24.423640811,170.577188994
24.469591598,170.086860338
24.450137225,171.186536716
24.052277856,163.708487836
24.022874713,164.1708584
24.015688094,163.515656856
23.734113296,164.094313964
24.03684555,163.648846544
23.628945412,163.879239881
24.17886157,163.932827178
23.19843776,163.623988898
23.149590916,163.931037864
23.154498834,162.225697568
23.750904416,163.843669616
23.214607183,163.429684079
23.067260101,163.696200954
23.175375538,162.127872425
23.557576786,170.748728655
23.247665647,170.631658568
23.100043778,163.698563215
22.937023431,163.699149326
23.069258151,169.728851286
23.101804922,163.980776436
23.037293544,163.491961666
22.994869049,163.627101244
23.084418674,163.32204725
22.910855648,161.840866879
23.28314186,175.26542068
23.106484655,175.312630222
23.030621183,163.628849043
22.936827598,163.752369942
22.982985375,161.500377904
23.083809822,170.063819251
23.023514261,170.282292304
23.153428794,170.401719846
23.075515734,170.652106035
22.978647335,170.480076757
22.843013616,164.070703703
22.346250407,163.934750646
23.245405289,161.681843144
23.080202683,170.732372168
22.880926058,163.671108811
22.832082651,163.22329444
22.316996714,170.499459983
23.096718644,170.533122648
23.353932055,169.620978363
22.322138754,170.171647045
23.106468637,160.771264683
22.366430446,169.664529304
24.416406997,170.516314762
24.444617014,169.08650081
23.961550611,163.924738156
24.02853055,164.522085188
23.989708624,164.298886333
23.729873816,164.82964366
23.8334901,163.583652287
23.611262564,163.433488392
23.865727961,163.800649838
23.931322854,163.723221508
23.882907542,163.6632696
23.890127255,160.747765026
23.810292995,163.905637876
23.269578899,163.991814891
22.661713963,164.374018615
23.284898284,163.698511143
23.175753212,161.523518274
23.37109263,163.950460676
22.693318206,164.771711631
23.181948599,164.372512641
23.124005625,164.732235464
23.198883084,161.750482025
23.421068663,160.7345801
22.559928982,161.284903567
23.163088065,163.047248545
23.116074774,161.399027706
23.033278969,161.632049033
23.139738502,161.079254853
23.267382367,169.82763094
22.646303882,170.587569137
23.070237263,169.793586343
23.022154981,169.321195267
23.059535654,163.582729134
23.175885737,161.433429415
23.381550335,170.398611324
22.517228487,169.796383276
23.189990728,163.267973562
23.150460479,170.721259337
23.020784952,170.563200366
22.931226171,170.356886449
23.318844048,170.154412138
22.574864655,169.804466613
22.925182843,170.070915014
23.103974967,170.454057647
22.996475199,165.539672797
23.156015337,164.115072658
23.005945821,164.664767996
23.406400738,164.044581053
22.843121491,164.281470993
23.254826772,164.600410469
23.324916847,164.508749823
23.232961444,164.282810999
23.002037854,164.756663819
22.63994182,164.169101538
23.032981832,165.627209289
23.435819818,164.620138592
23.914594961,166.522129732
26.512738594,164.71970482
25.132372925,164.22629369
23.597098058,166.310181706
22.9656061,166.05543891
23.02082186,166.458554643
22.745218664,165.336808901
25.25868997,165.847500179
24.995871996,166.196520967
24.672281207,167.083368611
28.733905951,174.221852133
39.477715635,167.331043282
24.769017477,169.99373568
25.056683485,186.380276228
25.952010111,181.692236362
25.181793498,204.906937359
25.532754407,194.563438663
26.119819746,194.588560586
24.740602825,271.839700921
25.141054806,260.378124394
26.069513248,394.029881873
23.22910173,164.23120552
23.233699443,164.721943161
23.002877448,164.167489643
23.334046128,160.615554126
23.226501852,161.189516817
23.180533814,169.717074257
23.017091183,169.207194071
23.22925627,169.495922792
23.269470573,170.222399295
23.201036019,163.88515392
22.865212013,163.817525112
23.212773769,163.835403241
23.19115072,164.044096112
23.070462819,163.827060789
23.200416508,164.072871949
23.120279513,163.825103303
23.006443052,163.858576036
23.151319392,164.58030079
23.252471607,163.774443952
22.962866868,165.420808452
23.165204551,163.786442941
23.066384853,169.252276128
22.793289742,176.831509682
23.121371883,163.870608603
22.426349863,163.651962509
23.22489157,166.49671538
23.039393628,163.995661235
23.092403751,166.24884284
23.012217198,163.173954221
23.272105347,163.424803487
22.442252614,164.4046931
23.061212959,160.63859842
23.128450259,168.891269167
23.02594558,163.805850507
23.094231636,160.690482867
22.604459857,160.774858267
23.113766539,169.324955227
23.013383424,169.269765061
23.114863368,164.199203576
22.380486121,163.188175006
23.067247263,163.582412485
23.076137455,160.426472869
22.366300902,170.796782871
23.05586543,168.974800158
24.516487438,169.057041936
24.380129682,169.532975086
23.80813172,168.86698992
23.905793159,163.801632658
23.830466853,163.481161854
23.936246327,163.737968341
23.977132687,164.275409079
23.797324379,163.956440615
23.814794347,170.616676629
23.652763349,163.314734256
23.724343555,160.689259867
23.769308519,170.577867809
23.734647962,169.930652782
23.783998671,169.043384452
23.34554193,169.670833811
23.351391709,163.551642611
23.152989597,160.942809974
23.370355556,160.734172394
22.75760549,160.712354404
23.256087141,161.6140928
23.237060575,160.610020066
23.26109713,169.251061061
22.746106845,169.173897763
23.35351504,169.184383245
23.282660189,163.932931801
23.196152248,164.136189773
23.275712512,163.984472107
22.674619141,163.555152885
23.227763348,166.537084659
23.174542742,165.606722695
23.184952181,164.442285828
23.346607882,164.554088616
22.67313437,163.77693448
23.130670898,163.935597172
23.260801711,164.16828904
23.051637063,164.329546351
23.051516164,163.464948539
23.137025753,163.976293298
22.612338281,163.924354143
23.189458353,164.482982499
23.191310184,164.139256668
23.151399839,163.90927244
23.065719159,164.128699797
23.187956017,160.540361722
22.600984964,160.786889889
23.187121513,160.879948124
23.065338723,163.793140542
23.439945361,163.658577044
23.0464883,161.098068463
23.088688558,169.335133227
23.178031548,169.840837921
22.572413003,169.22551531
23.161363009,170.054556399
23.131451176,163.136776333
23.080705248,168.593319454
22.945886938,170.273126878
23.096185419,170.747147831
22.534804251,170.748580785
23.176957289,170.599795693
23.057240389,168.524174761
22.873482432,169.206414239
22.549922872,174.51185002
23.16203527,175.630132593
22.947607411,164.30086375
22.535718875,164.567985746
24.518011958,164.337624397
24.554679424,163.792690604
24.80857037,164.685324796
24.578130049,163.840376822
23.481986584,164.360121678
23.614445307,164.441249499
23.633355891,163.990995738
23.164988645,164.032192131
23.270290087,163.810532335
23.338574002,164.480472555
23.20929122,163.707106347
23.140823116,163.580499045
23.382776539,163.895258083
23.070720378,163.868708238
23.175079679,164.760576835
23.119623201,163.940747267
23.253181547,164.078705955
23.04115579,164.539606238
23.40919018,163.581267976
23.574411365,163.998784239
23.709649782,164.438323021
23.309457097,164.195261183
23.561821576,164.892018538
23.200975977,163.806730379
22.817222871,164.536358732
24.536889786,164.713717774
25.751343507,164.828717851
27.419303389,164.531487291
26.906958739,164.045371157
24.776826734,164.539109799
23.607946567,161.269824396
22.660359308,162.011545829
23.736972058,182.19405331
23.496643375,185.739245884
24.434749933,205.891804962
28.12306549,195.219796455
44.339349483,168.648527904
28.605634347,174.904358252
24.085990212,166.447144014
23.920373589,179.676224077
24.01245922,186.793883885
25.761128238,176.303822897
24.402657025,197.104145287
24.003483442,201.015047946
22.861742195,188.128885584
23.186466099,163.774321008
22.975477415,164.587921312
23.005822339,163.397668346
23.256903573,163.245923147
22.319273101,160.914022187
23.068151308,174.906685739
23.052592251,163.522272244
22.378408242,164.172409478
23.085480526,163.435488589
24.558341711,163.055950497
24.592041563,163.922247495
24.30236829,163.221011087
24.242036874,164.10712779
24.559596121,162.837083761
24.412194017,160.664334452
24.238930302,160.81742503
24.171247533,175.452457642
24.185911315,182.251667423
24.032278319,163.369551812
24.310199241,163.251004104
24.002763221,163.513424456
24.182970388,161.112887013
24.459322685,173.082330492
24.17038364,171.048877247
23.962024607,163.413968296
24.339904501,163.281970615
24.356090846,172.931611538
24.08117039,169.598861028
24.079009534,169.386592962
24.181618307,169.580555548
23.511420303,169.241093704
23.52835535,164.217285158
22.772009685,164.017827
23.448392187,163.610355051
23.275929667,163.666675962
23.172430854,163.962864348
22.693891511,163.260814138
23.629822474,160.605877512
23.249407392,170.854981592
23.265277869,163.331508767
23.38415689,160.592653036
22.755750869,165.358492329
23.403992186,160.744670965
23.303991796,160.742570353
23.280575712,161.309012483
23.187968503,161.133537134
22.686367828,170.408895426
23.617733112,169.658002375
23.188439371,169.74100953
23.288683073,168.682315407
23.09916127,163.233696217
23.193801365,160.59834593
22.627179116,160.592190403
23.166928866,162.470687753
23.15100535,168.639843584
23.400659598,169.833436448
23.274258025,169.695797477
23.387065857,163.496581716
22.610479537,163.70984838
23.276516982,164.463634723
23.306886071,163.796244001
23.116929807,163.706210404
23.294112645,163.86691024
23.193978581,164.073299759
22.549184835,163.539042503
23.052339156,164.225548798
23.121445466,163.889551104
23.379582491,163.945801593
23.361659948,163.946758531
23.21996875,163.823911166
23.182872763,164.09041417
22.597562552,163.543499396
22.960891084,164.011490773
23.190217952,164.202680576
23.167574119,163.34460411
23.092837815,163.45160693
23.194939098,163.637942944
23.166845808,163.323499968
22.603379006,160.354344799
23.054051517,164.074142327
23.150281899,170.521233987
23.355146164,168.616558388
22.581045382,171.14706955
22.890014234,169.699613897
24.570158252,168.472234142
24.535288635,168.763302029
24.553569096,170.540033042
24.750913029,170.472589932
23.707842571,171.112301365
22.941737751,169.405389373
23.686299692,169.722761203
23.195759885,169.649846568
23.243825349,174.700898178
23.211810246,165.582188298
23.320243329,164.548152834
23.361401387,164.612036153
23.264081136,165.33989886
23.211871586,163.847811848
23.228536279,163.84894907
22.680722659,164.30078806
23.242305006,163.782934114
22.904549292,164.031724333
22.867686052,164.312233095
23.171339781,163.659267973
23.219213248,164.534381202
22.575702546,164.719810812
23.153203787,164.084857034
23.169359839,164.14545772
22.976265082,164.342791865
22.856563617,164.119941629
23.146962975,164.125800554
23.264449808,164.066471951
22.534520264,164.385404539
23.333198088,163.765411982
23.278283065,166.769599333
22.992284813,163.651783203
23.146458913,164.430692005
23.017774525,164.265844528
23.23745659,163.652694925
22.453018564,163.947753946
22.921042152,164.634170085
23.273886614,163.762958733
23.135443681,163.940308145
23.200304196,163.873379313
23.101165626,164.759277426
23.431831928,161.925383807
22.588790539,164.721529801
23.37428008,161.522447308
23.310061164,163.346323954
22.57337109,164.210184448
23.287205285,164.026008534
24.969521461,164.308805426
25.159811956,163.849385276
22.96824755,163.5612953
23.958106967,164.260081904
24.465614586,164.333215592
25.093843816,164.681185608
24.912901824,164.882590976
29.313975963,163.859532042
32.342940684,163.700754744
31.292180309,164.105341521
25.128867281,164.342695348
26.80523733,164.54430247
25.623133006,165.224627771
27.400312926,174.964720614
30.839947612,175.217536344
52.004519659,207.921975327
48.40209525,205.056826104
39.993217043,254.380838782
30.685942999,171.504415362
25.788078248,174.220730884
23.493024533,174.809741099
24.476601216,182.442177808
24.275226021,188.44056416
23.360123205,164.384946448
23.51992514,161.881597831
23.555067665,169.001239135
22.881850027,168.462201016
23.504694364,167.780231727
23.493115677,164.752659278
23.335403455,163.057280135
23.403445096,163.518271897
23.445480376,163.309999965
22.74318131,163.251547701
23.510712173,167.6180993
23.247373742,168.162972151
23.388484063,168.76707463
23.279004198,163.901567947
23.372516769,163.248957465
22.704320637,160.080672434
23.498499387,170.059057886
23.288484224,174.686256168
23.363387558,175.089667477
23.188059105,184.924269058
23.280345903,172.234052832
22.710559707,163.273784906
22.991390729,161.127186458
23.432516481,163.382527068
23.263947889,163.103247768
23.332877703,163.174598098
23.286146411,163.375190477
23.424837247,161.012046101
22.762151157,160.300791968
23.023758836,160.863251742
23.417467722,160.231162632
23.279360027,170.338549274
23.358282367,163.050870827
23.406795022,163.247091599
23.438214788,160.213902596
22.753891226,160.61676653
23.140490052,161.193967672
23.195173779,170.583551466
23.572640829,168.432673327
22.731224216,168.16499966
23.204772778,168.454172222
24.875413535,160.197183033
24.878388817,180.334188204
24.756467118,171.846923121
35.023068226,171.115151255
24.735549079,163.830932205
24.557956588,164.029349072
43.026959395,164.414442554
41.567854701,164.350877004
70.071753495,163.57143869
31.130567023,163.541112371
61.355051134,164.54804897
44.357529928,163.552048613
66.969147652,163.804385075
33.686775109,163.711512746
87.824905624,163.819541061
35.121130225,164.164119638
112.353794435,164.136981986
34.945288776,165.050625623
59.114928609,163.525722938
54.525834217,163.528696182
58.788087521,163.741345737
71.240138613,164.028025162
56.338865271,163.552496467
58.30907065,163.681153583
34.879383451,163.633180419
23.440113993,163.677107452
23.44800824,167.832962888
23.622739009,167.979973029
23.498611638,167.538920635
23.498427891,167.257524206
23.511979147,184.568698183
23.526873745,178.72502539
23.379859137,172.837501644
23.342353185,170.816669166
22.734843208,170.366673265
23.331687574,164.751241207
23.101010815,164.415381424
23.366605515,164.554771747
23.279734299,164.027770648
22.640987688,164.697009125
23.277385912,163.984907227
23.173446618,163.794763545
23.333342498,164.415832719
23.255841277,164.190234822
23.37457847,163.876991905
23.551997305,163.659162756
22.699689564,164.627484284
23.107446809,163.689369768
23.162623375,164.270816486
23.385054247,163.921332708
23.326566237,164.035201229
23.287335461,164.583875195
23.271778883,164.017010005
22.806328696,164.338884909
23.047430282,164.359658063
22.976248571,164.000042472
23.138194578,163.613451906
23.389436254,164.33378826
23.385500087,163.718663599
23.561811606,163.766494174
22.808001473,163.786419071
23.080599687,163.845553353
23.181358135,164.344256295
23.153877428,164.263729938
23.253312983,163.996865785
22.933377784,164.039527019
23.103846307,163.941811697
23.562351442,164.680054809
24.689188257,160.719155582
24.681348085,164.585697999
54.399582894,160.682977743
22.981963398,160.759646349
23.350764727,184.747076555
23.238624981,190.67066626
23.177444761,190.309408174
23.337289547,174.569024472
24.297822264,163.66936775
23.229719494,163.72097085
23.327328923,163.756902067
23.000912694,163.55256752
23.518169127,163.912582951
24.163328677,163.72335986
23.73971588,164.64929003
23.645588064,163.756201204
23.266198586,163.396414198
23.593364173,163.592055443
23.311366961,163.322311375
23.684374073,164.143783023
23.539649295,165.039792813
23.410382232,161.198778308
23.461495307,163.525476328
23.949971563,161.639600006
23.78104649,161.010021923
24.363959644,163.633851663
24.315001561,163.38643439
24.532745207,164.932680552
24.385987172,164.274634083
23.534842658,163.992402235
28.132172219,165.272068867
24.429740815,164.572083594
25.931415733,164.758819172
27.725867135,163.955473647
26.346277723,163.619957609
27.349252563,164.072601863
27.447389444,167.215361754
45.211774258,179.351041726
32.347604752,177.528136366
31.124773691,226.342640345
55.852530599,229.822947197
64.149164237,219.503637479
64.329426966,234.432870118
43.658823911,207.908565855
40.511684826,193.171046639
