gamma_s,gamma_h,alpha,sencitivity,ppv,fmeasure,time
1.0,1.0,0.3,0.0,NaN,NaN,26.400506638
1.0,1.0,,0.0,NaN,NaN,23.865905653
1.0,2.0,,0.0,NaN,NaN,26.405610612
1.0,2.0,0.9,0.2727272727272727,1.0,0.42857142857142855,23.914555562
1.0,4.0,0.9,0.9090909090909091,1.0,0.9523809523809523,26.303048054
1.0,4.0,0.7,0.9090909090909091,1.0,0.9523809523809523,23.897393266
1.0,8.0,0.5,0.9545454545454546,0.9545454545454546,0.9545454545454546,26.371699734
1.0,8.0,0.1,0.9545454545454546,0.9545454545454546,0.9545454545454546,23.996816216
1.0,16.0,0.1,0.9545454545454546,0.9545454545454546,0.9545454545454546,26.303769882
1.0,2.0,0.7,0.2727272727272727,1.0,0.42857142857142855,26.399459728
1.0,16.0,,0.0,NaN,NaN,23.829414421
1.0,1.0,0.5,0.0,NaN,NaN,26.456624444
1.0,1.0,0.1,0.0,NaN,NaN,26.44455904
1.0,8.0,,0.0,NaN,NaN,23.848196249
1.0,1.0,0.7,0.0,NaN,NaN,26.429609043
1.0,32.0,,0.0,NaN,NaN,26.512711809
1.0,4.0,0.3,0.9090909090909091,1.0,0.9523809523809523,26.374090498
1.0,1.0,0.9,0.0,NaN,NaN,26.427627837
1.0,2.0,0.5,0.2727272727272727,1.0,0.42857142857142855,26.394955367
1.0,4.0,,0.0,NaN,NaN,26.32710489
2.0,1.0,0.7,0.0,NaN,NaN,26.325156453
1.0,2.0,0.3,0.2727272727272727,1.0,0.42857142857142855,26.444093331
1.0,2.0,0.1,0.2727272727272727,1.0,0.42857142857142855,26.420400123
1.0,32.0,0.9,0.9545454545454546,0.9545454545454546,0.9545454545454546,23.930938756
1.0,16.0,0.9,0.9545454545454546,0.9545454545454546,0.9545454545454546,26.205484636
2.0,1.0,0.3,0.0,NaN,NaN,23.813369187
1.0,4.0,0.5,0.9090909090909091,1.0,0.9523809523809523,26.314608022
2.0,2.0,0.1,0.2727272727272727,1.0,0.42857142857142855,23.777932221
1.0,32.0,0.5,0.9545454545454546,0.9545454545454546,0.9545454545454546,26.216456479
1.0,4.0,0.1,0.9090909090909091,1.0,0.9523809523809523,26.281240747
1.0,8.0,0.3,0.9545454545454546,0.9545454545454546,0.9545454545454546,26.327543189
1.0,8.0,0.7,0.9545454545454546,0.9545454545454546,0.9545454545454546,26.320527468
2.0,2.0,0.7,0.2727272727272727,1.0,0.42857142857142855,23.704792144
1.0,8.0,0.9,0.9545454545454546,0.9545454545454546,0.9545454545454546,26.260379186
2.0,1.0,0.1,0.0,NaN,NaN,26.103083823
2.0,1.0,,0.0,NaN,NaN,26.161405889
1.0,16.0,0.3,0.9545454545454546,0.9545454545454546,0.9545454545454546,26.25670026
1.0,16.0,0.5,0.9545454545454546,0.9545454545454546,0.9545454545454546,26.225058398
1.0,32.0,0.1,0.9545454545454546,0.9545454545454546,0.9545454545454546,26.223423907
1.0,16.0,0.7,0.9545454545454546,0.9545454545454546,0.9545454545454546,26.260098713
1.0,32.0,0.3,0.9545454545454546,0.9545454545454546,0.9545454545454546,26.25445403
1.0,32.0,0.7,0.9545454545454546,0.9545454545454546,0.9545454545454546,26.214969481
2.0,1.0,0.5,0.0,NaN,NaN,26.229708377
2.0,2.0,0.3,0.2727272727272727,1.0,0.42857142857142855,26.244457293
2.0,1.0,0.9,0.0,NaN,NaN,26.210445632
2.0,2.0,0.5,0.2727272727272727,1.0,0.42857142857142855,26.217254409
2.0,2.0,0.9,0.2727272727272727,1.0,0.42857142857142855,27.487463461
2.0,2.0,,0.0,NaN,NaN,27.43661158
2.0,4.0,0.7,0.9090909090909091,1.0,0.9523809523809523,27.89305411
2.0,16.0,0.1,0.9545454545454546,0.9545454545454546,0.9545454545454546,25.412856017
2.0,8.0,0.3,0.9545454545454546,0.9545454545454546,0.9545454545454546,25.684152799
2.0,8.0,,0.0,NaN,NaN,23.578725207
2.0,8.0,0.5,0.9545454545454546,0.9545454545454546,0.9545454545454546,25.734069352
2.0,8.0,0.7,0.9545454545454546,0.9545454545454546,0.9545454545454546,25.664296512
2.0,8.0,0.9,0.9545454545454546,0.9545454545454546,0.9545454545454546,25.69285141
2.0,4.0,0.1,0.9090909090909091,1.0,0.9523809523809523,29.790620913
2.0,16.0,0.5,0.9545454545454546,0.9545454545454546,0.9545454545454546,23.330986198
2.0,16.0,0.3,0.9545454545454546,0.9545454545454546,0.9545454545454546,23.473698664
2.0,4.0,0.3,0.9090909090909091,1.0,0.9523809523809523,30.012482342
2.0,4.0,,0.0,NaN,NaN,29.349549798
2.0,4.0,0.5,0.9090909090909091,1.0,0.9523809523809523,28.723558567
2.0,4.0,0.9,0.9090909090909091,1.0,0.9523809523809523,29.714092266
2.0,8.0,0.1,0.9545454545454546,0.9545454545454546,0.9545454545454546,33.459778236
4.0,1.0,,0.0,NaN,NaN,23.357070006
4.0,2.0,0.1,0.2727272727272727,1.0,0.42857142857142855,22.631402094
4.0,2.0,0.3,0.2727272727272727,1.0,0.42857142857142855,23.15201332
4.0,2.0,0.5,0.2727272727272727,1.0,0.42857142857142855,22.824104829
2.0,16.0,0.7,0.9545454545454546,0.9545454545454546,0.9545454545454546,33.435158945
2.0,16.0,0.9,0.9545454545454546,0.9545454545454546,0.9545454545454546,29.375966669
2.0,16.0,,0.0,NaN,NaN,32.904973413
2.0,32.0,0.1,0.9545454545454546,0.9545454545454546,0.9545454545454546,33.284156424
2.0,32.0,0.5,0.9545454545454546,0.9545454545454546,0.9545454545454546,33.153132208
2.0,32.0,0.3,0.9545454545454546,0.9545454545454546,0.9545454545454546,32.627328481
2.0,32.0,0.7,0.9545454545454546,0.9545454545454546,0.9545454545454546,33.424567802
2.0,32.0,,0.0,NaN,NaN,32.677263513
2.0,32.0,0.9,0.9545454545454546,0.9545454545454546,0.9545454545454546,33.41852587
4.0,1.0,0.3,0.0,NaN,NaN,33.616514343
4.0,1.0,0.9,0.0,NaN,NaN,33.411095354
4.0,1.0,0.7,0.0,NaN,NaN,33.034249357
4.0,1.0,0.1,0.0,NaN,NaN,29.221946675
4.0,1.0,0.5,0.0,NaN,NaN,32.29952044
4.0,2.0,0.7,0.2727272727272727,1.0,0.42857142857142855,29.954362102
4.0,2.0,0.9,0.2727272727272727,1.0,0.42857142857142855,29.6855985
4.0,2.0,,0.0,NaN,NaN,29.741329042
4.0,4.0,0.1,0.9090909090909091,1.0,0.9523809523809523,27.055043887
4.0,4.0,0.3,0.9090909090909091,1.0,0.9523809523809523,26.869492838
4.0,4.0,0.5,0.9090909090909091,1.0,0.9523809523809523,26.663829412
4.0,4.0,0.7,0.9090909090909091,1.0,0.9523809523809523,26.53125912
4.0,4.0,,0.0,NaN,NaN,26.391003101
4.0,4.0,0.9,0.9090909090909091,1.0,0.9523809523809523,26.502344765
4.0,8.0,0.1,0.9545454545454546,0.9545454545454546,0.9545454545454546,26.717112313
4.0,32.0,,0.0,NaN,NaN,23.830116017
4.0,8.0,0.3,0.9545454545454546,0.9545454545454546,0.9545454545454546,26.428877847
4.0,8.0,0.5,0.9545454545454546,0.9545454545454546,0.9545454545454546,26.587052741
4.0,8.0,,0.0,NaN,NaN,26.364880351
4.0,8.0,0.7,0.9545454545454546,0.9545454545454546,0.9545454545454546,26.346605056
8.0,1.0,,0.0,NaN,NaN,23.895250413
4.0,8.0,0.9,0.9545454545454546,0.9545454545454546,0.9545454545454546,26.431785733
4.0,16.0,0.1,0.9545454545454546,0.9545454545454546,0.9545454545454546,26.381087699
8.0,2.0,0.9,0.2727272727272727,1.0,0.42857142857142855,23.960931261
4.0,16.0,0.5,0.9545454545454546,0.9545454545454546,0.9545454545454546,26.345420318
4.0,16.0,0.3,0.9545454545454546,0.9545454545454546,0.9545454545454546,26.435491742
4.0,16.0,,0.0,NaN,NaN,26.492999966
8.0,4.0,0.5,0.8636363636363636,1.0,0.9268292682926829,23.900806175
4.0,16.0,0.7,0.9545454545454546,0.9545454545454546,0.9545454545454546,26.406090972
4.0,16.0,0.9,0.9545454545454546,0.9545454545454546,0.9545454545454546,26.509902114
4.0,32.0,0.1,0.9545454545454546,0.9545454545454546,0.9545454545454546,26.42990447
4.0,32.0,0.5,0.9545454545454546,0.9545454545454546,0.9545454545454546,26.447041236
4.0,32.0,0.3,0.9545454545454546,0.9545454545454546,0.9545454545454546,26.446248241
4.0,32.0,0.9,0.9545454545454546,0.9545454545454546,0.9545454545454546,26.420218532
8.0,8.0,0.1,0.7272727272727273,0.9411764705882353,0.8205128205128205,23.904854991
4.0,32.0,0.7,0.9545454545454546,0.9545454545454546,0.9545454545454546,26.420429228
8.0,1.0,0.1,0.0,NaN,NaN,26.465614378
8.0,8.0,,0.0,NaN,NaN,23.990986928
8.0,1.0,0.5,0.0,NaN,NaN,26.604230497
8.0,1.0,0.3,0.0,NaN,NaN,26.448070045
8.0,1.0,0.7,0.0,NaN,NaN,26.48280397
8.0,1.0,0.9,0.0,NaN,NaN,26.424917035
8.0,16.0,,0.0,NaN,NaN,23.96459223
8.0,2.0,0.1,0.2727272727272727,1.0,0.42857142857142855,26.470736185
8.0,2.0,0.3,0.2727272727272727,1.0,0.42857142857142855,26.389530592
8.0,32.0,0.7,0.9545454545454546,0.9545454545454546,0.9545454545454546,23.970110256
8.0,2.0,0.5,0.2727272727272727,1.0,0.42857142857142855,26.440479775
8.0,2.0,,0.0,NaN,NaN,26.445056427
8.0,2.0,0.7,0.2727272727272727,1.0,0.42857142857142855,26.486997478
16.0,1.0,0.3,0.0,NaN,NaN,23.902951009
8.0,4.0,0.1,0.6818181818181818,1.0,0.8108108108108109,26.479309579
8.0,4.0,0.7,0.8636363636363636,1.0,0.9268292682926829,26.394451585
8.0,4.0,0.3,0.6818181818181818,1.0,0.8108108108108109,26.352508532
8.0,4.0,0.9,0.8636363636363636,1.0,0.9268292682926829,26.157952133
8.0,4.0,,0.0,NaN,NaN,26.20425157
8.0,8.0,0.3,0.9090909090909091,0.9523809523809523,0.9302325581395349,26.177794447
8.0,8.0,0.7,0.9090909090909091,0.9523809523809523,0.9302325581395349,26.197721154
16.0,1.0,,0.0,NaN,NaN,23.662154616
8.0,8.0,0.5,0.9090909090909091,0.9523809523809523,0.9302325581395349,26.218164113
8.0,8.0,0.9,0.9545454545454546,0.9545454545454546,0.9545454545454546,26.144363311
8.0,16.0,0.5,0.9545454545454546,0.9545454545454546,0.9545454545454546,26.162291974
8.0,16.0,0.3,0.9090909090909091,0.9523809523809523,0.9302325581395349,26.215390277
16.0,2.0,0.3,0.2727272727272727,1.0,0.42857142857142855,23.723901518
8.0,32.0,0.1,0.9090909090909091,0.9523809523809523,0.9302325581395349,26.217311054
8.0,16.0,0.1,0.7272727272727273,0.9411764705882353,0.8205128205128205,26.247269326
8.0,32.0,,0.0,NaN,NaN,26.173199242
8.0,16.0,0.9,0.9545454545454546,0.9545454545454546,0.9545454545454546,26.178245625
8.0,32.0,0.9,0.9545454545454546,0.9545454545454546,0.9545454545454546,26.180630527
8.0,16.0,0.7,0.9545454545454546,0.9545454545454546,0.9545454545454546,26.169529452
16.0,1.0,0.5,0.0,NaN,NaN,26.214348601
8.0,32.0,0.5,0.9545454545454546,0.9545454545454546,0.9545454545454546,26.254717909
8.0,32.0,0.3,0.9545454545454546,0.9545454545454546,0.9545454545454546,26.241556762
16.0,1.0,0.9,0.0,NaN,NaN,26.291470703
16.0,1.0,0.7,0.0,NaN,NaN,26.274129445
16.0,1.0,0.1,0.0,NaN,NaN,26.158317357
16.0,2.0,0.1,0.2727272727272727,1.0,0.42857142857142855,26.216769415
16.0,4.0,0.5,0.7727272727272727,1.0,0.8717948717948718,23.398051914
16.0,4.0,0.7,0.7727272727272727,1.0,0.8717948717948718,23.399787072
16.0,2.0,0.5,0.2727272727272727,1.0,0.42857142857142855,29.373232077
16.0,2.0,0.7,0.2727272727272727,1.0,0.42857142857142855,29.828214802
16.0,4.0,,0.0,NaN,NaN,23.436942377
16.0,4.0,0.9,0.7727272727272727,1.0,0.8717948717948718,23.530684314
16.0,2.0,0.9,0.2727272727272727,1.0,0.42857142857142855,33.034621429
16.0,2.0,,0.0,NaN,NaN,29.608565013
16.0,4.0,0.3,0.5909090909090909,1.0,0.7428571428571429,32.870984595
16.0,4.0,0.1,0.5909090909090909,1.0,0.7428571428571429,32.600827169
16.0,8.0,0.1,0.6818181818181818,0.9375,0.7894736842105263,33.377970341
16.0,8.0,0.3,0.7727272727272727,0.9444444444444444,0.85,32.744772199
16.0,8.0,0.7,0.9090909090909091,0.9523809523809523,0.9302325581395349,33.183252794
16.0,8.0,0.5,0.8181818181818182,0.9473684210526315,0.8780487804878049,33.798752436
16.0,8.0,0.9,0.9090909090909091,0.9523809523809523,0.9302325581395349,34.171224256
16.0,8.0,,0.0,NaN,NaN,32.479373092
16.0,16.0,0.1,0.7727272727272727,0.9444444444444444,0.85,32.390736646
16.0,16.0,0.3,0.8181818181818182,0.9473684210526315,0.8780487804878049,33.878297978
16.0,16.0,0.5,0.9090909090909091,0.9523809523809523,0.9302325581395349,33.173627357
16.0,16.0,0.7,0.9090909090909091,0.9523809523809523,0.9302325581395349,33.84633651
16.0,16.0,0.9,0.9545454545454546,0.9545454545454546,0.9545454545454546,31.81418198
16.0,16.0,,0.0,NaN,NaN,32.885061242
16.0,32.0,0.1,0.7727272727272727,0.9444444444444444,0.85,32.813269984
16.0,32.0,0.3,0.9090909090909091,0.9523809523809523,0.9302325581395349,30.829833814
16.0,32.0,0.5,0.9545454545454546,0.9545454545454546,0.9545454545454546,29.589439755
16.0,32.0,0.7,0.9545454545454546,0.9545454545454546,0.9545454545454546,29.436087533
16.0,32.0,0.9,0.9545454545454546,0.9545454545454546,0.9545454545454546,29.455907786
16.0,32.0,,0.0,NaN,NaN,27.823138311
32.0,1.0,0.3,0.0,NaN,NaN,26.598684891
32.0,1.0,0.1,0.0,NaN,NaN,26.55618328
32.0,1.0,0.5,0.0,NaN,NaN,26.546784115
32.0,1.0,,0.0,NaN,NaN,26.45794448
32.0,1.0,0.9,0.0,NaN,NaN,26.637653549
32.0,2.0,0.1,0.2727272727272727,1.0,0.42857142857142855,24.31671557
32.0,1.0,0.7,0.0,NaN,NaN,26.428125353
32.0,2.0,0.9,0.2727272727272727,1.0,0.42857142857142855,26.397397532
32.0,2.0,0.7,0.2727272727272727,1.0,0.42857142857142855,26.458775159
32.0,2.0,0.3,0.2727272727272727,1.0,0.42857142857142855,26.4008162
32.0,2.0,,0.0,NaN,NaN,24.064416665
32.0,2.0,0.5,0.2727272727272727,1.0,0.42857142857142855,26.546717111
32.0,4.0,0.1,0.5909090909090909,1.0,0.7428571428571429,26.354511369
32.0,4.0,0.7,0.6818181818181818,1.0,0.8108108108108109,26.605274748
32.0,4.0,0.5,0.5909090909090909,1.0,0.7428571428571429,26.713068519
32.0,4.0,0.3,0.5909090909090909,1.0,0.7428571428571429,26.440347182
32.0,4.0,,0.0,NaN,NaN,24.038159707
32.0,4.0,0.9,0.7727272727272727,1.0,0.8717948717948718,26.40834866
32.0,8.0,0.1,0.6818181818181818,0.9375,0.7894736842105263,26.321105117
32.0,8.0,0.7,0.7727272727272727,0.9444444444444444,0.85,24.025794734
32.0,8.0,0.5,0.7727272727272727,0.9444444444444444,0.85,26.350664429
32.0,8.0,,0.0,NaN,NaN,26.365474046
32.0,8.0,0.3,0.6818181818181818,0.9375,0.7894736842105263,26.38242898
32.0,16.0,0.3,0.7727272727272727,0.9444444444444444,0.85,24.021965325
32.0,8.0,0.9,0.8181818181818182,0.9473684210526315,0.8780487804878049,26.488680704
32.0,16.0,0.1,0.6818181818181818,0.9375,0.7894736842105263,26.53440314
32.0,16.0,0.9,0.9090909090909091,0.9523809523809523,0.9302325581395349,26.410121456
32.0,16.0,,0.0,NaN,NaN,24.038169554
32.0,16.0,0.7,0.8181818181818182,0.9473684210526315,0.8780487804878049,26.438825066
32.0,16.0,0.5,0.8181818181818182,0.9473684210526315,0.8780487804878049,26.493814575
32.0,32.0,0.3,0.8181818181818182,0.9473684210526315,0.8780487804878049,26.462963546
32.0,32.0,,0.0,NaN,NaN,24.098353526
32.0,32.0,0.7,0.9090909090909091,0.9523809523809523,0.9302325581395349,26.493878583
32.0,32.0,0.9,0.9545454545454546,0.9545454545454546,0.9545454545454546,26.476698937
32.0,32.0,0.5,0.9090909090909091,0.9523809523809523,0.9302325581395349,26.541265188
32.0,32.0,0.1,0.7727272727272727,0.9444444444444444,0.85,26.526995913
