gamma_s,gamma_h,alpha,sencitivity,ppv,fmeasure,time
0.0625,0.0625,0.3,NaN,NaN,NaN,21.274252415
0.0625,0.0625,0.4,NaN,NaN,NaN,23.455954964
0.0625,0.0625,0.1,NaN,NaN,NaN,23.469349027
0.0625,0.0625,0.6,NaN,NaN,NaN,23.5449549
0.0625,0.125,0.05,NaN,NaN,NaN,23.541026812
0.0625,0.0625,1.0,NaN,NaN,NaN,21.175386
0.0625,0.0625,0.7,NaN,NaN,NaN,23.145091806
0.0625,0.0625,0.8,NaN,NaN,NaN,23.514210117
0.0625,0.0625,0.5,NaN,NaN,NaN,23.209021288
0.0625,0.125,0.4,NaN,NaN,NaN,23.476629167
0.0625,0.125,0.2,NaN,NaN,NaN,23.550427829
0.0625,0.125,0.7,NaN,NaN,NaN,23.630050617
0.0625,0.0625,0.2,NaN,NaN,NaN,23.103200836
0.0625,0.125,0.3,NaN,NaN,NaN,23.42513204
0.0625,0.125,0.9,NaN,NaN,NaN,23.410787179
0.0625,0.125,0.1,NaN,NaN,NaN,23.38300891
0.0625,0.0625,0.9,NaN,NaN,NaN,23.055381922
0.0625,0.125,0.6,NaN,NaN,NaN,21.324566644
0.0625,0.125,0.5,NaN,NaN,NaN,23.035883816
0.0625,0.25,0.2,NaN,NaN,NaN,21.177002726
0.0625,0.125,0.8,NaN,NaN,NaN,23.353828773
0.0625,0.25,0.05,NaN,NaN,NaN,23.482955212
0.0625,0.25,0.1,NaN,NaN,NaN,23.396354088
0.0625,0.125,1.0,NaN,NaN,NaN,23.458918026
0.0625,0.25,0.4,NaN,NaN,NaN,23.131207903
0.0625,0.25,0.9,NaN,NaN,NaN,21.114527868
0.0625,0.25,0.5,NaN,NaN,NaN,23.399982745
0.0625,0.25,0.7,NaN,NaN,NaN,23.446379324
0.0625,0.5,0.05,NaN,0.0,NaN,23.334752011
0.0625,0.25,0.3,NaN,NaN,NaN,23.348368433
0.0625,0.25,0.6,NaN,NaN,NaN,23.005516734
0.0625,0.25,1.0,NaN,NaN,NaN,23.41843778
0.0625,0.25,0.8,NaN,NaN,NaN,23.381475669
0.0625,0.5,0.4,NaN,0.0,NaN,23.365190601
0.0625,0.5,0.6,NaN,0.0,NaN,23.405746062
0.0625,0.5,0.2,NaN,0.0,NaN,23.043512064
0.0625,0.5,0.1,NaN,0.0,NaN,23.447987841
0.0625,0.5,0.8,NaN,0.0,NaN,23.377523836
0.0625,1.0,0.1,NaN,0.0,NaN,23.353545226
0.0625,0.5,0.9,NaN,0.0,NaN,23.394947851
0.0625,0.5,0.5,NaN,0.0,NaN,21.113595869
0.0625,0.5,0.7,NaN,0.0,NaN,23.110746828
0.0625,0.5,0.3,NaN,0.0,NaN,23.456663512
0.0625,1.0,0.2,NaN,0.0,NaN,23.407786009
0.0625,0.5,1.0,NaN,0.0,NaN,23.482200531
0.0625,1.0,0.3,NaN,0.0,NaN,21.093788311
0.0625,1.0,0.05,NaN,0.0,NaN,21.096408321
0.0625,1.0,0.4,NaN,0.0,NaN,21.14232135
0.0625,1.0,0.8,NaN,0.0,NaN,25.514664817
0.0625,1.0,0.9,NaN,0.0,NaN,25.483327142
0.0625,2.0,0.05,NaN,0.0,NaN,25.531564572
0.0625,1.0,1.0,NaN,0.0,NaN,25.499568286
0.0625,2.0,0.1,NaN,0.0,NaN,25.445914045
0.0625,2.0,0.2,NaN,0.0,NaN,25.402362852
0.0625,2.0,0.9,NaN,0.0,NaN,23.081957948
0.0625,2.0,0.6,NaN,0.0,NaN,23.169422905
0.0625,2.0,0.3,NaN,0.0,NaN,23.208027239
0.0625,2.0,0.4,NaN,0.0,NaN,23.164747796
0.0625,4.0,0.5,NaN,0.0,NaN,23.113593438
0.0625,2.0,0.5,NaN,0.0,NaN,23.135116643
0.0625,4.0,0.05,NaN,0.0,NaN,23.231679196
0.0625,2.0,0.8,NaN,0.0,NaN,20.745964512
0.0625,1.0,0.5,NaN,0.0,NaN,23.083190065
0.0625,1.0,0.6,NaN,0.0,NaN,23.528165514
0.0625,2.0,0.7,NaN,0.0,NaN,23.173857289
0.0625,4.0,0.4,NaN,0.0,NaN,20.690411326
0.0625,2.0,1.0,NaN,0.0,NaN,23.103636025
0.0625,4.0,0.3,NaN,0.0,NaN,22.892729916
0.0625,4.0,0.1,NaN,0.0,NaN,23.121620586
0.0625,4.0,0.7,NaN,0.0,NaN,23.105419704
0.0625,8.0,0.1,NaN,0.0,NaN,23.144318729
0.0625,8.0,0.05,NaN,0.0,NaN,23.106007939
0.0625,4.0,0.6,NaN,0.0,NaN,22.932771104
0.0625,4.0,0.8,NaN,0.0,NaN,22.867953785
0.0625,4.0,0.2,NaN,0.0,NaN,23.136701396
0.0625,4.0,1.0,NaN,0.0,NaN,20.716505923
0.0625,1.0,0.7,NaN,0.0,NaN,23.78969589
0.0625,8.0,0.2,NaN,0.0,NaN,20.723977353
0.0625,4.0,0.9,NaN,0.0,NaN,23.474087025
0.0625,8.0,0.3,NaN,0.0,NaN,20.72707738
0.0625,64.0,0.6,NaN,0.0,NaN,22.910925352
0.0625,32.0,0.9,NaN,0.0,NaN,23.262185306
0.0625,64.0,0.5,NaN,0.0,NaN,23.064949179
0.0625,32.0,0.8,NaN,0.0,NaN,23.152042556
0.0625,64.0,0.2,NaN,0.0,NaN,22.925635027
0.0625,64.0,0.05,NaN,0.0,NaN,23.242329644
0.0625,64.0,0.1,NaN,0.0,NaN,23.201305192
0.0625,64.0,0.4,NaN,0.0,NaN,23.052480346
0.0625,128.0,0.1,NaN,0.0,NaN,22.828411688
0.0625,128.0,0.05,NaN,0.0,NaN,22.940158463
0.0625,128.0,0.7,NaN,0.0,NaN,23.013594559
0.0625,64.0,0.7,NaN,0.0,NaN,23.015834993
0.0625,32.0,1.0,NaN,0.0,NaN,23.220630341
0.0625,64.0,1.0,NaN,0.0,NaN,23.30648461
0.0625,64.0,0.3,NaN,0.0,NaN,23.107159538
0.0625,64.0,0.8,NaN,0.0,NaN,22.920774283
0.0625,128.0,0.6,NaN,0.0,NaN,22.976429239
0.0625,256.0,0.2,NaN,0.0,NaN,23.025167532
0.0625,128.0,0.2,NaN,0.0,NaN,23.452079992
0.0625,256.0,0.8,NaN,0.0,NaN,19.790831905
0.0625,256.0,0.9,NaN,0.0,NaN,19.811800889
0.0625,128.0,0.5,NaN,0.0,NaN,23.15233931
0.0625,256.0,0.1,NaN,0.0,NaN,22.907665939
0.0625,64.0,0.9,NaN,0.0,NaN,23.267749252
0.0625,128.0,0.9,NaN,0.0,NaN,23.064164601
0.0625,128.0,0.3,NaN,0.0,NaN,23.003152654
0.0625,256.0,0.7,NaN,0.0,NaN,23.012844735
0.0625,256.0,0.6,NaN,0.0,NaN,22.967454762
0.0625,128.0,0.8,NaN,0.0,NaN,23.199843964
0.0625,256.0,0.4,NaN,0.0,NaN,22.996228721
0.0625,8.0,0.6,NaN,0.0,NaN,25.545056829
0.0625,256.0,0.05,NaN,0.0,NaN,23.034339624
0.0625,256.0,0.3,NaN,0.0,NaN,23.162442577
0.0625,128.0,0.4,NaN,0.0,NaN,23.170667989
0.0625,8.0,0.5,NaN,0.0,NaN,24.885107799
0.0625,8.0,0.4,NaN,0.0,NaN,25.322174021
0.0625,256.0,0.5,NaN,0.0,NaN,23.206899179
0.0625,8.0,0.7,NaN,0.0,NaN,24.833148595
0.0625,8.0,0.8,NaN,0.0,NaN,24.944692342
0.0625,128.0,1.0,NaN,0.0,NaN,23.211902603
0.0625,8.0,1.0,NaN,0.0,NaN,24.79858101
0.0625,8.0,0.9,NaN,0.0,NaN,24.865392284
0.0625,16.0,0.05,NaN,0.0,NaN,24.900872226
0.0625,16.0,0.1,NaN,0.0,NaN,24.949594474
0.0625,16.0,0.2,NaN,0.0,NaN,24.772020747
0.0625,16.0,0.3,NaN,0.0,NaN,24.721401628
0.0625,16.0,0.4,NaN,0.0,NaN,24.841515033
0.0625,16.0,0.5,NaN,0.0,NaN,24.831353757
0.0625,16.0,0.6,NaN,0.0,NaN,25.014767044
0.0625,16.0,0.7,NaN,0.0,NaN,24.808333384
0.0625,16.0,0.8,NaN,0.0,NaN,25.169855824
0.0625,16.0,0.9,NaN,0.0,NaN,24.74281607
0.0625,16.0,1.0,NaN,0.0,NaN,24.984286902
0.0625,32.0,0.05,NaN,0.0,NaN,24.907671368
0.0625,32.0,0.1,NaN,0.0,NaN,24.79307145
0.0625,32.0,0.2,NaN,0.0,NaN,24.705908755
0.0625,32.0,0.7,NaN,0.0,NaN,24.963046612
0.0625,32.0,0.4,NaN,0.0,NaN,24.638570346
0.0625,32.0,0.3,NaN,0.0,NaN,24.842953441
0.0625,32.0,0.5,NaN,0.0,NaN,24.675569427
0.0625,32.0,0.6,NaN,0.0,NaN,24.675823159
0.0625,512.0,0.05,NaN,0.0,NaN,25.96799673
0.0625,512.0,0.3,NaN,0.0,NaN,26.096200066
0.0625,512.0,0.4,NaN,0.0,NaN,25.932704164
0.0625,512.0,0.8,NaN,0.0,NaN,26.086507629
0.125,0.0625,0.2,NaN,NaN,NaN,26.118357797
0.0625,512.0,0.6,NaN,0.0,NaN,26.104895625
0.0625,256.0,1.0,NaN,0.0,NaN,24.389934135
0.0625,512.0,0.1,NaN,0.0,NaN,24.449527475
0.0625,512.0,0.9,NaN,0.0,NaN,23.927312863
0.0625,512.0,0.2,NaN,0.0,NaN,24.914042961
0.125,0.0625,0.4,NaN,NaN,NaN,23.864680604
0.0625,512.0,0.5,NaN,0.0,NaN,21.185533941
0.0625,512.0,1.0,NaN,0.0,NaN,23.926880485
0.125,0.0625,0.5,NaN,NaN,NaN,24.002277202
0.125,0.0625,0.3,NaN,NaN,NaN,23.887989463
0.125,0.0625,0.6,NaN,NaN,NaN,23.933730542
0.125,0.125,0.05,NaN,NaN,NaN,23.810604891
0.0625,512.0,0.7,NaN,0.0,NaN,21.241724073
0.125,0.0625,0.05,NaN,NaN,NaN,23.993120445
0.125,0.0625,0.7,NaN,NaN,NaN,23.938569646
0.125,0.125,0.1,NaN,NaN,NaN,23.911207894
0.125,0.0625,0.8,NaN,NaN,NaN,23.965370259
0.125,0.125,0.2,NaN,NaN,NaN,23.932392903
0.125,0.0625,1.0,NaN,NaN,NaN,23.969537411
0.125,0.125,0.3,NaN,NaN,NaN,23.998620903
0.125,0.125,0.7,NaN,NaN,NaN,23.986409537
0.125,0.125,0.6,NaN,NaN,NaN,23.970156037
0.125,0.0625,0.1,NaN,NaN,NaN,21.315482036
0.125,0.125,0.4,NaN,NaN,NaN,24.005445532
0.125,0.125,0.8,NaN,NaN,NaN,23.953794461
0.125,0.0625,0.9,NaN,NaN,NaN,21.251098286
0.125,0.125,0.9,NaN,NaN,NaN,23.942431086
0.125,0.25,0.3,NaN,NaN,NaN,23.766987123
0.125,0.25,0.2,NaN,NaN,NaN,23.845487445
0.125,0.125,1.0,NaN,NaN,NaN,23.934405163
0.125,0.25,0.4,NaN,NaN,NaN,23.89101539
0.125,0.25,0.05,NaN,NaN,NaN,23.833597135
0.125,0.125,0.5,NaN,NaN,NaN,21.171294345
0.125,0.25,1.0,NaN,NaN,NaN,23.817004996
0.125,0.25,0.5,NaN,NaN,NaN,23.819776567
0.125,0.5,0.05,NaN,0.0,NaN,23.733886629
0.125,0.25,0.7,NaN,NaN,NaN,23.778802283
0.125,0.25,0.9,NaN,NaN,NaN,23.682104507
0.125,0.5,0.6,NaN,0.0,NaN,23.694805228
0.125,0.25,0.6,NaN,NaN,NaN,23.953377667
0.125,0.5,0.1,NaN,0.0,NaN,23.884675019
0.125,0.25,0.1,NaN,NaN,NaN,21.079901217
0.125,0.5,0.5,NaN,0.0,NaN,23.746967538
0.125,0.5,0.8,NaN,0.0,NaN,23.806645636
0.125,1.0,0.2,NaN,0.0,NaN,23.854138543
0.125,0.5,0.3,NaN,0.0,NaN,23.733819905
0.125,0.5,0.7,NaN,0.0,NaN,23.738336486
0.125,0.5,1.0,NaN,0.0,NaN,23.880869369
0.125,1.0,0.4,NaN,0.0,NaN,23.815150549
0.125,2.0,0.5,NaN,0.0,NaN,23.65545501
0.125,1.0,0.9,NaN,0.0,NaN,23.767649712
0.125,1.0,0.6,NaN,0.0,NaN,23.738547652
0.125,1.0,0.3,NaN,0.0,NaN,23.809593613
0.125,1.0,0.1,NaN,0.0,NaN,23.695489439
0.125,0.5,0.2,NaN,0.0,NaN,23.799698669
0.125,0.25,0.8,NaN,NaN,NaN,21.105711633
0.125,0.5,0.9,NaN,0.0,NaN,23.817749616
0.125,2.0,0.05,NaN,0.0,NaN,23.854386119
0.125,1.0,0.8,NaN,0.0,NaN,23.811086496
0.125,2.0,0.4,NaN,0.0,NaN,23.727173074
0.125,1.0,1.0,NaN,0.0,NaN,23.8110864
0.125,2.0,0.2,NaN,0.0,NaN,23.797671887
0.125,0.5,0.4,NaN,0.0,NaN,21.084468862
0.125,2.0,0.6,NaN,0.0,NaN,23.808654615
0.125,2.0,0.7,NaN,0.0,NaN,23.838899856
0.125,1.0,0.5,NaN,0.0,NaN,23.762513342
0.125,2.0,1.0,NaN,0.0,NaN,23.761439356
0.125,1.0,0.05,NaN,0.0,NaN,21.074278353
0.125,1.0,0.7,NaN,0.0,NaN,21.111794564
0.125,2.0,0.3,NaN,0.0,NaN,21.078849046
0.125,2.0,0.1,NaN,0.0,NaN,23.791777733
0.125,2.0,0.8,NaN,0.0,NaN,23.771569618
0.125,2.0,0.9,NaN,0.0,NaN,21.131211276
0.125,4.0,0.05,NaN,0.0,NaN,21.104885469
0.125,4.0,0.1,NaN,0.0,NaN,21.108662031
0.125,128.0,0.05,NaN,0.0,NaN,20.241529239
0.125,128.0,0.1,NaN,0.0,NaN,20.20734709
0.125,32.0,0.6,NaN,0.0,NaN,23.419410854
0.125,16.0,0.1,NaN,0.0,NaN,23.484437731
0.125,16.0,0.05,NaN,0.0,NaN,23.564787447
0.125,32.0,0.05,NaN,0.0,NaN,23.404084939
0.125,16.0,1.0,NaN,0.0,NaN,23.451821258
0.125,16.0,0.2,NaN,0.0,NaN,23.502168277
0.125,16.0,0.6,NaN,0.0,NaN,23.531421288
0.125,16.0,0.7,NaN,0.0,NaN,23.500754611
0.125,16.0,0.3,NaN,0.0,NaN,23.537819845
0.125,32.0,0.5,NaN,0.0,NaN,23.451813363
0.125,16.0,0.9,NaN,0.0,NaN,23.539265681
0.125,16.0,0.5,NaN,0.0,NaN,23.552862315
0.125,64.0,0.1,NaN,0.0,NaN,23.524874519
0.125,16.0,0.8,NaN,0.0,NaN,23.51705858
0.125,64.0,1.0,NaN,0.0,NaN,23.516225336
0.125,32.0,0.1,NaN,0.0,NaN,23.522200777
0.125,32.0,0.2,NaN,0.0,NaN,23.515215507
0.125,16.0,0.4,NaN,0.0,NaN,23.509187814
0.125,32.0,0.3,NaN,0.0,NaN,23.540479453
0.125,32.0,0.8,NaN,0.0,NaN,23.558368532
0.125,32.0,0.9,NaN,0.0,NaN,23.545931429
0.125,32.0,0.4,NaN,0.0,NaN,23.545639352
0.125,64.0,0.05,NaN,0.0,NaN,23.483934484
0.125,64.0,0.9,NaN,0.0,NaN,23.520813133
0.125,64.0,0.7,NaN,0.0,NaN,23.497680451
0.125,32.0,1.0,NaN,0.0,NaN,23.630508109
0.125,64.0,0.6,NaN,0.0,NaN,23.509851543
0.125,64.0,0.3,NaN,0.0,NaN,23.555075231
0.125,64.0,0.4,NaN,0.0,NaN,23.532161744
0.125,64.0,0.5,NaN,0.0,NaN,23.526844184
0.125,64.0,0.8,NaN,0.0,NaN,23.46092524
0.125,4.0,0.3,NaN,0.0,NaN,24.461135334
0.125,4.0,0.2,NaN,0.0,NaN,24.648079502
0.125,4.0,0.4,NaN,0.0,NaN,24.689043877
0.125,64.0,0.2,NaN,0.0,NaN,23.520963231
0.125,32.0,0.7,NaN,0.0,NaN,23.474089473
0.125,4.0,0.5,NaN,0.0,NaN,24.458865189
0.125,4.0,0.6,NaN,0.0,NaN,24.444538758
0.125,4.0,0.7,NaN,0.0,NaN,24.31061566
0.125,4.0,0.8,NaN,0.0,NaN,24.421121623
0.125,4.0,0.9,NaN,0.0,NaN,24.929486044
0.125,4.0,1.0,NaN,0.0,NaN,24.405876375
0.125,8.0,0.05,NaN,0.0,NaN,24.45099977
0.125,8.0,0.1,NaN,0.0,NaN,24.495900792
0.125,8.0,0.2,NaN,0.0,NaN,24.341880366
0.125,8.0,0.4,NaN,0.0,NaN,24.434327975
0.125,8.0,1.0,NaN,0.0,NaN,24.404860961
0.125,8.0,0.8,NaN,0.0,NaN,24.300300641
0.125,8.0,0.6,NaN,0.0,NaN,24.402489208
0.125,8.0,0.7,NaN,0.0,NaN,24.231475699
0.125,8.0,0.9,NaN,0.0,NaN,24.423762106
0.125,8.0,0.5,NaN,0.0,NaN,24.528793628
0.125,8.0,0.3,NaN,0.0,NaN,24.267735935
0.125,128.0,0.6,NaN,0.0,NaN,26.451539111
0.125,256.0,0.05,NaN,0.0,NaN,26.52259644
0.125,256.0,0.2,NaN,0.0,NaN,26.527350521
0.125,256.0,0.3,NaN,0.0,NaN,26.425018352
0.125,256.0,0.4,NaN,0.0,NaN,26.437645117
0.125,256.0,0.8,NaN,0.0,NaN,26.312052986
0.125,128.0,0.2,NaN,0.0,NaN,24.945419216
0.125,256.0,0.6,NaN,0.0,NaN,23.919459806
0.125,256.0,0.5,NaN,0.0,NaN,21.307863779
0.125,256.0,1.0,NaN,0.0,NaN,23.906364629
0.125,128.0,0.3,NaN,0.0,NaN,24.734225534
0.125,512.0,0.05,NaN,0.0,NaN,23.971251954
0.125,256.0,0.9,NaN,0.0,NaN,21.232538621
0.125,256.0,0.7,NaN,0.0,NaN,23.962297941
0.125,512.0,0.1,NaN,0.0,NaN,23.963597265
0.125,512.0,0.4,NaN,0.0,NaN,23.810145439
0.125,512.0,0.5,NaN,0.0,NaN,23.927087718
0.125,512.0,0.6,NaN,0.0,NaN,23.968109079
0.125,512.0,0.7,NaN,0.0,NaN,23.903173801
0.125,512.0,0.2,NaN,0.0,NaN,23.925555329
0.125,512.0,0.3,NaN,0.0,NaN,21.208795892
0.25,0.0625,0.05,NaN,NaN,NaN,23.941888287
0.125,128.0,0.4,NaN,0.0,NaN,24.670820572
0.125,512.0,0.8,NaN,0.0,NaN,24.013994346
0.25,0.0625,0.1,NaN,NaN,NaN,23.981987692
0.125,128.0,0.5,NaN,0.0,NaN,24.807968791
0.25,0.0625,0.3,NaN,NaN,NaN,23.969660407
0.25,0.0625,0.2,NaN,NaN,NaN,23.923080612
0.125,512.0,0.9,NaN,0.0,NaN,24.002805834
0.125,512.0,1.0,NaN,0.0,NaN,21.249812555
0.125,128.0,0.7,NaN,0.0,NaN,24.582203941
0.25,0.0625,0.7,NaN,NaN,NaN,24.241437883
0.25,0.0625,0.9,NaN,NaN,NaN,24.010413793
0.125,128.0,0.8,NaN,0.0,NaN,24.728360376
0.25,0.0625,0.5,NaN,NaN,NaN,23.722748086
0.25,0.0625,0.8,NaN,NaN,NaN,23.833867096
0.25,0.125,0.3,NaN,NaN,NaN,23.857923884
0.25,0.0625,0.4,NaN,NaN,NaN,23.920654009
0.25,0.0625,1.0,NaN,NaN,NaN,23.973858117
0.25,0.125,0.5,NaN,NaN,NaN,23.955566423
0.25,0.125,0.1,NaN,NaN,NaN,23.757608101
0.25,0.0625,0.6,NaN,NaN,NaN,21.217668234
0.25,0.125,0.05,NaN,NaN,NaN,23.83965939
0.25,0.125,0.4,NaN,NaN,NaN,23.887650899
0.25,0.125,0.6,NaN,NaN,NaN,23.828490578
0.25,0.25,0.1,NaN,NaN,NaN,23.742567218
0.25,0.125,1.0,NaN,NaN,NaN,23.795755853
0.25,0.125,0.8,NaN,NaN,NaN,23.710565122
0.25,0.25,0.05,NaN,NaN,NaN,23.746450751
0.25,0.125,0.2,NaN,NaN,NaN,21.045394545
0.25,0.25,0.4,NaN,NaN,NaN,23.76208475
0.25,0.25,0.7,NaN,NaN,NaN,23.710181572
0.125,128.0,0.9,NaN,0.0,NaN,24.761133186
0.25,0.125,0.7,NaN,NaN,NaN,23.770476751
0.25,0.25,0.9,NaN,NaN,NaN,23.743905038
0.25,0.25,0.3,NaN,NaN,NaN,23.758271569
0.25,0.125,0.9,NaN,NaN,NaN,21.11519146
0.25,0.25,0.6,NaN,NaN,NaN,23.741823636
0.25,0.25,0.2,NaN,NaN,NaN,23.700523517
0.25,0.5,0.2,NaN,0.0,NaN,23.617335784
0.25,0.25,0.8,NaN,NaN,NaN,23.745938668
0.125,128.0,1.0,NaN,0.0,NaN,24.671791053
0.25,0.25,0.5,NaN,NaN,NaN,21.087862566
0.25,0.5,0.4,NaN,0.0,NaN,23.78258676
0.125,256.0,0.1,NaN,0.0,NaN,24.560761512
0.25,0.25,1.0,NaN,NaN,NaN,23.774872186
0.25,0.5,0.3,NaN,0.0,NaN,23.798442061
0.25,0.5,0.05,NaN,0.0,NaN,23.620265718
0.25,0.5,0.7,NaN,0.0,NaN,23.738728224
0.25,0.5,0.9,NaN,0.0,NaN,23.620340601
0.25,0.5,1.0,NaN,0.0,NaN,23.759855579
0.25,1.0,0.4,NaN,0.0,NaN,23.586025634
0.25,1.0,0.6,NaN,0.0,NaN,23.707550552
0.25,1.0,0.05,NaN,0.0,NaN,23.678381848
0.25,0.5,0.5,NaN,0.0,NaN,23.725248528
0.25,1.0,0.5,NaN,0.0,NaN,23.751221904
0.25,1.0,0.1,NaN,0.0,NaN,23.786773505
0.25,0.5,0.1,NaN,0.0,NaN,21.05175046
0.25,1.0,0.7,NaN,0.0,NaN,23.707994044
0.25,0.5,0.8,NaN,0.0,NaN,21.049345849
0.25,0.5,0.6,NaN,0.0,NaN,23.716857763
0.25,1.0,0.3,NaN,0.0,NaN,21.052543937
0.25,1.0,0.8,NaN,0.0,NaN,21.108603343
0.25,1.0,0.2,NaN,0.0,NaN,23.889190277
0.25,1.0,0.9,NaN,0.0,NaN,21.09044818
0.25,1.0,1.0,NaN,0.0,NaN,21.402042313
0.25,32.0,0.9,NaN,0.0,NaN,20.718300688
0.25,32.0,1.0,NaN,0.0,NaN,20.765260356
0.25,8.0,0.1,NaN,0.0,NaN,23.683285982
0.25,4.0,0.9,NaN,0.0,NaN,23.57802538
0.25,8.0,0.3,NaN,0.0,NaN,23.38645702
0.25,8.0,0.5,NaN,0.0,NaN,23.354098375
0.25,8.0,0.8,NaN,0.0,NaN,23.530568779
0.25,8.0,0.9,NaN,0.0,NaN,23.392611954
0.25,16.0,0.3,NaN,0.0,NaN,23.559291929
0.25,8.0,0.05,NaN,0.0,NaN,23.540722224
0.25,4.0,1.0,NaN,0.0,NaN,23.537699793
0.25,8.0,0.6,NaN,0.0,NaN,23.651410455
0.25,8.0,0.2,NaN,0.0,NaN,23.528674653
0.25,16.0,0.1,NaN,0.0,NaN,23.555975537
0.25,8.0,0.4,NaN,0.0,NaN,23.557213399
0.25,16.0,1.0,NaN,0.0,NaN,23.412646869
0.25,16.0,0.05,NaN,0.0,NaN,23.317106612
0.25,16.0,0.6,NaN,0.0,NaN,23.403479832
0.25,16.0,0.4,NaN,0.0,NaN,23.379479964
0.25,16.0,0.7,NaN,0.0,NaN,23.599200625
0.25,16.0,0.2,NaN,0.0,NaN,23.780783364
0.25,32.0,0.4,NaN,0.0,NaN,23.417620964
0.25,8.0,1.0,NaN,0.0,NaN,23.585366111
0.25,32.0,0.5,NaN,0.0,NaN,23.354615506
0.25,32.0,0.8,NaN,0.0,NaN,23.475058909
0.25,8.0,0.7,NaN,0.0,NaN,23.615303061
0.25,16.0,0.9,NaN,0.0,NaN,23.584036764
0.25,16.0,0.8,NaN,0.0,NaN,23.625268132
0.25,32.0,0.1,NaN,0.0,NaN,23.403340301
0.25,32.0,0.3,NaN,0.0,NaN,23.641124059
0.25,32.0,0.7,NaN,0.0,NaN,23.46216026
0.25,32.0,0.05,NaN,0.0,NaN,23.583054625
0.25,16.0,0.5,NaN,0.0,NaN,23.618515242
0.25,32.0,0.2,NaN,0.0,NaN,23.612758756
0.25,32.0,0.6,NaN,0.0,NaN,23.582251828
0.25,2.0,0.6,NaN,0.0,NaN,24.552690561
0.25,2.0,0.1,NaN,0.0,NaN,24.704699017
0.25,2.0,0.7,NaN,0.0,NaN,24.48804379
0.25,2.0,0.05,NaN,0.0,NaN,25.000298106
0.25,2.0,0.2,NaN,0.0,NaN,24.486308935
0.25,2.0,0.3,NaN,0.0,NaN,24.552481364
0.25,2.0,0.4,NaN,0.0,NaN,24.712143349
0.25,2.0,0.5,NaN,0.0,NaN,24.715726092
0.25,2.0,0.8,NaN,0.0,NaN,24.641494636
0.25,2.0,0.9,NaN,0.0,NaN,24.545746506
0.25,2.0,1.0,NaN,0.0,NaN,24.70843096
0.25,4.0,0.05,NaN,0.0,NaN,24.66080059
0.25,4.0,0.1,NaN,0.0,NaN,24.539194994
0.25,4.0,0.2,NaN,0.0,NaN,24.462411739
0.25,4.0,0.3,NaN,0.0,NaN,24.547103364
0.25,4.0,0.4,NaN,0.0,NaN,24.513561821
0.25,4.0,0.5,NaN,0.0,NaN,24.63953035
0.25,4.0,0.6,NaN,0.0,NaN,24.752532042
0.25,4.0,0.7,NaN,0.0,NaN,24.446783358
0.25,4.0,0.8,NaN,0.0,NaN,24.45589355
0.25,64.0,0.05,NaN,0.0,NaN,25.768396878
0.25,64.0,0.1,NaN,0.0,NaN,25.908660483
0.25,64.0,0.8,NaN,0.0,NaN,25.684324831
0.25,64.0,0.5,NaN,0.0,NaN,25.759661712
0.25,64.0,0.4,NaN,0.0,NaN,25.903473995
0.25,64.0,0.6,NaN,0.0,NaN,25.870362949
0.25,64.0,0.7,NaN,0.0,NaN,21.275544806
0.25,128.0,0.6,NaN,0.0,NaN,23.214816232
0.25,128.0,0.4,NaN,0.0,NaN,23.164037079
0.25,256.0,0.05,NaN,0.0,NaN,23.319985806
0.25,128.0,0.9,NaN,0.0,NaN,23.176948757
0.25,256.0,0.2,NaN,0.0,NaN,22.842993748
0.25,128.0,1.0,NaN,0.0,NaN,22.940932899
0.25,64.0,0.3,NaN,0.0,NaN,23.887751266
0.25,256.0,0.9,NaN,0.0,NaN,22.801756711
0.25,256.0,0.4,NaN,0.0,NaN,22.990359294
0.25,128.0,0.7,NaN,0.0,NaN,23.186293427
0.25,64.0,0.9,NaN,0.0,NaN,21.184031318
0.25,256.0,0.6,NaN,0.0,NaN,22.950231978
0.25,256.0,0.8,NaN,0.0,NaN,22.805058492
0.25,256.0,0.5,NaN,0.0,NaN,22.995223282
0.25,64.0,0.2,NaN,0.0,NaN,23.722917928
0.25,256.0,0.1,NaN,0.0,NaN,23.187903213
0.25,64.0,1.0,NaN,0.0,NaN,21.181678454
0.25,512.0,0.4,NaN,0.0,NaN,22.865163537
0.25,512.0,0.2,NaN,0.0,NaN,23.128592309
0.25,512.0,0.1,NaN,0.0,NaN,23.008474975
0.25,512.0,0.05,NaN,0.0,NaN,23.061305298
0.25,512.0,0.5,NaN,0.0,NaN,22.859604907
0.25,128.0,0.05,NaN,0.0,NaN,21.144595155
0.25,256.0,0.7,NaN,0.0,NaN,23.138243039
0.25,512.0,0.9,NaN,0.0,NaN,22.842451963
0.25,512.0,0.7,NaN,0.0,NaN,22.913940859
0.25,512.0,0.3,NaN,0.0,NaN,23.172917859
0.25,128.0,0.1,NaN,0.0,NaN,21.106106971
0.25,512.0,0.8,NaN,0.0,NaN,23.11979935
0.25,128.0,0.2,NaN,0.0,NaN,21.103932148
0.25,128.0,0.5,NaN,0.0,NaN,21.10921715
0.25,128.0,0.3,NaN,0.0,NaN,21.077779933
0.25,128.0,0.8,NaN,0.0,NaN,21.245804429
0.25,256.0,0.3,NaN,0.0,NaN,21.05252316
0.25,256.0,1.0,NaN,0.0,NaN,21.069888312
0.25,512.0,0.6,NaN,0.0,NaN,21.131141526
0.5,0.0625,0.05,NaN,NaN,NaN,21.153985356
0.25,512.0,1.0,NaN,0.0,NaN,21.24723982
0.5,0.5,0.05,NaN,0.0,NaN,23.889587469
0.5,0.25,0.7,NaN,NaN,NaN,23.865280399
0.5,0.25,0.6,NaN,NaN,NaN,23.899587948
0.5,0.25,1.0,NaN,NaN,NaN,23.917281353
0.5,0.5,0.6,NaN,0.0,NaN,23.957754281
0.5,0.5,0.5,NaN,0.0,NaN,23.771013241
0.5,0.25,0.9,NaN,NaN,NaN,23.853601333
0.5,0.25,0.8,NaN,NaN,NaN,23.874033478
0.5,0.5,0.4,NaN,0.0,NaN,23.94629531
0.5,0.5,0.3,NaN,0.0,NaN,23.88549782
0.5,1.0,0.1,NaN,0.0,NaN,23.900572289
0.5,0.5,0.1,NaN,0.0,NaN,23.897621152
0.5,1.0,0.05,NaN,0.0,NaN,23.967136083
0.5,16.0,0.8,NaN,0.0,NaN,20.346402604
0.5,16.0,0.6,NaN,0.0,NaN,20.408928115
0.5,0.5,0.7,NaN,0.0,NaN,23.896155792
0.5,0.5,0.2,NaN,0.0,NaN,23.990357086
0.5,0.5,0.9,NaN,0.0,NaN,24.091705463
0.5,0.5,1.0,NaN,0.0,NaN,23.968621505
0.5,0.5,0.8,NaN,0.0,NaN,23.967671107
0.5,1.0,0.6,NaN,0.0,NaN,23.872040844
0.5,1.0,0.7,NaN,0.0,NaN,23.838959251
0.5,0.0625,0.1,NaN,NaN,NaN,25.52066117
0.5,1.0,0.5,NaN,0.0,NaN,23.956248752
0.5,1.0,0.2,NaN,0.0,NaN,24.280364009
0.5,1.0,0.4,NaN,0.0,NaN,24.171779704
0.5,0.0625,0.2,NaN,NaN,NaN,25.48799929
0.5,2.0,0.2,NaN,0.0,NaN,23.927123182
0.5,2.0,0.1,NaN,0.0,NaN,23.963754162
0.5,1.0,0.3,NaN,0.0,NaN,23.989165865
0.5,0.0625,0.3,NaN,NaN,NaN,25.101700252
0.5,1.0,1.0,NaN,0.0,NaN,23.848822956
0.5,2.0,0.8,NaN,0.0,NaN,23.865601291
0.5,0.0625,0.4,NaN,NaN,NaN,25.448980898
0.5,1.0,0.8,NaN,0.0,NaN,23.891269388
0.5,2.0,0.05,NaN,0.0,NaN,23.947583069
0.5,0.0625,0.5,NaN,NaN,NaN,25.061836582
0.5,1.0,0.9,NaN,0.0,NaN,24.003516948
0.5,2.0,0.5,NaN,0.0,NaN,23.831608753
0.5,2.0,0.7,NaN,0.0,NaN,23.764468104
0.5,4.0,0.3,NaN,0.0,NaN,23.838398948
0.5,2.0,0.3,NaN,0.0,NaN,23.822024234
0.5,2.0,0.6,NaN,0.0,NaN,23.838904459
0.5,2.0,0.4,NaN,0.0,NaN,23.870194068
0.5,4.0,0.05,NaN,0.0,NaN,23.747955846
0.5,4.0,0.2,NaN,0.0,NaN,23.776291194
0.5,4.0,0.9,NaN,0.0,NaN,23.826274688
0.5,4.0,0.6,NaN,0.0,NaN,23.788624414
0.5,4.0,0.1,NaN,0.0,NaN,23.819703203
0.5,2.0,1.0,NaN,0.0,NaN,23.786610073
0.5,2.0,0.9,NaN,0.0,NaN,23.889815119
0.5,4.0,0.8,NaN,0.0,NaN,23.790750155
0.5,4.0,0.7,NaN,0.0,NaN,23.837057346
0.5,8.0,0.4,NaN,0.0,NaN,23.857613252
0.5,4.0,0.4,NaN,0.0,NaN,23.773635051
0.5,8.0,0.1,NaN,0.0,NaN,23.737983431
0.5,8.0,1.0,NaN,0.0,NaN,23.822647333
0.5,0.0625,0.6,NaN,NaN,NaN,24.8864426
0.5,4.0,0.5,NaN,0.0,NaN,23.840049935
0.5,8.0,0.05,NaN,0.0,NaN,23.777095746
0.5,8.0,0.3,NaN,0.0,NaN,23.787878373
0.5,16.0,0.4,NaN,0.0,NaN,23.722909344
0.5,8.0,0.9,NaN,0.0,NaN,23.696277398
0.5,8.0,0.6,NaN,0.0,NaN,23.798547114
0.5,8.0,0.2,NaN,0.0,NaN,23.768721342
0.5,8.0,0.7,NaN,0.0,NaN,23.749478589
0.5,4.0,1.0,NaN,0.0,NaN,23.762311269
0.5,16.0,0.3,NaN,0.0,NaN,23.692634166
0.5,16.0,0.7,NaN,0.0,NaN,23.791869807
0.5,8.0,0.5,NaN,0.0,NaN,23.748843317
0.5,16.0,0.1,NaN,0.0,NaN,23.736879647
0.5,8.0,0.8,NaN,0.0,NaN,23.753866983
0.5,16.0,0.2,NaN,0.0,NaN,23.754216876
0.5,16.0,0.05,NaN,0.0,NaN,23.795215804
0.5,16.0,0.5,NaN,0.0,NaN,23.802735266
0.5,0.0625,0.7,NaN,NaN,NaN,24.904036218
0.5,0.0625,0.8,NaN,NaN,NaN,25.017526736
0.5,0.0625,0.9,NaN,NaN,NaN,24.759261825
0.5,0.0625,1.0,NaN,NaN,NaN,24.802649577
0.5,0.125,0.05,NaN,NaN,NaN,24.944866333
0.5,0.125,0.1,NaN,NaN,NaN,24.96704191
0.5,0.125,0.3,NaN,NaN,NaN,24.915191576
0.5,0.125,0.2,NaN,NaN,NaN,25.158578351
0.5,0.125,0.4,NaN,NaN,NaN,24.877952663
0.5,0.125,0.5,NaN,NaN,NaN,24.986863978
0.5,0.125,0.6,NaN,NaN,NaN,24.804776701
0.5,0.125,0.7,NaN,NaN,NaN,24.929237686
0.5,0.125,0.8,NaN,NaN,NaN,25.044821995
0.5,0.125,0.9,NaN,NaN,NaN,24.917280286
0.5,0.125,1.0,NaN,NaN,NaN,24.952801957
0.5,0.25,0.05,NaN,NaN,NaN,24.855367272
0.5,0.25,0.1,NaN,NaN,NaN,24.890660892
0.5,0.25,0.2,NaN,NaN,NaN,24.862646455
0.5,0.25,0.4,NaN,NaN,NaN,25.005743805
0.5,0.25,0.5,NaN,NaN,NaN,24.947246481
0.5,0.25,0.3,NaN,NaN,NaN,24.929960396
0.5,16.0,0.9,NaN,0.0,NaN,26.024922275
0.5,16.0,1.0,NaN,0.0,NaN,25.809860533
0.5,32.0,0.4,NaN,0.0,NaN,26.004512886
0.5,32.0,0.3,NaN,0.0,NaN,25.951673759
0.5,32.0,0.2,NaN,0.0,NaN,25.908657231
0.5,32.0,0.5,NaN,0.0,NaN,26.143136745
0.5,32.0,0.05,NaN,0.0,NaN,23.623629863
0.5,32.0,0.1,NaN,0.0,NaN,23.795545754
0.5,32.0,0.6,NaN,0.0,NaN,21.079699361
0.5,64.0,0.2,NaN,0.0,NaN,23.634149221
0.5,128.0,0.1,NaN,0.0,NaN,23.575323226
0.5,32.0,0.7,NaN,0.0,NaN,21.184723935
0.5,128.0,0.8,NaN,0.0,NaN,23.581371036
0.5,64.0,0.4,NaN,0.0,NaN,23.637588974
0.5,64.0,0.5,NaN,0.0,NaN,23.606065816
0.5,128.0,0.05,NaN,0.0,NaN,23.742692901
0.5,256.0,0.4,NaN,0.0,NaN,23.689974242
0.5,64.0,0.9,NaN,0.0,NaN,23.654942509
0.5,32.0,0.8,NaN,0.0,NaN,21.206526252
0.5,128.0,0.7,NaN,0.0,NaN,23.740098039
0.5,128.0,0.4,NaN,0.0,NaN,23.717398148
0.5,256.0,0.1,NaN,0.0,NaN,23.65820074
0.5,128.0,0.5,NaN,0.0,NaN,23.692510413
0.5,64.0,0.6,NaN,0.0,NaN,23.617246958
0.5,64.0,1.0,NaN,0.0,NaN,23.774715219
0.5,128.0,0.6,NaN,0.0,NaN,23.712371028
0.5,32.0,0.9,NaN,0.0,NaN,21.200481806
0.5,64.0,0.8,NaN,0.0,NaN,23.793277922
0.5,256.0,0.3,NaN,0.0,NaN,23.632643508
0.5,256.0,0.6,NaN,0.0,NaN,23.634657699
0.5,256.0,0.05,NaN,0.0,NaN,23.695184516
0.5,128.0,0.3,NaN,0.0,NaN,23.770406783
0.5,32.0,1.0,NaN,0.0,NaN,21.210302075
0.5,256.0,0.7,NaN,0.0,NaN,23.680815661
0.5,256.0,0.2,NaN,0.0,NaN,23.751458936
0.5,128.0,1.0,NaN,0.0,NaN,23.775243281
0.5,64.0,0.05,NaN,0.0,NaN,21.105289479
0.5,64.0,0.1,NaN,0.0,NaN,21.130824395
0.5,64.0,0.3,NaN,0.0,NaN,21.124220387
0.5,64.0,0.7,NaN,0.0,NaN,21.111894129
0.5,128.0,0.2,NaN,0.0,NaN,21.1034779
0.5,128.0,0.9,NaN,0.0,NaN,21.135274434
0.5,256.0,0.5,NaN,0.0,NaN,21.075209501
0.5,256.0,0.8,NaN,0.0,NaN,21.098358022
0.5,256.0,0.9,NaN,0.0,NaN,21.18899191
0.5,512.0,0.3,NaN,0.0,NaN,23.977335535
0.5,512.0,0.5,NaN,0.0,NaN,23.950309755
0.5,512.0,0.4,NaN,0.0,NaN,23.883219861
0.5,512.0,0.7,NaN,0.0,NaN,23.805620682
0.5,512.0,0.9,NaN,0.0,NaN,24.20187959
0.5,512.0,0.8,NaN,0.0,NaN,23.861926862
1.0,0.0625,0.4,NaN,NaN,NaN,23.822412277
0.5,512.0,0.6,NaN,0.0,NaN,23.959173076
1.0,0.0625,0.05,NaN,NaN,NaN,23.968284684
1.0,0.0625,0.2,NaN,NaN,NaN,23.914438342
1.0,0.0625,1.0,NaN,NaN,NaN,23.900441055
0.5,512.0,1.0,NaN,0.0,NaN,23.926926669
1.0,0.0625,0.3,NaN,NaN,NaN,23.949214654
1.0,2.0,0.4,NaN,0.0,NaN,20.322838714
1.0,0.0625,0.5,NaN,NaN,NaN,23.939455719
1.0,0.0625,0.1,NaN,NaN,NaN,23.95530952
1.0,0.0625,0.8,NaN,NaN,NaN,23.86946964
1.0,0.0625,0.6,NaN,NaN,NaN,23.994852354
1.0,2.0,0.5,NaN,0.0,NaN,20.465108489
1.0,0.125,0.3,NaN,NaN,NaN,24.233693595
1.0,0.0625,0.9,NaN,NaN,NaN,23.913909784
1.0,0.125,0.1,NaN,NaN,NaN,23.888331244
1.0,0.125,0.5,NaN,NaN,NaN,23.880221308
1.0,0.125,0.05,NaN,NaN,NaN,24.030443146
1.0,0.125,0.4,NaN,NaN,NaN,23.906090099
1.0,0.0625,0.7,NaN,NaN,NaN,23.950476512
1.0,0.125,0.6,NaN,NaN,NaN,23.88497899
1.0,0.125,0.7,NaN,NaN,NaN,23.960307432
1.0,0.125,0.2,NaN,NaN,NaN,24.308895795
1.0,0.125,0.9,NaN,NaN,NaN,23.861689022
1.0,0.25,0.05,NaN,NaN,NaN,23.804726973
1.0,0.25,0.4,NaN,NaN,NaN,23.827259029
1.0,0.25,0.2,NaN,NaN,NaN,24.011517678
1.0,0.125,0.8,NaN,NaN,NaN,23.895069887
1.0,0.25,0.1,NaN,NaN,NaN,23.940300386
1.0,0.25,0.6,NaN,NaN,NaN,23.811128726
1.0,0.125,1.0,NaN,NaN,NaN,23.805253983
1.0,0.5,0.1,NaN,0.0,NaN,23.894364816
1.0,0.25,0.7,NaN,NaN,NaN,23.779914222
1.0,0.25,1.0,NaN,NaN,NaN,23.739310274
1.0,0.25,0.5,NaN,NaN,NaN,23.825233488
1.0,0.25,0.8,NaN,NaN,NaN,23.773816216
1.0,0.5,0.2,NaN,0.0,NaN,23.782255492
1.0,0.5,0.7,NaN,0.0,NaN,23.809387664
1.0,0.5,0.5,NaN,0.0,NaN,23.782684507
1.0,0.5,0.05,NaN,0.0,NaN,23.804820288
1.0,1.0,0.2,NaN,0.0,NaN,23.765680664
1.0,0.5,0.8,NaN,0.0,NaN,23.701752276
1.0,0.5,0.3,NaN,0.0,NaN,23.79094897
1.0,0.5,0.6,NaN,0.0,NaN,23.801296204
1.0,1.0,0.05,NaN,0.0,NaN,23.732115597
1.0,1.0,0.1,NaN,0.0,NaN,23.721871216
1.0,0.25,0.3,NaN,NaN,NaN,23.827508616
1.0,1.0,0.6,NaN,0.0,NaN,23.7364378
1.0,1.0,0.7,NaN,0.0,NaN,23.703857179
1.0,0.5,0.9,NaN,0.0,NaN,23.795375475
1.0,0.25,0.9,NaN,NaN,NaN,23.773719603
1.0,1.0,0.3,NaN,0.0,NaN,23.748997974
1.0,1.0,0.8,NaN,0.0,NaN,23.701138788
1.0,1.0,0.4,NaN,0.0,NaN,23.77886207
1.0,1.0,0.9,NaN,0.0,NaN,23.778552881
1.0,2.0,0.1,NaN,0.0,NaN,23.786379932
1.0,2.0,0.2,NaN,0.0,NaN,23.762343632
1.0,1.0,1.0,NaN,0.0,NaN,23.781601268
1.0,2.0,0.3,NaN,0.0,NaN,23.754743415
1.0,0.5,0.4,NaN,0.0,NaN,23.778087016
1.0,0.5,1.0,NaN,0.0,NaN,23.810753661
1.0,1.0,0.5,NaN,0.0,NaN,23.784545769
1.0,2.0,0.05,NaN,0.0,NaN,23.80357898
0.5,256.0,1.0,NaN,0.0,NaN,23.630331252
0.5,512.0,0.1,NaN,0.0,NaN,24.340026479
0.5,512.0,0.05,NaN,0.0,NaN,23.931811904
0.5,512.0,0.2,NaN,0.0,NaN,23.97936021
1.0,4.0,0.8,NaN,0.0,NaN,26.239888777
1.0,8.0,0.7,NaN,0.0,NaN,26.212261201
1.0,8.0,0.2,NaN,0.0,NaN,26.198597899
1.0,16.0,0.1,NaN,0.0,NaN,26.016946127
1.0,16.0,0.2,NaN,0.0,NaN,26.004506604
1.0,16.0,0.3,NaN,0.0,NaN,25.997559296
1.0,2.0,0.6,NaN,0.0,NaN,24.902494723
1.0,16.0,0.4,NaN,0.0,NaN,21.131393609
1.0,32.0,0.3,NaN,0.0,NaN,23.716114135
1.0,32.0,0.2,NaN,0.0,NaN,23.726264102
1.0,32.0,0.7,NaN,0.0,NaN,23.689345534
1.0,32.0,0.8,NaN,0.0,NaN,23.663887295
1.0,32.0,0.05,NaN,0.0,NaN,23.712503918
1.0,64.0,0.05,NaN,0.0,NaN,23.590839336
1.0,16.0,0.5,NaN,0.0,NaN,21.202130054
1.0,64.0,0.7,NaN,0.0,NaN,23.695861182
1.0,32.0,0.6,NaN,0.0,NaN,23.663284195
1.0,32.0,0.9,NaN,0.0,NaN,23.673645432
1.0,64.0,0.4,NaN,0.0,NaN,23.595721401
1.0,16.0,0.6,NaN,0.0,NaN,21.166906703
1.0,32.0,0.4,NaN,0.0,NaN,23.704076616
1.0,128.0,0.05,NaN,0.0,NaN,23.584071982
1.0,64.0,0.3,NaN,0.0,NaN,23.626847107
1.0,128.0,0.3,NaN,0.0,NaN,23.631856781
1.0,32.0,1.0,NaN,0.0,NaN,23.661556285
1.0,64.0,0.2,NaN,0.0,NaN,23.653163667
1.0,64.0,0.5,NaN,0.0,NaN,23.673934968
1.0,64.0,0.9,NaN,0.0,NaN,23.637023524
1.0,64.0,1.0,NaN,0.0,NaN,23.631491463
1.0,64.0,0.6,NaN,0.0,NaN,23.64225672
1.0,16.0,0.7,NaN,0.0,NaN,21.196744489
1.0,128.0,0.1,NaN,0.0,NaN,23.743352568
1.0,128.0,0.5,NaN,0.0,NaN,23.709812893
1.0,16.0,0.8,NaN,0.0,NaN,21.165172141
1.0,128.0,0.2,NaN,0.0,NaN,23.668028639
1.0,2.0,0.7,NaN,0.0,NaN,24.976113592
1.0,2.0,0.8,NaN,0.0,NaN,24.790912839
1.0,16.0,0.9,NaN,0.0,NaN,21.139577986
1.0,16.0,1.0,NaN,0.0,NaN,21.106531796
1.0,32.0,0.1,NaN,0.0,NaN,21.084494822
1.0,2.0,1.0,NaN,0.0,NaN,25.071574726
1.0,2.0,0.9,NaN,0.0,NaN,25.108670147
1.0,4.0,0.2,NaN,0.0,NaN,25.108510408
1.0,32.0,0.5,NaN,0.0,NaN,21.088697395
1.0,4.0,0.05,NaN,0.0,NaN,24.931721825
1.0,4.0,0.4,NaN,0.0,NaN,25.02757257
1.0,4.0,0.3,NaN,0.0,NaN,24.967391169
1.0,4.0,0.1,NaN,0.0,NaN,24.830618239
1.0,4.0,0.5,NaN,0.0,NaN,24.896805949
1.0,64.0,0.1,NaN,0.0,NaN,21.09064423
1.0,64.0,0.8,NaN,0.0,NaN,21.06378714
1.0,128.0,0.6,NaN,0.0,NaN,21.103685074
1.0,4.0,0.6,NaN,0.0,NaN,24.913622809
1.0,128.0,0.4,NaN,0.0,NaN,21.136337627
1.0,128.0,0.7,NaN,0.0,NaN,21.09997411
1.0,4.0,0.7,NaN,0.0,NaN,24.962842418
1.0,4.0,1.0,NaN,0.0,NaN,24.75603345
1.0,4.0,0.9,NaN,0.0,NaN,24.990961282
1.0,8.0,0.05,NaN,0.0,NaN,24.839262353
1.0,8.0,0.1,NaN,0.0,NaN,24.887838121
1.0,8.0,0.3,NaN,0.0,NaN,24.789336424
1.0,8.0,0.4,NaN,0.0,NaN,24.796982432
1.0,8.0,0.5,NaN,0.0,NaN,24.752566547
1.0,8.0,0.6,NaN,0.0,NaN,24.702754009
1.0,8.0,0.8,NaN,0.0,NaN,24.770815452
1.0,8.0,1.0,NaN,0.0,NaN,24.765751112
1.0,8.0,0.9,NaN,0.0,NaN,24.861637935
1.0,16.0,0.05,NaN,0.0,NaN,24.786442273
1.0,128.0,0.8,NaN,0.0,NaN,24.216751501
1.0,128.0,0.9,NaN,0.0,NaN,24.362634524
1.0,256.0,0.7,NaN,0.0,NaN,23.962423437
1.0,256.0,0.2,NaN,0.0,NaN,24.042073758
1.0,256.0,0.1,NaN,0.0,NaN,23.930231202
1.0,256.0,0.6,NaN,0.0,NaN,23.966188189
1.0,256.0,0.9,NaN,0.0,NaN,23.948820005
2.0,1.0,0.05,NaN,0.0,NaN,20.475624298
1.0,256.0,0.3,NaN,0.0,NaN,23.978083687
1.0,256.0,1.0,NaN,0.0,NaN,23.915431744
1.0,256.0,0.4,NaN,0.0,NaN,23.970118869
1.0,128.0,1.0,NaN,0.0,NaN,24.755842698
1.0,512.0,0.2,NaN,0.0,NaN,23.856108114
1.0,256.0,0.05,NaN,0.0,NaN,24.370649722
1.0,256.0,0.8,NaN,0.0,NaN,23.881037108
2.0,1.0,0.3,NaN,0.0,NaN,20.351908591
1.0,256.0,0.5,NaN,0.0,NaN,23.933965512
1.0,512.0,0.1,NaN,0.0,NaN,23.811266555
1.0,512.0,0.4,NaN,0.0,NaN,23.84367652
1.0,512.0,0.8,NaN,0.0,NaN,23.851844595
1.0,512.0,0.05,NaN,0.0,NaN,23.964357609
1.0,512.0,0.5,NaN,0.0,NaN,23.927390615
1.0,512.0,0.3,NaN,0.0,NaN,24.073353298
1.0,512.0,1.0,NaN,0.0,NaN,23.987768706
1.0,512.0,0.7,NaN,0.0,NaN,23.963028514
2.0,0.0625,0.3,NaN,NaN,NaN,23.987900779
2.0,0.0625,0.5,NaN,NaN,NaN,24.023502212
1.0,512.0,0.9,NaN,0.0,NaN,23.890813906
2.0,0.0625,0.2,NaN,NaN,NaN,23.89217673
2.0,0.0625,0.05,NaN,NaN,NaN,24.093343384
2.0,0.0625,0.9,NaN,NaN,NaN,24.188099731
1.0,512.0,0.6,NaN,0.0,NaN,24.025137045
2.0,0.0625,0.1,NaN,NaN,NaN,24.01134048
2.0,0.0625,0.6,NaN,NaN,NaN,24.093726176
2.0,0.125,0.05,NaN,NaN,NaN,23.897728587
2.0,0.0625,0.4,NaN,NaN,NaN,23.944371843
2.0,0.0625,0.7,NaN,NaN,NaN,23.991937862
2.0,0.0625,0.8,NaN,NaN,NaN,23.909244169
2.0,0.0625,1.0,NaN,NaN,NaN,24.103771953
2.0,0.125,0.4,NaN,NaN,NaN,23.970112643
2.0,0.125,0.1,NaN,NaN,NaN,23.945537952
2.0,0.125,0.6,NaN,NaN,NaN,23.825727193
2.0,0.125,0.5,NaN,NaN,NaN,23.83639808
2.0,0.125,1.0,NaN,NaN,NaN,23.733056744
2.0,0.125,0.7,NaN,NaN,NaN,23.765145049
2.0,0.125,0.3,NaN,NaN,NaN,23.748196725
2.0,0.25,0.05,NaN,NaN,NaN,23.734045528
2.0,0.25,0.1,NaN,NaN,NaN,23.749240266
2.0,0.25,0.5,NaN,NaN,NaN,23.794257853
2.0,0.25,0.2,NaN,NaN,NaN,23.797594158
2.0,0.25,0.6,NaN,NaN,NaN,23.721741013
2.0,0.25,0.7,NaN,NaN,NaN,23.947393359
2.0,0.5,0.05,NaN,0.0,NaN,23.777443021
2.0,0.125,0.9,NaN,NaN,NaN,23.747377557
2.0,0.125,0.2,NaN,NaN,NaN,23.819100769
2.0,0.25,0.8,NaN,NaN,NaN,23.757431605
2.0,0.5,0.1,NaN,0.0,NaN,23.822631342
2.0,0.5,0.6,NaN,0.0,NaN,23.719586212
2.0,0.5,0.2,NaN,0.0,NaN,23.769363925
2.0,0.5,0.8,NaN,0.0,NaN,23.767623773
2.0,0.25,0.4,NaN,NaN,NaN,23.824857699
2.0,0.5,0.3,NaN,0.0,NaN,23.870195544
2.0,0.125,0.8,NaN,NaN,NaN,23.819938522
2.0,0.5,0.7,NaN,0.0,NaN,23.820856889
2.0,1.0,0.1,NaN,0.0,NaN,23.780417449
2.0,0.25,1.0,NaN,NaN,NaN,23.801713275
2.0,0.5,0.5,NaN,0.0,NaN,23.803312741
2.0,0.5,0.9,NaN,0.0,NaN,23.842698139
2.0,1.0,0.2,NaN,0.0,NaN,23.856949316
2.0,0.25,0.3,NaN,NaN,NaN,23.856892303
2.0,0.25,0.9,NaN,NaN,NaN,23.861955911
2.0,0.5,0.4,NaN,0.0,NaN,23.804300353
2.0,0.5,1.0,NaN,0.0,NaN,23.808203185
2.0,1.0,0.9,NaN,0.0,NaN,26.144951829
2.0,2.0,0.3,NaN,0.0,NaN,26.282251694
2.0,2.0,0.8,NaN,0.0,NaN,26.145660267
2.0,4.0,0.2,NaN,0.0,NaN,26.08061111
2.0,4.0,0.3,NaN,0.0,NaN,26.219217878
2.0,4.0,0.4,NaN,0.0,NaN,26.194484559
2.0,4.0,0.5,NaN,0.0,NaN,21.167860438
2.0,1.0,0.4,NaN,0.0,NaN,24.363682765
2.0,8.0,0.05,NaN,0.0,NaN,23.625147605
2.0,8.0,0.9,NaN,0.0,NaN,23.602923742
2.0,8.0,0.4,NaN,0.0,NaN,23.628092005
2.0,8.0,0.5,NaN,0.0,NaN,23.640955028
2.0,8.0,1.0,NaN,0.0,NaN,23.650102173
2.0,16.0,0.2,NaN,0.0,NaN,23.583262198
2.0,8.0,0.6,NaN,0.0,NaN,23.697803636
2.0,16.0,0.05,NaN,0.0,NaN,23.674158224
2.0,16.0,0.9,NaN,0.0,NaN,23.64808942
2.0,4.0,0.6,NaN,0.0,NaN,21.340064847
2.0,16.0,0.5,NaN,0.0,NaN,23.505831243
2.0,8.0,0.2,NaN,0.0,NaN,23.708260318
2.0,16.0,0.6,NaN,0.0,NaN,23.692593834
2.0,32.0,0.1,NaN,0.0,NaN,23.683619628
2.0,8.0,0.7,NaN,0.0,NaN,23.610188323
2.0,16.0,0.1,NaN,0.0,NaN,23.874835063
2.0,32.0,0.5,NaN,0.0,NaN,23.624458812
2.0,16.0,0.7,NaN,0.0,NaN,23.551768612
2.0,16.0,0.3,NaN,0.0,NaN,23.684710196
2.0,4.0,0.7,NaN,0.0,NaN,21.168103699
2.0,16.0,0.8,NaN,0.0,NaN,23.577900322
2.0,32.0,0.2,NaN,0.0,NaN,23.533327701
2.0,4.0,0.8,NaN,0.0,NaN,21.19953438
2.0,32.0,0.3,NaN,0.0,NaN,23.626245098
2.0,32.0,0.4,NaN,0.0,NaN,23.58597514
2.0,4.0,0.9,NaN,0.0,NaN,21.158676935
2.0,16.0,1.0,NaN,0.0,NaN,23.597601155
2.0,1.0,0.5,NaN,0.0,NaN,24.608511219
2.0,4.0,1.0,NaN,0.0,NaN,21.15073024
2.0,8.0,0.1,NaN,0.0,NaN,21.116643717
2.0,1.0,0.7,NaN,0.0,NaN,24.866657917
2.0,8.0,0.3,NaN,0.0,NaN,21.141420427
2.0,1.0,0.6,NaN,0.0,NaN,24.464614125
2.0,8.0,0.8,NaN,0.0,NaN,21.13747924
2.0,1.0,0.8,NaN,0.0,NaN,24.872187548
2.0,1.0,1.0,NaN,0.0,NaN,24.83230201
2.0,2.0,0.05,NaN,0.0,NaN,24.81904085
2.0,2.0,0.1,NaN,0.0,NaN,24.464761119
2.0,2.0,0.2,NaN,0.0,NaN,24.764901641
2.0,2.0,0.4,NaN,0.0,NaN,24.424872101
2.0,16.0,0.4,NaN,0.0,NaN,21.109899852
2.0,2.0,0.5,NaN,0.0,NaN,24.431085123
2.0,2.0,0.6,NaN,0.0,NaN,24.425531291
2.0,32.0,0.05,NaN,0.0,NaN,21.113200202
2.0,32.0,0.6,NaN,0.0,NaN,21.082163497
2.0,32.0,0.7,NaN,0.0,NaN,21.079244153
2.0,32.0,0.8,NaN,0.0,NaN,21.105833467
2.0,2.0,0.7,NaN,0.0,NaN,24.387733478
2.0,2.0,0.9,NaN,0.0,NaN,24.423300888
2.0,2.0,1.0,NaN,0.0,NaN,24.339811798
2.0,4.0,0.05,NaN,0.0,NaN,24.414059742
2.0,4.0,0.1,NaN,0.0,NaN,24.429751867
2.0,128.0,0.7,NaN,0.0,NaN,23.849719391
2.0,128.0,0.2,NaN,0.0,NaN,23.934118713
2.0,128.0,0.05,NaN,0.0,NaN,23.883454142
2.0,128.0,0.1,NaN,0.0,NaN,23.999906046
2.0,128.0,0.8,NaN,0.0,NaN,23.897381277
2.0,64.0,1.0,NaN,0.0,NaN,24.012949705
2.0,32.0,0.9,NaN,0.0,NaN,24.988874672
2.0,128.0,0.4,NaN,0.0,NaN,24.025447549
4.0,0.25,0.9,NaN,NaN,NaN,20.458690468
2.0,256.0,0.2,NaN,0.0,NaN,23.981193408
2.0,128.0,0.3,NaN,0.0,NaN,23.899636777
2.0,128.0,0.6,NaN,0.0,NaN,24.307648027
2.0,32.0,1.0,NaN,0.0,NaN,24.744481944
4.0,0.5,0.1,NaN,0.0,NaN,20.467175869
2.0,256.0,0.1,NaN,0.0,NaN,23.902504935
2.0,128.0,0.5,NaN,0.0,NaN,23.945752048
2.0,64.0,0.05,NaN,0.0,NaN,24.890213677
2.0,256.0,0.3,NaN,0.0,NaN,23.908921004
2.0,128.0,0.9,NaN,0.0,NaN,23.931701049
2.0,128.0,1.0,NaN,0.0,NaN,24.280820104
2.0,256.0,0.8,NaN,0.0,NaN,23.935130978
2.0,256.0,0.05,NaN,0.0,NaN,23.984301505
2.0,256.0,0.9,NaN,0.0,NaN,23.888232904
2.0,256.0,0.4,NaN,0.0,NaN,23.914573317
2.0,256.0,0.7,NaN,0.0,NaN,23.938528229
2.0,256.0,0.5,NaN,0.0,NaN,23.915041275
2.0,64.0,0.1,NaN,0.0,NaN,24.82111656
2.0,512.0,0.4,NaN,0.0,NaN,23.984497044
2.0,512.0,0.3,NaN,0.0,NaN,23.988244052
2.0,256.0,0.6,NaN,0.0,NaN,24.154710587
2.0,512.0,0.2,NaN,0.0,NaN,24.032348136
2.0,512.0,0.05,NaN,0.0,NaN,24.039551535
2.0,256.0,1.0,NaN,0.0,NaN,24.131771112
2.0,64.0,0.2,NaN,0.0,NaN,24.835704077
2.0,512.0,0.1,NaN,0.0,NaN,24.041654391
2.0,512.0,1.0,NaN,0.0,NaN,23.912593672
2.0,512.0,0.9,NaN,0.0,NaN,23.914449813
4.0,0.0625,0.5,NaN,NaN,NaN,23.821958949
2.0,512.0,0.8,NaN,0.0,NaN,23.792256484
2.0,512.0,0.6,NaN,0.0,NaN,23.781690702
2.0,64.0,0.3,NaN,0.0,NaN,24.921733018
2.0,512.0,0.5,NaN,0.0,NaN,23.792832643
4.0,0.0625,0.4,NaN,NaN,NaN,23.722582048
2.0,512.0,0.7,NaN,0.0,NaN,23.82008972
4.0,0.0625,0.1,NaN,NaN,NaN,23.737241345
4.0,0.0625,0.3,NaN,NaN,NaN,23.821436714
4.0,0.0625,1.0,NaN,NaN,NaN,23.783636359
4.0,0.0625,0.9,NaN,NaN,NaN,23.738784995
4.0,0.125,0.05,NaN,NaN,NaN,23.752903843
4.0,0.0625,0.05,NaN,NaN,NaN,23.779292489
4.0,0.125,0.5,NaN,NaN,NaN,23.859033165
4.0,0.0625,0.7,NaN,NaN,NaN,23.804791668
4.0,0.0625,0.6,NaN,NaN,NaN,23.792977617
2.0,64.0,0.4,NaN,0.0,NaN,24.663303409
4.0,0.0625,0.2,NaN,NaN,NaN,23.828942535
4.0,0.125,0.4,NaN,NaN,NaN,23.811937073
4.0,0.125,0.2,NaN,NaN,NaN,23.697397381
4.0,0.125,0.6,NaN,NaN,NaN,23.746974203
4.0,0.25,0.05,NaN,NaN,NaN,23.835722162
4.0,0.125,0.1,NaN,NaN,NaN,23.756318832
2.0,64.0,0.5,NaN,0.0,NaN,24.651636485
2.0,64.0,0.6,NaN,0.0,NaN,24.601822449
4.0,0.125,0.8,NaN,NaN,NaN,23.782124678
4.0,0.0625,0.8,NaN,NaN,NaN,23.850495628
4.0,0.125,0.7,NaN,NaN,NaN,23.761987288
4.0,0.25,0.1,NaN,NaN,NaN,23.755155552
4.0,0.125,1.0,NaN,NaN,NaN,23.729286721
4.0,0.25,0.7,NaN,NaN,NaN,23.756685952
4.0,0.25,0.2,NaN,NaN,NaN,23.8230845
4.0,0.25,0.5,NaN,NaN,NaN,23.828975528
4.0,0.25,0.6,NaN,NaN,NaN,23.729173581
4.0,0.25,0.3,NaN,NaN,NaN,23.738643748
4.0,0.5,0.05,NaN,0.0,NaN,23.950965476
4.0,0.125,0.3,NaN,NaN,NaN,23.797803239
4.0,0.25,0.8,NaN,NaN,NaN,23.833775378
2.0,64.0,0.7,NaN,0.0,NaN,24.809741531
2.0,64.0,0.8,NaN,0.0,NaN,24.629987318
4.0,0.125,0.9,NaN,NaN,NaN,23.81458285
2.0,64.0,0.9,NaN,0.0,NaN,24.681717669
4.0,0.25,0.4,NaN,NaN,NaN,23.82876984
4.0,0.25,1.0,NaN,NaN,NaN,23.833421904
4.0,0.5,0.6,NaN,0.0,NaN,26.330756273
4.0,1.0,0.05,NaN,0.0,NaN,26.349509036
4.0,1.0,0.5,NaN,0.0,NaN,26.136914331
4.0,1.0,1.0,NaN,0.0,NaN,26.193182097
4.0,2.0,0.1,NaN,0.0,NaN,26.198158613
4.0,2.0,0.2,NaN,0.0,NaN,26.084011659
4.0,0.5,0.2,NaN,0.0,NaN,24.774120043
4.0,0.5,0.3,NaN,0.0,NaN,25.172394902
4.0,2.0,0.3,NaN,0.0,NaN,21.119565184
4.0,0.5,0.4,NaN,0.0,NaN,24.77653243
4.0,4.0,0.5,NaN,0.0,NaN,23.708925689
4.0,2.0,0.4,NaN,0.0,NaN,21.147965098
4.0,4.0,0.9,NaN,0.0,NaN,23.754910003
4.0,2.0,1.0,NaN,0.0,NaN,23.680892237
4.0,4.0,0.1,NaN,0.0,NaN,23.772639164
4.0,8.0,0.05,NaN,0.0,NaN,23.719347254
4.0,8.0,0.5,NaN,0.0,NaN,23.709121279
4.0,0.5,0.5,NaN,0.0,NaN,24.786731666
4.0,8.0,0.3,NaN,0.0,NaN,23.62516135
4.0,8.0,1.0,NaN,0.0,NaN,23.607272798
4.0,4.0,0.4,NaN,0.0,NaN,23.710226021
4.0,16.0,0.1,NaN,0.0,NaN,23.667615761
4.0,4.0,0.6,NaN,0.0,NaN,23.60810328
4.0,4.0,0.2,NaN,0.0,NaN,23.90607173
4.0,8.0,0.7,NaN,0.0,NaN,23.634320269
4.0,2.0,0.5,NaN,0.0,NaN,21.203861555
4.0,0.5,0.7,NaN,0.0,NaN,24.902946648
4.0,4.0,1.0,NaN,0.0,NaN,23.648352026
4.0,8.0,0.1,NaN,0.0,NaN,23.678915912
4.0,0.5,0.8,NaN,0.0,NaN,24.85513522
4.0,4.0,0.7,NaN,0.0,NaN,23.810818146
4.0,16.0,0.2,NaN,0.0,NaN,23.611692828
4.0,2.0,0.6,NaN,0.0,NaN,21.186435767
4.0,8.0,0.8,NaN,0.0,NaN,23.644215124
4.0,8.0,0.6,NaN,0.0,NaN,23.673346777
4.0,16.0,0.4,NaN,0.0,NaN,23.591458021
4.0,16.0,0.3,NaN,0.0,NaN,23.637470244
4.0,2.0,0.7,NaN,0.0,NaN,21.175452588
4.0,8.0,0.2,NaN,0.0,NaN,23.752351355
4.0,0.5,0.9,NaN,0.0,NaN,24.535925307
4.0,8.0,0.9,NaN,0.0,NaN,23.717737859
4.0,0.5,1.0,NaN,0.0,NaN,24.806258948
4.0,2.0,0.8,NaN,0.0,NaN,21.22164368
4.0,2.0,0.9,NaN,0.0,NaN,21.135144805
4.0,4.0,0.05,NaN,0.0,NaN,21.170091254
4.0,1.0,0.1,NaN,0.0,NaN,24.710410269
4.0,4.0,0.3,NaN,0.0,NaN,21.053867675
4.0,4.0,0.8,NaN,0.0,NaN,21.063274717
4.0,8.0,0.4,NaN,0.0,NaN,21.056776552
4.0,1.0,0.2,NaN,0.0,NaN,24.648253712
4.0,16.0,0.05,NaN,0.0,NaN,21.05545425
4.0,1.0,0.3,NaN,0.0,NaN,24.70495508
4.0,16.0,0.5,NaN,0.0,NaN,21.073564042
4.0,1.0,0.4,NaN,0.0,NaN,24.689640216
4.0,1.0,0.6,NaN,0.0,NaN,24.53730095
4.0,1.0,0.7,NaN,0.0,NaN,24.680272421
4.0,16.0,0.6,NaN,0.0,NaN,21.09569852
4.0,1.0,0.8,NaN,0.0,NaN,24.630524552
4.0,1.0,0.9,NaN,0.0,NaN,24.663930134
4.0,2.0,0.05,NaN,0.0,NaN,24.514742644
4.0,16.0,0.7,NaN,0.0,NaN,24.75656424
4.0,32.0,0.6,NaN,0.0,NaN,23.9811018
4.0,32.0,0.8,NaN,0.0,NaN,23.89742916
4.0,64.0,0.05,NaN,0.0,NaN,23.907386437
4.0,32.0,1.0,NaN,0.0,NaN,23.922890123
4.0,16.0,0.8,NaN,0.0,NaN,24.659842218
4.0,64.0,0.5,NaN,0.0,NaN,24.058563884
4.0,32.0,0.9,NaN,0.0,NaN,23.967839401
8.0,0.125,0.1,NaN,NaN,NaN,20.557178004
4.0,32.0,0.7,NaN,0.0,NaN,24.04073037
4.0,64.0,0.2,NaN,0.0,NaN,23.973425207
4.0,64.0,0.4,NaN,0.0,NaN,23.984343538
8.0,0.125,0.7,NaN,NaN,NaN,20.606310293
4.0,64.0,0.6,NaN,0.0,NaN,24.020683388
4.0,64.0,1.0,NaN,0.0,NaN,24.005929261
4.0,64.0,0.1,NaN,0.0,NaN,23.960153995
4.0,64.0,0.8,NaN,0.0,NaN,23.984091806
4.0,128.0,0.1,NaN,0.0,NaN,23.989832133
4.0,64.0,0.3,NaN,0.0,NaN,23.969001328
4.0,128.0,0.05,NaN,0.0,NaN,24.112373915
4.0,16.0,0.9,NaN,0.0,NaN,24.558255128
4.0,128.0,0.6,NaN,0.0,NaN,24.04665062
4.0,128.0,0.3,NaN,0.0,NaN,23.956029071
4.0,64.0,0.7,NaN,0.0,NaN,23.964285495
4.0,64.0,0.9,NaN,0.0,NaN,23.984816554
4.0,16.0,1.0,NaN,0.0,NaN,24.747446852
4.0,128.0,0.5,NaN,0.0,NaN,23.943380477
4.0,128.0,0.7,NaN,0.0,NaN,24.013611856
4.0,256.0,0.05,NaN,0.0,NaN,24.081581339
4.0,128.0,0.4,NaN,0.0,NaN,24.167264442
4.0,128.0,0.9,NaN,0.0,NaN,24.055993134
4.0,128.0,0.2,NaN,0.0,NaN,24.079710474
4.0,32.0,0.05,NaN,0.0,NaN,24.788332695
4.0,128.0,1.0,NaN,0.0,NaN,24.055950321
4.0,256.0,0.1,NaN,0.0,NaN,24.000760046
4.0,128.0,0.8,NaN,0.0,NaN,24.031770717
4.0,256.0,0.2,NaN,0.0,NaN,24.060027398
4.0,256.0,0.7,NaN,0.0,NaN,24.082782367
4.0,256.0,0.4,NaN,0.0,NaN,23.924816786
4.0,256.0,0.3,NaN,0.0,NaN,23.931216586
4.0,256.0,0.8,NaN,0.0,NaN,23.829711197
4.0,256.0,0.6,NaN,0.0,NaN,23.967489962
4.0,32.0,0.1,NaN,0.0,NaN,24.424886912
4.0,512.0,0.1,NaN,0.0,NaN,23.90657277
4.0,512.0,0.3,NaN,0.0,NaN,23.855653847
4.0,256.0,1.0,NaN,0.0,NaN,23.787058139
4.0,256.0,0.9,NaN,0.0,NaN,23.825909155
4.0,512.0,0.2,NaN,0.0,NaN,23.88121701
4.0,32.0,0.2,NaN,0.0,NaN,24.670127112
4.0,256.0,0.5,NaN,0.0,NaN,23.868500376
4.0,512.0,0.8,NaN,0.0,NaN,23.895456379
4.0,512.0,0.5,NaN,0.0,NaN,23.838872639
4.0,512.0,0.9,NaN,0.0,NaN,23.780855113
4.0,512.0,0.7,NaN,0.0,NaN,23.862123411
8.0,0.0625,0.4,NaN,NaN,NaN,23.745647891
8.0,0.0625,0.05,NaN,NaN,NaN,23.730923939
4.0,512.0,0.4,NaN,0.0,NaN,23.823095319
8.0,0.0625,0.2,NaN,NaN,NaN,23.762240364
4.0,512.0,1.0,NaN,0.0,NaN,23.778606897
8.0,0.0625,1.0,NaN,NaN,NaN,23.770312856
8.0,0.0625,0.9,NaN,NaN,NaN,23.919838436
8.0,0.0625,0.3,NaN,NaN,NaN,23.784282792
4.0,32.0,0.3,NaN,0.0,NaN,24.59230208
4.0,512.0,0.05,NaN,0.0,NaN,23.905540034
8.0,0.125,0.4,NaN,NaN,NaN,23.762519397
8.0,0.0625,0.8,NaN,NaN,NaN,23.775259681
4.0,32.0,0.4,NaN,0.0,NaN,24.330398976
8.0,0.0625,0.6,NaN,NaN,NaN,23.824337198
8.0,0.0625,0.5,NaN,NaN,NaN,23.799475326
8.0,0.125,0.2,NaN,NaN,NaN,23.78450326
8.0,0.125,0.05,NaN,NaN,NaN,23.755605063
8.0,0.0625,0.1,NaN,NaN,NaN,23.781418198
4.0,512.0,0.6,NaN,0.0,NaN,23.80609567
4.0,32.0,0.5,NaN,0.0,NaN,24.405807994
8.0,0.0625,0.7,NaN,NaN,NaN,23.790419299
8.0,0.125,0.5,NaN,NaN,NaN,23.836088338
8.0,0.125,0.8,NaN,NaN,NaN,23.78657008
8.0,0.125,0.6,NaN,NaN,NaN,23.801531609
8.0,0.125,0.3,NaN,NaN,NaN,23.810539228
8.0,0.25,0.4,NaN,NaN,NaN,25.566583606
8.0,0.25,0.9,NaN,NaN,NaN,26.145159129
8.0,0.5,0.8,NaN,0.0,NaN,25.589603978
8.0,0.5,0.3,NaN,0.0,NaN,25.757426919
8.0,0.5,1.0,NaN,0.0,NaN,26.097818122
8.0,1.0,0.05,NaN,0.0,NaN,26.072640679
8.0,1.0,0.1,NaN,0.0,NaN,21.127435102
8.0,2.0,0.2,NaN,0.0,NaN,23.612463198
8.0,2.0,0.05,NaN,0.0,NaN,23.549898236
8.0,2.0,0.6,NaN,0.0,NaN,23.601036109
8.0,4.0,0.3,NaN,0.0,NaN,23.531767384
8.0,1.0,0.9,NaN,0.0,NaN,23.650734168
8.0,4.0,1.0,NaN,0.0,NaN,23.545726702
8.0,2.0,0.9,NaN,0.0,NaN,23.669263123
8.0,1.0,0.2,NaN,0.0,NaN,21.198495515
8.0,4.0,0.2,NaN,0.0,NaN,23.601326051
8.0,2.0,0.4,NaN,0.0,NaN,23.572957575
8.0,8.0,0.3,NaN,0.0,NaN,23.606826606
8.0,2.0,0.7,NaN,0.0,NaN,23.471995521
8.0,4.0,0.5,NaN,0.0,NaN,23.56291594
8.0,2.0,1.0,NaN,0.0,NaN,23.567750671
8.0,2.0,0.1,NaN,0.0,NaN,23.638263428
8.0,8.0,0.1,NaN,0.0,NaN,23.592698827
8.0,1.0,0.3,NaN,0.0,NaN,21.202852677
8.0,4.0,0.1,NaN,0.0,NaN,23.493875562
8.0,4.0,0.6,NaN,0.0,NaN,23.558825074
8.0,4.0,0.8,NaN,0.0,NaN,23.547244938
8.0,4.0,0.9,NaN,0.0,NaN,23.588715285
8.0,2.0,0.5,NaN,0.0,NaN,23.644782121
8.0,4.0,0.05,NaN,0.0,NaN,23.610630428
8.0,1.0,0.4,NaN,0.0,NaN,21.160175903
8.0,8.0,0.2,NaN,0.0,NaN,23.583483646
8.0,0.125,1.0,NaN,NaN,NaN,25.235912675
8.0,0.125,0.9,NaN,NaN,NaN,24.976799193
8.0,0.25,0.05,NaN,NaN,NaN,25.118595869
8.0,1.0,0.5,NaN,0.0,NaN,21.136630277
8.0,0.25,0.1,NaN,NaN,NaN,24.874139404
8.0,1.0,0.6,NaN,0.0,NaN,21.131792658
8.0,4.0,0.7,NaN,0.0,NaN,23.573711566
8.0,0.25,0.3,NaN,NaN,NaN,24.766753524
8.0,0.25,0.2,NaN,NaN,NaN,24.759489149
8.0,0.25,0.5,NaN,NaN,NaN,24.762138517
8.0,0.25,0.6,NaN,NaN,NaN,24.85576242
8.0,1.0,0.7,NaN,0.0,NaN,21.16897954
8.0,1.0,0.8,NaN,0.0,NaN,21.118538452
8.0,1.0,1.0,NaN,0.0,NaN,21.150443239
8.0,0.25,0.7,NaN,NaN,NaN,24.772486862
8.0,2.0,0.3,NaN,0.0,NaN,21.11227384
8.0,4.0,0.4,NaN,0.0,NaN,21.125163764
8.0,2.0,0.8,NaN,0.0,NaN,21.135314576
8.0,0.25,0.8,NaN,NaN,NaN,24.809365245
8.0,0.25,1.0,NaN,NaN,NaN,24.795758491
8.0,8.0,0.4,NaN,0.0,NaN,21.08467567
8.0,8.0,0.05,NaN,0.0,NaN,21.117438835
8.0,0.5,0.1,NaN,0.0,NaN,24.701607275
8.0,0.5,0.05,NaN,0.0,NaN,24.664495106
8.0,0.5,0.2,NaN,0.0,NaN,24.667134248
8.0,0.5,0.4,NaN,0.0,NaN,24.727810026
8.0,0.5,0.5,NaN,0.0,NaN,24.67253545
8.0,0.5,0.6,NaN,0.0,NaN,24.813594004
8.0,0.5,0.9,NaN,0.0,NaN,24.814799719
8.0,0.5,0.7,NaN,0.0,NaN,24.889777238
8.0,16.0,0.5,NaN,0.0,NaN,23.915957627
8.0,16.0,0.6,NaN,0.0,NaN,23.930946641
8.0,32.0,0.05,NaN,0.0,NaN,23.88031359
8.0,16.0,0.9,NaN,0.0,NaN,23.885729525
8.0,16.0,1.0,NaN,0.0,NaN,23.91344706
8.0,16.0,0.8,NaN,0.0,NaN,24.088476341
8.0,16.0,0.4,NaN,0.0,NaN,23.88547175
8.0,8.0,0.5,NaN,0.0,NaN,24.568950209
8.0,8.0,0.6,NaN,0.0,NaN,24.820901452
8.0,32.0,0.1,NaN,0.0,NaN,23.892807611
8.0,16.0,0.7,NaN,0.0,NaN,23.972039828
16.0,0.0625,0.1,NaN,NaN,NaN,20.463698687
8.0,32.0,0.3,NaN,0.0,NaN,23.926739596
8.0,32.0,0.5,NaN,0.0,NaN,23.853472115
8.0,32.0,0.4,NaN,0.0,NaN,23.934397338
8.0,32.0,0.6,NaN,0.0,NaN,23.932978609
16.0,0.0625,0.6,NaN,NaN,NaN,20.389779452
8.0,8.0,0.7,NaN,0.0,NaN,24.97794991
8.0,32.0,0.2,NaN,0.0,NaN,23.99743855
8.0,64.0,0.1,NaN,0.0,NaN,24.042994502
8.0,32.0,0.7,NaN,0.0,NaN,24.005495612
8.0,32.0,0.9,NaN,0.0,NaN,24.058645873
8.0,32.0,1.0,NaN,0.0,NaN,23.9981021
8.0,32.0,0.8,NaN,0.0,NaN,24.008138858
8.0,64.0,0.05,NaN,0.0,NaN,23.957410915
8.0,8.0,0.8,NaN,0.0,NaN,24.905596953
8.0,64.0,0.2,NaN,0.0,NaN,24.059700911
8.0,64.0,0.4,NaN,0.0,NaN,24.035149858
8.0,64.0,0.5,NaN,0.0,NaN,23.901437585
8.0,64.0,0.6,NaN,0.0,NaN,23.894061586
8.0,64.0,0.7,NaN,0.0,NaN,23.956899187
8.0,8.0,0.9,NaN,0.0,NaN,24.712939329
8.0,64.0,0.8,NaN,0.0,NaN,23.966669821
8.0,64.0,0.3,NaN,0.0,NaN,23.843403107
8.0,128.0,0.1,NaN,0.0,NaN,23.908355265
8.0,128.0,0.05,NaN,0.0,NaN,23.894818438
8.0,128.0,0.2,NaN,0.0,NaN,23.86056791
8.0,128.0,0.3,NaN,0.0,NaN,23.894723507
8.0,8.0,1.0,NaN,0.0,NaN,24.758768717
8.0,64.0,0.9,NaN,0.0,NaN,23.810740861
8.0,128.0,0.6,NaN,0.0,NaN,23.812883674
8.0,128.0,0.8,NaN,0.0,NaN,23.742077861
8.0,128.0,0.4,NaN,0.0,NaN,23.806659469
8.0,128.0,0.7,NaN,0.0,NaN,23.810597229
8.0,256.0,0.1,NaN,0.0,NaN,23.735286688
8.0,256.0,0.2,NaN,0.0,NaN,23.78536006
8.0,256.0,0.3,NaN,0.0,NaN,23.720798875
8.0,16.0,0.05,NaN,0.0,NaN,24.310355586
8.0,256.0,0.7,NaN,0.0,NaN,23.693057042
8.0,128.0,1.0,NaN,0.0,NaN,23.800935045
8.0,256.0,0.8,NaN,0.0,NaN,23.702768188
8.0,64.0,1.0,NaN,0.0,NaN,23.758206029
8.0,128.0,0.9,NaN,0.0,NaN,23.778608491
8.0,16.0,0.1,NaN,0.0,NaN,24.466060315
8.0,256.0,0.9,NaN,0.0,NaN,23.762803675
8.0,128.0,0.5,NaN,0.0,NaN,23.807270861
8.0,512.0,0.2,NaN,0.0,NaN,23.711004907
8.0,256.0,0.05,NaN,0.0,NaN,23.748527447
8.0,256.0,0.5,NaN,0.0,NaN,23.80361414
8.0,512.0,0.3,NaN,0.0,NaN,23.767625915
8.0,256.0,0.4,NaN,0.0,NaN,23.752680898
8.0,512.0,0.8,NaN,0.0,NaN,23.711640651
8.0,16.0,0.2,NaN,0.0,NaN,24.425027697
8.0,512.0,0.9,NaN,0.0,NaN,23.746852756
8.0,512.0,0.05,NaN,0.0,NaN,23.784898596
8.0,256.0,1.0,NaN,0.0,NaN,23.818394704
8.0,16.0,0.3,NaN,0.0,NaN,24.865025592
8.0,512.0,0.6,NaN,0.0,NaN,23.797441131
8.0,256.0,0.6,NaN,0.0,NaN,23.756816652
8.0,512.0,0.4,NaN,0.0,NaN,23.728282517
8.0,512.0,0.5,NaN,0.0,NaN,23.909250492
16.0,0.0625,0.3,NaN,NaN,NaN,23.720126255
8.0,512.0,1.0,NaN,0.0,NaN,23.719334982
16.0,0.0625,0.05,NaN,NaN,NaN,23.751428639
16.0,0.0625,0.4,NaN,NaN,NaN,23.741802459
8.0,512.0,0.1,NaN,0.0,NaN,23.772632771
16.0,0.0625,0.5,NaN,NaN,NaN,23.915581577
8.0,512.0,0.7,NaN,0.0,NaN,23.767283328
16.0,0.0625,0.2,NaN,NaN,NaN,23.740830686
16.0,0.125,0.05,NaN,NaN,NaN,26.343617511
16.0,0.125,0.5,NaN,NaN,NaN,26.169514104
16.0,0.125,1.0,NaN,NaN,NaN,26.218681788
16.0,0.25,0.4,NaN,NaN,NaN,26.172601775
16.0,0.25,0.8,NaN,NaN,NaN,26.023041351
16.0,0.25,0.9,NaN,NaN,NaN,26.019167042
16.0,0.0625,0.7,NaN,NaN,NaN,24.634135117
16.0,0.0625,0.8,NaN,NaN,NaN,24.744124359
16.0,0.0625,0.9,NaN,NaN,NaN,24.915600414
16.0,0.0625,1.0,NaN,NaN,NaN,24.661129696
16.0,0.125,0.1,NaN,NaN,NaN,24.733865703
16.0,0.25,1.0,NaN,NaN,NaN,21.227908928
16.0,0.5,0.9,NaN,0.0,NaN,23.708504367
16.0,0.5,0.05,NaN,0.0,NaN,21.258958534
16.0,1.0,0.9,NaN,0.0,NaN,23.260949166
16.0,1.0,0.05,NaN,0.0,NaN,23.728242141
16.0,1.0,0.3,NaN,0.0,NaN,23.694817831
16.0,0.5,0.7,NaN,0.0,NaN,23.702732497
16.0,0.125,0.2,NaN,NaN,NaN,24.60073485
16.0,1.0,0.6,NaN,0.0,NaN,23.397898927
16.0,1.0,0.2,NaN,0.0,NaN,23.755593854
16.0,1.0,0.5,NaN,0.0,NaN,23.712206623
16.0,1.0,1.0,NaN,0.0,NaN,23.792220545
16.0,0.5,1.0,NaN,0.0,NaN,23.812141677
16.0,2.0,0.2,NaN,0.0,NaN,23.171346068
16.0,0.5,0.1,NaN,0.0,NaN,21.202299934
16.0,1.0,0.8,NaN,0.0,NaN,23.754932452
16.0,0.125,0.3,NaN,NaN,NaN,24.712456082
16.0,2.0,0.5,NaN,0.0,NaN,23.205754879
16.0,1.0,0.4,NaN,0.0,NaN,23.773335622
16.0,2.0,0.6,NaN,0.0,NaN,23.742389091
16.0,4.0,0.05,NaN,0.0,NaN,23.152280203
16.0,2.0,0.9,NaN,0.0,NaN,23.145550581
16.0,2.0,0.1,NaN,0.0,NaN,23.825684426
16.0,2.0,0.05,NaN,0.0,NaN,23.820801046
16.0,0.125,0.4,NaN,NaN,NaN,24.847802717
16.0,2.0,0.8,NaN,0.0,NaN,23.722337788
16.0,2.0,0.4,NaN,0.0,NaN,23.697663555
16.0,4.0,0.1,NaN,0.0,NaN,23.718786098
16.0,0.5,0.2,NaN,0.0,NaN,21.163336634
16.0,0.5,0.3,NaN,0.0,NaN,21.132353987
16.0,2.0,0.7,NaN,0.0,NaN,23.711042593
16.0,0.5,0.4,NaN,0.0,NaN,21.06568183
16.0,0.5,0.5,NaN,0.0,NaN,21.05308312
16.0,0.5,0.6,NaN,0.0,NaN,21.092679224
16.0,0.125,0.7,NaN,NaN,NaN,24.416426845
16.0,0.125,0.6,NaN,NaN,NaN,24.611447364
16.0,0.5,0.8,NaN,0.0,NaN,21.103159319
16.0,0.125,0.8,NaN,NaN,NaN,24.615280502
16.0,1.0,0.1,NaN,0.0,NaN,21.053178646
16.0,1.0,0.7,NaN,0.0,NaN,21.136206909
16.0,0.125,0.9,NaN,NaN,NaN,24.534921669
16.0,2.0,0.3,NaN,0.0,NaN,21.095453307
16.0,2.0,1.0,NaN,0.0,NaN,21.053469595
16.0,0.25,0.05,NaN,NaN,NaN,24.408040768
16.0,4.0,0.2,NaN,0.0,NaN,21.128742175
16.0,0.25,0.1,NaN,NaN,NaN,24.438772453
16.0,0.25,0.2,NaN,NaN,NaN,24.517987691
16.0,0.25,0.3,NaN,NaN,NaN,24.480244036
16.0,0.25,0.5,NaN,NaN,NaN,24.33263832
16.0,0.25,0.7,NaN,NaN,NaN,24.44611093
16.0,0.25,0.6,NaN,NaN,NaN,24.406382422
16.0,4.0,0.7,NaN,0.0,NaN,23.875301597
16.0,4.0,1.0,NaN,0.0,NaN,23.855514892
16.0,8.0,0.05,NaN,0.0,NaN,23.928688124
16.0,4.0,0.9,NaN,0.0,NaN,23.926619742
16.0,4.0,0.8,NaN,0.0,NaN,23.997045328
16.0,4.0,0.3,NaN,0.0,NaN,24.48537294
16.0,32.0,0.1,NaN,0.0,NaN,23.069764797
16.0,8.0,0.1,NaN,0.0,NaN,23.890189037
16.0,4.0,0.4,NaN,0.0,NaN,23.986208017
16.0,8.0,0.4,NaN,0.0,NaN,23.878768908
16.0,128.0,0.5,NaN,0.0,NaN,20.361691541
16.0,8.0,0.2,NaN,0.0,NaN,23.939512549
16.0,64.0,1.0,NaN,0.0,NaN,20.395998816
16.0,32.0,0.7,NaN,0.0,NaN,23.07214477
16.0,16.0,0.8,NaN,0.0,NaN,23.053682942
16.0,4.0,0.5,NaN,0.0,NaN,23.649407427
16.0,8.0,0.3,NaN,0.0,NaN,23.83895704
16.0,8.0,0.5,NaN,0.0,NaN,23.941230969
16.0,32.0,0.3,NaN,0.0,NaN,23.288482923
16.0,8.0,0.8,NaN,0.0,NaN,23.867591404
16.0,4.0,0.6,NaN,0.0,NaN,23.705822792
16.0,8.0,0.7,NaN,0.0,NaN,23.856584237
16.0,8.0,0.6,NaN,0.0,NaN,23.878339974
16.0,64.0,0.2,NaN,0.0,NaN,22.949945782
16.0,8.0,1.0,NaN,0.0,NaN,23.846667634
16.0,8.0,0.9,NaN,0.0,NaN,23.892444931
16.0,32.0,0.9,NaN,0.0,NaN,23.051864137
16.0,16.0,0.05,NaN,0.0,NaN,23.973388571
16.0,16.0,0.1,NaN,0.0,NaN,23.935642398
16.0,16.0,0.5,NaN,0.0,NaN,24.053878932
16.0,16.0,0.2,NaN,0.0,NaN,23.997810356
16.0,64.0,0.8,NaN,0.0,NaN,23.025764968
16.0,64.0,0.4,NaN,0.0,NaN,23.310671034
16.0,16.0,0.4,NaN,0.0,NaN,23.919975478
16.0,128.0,0.05,NaN,0.0,NaN,23.288407709
16.0,128.0,0.4,NaN,0.0,NaN,23.133452898
16.0,16.0,1.0,NaN,0.0,NaN,23.934093794
16.0,16.0,0.6,NaN,0.0,NaN,23.833389406
16.0,16.0,0.9,NaN,0.0,NaN,23.860054449
16.0,16.0,0.3,NaN,0.0,NaN,23.858757396
16.0,128.0,0.6,NaN,0.0,NaN,23.253515221
16.0,32.0,0.4,NaN,0.0,NaN,23.759832082
16.0,16.0,0.7,NaN,0.0,NaN,23.775029995
16.0,32.0,0.05,NaN,0.0,NaN,23.762870535
16.0,32.0,1.0,NaN,0.0,NaN,23.776442615
16.0,32.0,0.5,NaN,0.0,NaN,23.79518051
16.0,32.0,0.6,NaN,0.0,NaN,23.850079101
16.0,64.0,0.05,NaN,0.0,NaN,23.848437014
16.0,32.0,0.2,NaN,0.0,NaN,23.743812839
16.0,64.0,0.5,NaN,0.0,NaN,23.74421938
16.0,64.0,0.6,NaN,0.0,NaN,23.729237866
16.0,32.0,0.8,NaN,0.0,NaN,23.769174783
16.0,64.0,0.1,NaN,0.0,NaN,23.817304846
16.0,64.0,0.3,NaN,0.0,NaN,23.778106667
16.0,128.0,0.1,NaN,0.0,NaN,23.744355898
16.0,128.0,0.2,NaN,0.0,NaN,23.737572321
16.0,64.0,0.7,NaN,0.0,NaN,23.787492797
16.0,128.0,0.3,NaN,0.0,NaN,23.777282973
16.0,128.0,0.7,NaN,0.0,NaN,24.061332253
16.0,64.0,0.9,NaN,0.0,NaN,23.765264475
16.0,128.0,0.8,NaN,0.0,NaN,26.382872601
16.0,128.0,0.9,NaN,0.0,NaN,26.413836602
16.0,256.0,0.3,NaN,0.0,NaN,26.422323684
16.0,256.0,0.8,NaN,0.0,NaN,26.279603951
16.0,512.0,0.2,NaN,0.0,NaN,26.251790507
16.0,512.0,0.4,NaN,0.0,NaN,26.319247154
16.0,128.0,1.0,NaN,0.0,NaN,24.642111866
16.0,512.0,0.5,NaN,0.0,NaN,21.201576466
16.0,256.0,0.05,NaN,0.0,NaN,24.465337628
16.0,512.0,0.8,NaN,0.0,NaN,24.017877422
32.0,0.0625,1.0,NaN,NaN,NaN,23.657843147
32.0,0.0625,0.1,NaN,NaN,NaN,24.056442888
16.0,512.0,0.6,NaN,0.0,NaN,21.232514073
16.0,256.0,0.1,NaN,0.0,NaN,24.382590236
32.0,0.125,0.5,NaN,NaN,NaN,23.544491351
32.0,0.125,0.9,NaN,NaN,NaN,23.82647711
32.0,0.125,0.7,NaN,NaN,NaN,23.673059362
32.0,0.25,0.4,NaN,NaN,NaN,23.605989264
16.0,512.0,0.7,NaN,0.0,NaN,21.17984697
16.0,512.0,1.0,NaN,0.0,NaN,23.987242901
32.0,0.25,0.1,NaN,NaN,NaN,23.653354518
32.0,0.125,0.3,NaN,NaN,NaN,23.632190317
32.0,0.25,0.3,NaN,NaN,NaN,23.648470559
32.0,0.25,0.8,NaN,NaN,NaN,23.686131784
32.0,0.0625,0.4,NaN,NaN,NaN,23.92570711
32.0,0.0625,0.2,NaN,NaN,NaN,23.957101492
32.0,0.5,0.1,NaN,0.0,NaN,23.738459797
16.0,256.0,0.2,NaN,0.0,NaN,24.535066999
32.0,0.125,1.0,NaN,NaN,NaN,23.709701767
32.0,0.25,1.0,NaN,NaN,NaN,23.622829385
16.0,512.0,0.9,NaN,0.0,NaN,21.305363009
32.0,0.0625,0.7,NaN,NaN,NaN,23.869402678
16.0,256.0,0.4,NaN,0.0,NaN,24.206922645
32.0,0.5,0.7,NaN,0.0,NaN,23.509136294
32.0,0.0625,0.5,NaN,NaN,NaN,23.778748486
32.0,0.25,0.6,NaN,NaN,NaN,23.632880594
32.0,0.5,0.4,NaN,0.0,NaN,23.58817998
32.0,0.5,0.6,NaN,0.0,NaN,23.549261293
16.0,256.0,0.5,NaN,0.0,NaN,24.124165867
32.0,0.125,0.05,NaN,NaN,NaN,23.788828104
16.0,256.0,0.6,NaN,0.0,NaN,24.29739608
32.0,0.5,0.2,NaN,0.0,NaN,23.643136534
32.0,0.0625,0.05,NaN,NaN,NaN,21.121775796
32.0,0.0625,0.8,NaN,NaN,NaN,23.776624608
32.0,0.125,0.4,NaN,NaN,NaN,23.672316741
32.0,0.0625,0.3,NaN,NaN,NaN,21.069099128
32.0,0.125,0.1,NaN,NaN,NaN,23.751481163
32.0,0.25,0.05,NaN,NaN,NaN,23.780130275
32.0,0.0625,0.6,NaN,NaN,NaN,21.140450079
32.0,0.125,0.6,NaN,NaN,NaN,23.833656267
32.0,0.0625,0.9,NaN,NaN,NaN,21.091748566
32.0,0.5,0.3,NaN,0.0,NaN,23.703246683
16.0,256.0,0.7,NaN,0.0,NaN,24.321261959
32.0,0.25,0.7,NaN,NaN,NaN,23.692023499
32.0,0.125,0.2,NaN,NaN,NaN,21.059362041
32.0,0.25,0.2,NaN,NaN,NaN,23.879935021
32.0,0.25,0.9,NaN,NaN,NaN,23.783571295
32.0,0.5,0.9,NaN,0.0,NaN,23.666746099
32.0,0.5,0.5,NaN,0.0,NaN,23.834933182
32.0,0.125,0.8,NaN,NaN,NaN,21.077663116
32.0,0.25,0.5,NaN,NaN,NaN,21.098542264
16.0,256.0,0.9,NaN,0.0,NaN,24.311537611
16.0,256.0,1.0,NaN,0.0,NaN,24.222366289
32.0,0.5,0.05,NaN,0.0,NaN,21.069173422
16.0,512.0,0.05,NaN,0.0,NaN,24.401223475
32.0,0.5,0.8,NaN,0.0,NaN,21.260020376
32.0,0.5,1.0,NaN,0.0,NaN,21.08222542
16.0,512.0,0.1,NaN,0.0,NaN,24.383781897
16.0,512.0,0.3,NaN,0.0,NaN,24.413875007
32.0,2.0,0.8,NaN,0.0,NaN,23.903396557
32.0,2.0,0.9,NaN,0.0,NaN,23.991481252
32.0,2.0,0.6,NaN,0.0,NaN,23.976261764
32.0,2.0,0.5,NaN,0.0,NaN,23.997285717
32.0,32.0,0.8,NaN,0.0,NaN,20.59881747
32.0,8.0,0.7,NaN,0.0,NaN,23.808701281
32.0,1.0,0.05,NaN,0.0,NaN,24.840453424
32.0,4.0,0.2,NaN,0.0,NaN,24.001246477
32.0,1.0,0.1,NaN,0.0,NaN,24.605493588
32.0,4.0,0.1,NaN,0.0,NaN,23.951481499
32.0,64.0,0.4,NaN,0.0,NaN,20.641963925
32.0,2.0,0.7,NaN,0.0,NaN,23.930692625
32.0,8.0,0.5,NaN,0.0,NaN,23.71203843
32.0,2.0,1.0,NaN,0.0,NaN,23.908044053
32.0,4.0,0.5,NaN,0.0,NaN,23.999882122
32.0,16.0,0.2,NaN,0.0,NaN,23.802381584
32.0,4.0,0.6,NaN,0.0,NaN,24.005504956
32.0,1.0,0.2,NaN,0.0,NaN,24.831375382
32.0,16.0,0.8,NaN,0.0,NaN,23.87752893
32.0,16.0,0.05,NaN,0.0,NaN,23.839518822
32.0,4.0,0.05,NaN,0.0,NaN,24.066031625
32.0,4.0,1.0,NaN,0.0,NaN,23.995791006
32.0,32.0,0.3,NaN,0.0,NaN,23.76193323
32.0,4.0,0.3,NaN,0.0,NaN,24.165192677
32.0,16.0,0.6,NaN,0.0,NaN,23.814243082
32.0,4.0,0.9,NaN,0.0,NaN,24.061360076
32.0,4.0,0.7,NaN,0.0,NaN,24.244908935
32.0,1.0,0.3,NaN,0.0,NaN,24.551922284
32.0,32.0,1.0,NaN,0.0,NaN,23.791105089
32.0,4.0,0.4,NaN,0.0,NaN,24.012351578
32.0,8.0,0.3,NaN,0.0,NaN,23.994924683
32.0,1.0,0.4,NaN,0.0,NaN,24.642362386
32.0,4.0,0.8,NaN,0.0,NaN,24.031988556
32.0,32.0,0.1,NaN,0.0,NaN,23.792702565
32.0,8.0,0.2,NaN,0.0,NaN,23.966171039
32.0,8.0,0.05,NaN,0.0,NaN,24.005406111
32.0,1.0,0.5,NaN,0.0,NaN,24.582407016
32.0,8.0,0.1,NaN,0.0,NaN,24.274925491
32.0,32.0,0.7,NaN,0.0,NaN,23.758159496
32.0,8.0,0.4,NaN,0.0,NaN,24.064109166
32.0,1.0,0.6,NaN,0.0,NaN,24.802433008
32.0,64.0,0.3,NaN,0.0,NaN,23.817413675
32.0,8.0,0.8,NaN,0.0,NaN,23.824047554
32.0,8.0,0.9,NaN,0.0,NaN,23.881297114
32.0,16.0,0.4,NaN,0.0,NaN,23.82801025
32.0,8.0,1.0,NaN,0.0,NaN,23.836089646
32.0,8.0,0.6,NaN,0.0,NaN,23.817099957
32.0,16.0,0.3,NaN,0.0,NaN,23.884341135
32.0,16.0,1.0,NaN,0.0,NaN,23.798614174
32.0,16.0,0.9,NaN,0.0,NaN,23.75182946
32.0,32.0,0.5,NaN,0.0,NaN,23.857396496
32.0,16.0,0.1,NaN,0.0,NaN,23.786077064
32.0,16.0,0.5,NaN,0.0,NaN,23.850438499
32.0,64.0,0.05,NaN,0.0,NaN,23.818213889
32.0,32.0,0.4,NaN,0.0,NaN,23.789794633
32.0,16.0,0.7,NaN,0.0,NaN,23.800099727
32.0,64.0,0.1,NaN,0.0,NaN,23.793621617
32.0,1.0,0.7,NaN,0.0,NaN,24.444258812
32.0,32.0,0.05,NaN,0.0,NaN,23.811934804
32.0,32.0,0.6,NaN,0.0,NaN,23.8083245
32.0,1.0,0.8,NaN,0.0,NaN,24.48147731
32.0,32.0,0.2,NaN,0.0,NaN,23.81693723
32.0,32.0,0.9,NaN,0.0,NaN,23.802744207
32.0,1.0,0.9,NaN,0.0,NaN,24.507383487
32.0,64.0,0.2,NaN,0.0,NaN,23.805784625
32.0,64.0,0.5,NaN,0.0,NaN,23.785975877
32.0,2.0,0.05,NaN,0.0,NaN,24.56159141
32.0,1.0,1.0,NaN,0.0,NaN,24.654827125
32.0,2.0,0.1,NaN,0.0,NaN,24.416145317
32.0,2.0,0.2,NaN,0.0,NaN,24.66963816
32.0,2.0,0.3,NaN,0.0,NaN,24.294247837
32.0,2.0,0.4,NaN,0.0,NaN,24.755805977
32.0,64.0,0.6,NaN,0.0,NaN,25.452207378
32.0,128.0,0.7,NaN,0.0,NaN,25.498777319
32.0,64.0,0.8,NaN,0.0,NaN,25.516887345
32.0,128.0,0.6,NaN,0.0,NaN,26.346896884
32.0,64.0,0.7,NaN,0.0,NaN,26.692445781
32.0,128.0,0.1,NaN,0.0,NaN,25.866910801
32.0,128.0,0.8,NaN,0.0,NaN,21.105322386
32.0,512.0,0.6,NaN,0.0,NaN,23.632903624
64.0,0.0625,0.05,NaN,NaN,NaN,23.678547045
64.0,0.0625,0.2,NaN,NaN,NaN,23.577665119
32.0,256.0,0.4,NaN,0.0,NaN,23.995148291
64.0,0.0625,0.4,NaN,NaN,NaN,23.667939517
32.0,64.0,1.0,NaN,0.0,NaN,24.407486703
32.0,512.0,0.3,NaN,0.0,NaN,23.713817372
64.0,0.0625,0.7,NaN,NaN,NaN,23.604596631
32.0,256.0,0.7,NaN,0.0,NaN,24.012016705
32.0,512.0,0.8,NaN,0.0,NaN,23.670828159
32.0,64.0,0.9,NaN,0.0,NaN,24.464361007
32.0,256.0,0.1,NaN,0.0,NaN,23.933605392
32.0,128.0,0.9,NaN,0.0,NaN,21.276235459
64.0,0.0625,0.9,NaN,NaN,NaN,23.651587244
32.0,256.0,0.3,NaN,0.0,NaN,24.011158129
32.0,128.0,1.0,NaN,0.0,NaN,21.265571987
64.0,0.125,0.5,NaN,NaN,NaN,23.593831412
64.0,0.0625,0.3,NaN,NaN,NaN,23.664947529
64.0,0.125,0.05,NaN,NaN,NaN,23.631501206
32.0,256.0,1.0,NaN,0.0,NaN,23.812517221
32.0,128.0,0.05,NaN,0.0,NaN,24.420615578
64.0,0.25,0.05,NaN,NaN,NaN,23.836502421
64.0,0.125,0.7,NaN,NaN,NaN,23.566457951
32.0,256.0,0.6,NaN,0.0,NaN,23.911378355
64.0,0.125,0.3,NaN,NaN,NaN,23.646663712
64.0,0.25,0.1,NaN,NaN,NaN,23.655728818
64.0,0.0625,1.0,NaN,NaN,NaN,23.65734464
32.0,128.0,0.2,NaN,0.0,NaN,24.240469298
32.0,256.0,0.05,NaN,0.0,NaN,21.16192256
32.0,512.0,0.2,NaN,0.0,NaN,23.760319576
32.0,256.0,0.9,NaN,0.0,NaN,23.825277448
32.0,256.0,0.2,NaN,0.0,NaN,21.136832287
32.0,512.0,0.1,NaN,0.0,NaN,23.829628026
64.0,0.125,0.6,NaN,NaN,NaN,23.626371321
32.0,256.0,0.5,NaN,0.0,NaN,21.147575453
32.0,512.0,0.7,NaN,0.0,NaN,23.841339961
32.0,512.0,0.5,NaN,0.0,NaN,23.965240327
64.0,0.0625,0.1,NaN,NaN,NaN,23.893772398
32.0,128.0,0.3,NaN,0.0,NaN,24.295240418
32.0,256.0,0.8,NaN,0.0,NaN,21.125309652
32.0,512.0,1.0,NaN,0.0,NaN,23.884065267
32.0,128.0,0.4,NaN,0.0,NaN,24.428025799
32.0,128.0,0.5,NaN,0.0,NaN,24.148805223
64.0,0.0625,0.8,NaN,NaN,NaN,23.708082914
64.0,0.0625,0.6,NaN,NaN,NaN,23.870233515
32.0,512.0,0.05,NaN,0.0,NaN,21.082093804
64.0,0.125,0.4,NaN,NaN,NaN,23.80054051
32.0,512.0,0.4,NaN,0.0,NaN,21.107024078
64.0,0.125,1.0,NaN,NaN,NaN,23.701469564
64.0,0.125,0.2,NaN,NaN,NaN,23.763947444
64.0,0.125,0.9,NaN,NaN,NaN,23.823462942
64.0,0.0625,0.5,NaN,NaN,NaN,21.06549645
32.0,512.0,0.9,NaN,0.0,NaN,21.127051119
64.0,0.125,0.1,NaN,NaN,NaN,21.056265833
64.0,0.125,0.8,NaN,NaN,NaN,21.040479121
64.0,0.25,0.2,NaN,NaN,NaN,21.192861285
64.0,1.0,0.3,NaN,0.0,NaN,23.856452365
64.0,1.0,0.5,NaN,0.0,NaN,23.867168286
64.0,1.0,0.4,NaN,0.0,NaN,23.917776892
64.0,1.0,0.9,NaN,0.0,NaN,23.943438028
64.0,1.0,0.7,NaN,0.0,NaN,23.862421138
64.0,1.0,0.6,NaN,0.0,NaN,23.951210542
64.0,4.0,0.2,NaN,0.0,NaN,23.728062326
64.0,16.0,0.4,NaN,0.0,NaN,20.446380435
64.0,32.0,0.05,NaN,0.0,NaN,20.491158462
64.0,1.0,0.8,NaN,0.0,NaN,23.936524694
64.0,0.25,0.3,NaN,NaN,NaN,25.09028772
64.0,4.0,0.1,NaN,0.0,NaN,23.773322105
64.0,0.25,0.4,NaN,NaN,NaN,25.016754445
64.0,1.0,1.0,NaN,0.0,NaN,23.941221897
64.0,2.0,0.2,NaN,0.0,NaN,23.946447784
64.0,4.0,0.8,NaN,0.0,NaN,23.672778003
64.0,4.0,0.7,NaN,0.0,NaN,23.862266748
64.0,2.0,0.1,NaN,0.0,NaN,23.89029313
64.0,2.0,0.05,NaN,0.0,NaN,23.933418864
64.0,8.0,0.3,NaN,0.0,NaN,23.662579146
64.0,2.0,0.3,NaN,0.0,NaN,23.924892034
64.0,0.25,0.5,NaN,NaN,NaN,25.046920796
64.0,8.0,0.2,NaN,0.0,NaN,23.683822907
64.0,2.0,0.6,NaN,0.0,NaN,23.89833691
64.0,2.0,0.4,NaN,0.0,NaN,23.936304289
64.0,8.0,0.9,NaN,0.0,NaN,23.725724785
64.0,0.25,0.6,NaN,NaN,NaN,24.936627472
64.0,2.0,0.5,NaN,0.0,NaN,24.035234827
64.0,2.0,1.0,NaN,0.0,NaN,24.053430907
64.0,2.0,0.7,NaN,0.0,NaN,23.94160584
64.0,8.0,0.8,NaN,0.0,NaN,23.933468945
64.0,16.0,0.5,NaN,0.0,NaN,23.745283591
64.0,2.0,0.9,NaN,0.0,NaN,23.965429473
64.0,0.25,0.7,NaN,NaN,NaN,24.981401455
64.0,2.0,0.8,NaN,0.0,NaN,23.919648784
64.0,16.0,0.3,NaN,0.0,NaN,23.673847555
64.0,0.25,0.8,NaN,NaN,NaN,25.023273487
64.0,4.0,0.5,NaN,0.0,NaN,23.946247555
64.0,0.25,0.9,NaN,NaN,NaN,25.009612019
64.0,16.0,1.0,NaN,0.0,NaN,23.663572406
64.0,4.0,0.05,NaN,0.0,NaN,23.819662113
64.0,4.0,0.3,NaN,0.0,NaN,23.890472302
64.0,4.0,0.4,NaN,0.0,NaN,23.830648419
64.0,8.0,0.05,NaN,0.0,NaN,23.845369921
64.0,4.0,0.6,NaN,0.0,NaN,23.764819047
64.0,4.0,1.0,NaN,0.0,NaN,23.786554699
64.0,8.0,0.1,NaN,0.0,NaN,23.845234827
64.0,8.0,0.6,NaN,0.0,NaN,23.834986181
64.0,4.0,0.9,NaN,0.0,NaN,23.856756978
64.0,8.0,0.7,NaN,0.0,NaN,23.767952799
64.0,8.0,0.4,NaN,0.0,NaN,23.774253744
64.0,8.0,0.5,NaN,0.0,NaN,23.787119699
64.0,16.0,0.1,NaN,0.0,NaN,23.810429064
64.0,16.0,0.05,NaN,0.0,NaN,23.801307913
64.0,16.0,0.8,NaN,0.0,NaN,23.856910386
64.0,8.0,1.0,NaN,0.0,NaN,23.842864623
64.0,16.0,0.2,NaN,0.0,NaN,23.836243741
64.0,0.25,1.0,NaN,NaN,NaN,24.872596446
64.0,0.5,0.05,NaN,0.0,NaN,24.826636264
64.0,16.0,0.9,NaN,0.0,NaN,23.830762777
64.0,16.0,0.6,NaN,0.0,NaN,23.807815036
64.0,32.0,0.2,NaN,0.0,NaN,23.772224654
64.0,16.0,0.7,NaN,0.0,NaN,23.791126754
64.0,0.5,0.1,NaN,0.0,NaN,25.561526195
64.0,32.0,0.3,NaN,0.0,NaN,23.788215672
64.0,32.0,0.1,NaN,0.0,NaN,23.781662635
64.0,0.5,0.2,NaN,0.0,NaN,24.78464228
64.0,0.5,0.3,NaN,0.0,NaN,24.688806231
64.0,0.5,0.4,NaN,0.0,NaN,24.698918824
64.0,0.5,0.5,NaN,0.0,NaN,24.960599544
64.0,0.5,0.6,NaN,0.0,NaN,24.805850436
64.0,0.5,0.7,NaN,0.0,NaN,24.865879948
64.0,0.5,0.8,NaN,0.0,NaN,24.838397477
64.0,0.5,0.9,NaN,0.0,NaN,24.976643195
64.0,0.5,1.0,NaN,0.0,NaN,24.908495507
64.0,1.0,0.05,NaN,0.0,NaN,24.891718632
64.0,1.0,0.1,NaN,0.0,NaN,24.88384654
64.0,1.0,0.2,NaN,0.0,NaN,24.874159785
64.0,32.0,0.4,NaN,0.0,NaN,25.413844188
64.0,32.0,0.5,NaN,0.0,NaN,26.01087799
64.0,64.0,0.4,NaN,0.0,NaN,25.337510033
64.0,32.0,0.6,NaN,0.0,NaN,26.290182152
64.0,32.0,1.0,NaN,0.0,NaN,25.341372878
64.0,64.0,0.5,NaN,0.0,NaN,26.266610109
64.0,64.0,0.6,NaN,0.0,NaN,21.155948345
64.0,64.0,1.0,NaN,0.0,NaN,24.015012271
64.0,32.0,0.7,NaN,0.0,NaN,24.123758297
64.0,256.0,0.4,NaN,0.0,NaN,23.789408948
64.0,128.0,0.3,NaN,0.0,NaN,24.082210306
64.0,256.0,0.1,NaN,0.0,NaN,23.78533017
64.0,256.0,0.8,NaN,0.0,NaN,23.808335607
64.0,512.0,0.4,NaN,0.0,NaN,23.960907891
64.0,64.0,0.7,NaN,0.0,NaN,21.382634161
64.0,128.0,0.6,NaN,0.0,NaN,24.1033266
64.0,256.0,1.0,NaN,0.0,NaN,23.846638936
64.0,512.0,0.3,NaN,0.0,NaN,23.805159297
64.0,32.0,0.8,NaN,0.0,NaN,24.434548133
64.0,256.0,0.6,NaN,0.0,NaN,23.871391753
64.0,128.0,0.1,NaN,0.0,NaN,24.09711053
64.0,512.0,0.6,NaN,0.0,NaN,23.785156897
64.0,64.0,0.8,NaN,0.0,NaN,21.168404927
64.0,512.0,1.0,NaN,0.0,NaN,23.773669699
64.0,512.0,0.1,NaN,0.0,NaN,23.727509636
64.0,128.0,0.9,NaN,0.0,NaN,23.961991058
128.0,0.0625,0.05,NaN,NaN,NaN,23.763173126
64.0,32.0,0.9,NaN,0.0,NaN,24.217876269
128.0,0.0625,0.2,NaN,NaN,NaN,23.669201782
64.0,128.0,0.4,NaN,0.0,NaN,23.907861118
64.0,512.0,0.8,NaN,0.0,NaN,23.753998671
64.0,64.0,0.05,NaN,0.0,NaN,24.289291175
64.0,256.0,0.2,NaN,0.0,NaN,24.011744161
64.0,64.0,0.9,NaN,0.0,NaN,21.207355797
128.0,0.0625,0.7,NaN,NaN,NaN,23.697724485
128.0,0.0625,0.6,NaN,NaN,NaN,23.741029827
128.0,0.125,0.05,NaN,NaN,NaN,23.745240772
64.0,128.0,0.7,NaN,0.0,NaN,23.894303633
128.0,0.0625,0.4,NaN,NaN,NaN,23.797236762
64.0,128.0,0.05,NaN,0.0,NaN,21.230550571
64.0,64.0,0.1,NaN,0.0,NaN,24.348866921
64.0,64.0,0.2,NaN,0.0,NaN,24.174637874
64.0,256.0,0.7,NaN,0.0,NaN,23.793131327
64.0,128.0,1.0,NaN,0.0,NaN,23.852717619
64.0,64.0,0.3,NaN,0.0,NaN,23.870008982
64.0,128.0,0.2,NaN,0.0,NaN,21.122791958
64.0,512.0,0.2,NaN,0.0,NaN,23.817714356
64.0,256.0,0.3,NaN,0.0,NaN,23.881965801
64.0,512.0,0.9,NaN,0.0,NaN,23.802403206
64.0,128.0,0.5,NaN,0.0,NaN,21.097033168
128.0,0.0625,0.5,NaN,NaN,NaN,23.786650685
64.0,256.0,0.9,NaN,0.0,NaN,23.815157266
64.0,128.0,0.8,NaN,0.0,NaN,21.046140193
128.0,0.0625,1.0,NaN,NaN,NaN,23.73113581
64.0,256.0,0.05,NaN,0.0,NaN,21.092600303
64.0,512.0,0.5,NaN,0.0,NaN,23.864452357
128.0,0.0625,0.1,NaN,NaN,NaN,23.849613515
64.0,256.0,0.5,NaN,0.0,NaN,21.078420619
128.0,0.0625,0.8,NaN,NaN,NaN,23.824142104
64.0,512.0,0.7,NaN,0.0,NaN,21.128280608
64.0,512.0,0.05,NaN,0.0,NaN,21.12214843
128.0,0.0625,0.3,NaN,NaN,NaN,21.077010047
128.0,0.0625,0.9,NaN,NaN,NaN,21.053278277
128.0,2.0,0.9,NaN,0.0,NaN,20.271496447
128.0,1.0,0.05,NaN,0.0,NaN,23.598435362
128.0,0.125,0.8,NaN,NaN,NaN,23.837536296
128.0,0.25,0.1,NaN,NaN,NaN,23.903874826
128.0,0.5,0.7,NaN,0.0,NaN,23.640356736
128.0,0.25,0.5,NaN,NaN,NaN,23.86093493
128.0,0.125,1.0,NaN,NaN,NaN,23.823261091
128.0,4.0,0.5,NaN,0.0,NaN,20.349219892
128.0,0.25,0.3,NaN,NaN,NaN,23.800856402
128.0,1.0,0.6,NaN,0.0,NaN,23.592286656
128.0,0.25,0.05,NaN,NaN,NaN,23.901365247
128.0,2.0,0.1,NaN,0.0,NaN,23.735161042
128.0,1.0,0.2,NaN,0.0,NaN,23.758901326
128.0,0.25,0.2,NaN,NaN,NaN,23.939213383
128.0,0.25,0.9,NaN,NaN,NaN,23.907577186
128.0,0.125,0.9,NaN,NaN,NaN,23.961192446
128.0,2.0,0.7,NaN,0.0,NaN,23.608282949
128.0,1.0,0.8,NaN,0.0,NaN,23.730484677
128.0,0.25,0.4,NaN,NaN,NaN,23.893421948
128.0,2.0,0.3,NaN,0.0,NaN,23.673789654
128.0,0.25,0.7,NaN,NaN,NaN,23.900305577
128.0,0.25,0.8,NaN,NaN,NaN,23.921498319
128.0,0.5,0.2,NaN,0.0,NaN,23.942874383
128.0,0.25,0.6,NaN,NaN,NaN,23.895671333
128.0,0.5,0.05,NaN,0.0,NaN,23.930072443
128.0,0.5,0.6,NaN,0.0,NaN,23.935836265
128.0,0.5,0.4,NaN,0.0,NaN,23.921863556
128.0,4.0,0.3,NaN,0.0,NaN,23.729139512
128.0,0.125,0.1,NaN,NaN,NaN,24.055911028
128.0,0.125,0.2,NaN,NaN,NaN,23.474970207
128.0,0.5,0.1,NaN,0.0,NaN,23.876347318
128.0,0.25,1.0,NaN,NaN,NaN,23.911582608
128.0,1.0,0.1,NaN,0.0,NaN,23.837337869
128.0,0.5,0.9,NaN,0.0,NaN,23.84787589
128.0,2.0,1.0,NaN,0.0,NaN,23.680218532
128.0,0.125,0.3,NaN,NaN,NaN,23.987091664
128.0,0.5,0.3,NaN,0.0,NaN,23.893275896
128.0,0.5,0.5,NaN,0.0,NaN,23.904537146
128.0,4.0,0.6,NaN,0.0,NaN,23.725452299
128.0,0.5,0.8,NaN,0.0,NaN,23.862198136
128.0,0.5,1.0,NaN,0.0,NaN,23.86318047
128.0,1.0,0.5,NaN,0.0,NaN,23.800267033
128.0,0.125,0.4,NaN,NaN,NaN,24.088887424
128.0,0.125,0.5,NaN,NaN,NaN,24.164864659
128.0,1.0,0.4,NaN,0.0,NaN,23.742688787
128.0,1.0,0.7,NaN,0.0,NaN,23.752609289
128.0,1.0,1.0,NaN,0.0,NaN,23.759046825
128.0,1.0,0.3,NaN,0.0,NaN,23.752251695
128.0,2.0,0.2,NaN,0.0,NaN,23.76923446
128.0,2.0,0.5,NaN,0.0,NaN,23.710324341
128.0,2.0,0.4,NaN,0.0,NaN,23.819745561
128.0,1.0,0.9,NaN,0.0,NaN,23.86810509
128.0,4.0,0.1,NaN,0.0,NaN,23.770392086
128.0,2.0,0.8,NaN,0.0,NaN,23.757538039
128.0,4.0,0.4,NaN,0.0,NaN,23.773168625
128.0,2.0,0.05,NaN,0.0,NaN,23.781144486
128.0,0.125,0.6,NaN,NaN,NaN,23.953606895
128.0,4.0,0.8,NaN,0.0,NaN,23.778869806
128.0,4.0,0.05,NaN,0.0,NaN,23.897204938
128.0,2.0,0.6,NaN,0.0,NaN,23.755833913
128.0,0.125,0.7,NaN,NaN,NaN,24.20840748
128.0,4.0,0.2,NaN,0.0,NaN,23.786935222
128.0,4.0,0.7,NaN,0.0,NaN,23.781337701
128.0,8.0,0.7,NaN,0.0,NaN,26.716574472
128.0,8.0,0.2,NaN,0.0,NaN,26.614377754
128.0,16.0,0.1,NaN,0.0,NaN,26.522941554
128.0,16.0,0.6,NaN,0.0,NaN,26.466334289
128.0,32.0,0.05,NaN,0.0,NaN,26.55466799
128.0,32.0,0.3,NaN,0.0,NaN,26.392984667
128.0,4.0,0.9,NaN,0.0,NaN,24.955507349
128.0,4.0,1.0,NaN,0.0,NaN,24.856255107
128.0,8.0,0.05,NaN,0.0,NaN,24.946337017
128.0,32.0,0.4,NaN,0.0,NaN,21.195661681
128.0,32.0,1.0,NaN,0.0,NaN,23.912070321
128.0,8.0,0.1,NaN,0.0,NaN,24.816216123
128.0,32.0,0.5,NaN,0.0,NaN,21.242823576
128.0,32.0,0.8,NaN,0.0,NaN,24.025745769
128.0,128.0,0.1,NaN,0.0,NaN,23.658591127
128.0,128.0,0.05,NaN,0.0,NaN,23.67228168
128.0,64.0,0.05,NaN,0.0,NaN,23.914369332
128.0,64.0,0.2,NaN,0.0,NaN,23.871999282
128.0,128.0,0.6,NaN,0.0,NaN,23.555916631
128.0,128.0,0.7,NaN,0.0,NaN,23.638083973
128.0,8.0,0.3,NaN,0.0,NaN,24.842791701
128.0,256.0,0.2,NaN,0.0,NaN,23.549719043
128.0,256.0,0.3,NaN,0.0,NaN,23.619617526
128.0,32.0,0.6,NaN,0.0,NaN,21.225040406
128.0,128.0,0.5,NaN,0.0,NaN,23.716519311
128.0,64.0,0.3,NaN,0.0,NaN,24.037063591
128.0,256.0,0.05,NaN,0.0,NaN,23.689714985
128.0,32.0,0.7,NaN,0.0,NaN,21.207970729
128.0,256.0,0.1,NaN,0.0,NaN,23.69031601
128.0,256.0,0.9,NaN,0.0,NaN,23.597365038
128.0,256.0,1.0,NaN,0.0,NaN,23.679937183
128.0,8.0,0.4,NaN,0.0,NaN,25.212515742
128.0,64.0,0.5,NaN,0.0,NaN,23.863446939
128.0,8.0,0.5,NaN,0.0,NaN,24.871867917
128.0,512.0,0.4,NaN,0.0,NaN,23.612495425
128.0,256.0,0.7,NaN,0.0,NaN,23.631276966
128.0,256.0,0.8,NaN,0.0,NaN,23.536049618
128.0,512.0,0.5,NaN,0.0,NaN,23.626305484
128.0,64.0,0.6,NaN,0.0,NaN,23.976788045
128.0,512.0,0.9,NaN,0.0,NaN,23.627790336
128.0,64.0,0.8,NaN,0.0,NaN,23.927936806
128.0,8.0,0.6,NaN,0.0,NaN,24.981483984
128.0,512.0,0.3,NaN,0.0,NaN,23.641429432
128.0,64.0,0.9,NaN,0.0,NaN,23.879201094
128.0,32.0,0.9,NaN,0.0,NaN,21.187906334
128.0,128.0,0.2,NaN,0.0,NaN,23.831103271
128.0,64.0,0.1,NaN,0.0,NaN,21.190626178
128.0,128.0,0.8,NaN,0.0,NaN,23.768978596
128.0,128.0,0.3,NaN,0.0,NaN,23.790114382
128.0,256.0,0.4,NaN,0.0,NaN,23.672410349
128.0,64.0,0.4,NaN,0.0,NaN,21.100305019
128.0,512.0,0.05,NaN,0.0,NaN,23.807636076
128.0,128.0,0.9,NaN,0.0,NaN,23.963720217
128.0,256.0,0.5,NaN,0.0,NaN,23.838774092
128.0,512.0,0.6,NaN,0.0,NaN,23.809083234
128.0,64.0,0.7,NaN,0.0,NaN,21.142303519
128.0,8.0,0.8,NaN,0.0,NaN,24.970447672
128.0,64.0,1.0,NaN,0.0,NaN,21.150132458
128.0,512.0,0.1,NaN,0.0,NaN,23.801071704
128.0,8.0,0.9,NaN,0.0,NaN,24.930596183
128.0,128.0,0.4,NaN,0.0,NaN,21.042004697
128.0,512.0,0.7,NaN,0.0,NaN,23.799906208
128.0,8.0,1.0,NaN,0.0,NaN,24.961493046
128.0,128.0,1.0,NaN,0.0,NaN,21.067157598
128.0,16.0,0.05,NaN,0.0,NaN,24.810758712
128.0,256.0,0.6,NaN,0.0,NaN,21.074922331
128.0,512.0,0.2,NaN,0.0,NaN,21.091853865
128.0,512.0,0.8,NaN,0.0,NaN,21.079290389
128.0,16.0,0.2,NaN,0.0,NaN,24.90956208
128.0,16.0,0.3,NaN,0.0,NaN,25.206042172
128.0,16.0,0.4,NaN,0.0,NaN,24.905790869
128.0,16.0,0.5,NaN,0.0,NaN,25.126511025
128.0,16.0,0.7,NaN,0.0,NaN,25.085892475
128.0,16.0,0.8,NaN,0.0,NaN,24.838362241
128.0,16.0,0.9,NaN,0.0,NaN,24.832723933
128.0,32.0,0.2,NaN,0.0,NaN,24.830563689
128.0,16.0,1.0,NaN,0.0,NaN,24.80059229
128.0,32.0,0.1,NaN,0.0,NaN,24.82471291
256.0,0.0625,0.9,NaN,NaN,NaN,23.919658915
256.0,0.25,0.8,NaN,NaN,NaN,23.427072766
256.0,0.0625,0.8,NaN,NaN,NaN,24.076746891
256.0,1.0,0.4,NaN,0.0,NaN,20.60095935
256.0,0.25,0.7,NaN,NaN,NaN,23.843568568
256.0,0.125,0.05,NaN,NaN,NaN,24.068490445
256.0,0.5,0.3,NaN,0.0,NaN,23.485725002
256.0,0.0625,0.6,NaN,NaN,NaN,24.336292684
256.0,2.0,0.05,NaN,0.0,NaN,20.719764929
256.0,0.0625,0.7,NaN,NaN,NaN,24.060414147
256.0,0.125,0.1,NaN,NaN,NaN,23.9962174
256.0,0.125,0.4,NaN,NaN,NaN,24.067722787
256.0,0.5,0.2,NaN,0.0,NaN,23.727449705
256.0,0.5,0.9,NaN,0.0,NaN,23.586019548
256.0,0.125,0.5,NaN,NaN,NaN,23.999219643
128.0,512.0,1.0,NaN,0.0,NaN,24.273184817
256.0,0.125,0.2,NaN,NaN,NaN,23.963551677
256.0,0.0625,0.05,NaN,NaN,NaN,24.000356575
256.0,0.0625,1.0,NaN,NaN,NaN,23.946295472
256.0,0.125,0.8,NaN,NaN,NaN,24.108304622
256.0,0.0625,0.1,NaN,NaN,NaN,23.751846094
256.0,0.125,0.6,NaN,NaN,NaN,24.014919697
256.0,0.5,0.8,NaN,0.0,NaN,23.713650834
256.0,0.125,0.9,NaN,NaN,NaN,24.040221502
256.0,0.25,0.2,NaN,NaN,NaN,24.008933539
256.0,0.125,1.0,NaN,NaN,NaN,23.957159434
256.0,0.25,0.1,NaN,NaN,NaN,24.12889339
256.0,1.0,0.5,NaN,0.0,NaN,23.376508387
256.0,0.125,0.3,NaN,NaN,NaN,23.940187572
256.0,2.0,0.1,NaN,0.0,NaN,23.361831077
256.0,0.0625,0.2,NaN,NaN,NaN,24.109214848
256.0,0.0625,0.3,NaN,NaN,NaN,23.922856818
256.0,0.25,0.5,NaN,NaN,NaN,23.980770446
256.0,1.0,0.3,NaN,0.0,NaN,23.815579924
256.0,0.125,0.7,NaN,NaN,NaN,24.110559383
256.0,0.25,0.3,NaN,NaN,NaN,24.036659394
256.0,0.25,0.6,NaN,NaN,NaN,23.867245993
256.0,0.0625,0.4,NaN,NaN,NaN,24.026811715
256.0,0.25,0.05,NaN,NaN,NaN,24.036831402
256.0,1.0,1.0,NaN,0.0,NaN,23.690241597
256.0,2.0,0.5,NaN,0.0,NaN,23.727302622
256.0,0.5,0.05,NaN,0.0,NaN,23.823223601
256.0,0.25,0.9,NaN,NaN,NaN,23.832387659
256.0,0.0625,0.5,NaN,NaN,NaN,24.124207269
256.0,0.5,0.4,NaN,0.0,NaN,24.1130249
256.0,0.5,0.6,NaN,0.0,NaN,23.889061078
256.0,1.0,0.1,NaN,0.0,NaN,23.884250121
256.0,0.5,0.7,NaN,0.0,NaN,23.824541613
256.0,0.5,0.1,NaN,0.0,NaN,23.890669111
256.0,0.5,1.0,NaN,0.0,NaN,23.807100192
256.0,0.25,0.4,NaN,NaN,NaN,23.853032002
256.0,1.0,0.6,NaN,0.0,NaN,23.829066114
256.0,1.0,0.8,NaN,0.0,NaN,23.82673493
256.0,0.25,1.0,NaN,NaN,NaN,23.814897239
256.0,2.0,0.2,NaN,0.0,NaN,23.789425289
256.0,1.0,0.2,NaN,0.0,NaN,23.818721337
256.0,2.0,0.3,NaN,0.0,NaN,23.826122139
256.0,1.0,0.9,NaN,0.0,NaN,23.885362806
256.0,1.0,0.05,NaN,0.0,NaN,23.865076954
256.0,2.0,0.6,NaN,0.0,NaN,23.870235756
256.0,0.5,0.5,NaN,0.0,NaN,24.035317795
256.0,2.0,0.4,NaN,0.0,NaN,23.86836085
256.0,1.0,0.7,NaN,0.0,NaN,23.958455075
256.0,2.0,0.8,NaN,0.0,NaN,26.088762122
256.0,2.0,0.7,NaN,0.0,NaN,25.616483922
256.0,4.0,0.2,NaN,0.0,NaN,26.121371394
256.0,2.0,0.9,NaN,0.0,NaN,25.65418607
256.0,2.0,1.0,NaN,0.0,NaN,25.588882692
256.0,4.0,0.5,NaN,0.0,NaN,25.666572605
256.0,8.0,0.6,NaN,0.0,NaN,23.731756031
256.0,8.0,0.8,NaN,0.0,NaN,23.478133732
256.0,16.0,0.6,NaN,0.0,NaN,23.426813637
256.0,4.0,0.6,NaN,0.0,NaN,21.205380558
256.0,16.0,0.2,NaN,0.0,NaN,23.565649607
256.0,16.0,0.05,NaN,0.0,NaN,23.582474864
256.0,8.0,0.2,NaN,0.0,NaN,23.867395578
256.0,8.0,0.9,NaN,0.0,NaN,23.719313483
256.0,16.0,0.9,NaN,0.0,NaN,23.469151119
256.0,32.0,0.2,NaN,0.0,NaN,23.483442452
256.0,4.0,0.7,NaN,0.0,NaN,21.190319842
256.0,32.0,0.5,NaN,0.0,NaN,23.571164503
256.0,16.0,0.7,NaN,0.0,NaN,23.554326735
256.0,32.0,0.9,NaN,0.0,NaN,23.568148922
256.0,32.0,0.3,NaN,0.0,NaN,23.604869407
256.0,16.0,0.5,NaN,0.0,NaN,23.601971205
256.0,16.0,0.3,NaN,0.0,NaN,22.880133893
256.0,8.0,0.4,NaN,0.0,NaN,23.736858511
256.0,32.0,0.05,NaN,0.0,NaN,23.588897278
256.0,64.0,0.2,NaN,0.0,NaN,23.56469904
256.0,8.0,0.7,NaN,0.0,NaN,23.675837097
256.0,4.0,0.8,NaN,0.0,NaN,21.193171414
256.0,16.0,1.0,NaN,0.0,NaN,22.989149121
256.0,4.0,0.9,NaN,0.0,NaN,21.211083123
256.0,16.0,0.1,NaN,0.0,NaN,23.426479322
256.0,32.0,0.8,NaN,0.0,NaN,23.549457489
256.0,4.0,1.0,NaN,0.0,NaN,21.16709827
256.0,32.0,1.0,NaN,0.0,NaN,23.397419306
256.0,32.0,0.6,NaN,0.0,NaN,22.969154102
256.0,16.0,0.8,NaN,0.0,NaN,23.382113506
256.0,8.0,0.05,NaN,0.0,NaN,21.092264367
256.0,32.0,0.4,NaN,0.0,NaN,23.694013477
256.0,64.0,0.05,NaN,0.0,NaN,23.370558385
256.0,8.0,0.1,NaN,0.0,NaN,21.102967909
256.0,8.0,0.3,NaN,0.0,NaN,21.107585376
256.0,4.0,0.1,NaN,0.0,NaN,23.094058993
256.0,4.0,0.3,NaN,0.0,NaN,23.344911934
256.0,4.0,0.05,NaN,0.0,NaN,22.913498554
256.0,8.0,0.5,NaN,0.0,NaN,21.07708866
256.0,4.0,0.4,NaN,0.0,NaN,24.109496768
256.0,8.0,1.0,NaN,0.0,NaN,21.06179693
256.0,16.0,0.4,NaN,0.0,NaN,21.092011452
256.0,32.0,0.1,NaN,0.0,NaN,21.109996628
256.0,32.0,0.7,NaN,0.0,NaN,21.123352385
256.0,64.0,0.1,NaN,0.0,NaN,21.073677229
256.0,256.0,0.9,NaN,0.0,NaN,23.998724119
256.0,256.0,0.6,NaN,0.0,NaN,23.951894341
256.0,256.0,0.7,NaN,0.0,NaN,23.868295023
512.0,0.0625,0.05,NaN,NaN,NaN,23.769285755
256.0,512.0,0.2,NaN,0.0,NaN,23.902139668
256.0,512.0,0.1,NaN,0.0,NaN,23.929372252
256.0,512.0,0.3,NaN,0.0,NaN,23.91365185
512.0,0.5,0.2,NaN,0.0,NaN,20.368021852
512.0,0.5,0.9,NaN,0.0,NaN,20.32950743
256.0,512.0,0.7,NaN,0.0,NaN,23.956931686
256.0,256.0,1.0,NaN,0.0,NaN,23.976213358
512.0,0.0625,0.6,NaN,NaN,NaN,23.760352668
256.0,256.0,0.8,NaN,0.0,NaN,24.003421013
256.0,512.0,0.8,NaN,0.0,NaN,24.016916624
256.0,512.0,0.4,NaN,0.0,NaN,24.030425217
256.0,512.0,0.6,NaN,0.0,NaN,24.055986031
512.0,0.0625,0.3,NaN,NaN,NaN,24.006568
256.0,512.0,0.05,NaN,0.0,NaN,23.981226775
512.0,0.0625,0.1,NaN,NaN,NaN,23.92599239
512.0,0.0625,0.2,NaN,NaN,NaN,23.946768614
512.0,0.125,0.1,NaN,NaN,NaN,23.825705041
256.0,512.0,0.9,NaN,0.0,NaN,23.910176902
512.0,0.0625,0.8,NaN,NaN,NaN,23.947688313
256.0,64.0,0.3,NaN,0.0,NaN,24.894674372
256.0,512.0,0.5,NaN,0.0,NaN,24.029004661
512.0,0.0625,0.9,NaN,NaN,NaN,23.957373659
256.0,64.0,0.5,NaN,0.0,NaN,24.949597418
256.0,64.0,0.6,NaN,0.0,NaN,25.038306262
256.0,64.0,0.4,NaN,0.0,NaN,25.07071987
512.0,0.125,0.7,NaN,NaN,NaN,23.79098014
256.0,64.0,0.7,NaN,0.0,NaN,24.872489717
512.0,0.0625,0.4,NaN,NaN,NaN,23.873305673
512.0,0.25,0.2,NaN,NaN,NaN,23.635120114
512.0,0.0625,0.7,NaN,NaN,NaN,23.987514472
512.0,0.125,0.4,NaN,NaN,NaN,23.912382885
256.0,64.0,0.8,NaN,0.0,NaN,24.995987655
256.0,512.0,1.0,NaN,0.0,NaN,23.981256092
256.0,64.0,0.9,NaN,0.0,NaN,24.959776543
512.0,0.125,0.3,NaN,NaN,NaN,23.807487251
512.0,0.25,0.8,NaN,NaN,NaN,23.716589503
512.0,0.125,0.2,NaN,NaN,NaN,23.887547016
512.0,0.0625,1.0,NaN,NaN,NaN,23.841423298
512.0,0.125,0.8,NaN,NaN,NaN,23.81736676
512.0,0.125,1.0,NaN,NaN,NaN,23.83787872
512.0,0.0625,0.5,NaN,NaN,NaN,23.883120127
512.0,0.5,0.4,NaN,0.0,NaN,23.724860931
512.0,0.25,0.5,NaN,NaN,NaN,23.803332703
512.0,0.125,0.9,NaN,NaN,NaN,23.841723495
512.0,0.125,0.5,NaN,NaN,NaN,23.799616415
512.0,0.25,0.4,NaN,NaN,NaN,23.789609674
512.0,0.125,0.05,NaN,NaN,NaN,23.856531849
512.0,0.25,0.3,NaN,NaN,NaN,23.807830847
512.0,0.5,0.05,NaN,0.0,NaN,23.777403563
512.0,1.0,0.05,NaN,0.0,NaN,23.565647253
512.0,0.25,0.05,NaN,NaN,NaN,23.785440034
256.0,64.0,1.0,NaN,0.0,NaN,24.80495442
512.0,0.25,1.0,NaN,NaN,NaN,23.75550626
512.0,0.125,0.6,NaN,NaN,NaN,23.958144282
512.0,0.5,0.7,NaN,0.0,NaN,23.710313586
512.0,0.25,0.9,NaN,NaN,NaN,23.738389991
512.0,0.5,0.5,NaN,0.0,NaN,23.782469586
512.0,0.25,0.6,NaN,NaN,NaN,23.801702286
512.0,1.0,0.3,NaN,0.0,NaN,23.708090641
512.0,0.25,0.1,NaN,NaN,NaN,23.875460854
256.0,128.0,0.05,NaN,0.0,NaN,24.953838707
512.0,1.0,0.1,NaN,0.0,NaN,23.779455429
512.0,0.25,0.7,NaN,NaN,NaN,23.896300132
512.0,0.5,0.6,NaN,0.0,NaN,23.778778243
512.0,0.5,0.3,NaN,0.0,NaN,23.829706088
512.0,0.5,0.1,NaN,0.0,NaN,23.856414149
256.0,128.0,0.1,NaN,0.0,NaN,25.18095058
512.0,0.5,0.8,NaN,0.0,NaN,23.771740151
512.0,1.0,0.2,NaN,0.0,NaN,23.804064607
512.0,0.5,1.0,NaN,0.0,NaN,23.76978321
512.0,1.0,0.4,NaN,0.0,NaN,23.702919199
256.0,128.0,0.2,NaN,0.0,NaN,24.717075422
256.0,128.0,0.3,NaN,0.0,NaN,24.822455714
256.0,128.0,0.4,NaN,0.0,NaN,24.759309817
256.0,128.0,0.5,NaN,0.0,NaN,25.09577182
256.0,128.0,0.6,NaN,0.0,NaN,24.909344267
256.0,128.0,0.7,NaN,0.0,NaN,25.016828911
256.0,128.0,0.9,NaN,0.0,NaN,25.28340991
256.0,128.0,0.8,NaN,0.0,NaN,24.786273256
256.0,128.0,1.0,NaN,0.0,NaN,25.039158215
256.0,256.0,0.05,NaN,0.0,NaN,25.078509519
256.0,256.0,0.1,NaN,0.0,NaN,24.821485062
256.0,256.0,0.2,NaN,0.0,NaN,24.855211455
256.0,256.0,0.4,NaN,0.0,NaN,24.95180616
256.0,256.0,0.5,NaN,0.0,NaN,24.818818255
256.0,256.0,0.3,NaN,0.0,NaN,24.842650684
512.0,1.0,0.5,NaN,0.0,NaN,25.699316033
512.0,1.0,0.6,NaN,0.0,NaN,26.154921485
512.0,1.0,0.7,NaN,0.0,NaN,25.559471615
512.0,1.0,0.8,NaN,0.0,NaN,26.065580498
512.0,2.0,0.1,NaN,0.0,NaN,25.497442578
512.0,2.0,0.3,NaN,0.0,NaN,25.51989664
512.0,1.0,0.9,NaN,0.0,NaN,23.794222453
512.0,1.0,1.0,NaN,0.0,NaN,23.594770014
512.0,2.0,0.05,NaN,0.0,NaN,23.472287568
512.0,2.0,0.2,NaN,0.0,NaN,23.593333172
512.0,2.0,0.4,NaN,0.0,NaN,21.146550555
512.0,4.0,0.05,NaN,0.0,NaN,23.802734073
512.0,4.0,0.5,NaN,0.0,NaN,23.729129008
512.0,8.0,0.2,NaN,0.0,NaN,23.225034602
512.0,4.0,0.4,NaN,0.0,NaN,23.759192057
512.0,4.0,1.0,NaN,0.0,NaN,23.777955234
512.0,8.0,0.9,NaN,0.0,NaN,23.189750756
512.0,2.0,0.5,NaN,0.0,NaN,21.407128005
512.0,4.0,0.8,NaN,0.0,NaN,23.823657244
512.0,16.0,0.5,NaN,0.0,NaN,23.233806479
512.0,4.0,0.9,NaN,0.0,NaN,23.787707812
512.0,8.0,0.3,NaN,0.0,NaN,23.898317159
512.0,8.0,0.6,NaN,0.0,NaN,23.829283545
512.0,4.0,0.2,NaN,0.0,NaN,23.917430102
512.0,8.0,1.0,NaN,0.0,NaN,23.701797153
512.0,8.0,0.4,NaN,0.0,NaN,23.790314296
512.0,8.0,0.5,NaN,0.0,NaN,23.762804471
512.0,2.0,0.6,NaN,0.0,NaN,21.174754609
512.0,16.0,0.6,NaN,0.0,NaN,23.845819477
512.0,16.0,0.2,NaN,0.0,NaN,23.860522325
512.0,16.0,0.1,NaN,0.0,NaN,23.759578145
512.0,4.0,0.6,NaN,0.0,NaN,23.819924385
512.0,16.0,0.05,NaN,0.0,NaN,23.797754296
512.0,2.0,0.7,NaN,0.0,NaN,21.173308658
512.0,8.0,0.05,NaN,0.0,NaN,23.794625674
512.0,16.0,0.8,NaN,0.0,NaN,23.956347142
512.0,32.0,0.05,NaN,0.0,NaN,23.757013359
512.0,2.0,0.8,NaN,0.0,NaN,21.140966402
512.0,8.0,0.7,NaN,0.0,NaN,23.823106713
512.0,16.0,0.7,NaN,0.0,NaN,23.767904243
512.0,2.0,0.9,NaN,0.0,NaN,21.133613549
512.0,16.0,0.3,NaN,0.0,NaN,23.75480515
512.0,16.0,0.9,NaN,0.0,NaN,23.807602244
512.0,2.0,1.0,NaN,0.0,NaN,21.127232203
512.0,4.0,0.1,NaN,0.0,NaN,21.100770041
512.0,4.0,0.3,NaN,0.0,NaN,21.103576377
512.0,4.0,0.7,NaN,0.0,NaN,21.133642193
512.0,8.0,0.1,NaN,0.0,NaN,21.079295553
512.0,16.0,0.4,NaN,0.0,NaN,21.101343957
512.0,8.0,0.8,NaN,0.0,NaN,21.10613508
512.0,16.0,1.0,NaN,0.0,NaN,21.110124481
512.0,64.0,0.2,NaN,0.0,NaN,23.736030181
512.0,32.0,0.5,NaN,0.0,NaN,23.952141134
512.0,512.0,0.2,NaN,0.0,NaN,20.4300864
512.0,32.0,0.2,NaN,0.0,NaN,23.878466387
512.0,32.0,0.4,NaN,0.0,NaN,23.846710821
512.0,512.0,0.9,NaN,0.0,NaN,20.314296008
512.0,32.0,0.9,NaN,0.0,NaN,23.791004246
512.0,32.0,0.1,NaN,0.0,NaN,23.880229956
512.0,32.0,0.6,NaN,0.0,NaN,24.260645183
512.0,32.0,0.3,NaN,0.0,NaN,23.858780735
512.0,32.0,0.8,NaN,0.0,NaN,23.880708545
512.0,64.0,0.7,NaN,0.0,NaN,23.734489201
512.0,64.0,0.3,NaN,0.0,NaN,24.093596695
512.0,32.0,0.7,NaN,0.0,NaN,23.887450953
512.0,32.0,1.0,NaN,0.0,NaN,23.928414227
512.0,128.0,0.1,NaN,0.0,NaN,23.877501483
512.0,128.0,0.4,NaN,0.0,NaN,23.106999314
512.0,64.0,0.4,NaN,0.0,NaN,24.058180135
512.0,128.0,0.7,NaN,0.0,NaN,23.802904602
512.0,64.0,0.1,NaN,0.0,NaN,24.015599059
512.0,64.0,0.05,NaN,0.0,NaN,24.192137503
512.0,64.0,0.8,NaN,0.0,NaN,24.055089949
512.0,128.0,1.0,NaN,0.0,NaN,23.110360768
512.0,256.0,0.2,NaN,0.0,NaN,23.758819457
512.0,64.0,0.6,NaN,0.0,NaN,23.9470652
512.0,128.0,0.2,NaN,0.0,NaN,23.946870343
512.0,64.0,0.9,NaN,0.0,NaN,23.949927885
512.0,64.0,0.5,NaN,0.0,NaN,23.963745259
512.0,256.0,0.5,NaN,0.0,NaN,23.149174869
512.0,128.0,0.05,NaN,0.0,NaN,23.931999814
512.0,128.0,0.3,NaN,0.0,NaN,23.967108248
512.0,128.0,0.8,NaN,0.0,NaN,23.949900036
512.0,128.0,0.6,NaN,0.0,NaN,23.906855436
512.0,512.0,0.05,NaN,0.0,NaN,23.152120394
512.0,64.0,1.0,NaN,0.0,NaN,23.877230378
512.0,512.0,0.7,NaN,0.0,NaN,23.032883903
512.0,256.0,0.8,NaN,0.0,NaN,23.803060477
512.0,512.0,0.4,NaN,0.0,NaN,23.790013266
512.0,256.0,0.1,NaN,0.0,NaN,23.788026035
512.0,128.0,0.5,NaN,0.0,NaN,23.784732164
0.0625,0.0625,0.05,NaN,NaN,NaN,23.735181198
512.0,256.0,0.7,NaN,0.0,NaN,23.798228777
512.0,256.0,0.3,NaN,0.0,NaN,23.865992748
512.0,128.0,0.9,NaN,0.0,NaN,23.801789768
512.0,256.0,0.05,NaN,0.0,NaN,23.876330734
512.0,512.0,0.3,NaN,0.0,NaN,23.817801871
512.0,256.0,0.9,NaN,0.0,NaN,23.892123437
512.0,512.0,1.0,NaN,0.0,NaN,23.85566465
512.0,256.0,0.4,NaN,0.0,NaN,23.83370018
512.0,512.0,0.5,NaN,0.0,NaN,23.848541989
512.0,256.0,0.6,NaN,0.0,NaN,23.891227465
512.0,512.0,0.1,NaN,0.0,NaN,23.85047207
512.0,256.0,1.0,NaN,0.0,NaN,23.807087824
512.0,512.0,0.6,NaN,0.0,NaN,23.866980438
512.0,512.0,0.8,NaN,0.0,NaN,23.877327964
