gamma_s,gamma_h,alpha,sencitivity,ppv,fmeasure,time
1.0,8.0,,0.0,NaN,NaN,20.964422052
1.0,16.0,0.7,0.5652173913043478,0.8125,0.6666666666666667,21.001268244
1.0,16.0,,0.0,NaN,NaN,20.630191416
1.0,32.0,0.1,0.7391304347826086,0.8095238095238095,0.7727272727272727,20.777723853
1.0,1.0,0.3,0.391304347826087,0.9,0.5454545454545454,17.706754474
1.0,1.0,0.7,0.391304347826087,0.9,0.5454545454545454,18.220932015
1.0,1.0,,0.0,NaN,NaN,18.175723853
1.0,1.0,0.9,0.391304347826087,0.9,0.5454545454545454,18.260760154
1.0,1.0,0.5,0.391304347826087,0.9,0.5454545454545454,18.119902103
1.0,2.0,,0.0,NaN,NaN,17.901141294
1.0,2.0,0.1,0.5217391304347826,0.8571428571428571,0.6486486486486486,18.243487828
1.0,2.0,0.3,0.5217391304347826,0.8571428571428571,0.6486486486486486,18.690817503
1.0,2.0,0.5,0.5217391304347826,0.8571428571428571,0.6486486486486486,18.08348049
1.0,2.0,0.9,0.5217391304347826,0.8571428571428571,0.6486486486486486,18.093045741
1.0,2.0,0.7,0.5217391304347826,0.8571428571428571,0.6486486486486486,18.155440627
1.0,4.0,0.3,0.5217391304347826,0.8,0.6315789473684211,18.203302482
1.0,4.0,0.7,0.5217391304347826,0.8,0.6315789473684211,18.108131583
1.0,4.0,0.5,0.5217391304347826,0.8,0.6315789473684211,18.122005399
1.0,4.0,0.9,0.5217391304347826,0.8,0.6315789473684211,17.956332494
1.0,4.0,0.1,0.5217391304347826,0.8,0.6315789473684211,18.136039577
1.0,4.0,,0.0,NaN,NaN,18.159516238
1.0,8.0,0.1,0.5217391304347826,0.8,0.6315789473684211,18.19458868
1.0,8.0,0.3,0.5217391304347826,0.8,0.6315789473684211,18.164288774
1.0,8.0,0.5,0.5217391304347826,0.8,0.6315789473684211,17.915959989
1.0,32.0,0.9,0.7391304347826086,0.8095238095238095,0.7727272727272727,18.084690491
2.0,1.0,0.5,0.391304347826087,0.9,0.5454545454545454,18.102878971
1.0,8.0,0.7,0.5217391304347826,0.8,0.6315789473684211,18.082542514
1.0,32.0,,0.0,NaN,NaN,18.118843975
2.0,1.0,0.7,0.391304347826087,0.9,0.5454545454545454,18.143926412
2.0,1.0,,0.0,NaN,NaN,18.122093866
1.0,8.0,0.9,0.5217391304347826,0.8,0.6315789473684211,17.83562099
2.0,1.0,0.1,0.391304347826087,0.9,0.5454545454545454,18.17688879
2.0,1.0,0.9,0.391304347826087,0.9,0.5454545454545454,18.124424048
1.0,32.0,0.3,0.7391304347826086,0.8095238095238095,0.7727272727272727,18.333965083
1.0,32.0,0.5,0.7391304347826086,0.8095238095238095,0.7727272727272727,18.445434938
1.0,32.0,0.7,0.7391304347826086,0.8095238095238095,0.7727272727272727,18.229608482
2.0,1.0,0.3,0.391304347826087,0.9,0.5454545454545454,18.692021683
2.0,2.0,0.1,0.5217391304347826,0.8571428571428571,0.6486486486486486,17.821742065
1.0,16.0,0.1,0.5652173913043478,0.8125,0.6666666666666667,21.418736112
1.0,16.0,0.3,0.5652173913043478,0.8125,0.6666666666666667,21.31811763
1.0,16.0,0.9,0.5652173913043478,0.8125,0.6666666666666667,22.052793521
1.0,16.0,0.5,0.5652173913043478,0.8125,0.6666666666666667,21.481088617
2.0,16.0,0.7,0.5652173913043478,0.8125,0.6666666666666667,18.684205402
2.0,8.0,,0.0,NaN,NaN,18.462720105
2.0,16.0,0.1,0.5652173913043478,0.8125,0.6666666666666667,18.676530769
2.0,32.0,0.5,0.7391304347826086,0.8095238095238095,0.7727272727272727,18.267770167
2.0,32.0,,0.0,NaN,NaN,18.294613754
4.0,2.0,0.1,0.43478260869565216,0.9090909090909091,0.5882352941176471,17.529295684
2.0,16.0,,0.0,NaN,NaN,18.437256078
2.0,16.0,0.5,0.5652173913043478,0.8125,0.6666666666666667,18.69384967
2.0,16.0,0.3,0.5652173913043478,0.8125,0.6666666666666667,18.432149228
4.0,1.0,,0.0,NaN,NaN,18.281894886
2.0,16.0,0.9,0.5652173913043478,0.8125,0.6666666666666667,18.689892673
4.0,2.0,,0.0,NaN,NaN,17.602004816
2.0,32.0,0.1,0.6086956521739131,0.7777777777777778,0.6829268292682927,18.525977316
2.0,32.0,0.3,0.6086956521739131,0.7777777777777778,0.6829268292682927,18.45990804
4.0,1.0,0.5,0.30434782608695654,0.875,0.4516129032258065,18.388130648
4.0,2.0,0.7,0.43478260869565216,0.9090909090909091,0.5882352941176471,18.286943081
4.0,4.0,,0.0,NaN,NaN,17.479256751
2.0,32.0,0.9,0.7391304347826086,0.8095238095238095,0.7727272727272727,18.693115984
2.0,32.0,0.7,0.7391304347826086,0.8095238095238095,0.7727272727272727,18.727934756
2.0,2.0,0.3,0.5217391304347826,0.8571428571428571,0.6486486486486486,23.37374845
2.0,2.0,0.5,0.5217391304347826,0.8571428571428571,0.6486486486486486,25.681222914
2.0,2.0,0.7,0.5217391304347826,0.8571428571428571,0.6486486486486486,22.069391182
4.0,1.0,0.7,0.30434782608695654,0.875,0.4516129032258065,18.451586929
4.0,1.0,0.1,0.30434782608695654,0.875,0.4516129032258065,18.357100204
4.0,1.0,0.3,0.30434782608695654,0.875,0.4516129032258065,18.407907062
4.0,8.0,0.7,0.5217391304347826,0.8,0.6315789473684211,17.406766832
4.0,1.0,0.9,0.30434782608695654,0.875,0.4516129032258065,18.595555585
4.0,4.0,0.3,0.43478260869565216,0.9090909090909091,0.5882352941176471,18.396588872
2.0,2.0,0.9,0.5217391304347826,0.8571428571428571,0.6486486486486486,23.353290833
4.0,8.0,,0.0,NaN,NaN,17.756092149
2.0,2.0,,0.0,NaN,NaN,23.663453924
4.0,2.0,0.5,0.43478260869565216,0.9090909090909091,0.5882352941176471,18.528214424
4.0,2.0,0.9,0.5217391304347826,0.9230769230769231,0.6666666666666667,18.312430933
4.0,4.0,0.7,0.5217391304347826,0.8,0.6315789473684211,18.350896113
4.0,4.0,0.5,0.5217391304347826,0.9230769230769231,0.6666666666666667,18.58368869
4.0,4.0,0.9,0.5217391304347826,0.8,0.6315789473684211,18.656120122
4.0,8.0,0.3,0.5217391304347826,0.9230769230769231,0.6666666666666667,18.548585988
4.0,8.0,0.1,0.43478260869565216,0.9090909090909091,0.5882352941176471,18.801795709
4.0,4.0,0.1,0.43478260869565216,0.9090909090909091,0.5882352941176471,18.572046077
4.0,8.0,0.5,0.5217391304347826,0.8,0.6315789473684211,18.443437357
4.0,2.0,0.3,0.43478260869565216,0.9090909090909091,0.5882352941176471,18.568118303
4.0,8.0,0.9,0.5217391304347826,0.8,0.6315789473684211,18.570637112
2.0,4.0,0.1,0.5217391304347826,0.8,0.6315789473684211,25.776060863
2.0,4.0,0.3,0.5217391304347826,0.8,0.6315789473684211,25.191719467
2.0,4.0,0.5,0.5217391304347826,0.8,0.6315789473684211,24.847597702
2.0,4.0,0.7,0.5217391304347826,0.8,0.6315789473684211,25.339492139
2.0,4.0,0.9,0.5217391304347826,0.8,0.6315789473684211,24.566135419
2.0,4.0,,0.0,NaN,NaN,23.63474399
2.0,8.0,0.1,0.5217391304347826,0.8,0.6315789473684211,23.900545881
2.0,8.0,0.3,0.5217391304347826,0.8,0.6315789473684211,23.666327083
2.0,8.0,0.5,0.5217391304347826,0.8,0.6315789473684211,23.123171282
2.0,8.0,0.9,0.5217391304347826,0.8,0.6315789473684211,23.20452188
2.0,8.0,0.7,0.5217391304347826,0.8,0.6315789473684211,23.431724661
4.0,16.0,0.1,0.43478260869565216,0.9090909090909091,0.5882352941176471,20.258967286
4.0,16.0,0.7,0.5652173913043478,0.8125,0.6666666666666667,20.161083711
4.0,16.0,,0.0,NaN,NaN,20.983220803
4.0,32.0,0.5,0.6086956521739131,0.7777777777777778,0.6829268292682927,20.939061082
4.0,32.0,0.7,0.6086956521739131,0.7777777777777778,0.6829268292682927,20.100902078
4.0,32.0,0.9,0.6086956521739131,0.7777777777777778,0.6829268292682927,20.897194667
4.0,16.0,0.3,0.5652173913043478,0.8125,0.6666666666666667,23.91385413
4.0,16.0,0.5,0.5652173913043478,0.8125,0.6666666666666667,23.856979733
4.0,16.0,0.9,0.5652173913043478,0.8125,0.6666666666666667,22.882592126
4.0,32.0,,0.0,NaN,NaN,18.007423491
8.0,1.0,,0.0,NaN,NaN,17.93770515
8.0,1.0,0.3,0.30434782608695654,1.0,0.4666666666666667,18.396461946
8.0,1.0,0.7,0.30434782608695654,1.0,0.4666666666666667,18.435056473
8.0,1.0,0.9,0.30434782608695654,1.0,0.4666666666666667,18.403308269
8.0,1.0,0.1,0.30434782608695654,1.0,0.4666666666666667,17.855277523
8.0,2.0,0.9,0.43478260869565216,1.0,0.6060606060606061,18.280359407
8.0,2.0,,0.0,NaN,NaN,18.271452577
8.0,4.0,0.5,0.43478260869565216,1.0,0.6060606060606061,18.309773285
8.0,4.0,0.7,0.43478260869565216,0.9090909090909091,0.5882352941176471,18.363986836
8.0,2.0,0.1,0.43478260869565216,1.0,0.6060606060606061,18.287160923
8.0,2.0,0.5,0.43478260869565216,1.0,0.6060606060606061,18.400563327
8.0,8.0,0.3,0.43478260869565216,1.0,0.6060606060606061,18.289349556
8.0,8.0,0.1,0.43478260869565216,1.0,0.6060606060606061,18.428150207
8.0,1.0,0.5,0.30434782608695654,1.0,0.4666666666666667,18.395915917
8.0,4.0,0.9,0.5217391304347826,0.9230769230769231,0.6666666666666667,18.33653212
8.0,2.0,0.3,0.43478260869565216,1.0,0.6060606060606061,18.617105285
8.0,2.0,0.7,0.43478260869565216,1.0,0.6060606060606061,17.855625337
8.0,8.0,0.5,0.5217391304347826,0.9230769230769231,0.6666666666666667,18.399194601
8.0,4.0,,0.0,NaN,NaN,17.909269641
8.0,4.0,0.3,0.43478260869565216,1.0,0.6060606060606061,17.923387701
8.0,4.0,0.1,0.43478260869565216,1.0,0.6060606060606061,18.317323265
8.0,8.0,,0.0,NaN,NaN,17.905660972
8.0,8.0,0.9,0.5217391304347826,0.8,0.6315789473684211,18.297455534
8.0,16.0,,0.0,NaN,NaN,18.076708419
8.0,16.0,0.3,0.5217391304347826,0.9230769230769231,0.6666666666666667,18.354252166
8.0,16.0,0.1,0.43478260869565216,1.0,0.6060606060606061,18.315170801
8.0,8.0,0.7,0.5217391304347826,0.8,0.6315789473684211,18.403432893
8.0,16.0,0.5,0.5652173913043478,0.8125,0.6666666666666667,18.637103033
8.0,16.0,0.9,0.5652173913043478,0.8125,0.6666666666666667,17.860877483
4.0,32.0,0.3,0.6086956521739131,0.7777777777777778,0.6829268292682927,23.474985775
4.0,32.0,0.1,0.6086956521739131,0.7777777777777778,0.6829268292682927,22.144394324
8.0,16.0,0.7,0.5652173913043478,0.8125,0.6666666666666667,18.331492983
16.0,4.0,0.7,0.43478260869565216,1.0,0.6060606060606061,18.469635333
16.0,2.0,0.5,0.43478260869565216,1.0,0.6060606060606061,18.948336131
16.0,1.0,,0.0,NaN,NaN,18.755584665
16.0,2.0,,0.0,NaN,NaN,18.473312043
16.0,2.0,0.1,0.43478260869565216,1.0,0.6060606060606061,18.565149604
16.0,8.0,0.1,0.43478260869565216,1.0,0.6060606060606061,18.444129826
16.0,16.0,0.3,0.43478260869565216,1.0,0.6060606060606061,17.567859671
16.0,2.0,0.3,0.43478260869565216,1.0,0.6060606060606061,18.557294428
16.0,2.0,0.9,0.43478260869565216,1.0,0.6060606060606061,18.559919358
16.0,2.0,0.7,0.43478260869565216,1.0,0.6060606060606061,18.812253535
16.0,8.0,,0.0,NaN,NaN,18.393258342
16.0,4.0,0.9,0.43478260869565216,1.0,0.6060606060606061,18.715449408
16.0,16.0,,0.0,NaN,NaN,17.592988636
16.0,4.0,0.3,0.43478260869565216,1.0,0.6060606060606061,18.449344127
16.0,8.0,0.3,0.43478260869565216,1.0,0.6060606060606061,18.502615029
16.0,16.0,0.9,0.5652173913043478,0.8125,0.6666666666666667,18.356188779
16.0,4.0,0.1,0.43478260869565216,1.0,0.6060606060606061,18.776382019
16.0,4.0,0.5,0.43478260869565216,1.0,0.6060606060606061,18.548164822
16.0,32.0,,0.0,NaN,NaN,17.631451324
16.0,4.0,,0.0,NaN,NaN,18.663760604
16.0,32.0,0.5,0.5652173913043478,0.8125,0.6666666666666667,18.391109374
16.0,8.0,0.9,0.5217391304347826,0.9230769230769231,0.6666666666666667,18.727735718
32.0,1.0,0.9,0.30434782608695654,1.0,0.4666666666666667,17.592294321
16.0,8.0,0.7,0.43478260869565216,0.9090909090909091,0.5882352941176471,18.411553582
16.0,8.0,0.5,0.43478260869565216,1.0,0.6060606060606061,18.587680899
32.0,1.0,0.1,0.30434782608695654,1.0,0.4666666666666667,18.371905603
32.0,1.0,,0.0,NaN,NaN,17.843669177
8.0,32.0,0.1,0.43478260869565216,0.9090909090909091,0.5882352941176471,23.515650437
8.0,32.0,0.3,0.5652173913043478,0.8125,0.6666666666666667,22.465990228
16.0,16.0,0.1,0.43478260869565216,1.0,0.6060606060606061,18.667137574
8.0,32.0,0.5,0.6086956521739131,0.7777777777777778,0.6829268292682927,21.219340066
16.0,16.0,0.5,0.5217391304347826,0.9230769230769231,0.6666666666666667,18.72151285
16.0,32.0,0.1,0.43478260869565216,1.0,0.6060606060606061,18.365892819
8.0,32.0,0.7,0.6086956521739131,0.7777777777777778,0.6829268292682927,21.473025339
16.0,16.0,0.7,0.5652173913043478,0.8125,0.6666666666666667,18.443298099
16.0,32.0,0.7,0.5652173913043478,0.8125,0.6666666666666667,18.654295652
32.0,1.0,0.3,0.30434782608695654,1.0,0.4666666666666667,18.485365943
16.0,32.0,0.3,0.5217391304347826,0.9230769230769231,0.6666666666666667,18.451707297
16.0,32.0,0.9,0.5652173913043478,0.8125,0.6666666666666667,18.80069683
8.0,32.0,0.9,0.6086956521739131,0.7777777777777778,0.6829268292682927,20.331745629
32.0,1.0,0.5,0.30434782608695654,1.0,0.4666666666666667,18.69925123
32.0,1.0,0.7,0.30434782608695654,1.0,0.4666666666666667,18.396909606
8.0,32.0,,0.0,NaN,NaN,21.160643075
16.0,1.0,0.3,0.30434782608695654,1.0,0.4666666666666667,20.603192997
16.0,1.0,0.5,0.30434782608695654,1.0,0.4666666666666667,21.979376196
16.0,1.0,0.7,0.30434782608695654,1.0,0.4666666666666667,21.852270576
16.0,1.0,0.1,0.30434782608695654,1.0,0.4666666666666667,22.312520415
16.0,1.0,0.9,0.30434782608695654,1.0,0.4666666666666667,21.874204709
32.0,2.0,,0.0,NaN,NaN,21.163820428
32.0,4.0,0.5,0.34782608695652173,1.0,0.5161290322580645,21.094555587
32.0,4.0,,0.0,NaN,NaN,21.115640999
32.0,8.0,0.3,0.34782608695652173,1.0,0.5161290322580645,21.00504229
32.0,8.0,0.5,0.43478260869565216,1.0,0.6060606060606061,21.098310117
32.0,8.0,0.7,0.43478260869565216,1.0,0.6060606060606061,20.993597764
32.0,2.0,0.1,0.34782608695652173,1.0,0.5161290322580645,21.4208021
32.0,8.0,0.9,0.43478260869565216,1.0,0.6060606060606061,18.477146195
32.0,8.0,,0.0,NaN,NaN,17.896745721
32.0,2.0,0.3,0.34782608695652173,1.0,0.5161290322580645,22.39311019
32.0,16.0,0.3,0.43478260869565216,1.0,0.6060606060606061,18.452766026
32.0,16.0,0.7,0.43478260869565216,0.9090909090909091,0.5882352941176471,18.493101978
32.0,16.0,,0.0,NaN,NaN,17.873618761
32.0,32.0,,0.0,NaN,NaN,18.400086995
32.0,16.0,0.9,0.5217391304347826,0.9230769230769231,0.6666666666666667,18.370195424
32.0,16.0,0.1,0.34782608695652173,1.0,0.5161290322580645,17.971731839
32.0,32.0,0.3,0.43478260869565216,1.0,0.6060606060606061,18.569927079
32.0,32.0,0.5,0.5217391304347826,0.9230769230769231,0.6666666666666667,18.316523366
32.0,32.0,0.9,0.5652173913043478,0.8125,0.6666666666666667,18.343581305
32.0,2.0,0.5,0.34782608695652173,1.0,0.5161290322580645,21.943549658
32.0,32.0,0.7,0.5652173913043478,0.8125,0.6666666666666667,18.080099432
32.0,16.0,0.5,0.43478260869565216,1.0,0.6060606060606061,18.70555813
32.0,2.0,0.7,0.34782608695652173,1.0,0.5161290322580645,22.852051796
32.0,32.0,0.1,0.34782608695652173,1.0,0.5161290322580645,18.69241459
32.0,2.0,0.9,0.34782608695652173,1.0,0.5161290322580645,21.663497583
32.0,4.0,0.1,0.34782608695652173,1.0,0.5161290322580645,22.614819893
32.0,4.0,0.3,0.34782608695652173,1.0,0.5161290322580645,23.321954474
32.0,4.0,0.7,0.34782608695652173,1.0,0.5161290322580645,23.057741882
32.0,4.0,0.9,0.43478260869565216,1.0,0.6060606060606061,23.276870077
32.0,8.0,0.1,0.34782608695652173,1.0,0.5161290322580645,22.741096586
1.0,1.0,0.1,0.391304347826087,0.9,0.5454545454545454,17.381241703
