gamma_s,gamma_h,alpha,sencitivity,ppv,fmeasure,time
1.0,1.0,0.3,0.8636363636363636,1.0,0.9268292682926829,27.195543819
1.0,1.0,0.5,0.8636363636363636,1.0,0.9268292682926829,27.170059048
1.0,1.0,0.1,0.8636363636363636,1.0,0.9268292682926829,27.156141848
1.0,4.0,0.9,1.0,1.0,1.0,27.042961889
1.0,8.0,0.1,1.0,1.0,1.0,26.984825995
1.0,8.0,,0.0,NaN,NaN,26.998408649
1.0,32.0,0.3,1.0,0.7857142857142857,0.88,27.016824846
2.0,1.0,0.1,0.8636363636363636,1.0,0.9268292682926829,26.997568744
2.0,1.0,,0.0,NaN,NaN,24.175578215
1.0,16.0,,0.0,NaN,NaN,24.036318887
1.0,32.0,,0.0,NaN,NaN,26.992274539
1.0,8.0,0.7,1.0,1.0,1.0,27.031163685
1.0,16.0,0.3,1.0,0.8461538461538461,0.9166666666666666,27.007691491
1.0,16.0,0.5,1.0,0.8461538461538461,0.9166666666666666,27.062456395
1.0,16.0,0.7,1.0,0.8461538461538461,0.9166666666666666,26.986626677
1.0,32.0,0.9,1.0,0.7857142857142857,0.88,27.219088095
1.0,32.0,0.5,1.0,0.7857142857142857,0.88,27.069453767
2.0,1.0,0.9,0.8636363636363636,1.0,0.9268292682926829,24.138980919
1.0,32.0,0.1,1.0,0.7857142857142857,0.88,27.116232327
2.0,1.0,0.5,0.8636363636363636,1.0,0.9268292682926829,27.114784617
1.0,1.0,0.9,0.8636363636363636,1.0,0.9268292682926829,27.14988525
1.0,1.0,0.7,0.8636363636363636,1.0,0.9268292682926829,27.382924614
2.0,1.0,0.7,0.8636363636363636,1.0,0.9268292682926829,27.007001723
2.0,2.0,0.5,0.9545454545454546,1.0,0.9767441860465117,24.313542245
1.0,1.0,,0.0,NaN,NaN,27.19073976
2.0,1.0,0.3,0.8636363636363636,1.0,0.9268292682926829,24.257956374
1.0,32.0,0.7,1.0,0.7857142857142857,0.88,24.360150342
2.0,2.0,0.3,0.9545454545454546,1.0,0.9767441860465117,24.295833794
2.0,2.0,0.7,0.9545454545454546,1.0,0.9767441860465117,24.276056587
2.0,2.0,0.1,0.9545454545454546,1.0,0.9767441860465117,24.364026202
2.0,2.0,,0.0,NaN,NaN,24.291329382
2.0,2.0,0.9,0.9545454545454546,1.0,0.9767441860465117,24.336612821
2.0,4.0,0.1,1.0,1.0,1.0,24.355176977
2.0,4.0,0.7,1.0,1.0,1.0,28.319998271
2.0,4.0,0.3,1.0,1.0,1.0,28.339714392
2.0,4.0,,0.0,NaN,NaN,25.500047186
2.0,4.0,0.9,1.0,1.0,1.0,28.224722415
2.0,4.0,0.5,1.0,1.0,1.0,28.288849082
2.0,8.0,0.7,1.0,1.0,1.0,25.544862809
2.0,8.0,0.5,1.0,1.0,1.0,23.787706525
1.0,2.0,0.1,0.9545454545454546,1.0,0.9767441860465117,27.136969079
2.0,8.0,0.3,1.0,1.0,1.0,25.640336649
2.0,16.0,0.5,1.0,0.8461538461538461,0.9166666666666666,27.096982515
1.0,2.0,0.3,0.9545454545454546,1.0,0.9767441860465117,27.146673767
1.0,2.0,0.5,0.9545454545454546,1.0,0.9767441860465117,27.142510626
1.0,2.0,0.7,0.9545454545454546,1.0,0.9767441860465117,27.293841357
2.0,8.0,,0.0,NaN,NaN,23.886904547
2.0,16.0,,0.0,NaN,NaN,27.223779841
2.0,8.0,0.1,1.0,1.0,1.0,25.612143095
2.0,32.0,0.7,1.0,0.7857142857142857,0.88,27.249503539
2.0,8.0,0.9,1.0,1.0,1.0,23.907670931
2.0,32.0,,0.0,NaN,NaN,27.287926211
4.0,1.0,0.9,0.8636363636363636,1.0,0.9268292682926829,27.20172023
4.0,2.0,0.7,0.9545454545454546,1.0,0.9767441860465117,27.184505033
2.0,32.0,0.9,1.0,0.7857142857142857,0.88,27.260980736
2.0,16.0,0.3,1.0,0.8461538461538461,0.9166666666666666,27.190257966
2.0,32.0,0.3,1.0,0.7857142857142857,0.88,27.221657578
2.0,32.0,0.1,1.0,0.7857142857142857,0.88,27.141094647
2.0,16.0,0.7,1.0,0.8461538461538461,0.9166666666666666,27.326701911
2.0,16.0,0.1,1.0,0.8461538461538461,0.9166666666666666,27.173351932
4.0,1.0,0.5,0.8636363636363636,1.0,0.9268292682926829,27.253579451
4.0,1.0,,0.0,NaN,NaN,27.204994243
2.0,32.0,0.5,1.0,0.7857142857142857,0.88,27.262669278
2.0,16.0,0.9,1.0,0.8461538461538461,0.9166666666666666,28.316416558
4.0,1.0,0.3,0.8636363636363636,1.0,0.9268292682926829,27.267462914
1.0,2.0,0.9,0.9545454545454546,1.0,0.9767441860465117,27.097873121
4.0,1.0,0.1,0.8636363636363636,1.0,0.9268292682926829,27.160732974
4.0,1.0,0.7,0.8636363636363636,1.0,0.9268292682926829,27.489942896
4.0,2.0,0.9,0.9545454545454546,1.0,0.9767441860465117,27.359723262
4.0,4.0,0.5,1.0,1.0,1.0,27.085251755
4.0,4.0,0.1,1.0,1.0,1.0,27.144622499
4.0,4.0,,0.0,NaN,NaN,24.428031664
4.0,8.0,,0.0,NaN,NaN,26.947175991
4.0,16.0,0.1,1.0,0.8461538461538461,0.9166666666666666,27.04401697
4.0,2.0,0.1,0.9545454545454546,1.0,0.9767441860465117,27.302680353
4.0,2.0,,0.0,NaN,NaN,27.119405053
4.0,4.0,0.9,1.0,1.0,1.0,27.019160005
4.0,2.0,0.5,0.9545454545454546,1.0,0.9767441860465117,27.191063228
4.0,8.0,0.5,1.0,1.0,1.0,24.393202134
4.0,16.0,0.3,1.0,0.8461538461538461,0.9166666666666666,24.378993676
4.0,8.0,0.7,1.0,1.0,1.0,27.037689271
4.0,2.0,0.3,0.9545454545454546,1.0,0.9767441860465117,27.20478091
4.0,4.0,0.3,1.0,1.0,1.0,27.1910043
1.0,2.0,,0.0,NaN,NaN,27.059525572
4.0,8.0,0.1,1.0,1.0,1.0,27.112963775
4.0,8.0,0.9,1.0,1.0,1.0,26.999166898
4.0,4.0,0.7,1.0,1.0,1.0,27.084628228
4.0,8.0,0.3,1.0,1.0,1.0,27.067916791
1.0,4.0,0.1,1.0,1.0,1.0,27.084882098
1.0,4.0,0.3,1.0,1.0,1.0,27.127128279
1.0,4.0,0.5,1.0,1.0,1.0,27.01535716
1.0,4.0,0.7,1.0,1.0,1.0,27.025155596
1.0,4.0,,0.0,NaN,NaN,27.000037125
1.0,8.0,0.3,1.0,1.0,1.0,27.016563423
1.0,8.0,0.5,1.0,1.0,1.0,27.012214401
1.0,16.0,0.1,1.0,0.8461538461538461,0.9166666666666666,27.08876612
1.0,8.0,0.9,1.0,1.0,1.0,27.081429512
1.0,16.0,0.9,1.0,0.8461538461538461,0.9166666666666666,27.032601126
4.0,32.0,0.9,1.0,0.7857142857142857,0.88,27.006153314
4.0,16.0,,0.0,NaN,NaN,24.347948332
8.0,1.0,0.9,0.8636363636363636,1.0,0.9268292682926829,27.024937328
8.0,2.0,,0.0,NaN,NaN,24.19387015
8.0,4.0,0.9,1.0,1.0,1.0,24.32786321
8.0,8.0,0.7,1.0,1.0,1.0,26.013640468
8.0,1.0,,0.0,NaN,NaN,26.939971198
4.0,32.0,,0.0,NaN,NaN,24.350144157
8.0,2.0,0.9,0.9545454545454546,1.0,0.9767441860465117,27.054976903
8.0,4.0,0.7,1.0,1.0,1.0,24.286054495
8.0,1.0,0.3,0.6818181818181818,1.0,0.8108108108108109,27.014154978
8.0,4.0,,0.0,NaN,NaN,28.037652261
8.0,2.0,0.7,0.9545454545454546,1.0,0.9767441860465117,26.941560223
8.0,2.0,0.3,0.7727272727272727,1.0,0.8717948717948718,27.029088874
8.0,2.0,0.1,0.7727272727272727,1.0,0.8717948717948718,27.022182735
8.0,4.0,0.5,1.0,1.0,1.0,24.203412272
8.0,1.0,0.5,0.6818181818181818,1.0,0.8108108108108109,27.026865125
8.0,4.0,0.3,1.0,1.0,1.0,27.173133196
8.0,4.0,0.1,0.8181818181818182,1.0,0.9,26.955289532
8.0,8.0,,0.0,NaN,NaN,24.24645767
8.0,8.0,0.1,0.8181818181818182,1.0,0.9,25.964385189
8.0,8.0,0.9,1.0,1.0,1.0,26.031108615
8.0,8.0,0.5,1.0,1.0,1.0,25.977897188
8.0,8.0,0.3,1.0,1.0,1.0,25.99832018
8.0,16.0,0.5,1.0,0.8461538461538461,0.9166666666666666,24.341290023
8.0,32.0,0.3,1.0,0.7857142857142857,0.88,24.439300744
8.0,16.0,0.7,1.0,0.8461538461538461,0.9166666666666666,28.211835742
8.0,16.0,0.1,1.0,0.9166666666666666,0.9565217391304348,24.3089194
8.0,16.0,,0.0,NaN,NaN,24.254200129
8.0,16.0,0.9,1.0,0.8461538461538461,0.9166666666666666,28.459618638
8.0,16.0,0.3,1.0,0.9166666666666666,0.9565217391304348,24.243900285
8.0,32.0,0.1,1.0,0.9166666666666666,0.9565217391304348,24.250366371
8.0,32.0,0.9,1.0,0.7857142857142857,0.88,24.16430288
8.0,32.0,0.5,1.0,0.7857142857142857,0.88,24.201937337
8.0,32.0,,0.0,NaN,NaN,24.27322366
8.0,32.0,0.7,1.0,0.7857142857142857,0.88,24.240279329
16.0,1.0,0.1,0.6818181818181818,1.0,0.8108108108108109,27.328871014
16.0,1.0,,0.0,NaN,NaN,27.368524558
4.0,16.0,0.5,1.0,0.8461538461538461,0.9166666666666666,27.152768713
16.0,2.0,0.9,0.9545454545454546,1.0,0.9767441860465117,27.289834223
16.0,1.0,0.9,0.6818181818181818,1.0,0.8108108108108109,27.128579729
16.0,2.0,0.3,0.7727272727272727,1.0,0.8717948717948718,28.223660549
16.0,4.0,0.1,0.8181818181818182,1.0,0.9,27.513896046
16.0,2.0,,0.0,NaN,NaN,27.083638182
16.0,4.0,0.7,1.0,1.0,1.0,27.123020448
16.0,1.0,0.7,0.6818181818181818,1.0,0.8108108108108109,28.397828127
16.0,2.0,0.5,0.7727272727272727,1.0,0.8717948717948718,27.10941431
16.0,1.0,0.5,0.6818181818181818,1.0,0.8108108108108109,27.325809488
16.0,1.0,0.3,0.6818181818181818,1.0,0.8108108108108109,27.360066118
16.0,4.0,0.3,0.8181818181818182,1.0,0.9,27.232700418
16.0,8.0,0.1,0.8181818181818182,1.0,0.9,27.261111032
16.0,2.0,0.1,0.7727272727272727,1.0,0.8717948717948718,27.188603333
16.0,4.0,,0.0,NaN,NaN,27.128736095
16.0,8.0,0.3,1.0,1.0,1.0,27.183635797
16.0,8.0,,0.0,NaN,NaN,27.28550873
16.0,16.0,,0.0,NaN,NaN,27.100375228
16.0,32.0,0.9,1.0,0.7857142857142857,0.88,27.136525441
4.0,16.0,0.7,1.0,0.8461538461538461,0.9166666666666666,27.026032698
4.0,16.0,0.9,1.0,0.8461538461538461,0.9166666666666666,27.081476364
32.0,1.0,0.5,0.36363636363636365,1.0,0.5333333333333333,27.029829943
16.0,16.0,0.5,1.0,0.9166666666666666,0.9565217391304348,27.208822828
16.0,4.0,0.9,1.0,1.0,1.0,27.167047872
16.0,32.0,0.3,1.0,0.9166666666666666,0.9565217391304348,27.157308555
16.0,32.0,,0.0,NaN,NaN,26.99490229
16.0,2.0,0.7,0.8636363636363636,1.0,0.9268292682926829,27.164362536
4.0,32.0,0.1,1.0,0.7857142857142857,0.88,27.060260554
16.0,8.0,0.9,1.0,1.0,1.0,27.210574821
16.0,8.0,0.7,1.0,1.0,1.0,27.280472131
16.0,32.0,0.1,1.0,0.9166666666666666,0.9565217391304348,27.11099252
16.0,4.0,0.5,0.9090909090909091,1.0,0.9523809523809523,27.139868865
4.0,32.0,0.3,1.0,0.7857142857142857,0.88,27.019053089
16.0,16.0,0.7,1.0,0.9166666666666666,0.9565217391304348,27.171000012
16.0,16.0,0.3,1.0,0.9166666666666666,0.9565217391304348,27.164671088
16.0,32.0,0.5,1.0,0.7857142857142857,0.88,27.011958149
32.0,1.0,0.3,0.2727272727272727,1.0,0.42857142857142855,27.21671197
16.0,8.0,0.5,1.0,1.0,1.0,27.216797163
16.0,32.0,0.7,1.0,0.7857142857142857,0.88,27.038246486
16.0,16.0,0.1,0.8181818181818182,0.9,0.8571428571428572,27.217104956
16.0,16.0,0.9,1.0,0.8461538461538461,0.9166666666666666,27.140683652
32.0,1.0,0.7,0.45454545454545453,1.0,0.625,27.010278803
32.0,1.0,0.1,0.2727272727272727,1.0,0.42857142857142855,27.098363303
4.0,32.0,0.5,1.0,0.7857142857142857,0.88,27.041311071
32.0,1.0,0.9,0.45454545454545453,1.0,0.625,27.016704632
4.0,32.0,0.7,1.0,0.7857142857142857,0.88,27.027458764
8.0,1.0,0.1,0.6818181818181818,1.0,0.8108108108108109,27.094075397
8.0,1.0,0.7,0.8636363636363636,1.0,0.9268292682926829,24.340243143
8.0,2.0,0.5,0.9545454545454546,1.0,0.9767441860465117,24.222515692
32.0,2.0,0.1,0.36363636363636365,1.0,0.5333333333333333,26.988068858
32.0,2.0,,0.0,NaN,NaN,26.996444852
32.0,4.0,,0.0,NaN,NaN,26.990164272
32.0,8.0,,0.0,NaN,NaN,27.013104592
32.0,16.0,0.7,1.0,0.9166666666666666,0.9565217391304348,24.115478029
32.0,32.0,0.3,1.0,0.9166666666666666,0.9565217391304348,24.232881784
32.0,1.0,,0.0,NaN,NaN,26.982280614
32.0,4.0,0.9,0.8181818181818182,1.0,0.9,27.064007028
32.0,8.0,0.7,1.0,1.0,1.0,27.047422442
32.0,4.0,0.5,0.7727272727272727,1.0,0.8717948717948718,27.000153663
32.0,4.0,0.1,0.4090909090909091,1.0,0.5806451612903226,27.081133879
32.0,8.0,0.5,0.8181818181818182,1.0,0.9,27.27817643
32.0,16.0,,0.0,NaN,NaN,24.265205191
32.0,16.0,0.1,0.6363636363636364,0.875,0.7368421052631579,27.025873711
32.0,8.0,0.3,0.8181818181818182,1.0,0.9,27.037439138
32.0,16.0,0.3,0.8181818181818182,0.9,0.8571428571428572,27.026245497
32.0,32.0,,0.0,NaN,NaN,24.139415246
32.0,32.0,0.9,1.0,0.7857142857142857,0.88,24.096877202
32.0,32.0,0.7,1.0,0.7857142857142857,0.88,24.070488772
32.0,8.0,0.1,0.5,1.0,0.6666666666666666,26.998325215
32.0,16.0,0.9,1.0,0.9166666666666666,0.9565217391304348,24.094632025
32.0,16.0,0.5,1.0,0.9166666666666666,0.9565217391304348,24.079651792
32.0,8.0,0.9,1.0,1.0,1.0,27.005937029
32.0,32.0,0.1,0.8181818181818182,0.9,0.8571428571428572,24.095772499
32.0,2.0,0.3,0.45454545454545453,1.0,0.625,27.042819997
32.0,2.0,0.5,0.5454545454545454,1.0,0.7058823529411764,27.001689433
32.0,32.0,0.5,1.0,0.9166666666666666,0.9565217391304348,24.207637036
32.0,2.0,0.7,0.5909090909090909,1.0,0.7428571428571429,27.013820927
32.0,2.0,0.9,0.7727272727272727,1.0,0.8717948717948718,27.036788069
32.0,4.0,0.3,0.5909090909090909,1.0,0.7428571428571429,27.046755133
32.0,4.0,0.7,0.8181818181818182,1.0,0.9,27.019466231
