gamma_s,gamma_h,alpha,sencitivity,ppv,fmeasure,time
0.0625,0.0625,0.1,NaN,NaN,NaN,84.564392062
0.0625,0.0625,0.3,NaN,NaN,NaN,84.207217215
0.0625,0.0625,0.2,NaN,NaN,NaN,84.163412506
0.0625,0.125,0.4,NaN,NaN,NaN,89.192887802
0.0625,0.125,0.9,NaN,NaN,NaN,88.973770915
0.0625,0.25,0.3,NaN,NaN,NaN,89.014815531
0.0625,0.25,0.8,NaN,NaN,NaN,89.068908076
0.0625,0.5,0.2,NaN,0.0,NaN,88.975274953
0.0625,0.5,0.5,NaN,0.0,NaN,89.407137905
0.0625,0.0625,0.4,NaN,NaN,NaN,89.012665274
0.0625,0.0625,0.5,NaN,NaN,NaN,89.220265144
0.0625,0.5,0.6,NaN,0.0,NaN,73.962054302
0.0625,0.0625,0.6,NaN,NaN,NaN,89.160344451
0.0625,0.5,1.0,NaN,0.0,NaN,84.759196593
0.0625,2.0,0.6,NaN,0.0,NaN,84.307923177
0.0625,2.0,0.3,NaN,0.0,NaN,84.72495205
0.0625,4.0,0.1,NaN,0.0,NaN,84.449160423
0.0625,2.0,0.1,NaN,0.0,NaN,84.402578387
0.0625,4.0,0.2,NaN,0.0,NaN,84.263171838
0.0625,2.0,0.8,NaN,0.0,NaN,84.266738528
0.0625,0.5,0.7,NaN,0.0,NaN,73.916376713
0.0625,4.0,0.8,NaN,0.0,NaN,84.425752654
0.0625,1.0,0.1,NaN,0.0,NaN,84.529332372
0.0625,1.0,0.7,NaN,0.0,NaN,84.423492085
0.0625,4.0,0.5,NaN,0.0,NaN,84.279784062
0.0625,4.0,0.9,NaN,0.0,NaN,84.485143955
0.0625,2.0,0.7,NaN,0.0,NaN,84.345676866
0.0625,8.0,0.4,NaN,0.0,NaN,84.62597052
0.0625,0.0625,0.7,NaN,NaN,NaN,88.961036338
0.0625,0.5,0.8,NaN,0.0,NaN,74.613792765
0.0625,0.5,0.9,NaN,0.0,NaN,74.413846666
0.0625,8.0,0.05,NaN,0.0,NaN,84.225888961
0.0625,1.0,0.3,NaN,0.0,NaN,84.66867953
0.0625,1.0,1.0,NaN,0.0,NaN,84.56903087
0.0625,4.0,0.3,NaN,0.0,NaN,84.70850725
0.0625,2.0,0.4,NaN,0.0,NaN,84.519967618
0.0625,8.0,0.9,NaN,0.0,NaN,84.368130471
0.0625,8.0,0.5,NaN,0.0,NaN,84.592839751
0.0625,1.0,0.5,NaN,0.0,NaN,84.580202323
0.0625,1.0,0.05,NaN,0.0,NaN,74.185612566
0.0625,0.0625,0.8,NaN,NaN,NaN,88.21405177
0.0625,4.0,1.0,NaN,0.0,NaN,84.416424925
0.0625,2.0,1.0,NaN,0.0,NaN,84.520915903
0.0625,1.0,0.8,NaN,0.0,NaN,84.586524489
0.0625,8.0,0.6,NaN,0.0,NaN,84.700913449
0.0625,0.0625,0.9,NaN,NaN,NaN,88.534095632
0.0625,4.0,0.6,NaN,0.0,NaN,84.460843888
0.0625,0.0625,1.0,NaN,NaN,NaN,87.989086823
0.0625,1.0,0.2,NaN,0.0,NaN,74.014906603
0.0625,0.125,0.05,NaN,NaN,NaN,88.116206782
0.0625,2.0,0.05,NaN,0.0,NaN,84.548714853
0.0625,8.0,0.2,NaN,0.0,NaN,84.439425466
0.0625,1.0,0.4,NaN,0.0,NaN,73.911414813
0.0625,8.0,0.8,NaN,0.0,NaN,84.397771286
0.0625,2.0,0.5,NaN,0.0,NaN,84.727166982
0.0625,4.0,0.05,NaN,0.0,NaN,84.43304293
0.0625,1.0,0.6,NaN,0.0,NaN,73.901335333
0.0625,1.0,0.9,NaN,0.0,NaN,73.902799352
0.0625,4.0,0.7,NaN,0.0,NaN,84.558816272
0.0625,2.0,0.2,NaN,0.0,NaN,73.780457545
0.0625,8.0,0.3,NaN,0.0,NaN,84.881718213
0.0625,2.0,0.9,NaN,0.0,NaN,73.947998204
0.0625,4.0,0.4,NaN,0.0,NaN,73.864262005
0.0625,0.125,0.1,NaN,NaN,NaN,88.301095565
0.0625,0.125,0.3,NaN,NaN,NaN,88.216517428
0.0625,8.0,0.1,NaN,0.0,NaN,73.905339621
0.0625,0.125,0.2,NaN,NaN,NaN,88.207533139
0.0625,8.0,0.7,NaN,0.0,NaN,73.899382446
0.0625,0.125,0.5,NaN,NaN,NaN,88.399497573
0.0625,0.125,0.6,NaN,NaN,NaN,88.140856048
0.0625,0.125,0.7,NaN,NaN,NaN,88.523369919
0.0625,0.125,0.8,NaN,NaN,NaN,88.089414004
0.0625,0.125,1.0,NaN,NaN,NaN,88.233156203
0.0625,0.25,0.05,NaN,NaN,NaN,87.896117977
0.0625,0.25,0.1,NaN,NaN,NaN,88.024978168
0.0625,0.25,0.2,NaN,NaN,NaN,87.979000579
0.0625,0.25,0.4,NaN,NaN,NaN,88.137137208
0.0625,0.25,0.5,NaN,NaN,NaN,88.194435328
0.0625,0.25,0.6,NaN,NaN,NaN,87.829004944
0.0625,0.25,0.7,NaN,NaN,NaN,88.147479592
0.0625,0.25,0.9,NaN,NaN,NaN,87.881275299
0.0625,0.25,1.0,NaN,NaN,NaN,87.964582836
0.0625,0.5,0.1,NaN,0.0,NaN,87.769517235
0.0625,0.5,0.3,NaN,0.0,NaN,89.248363549
0.0625,0.5,0.05,NaN,0.0,NaN,87.952768893
0.0625,0.5,0.4,NaN,0.0,NaN,87.780623365
0.0625,8.0,1.0,NaN,0.0,NaN,84.616848673
0.0625,16.0,0.1,NaN,0.0,NaN,84.80763388
0.0625,16.0,0.3,NaN,0.0,NaN,84.66765851
0.0625,16.0,1.0,NaN,0.0,NaN,84.516458324
0.0625,32.0,1.0,NaN,0.0,NaN,84.225458618
0.0625,128.0,0.9,NaN,0.0,NaN,72.944420126
0.0625,16.0,0.05,NaN,0.0,NaN,84.721068361
0.0625,256.0,0.5,NaN,0.0,NaN,73.192383689
0.0625,16.0,0.7,NaN,0.0,NaN,84.858248181
0.0625,16.0,0.6,NaN,0.0,NaN,84.759389455
0.0625,64.0,0.5,NaN,0.0,NaN,84.22206031
0.0625,16.0,0.4,NaN,0.0,NaN,84.430661413
0.0625,32.0,0.4,NaN,0.0,NaN,85.149052688
0.0625,32.0,0.1,NaN,0.0,NaN,84.777761846
0.0625,16.0,0.2,NaN,0.0,NaN,84.861026896
0.0625,128.0,0.05,NaN,0.0,NaN,84.199222808
0.0625,16.0,0.8,NaN,0.0,NaN,84.442721966
0.0625,128.0,0.6,NaN,0.0,NaN,84.122410231
0.0625,32.0,0.9,NaN,0.0,NaN,84.604194471
0.0625,32.0,0.05,NaN,0.0,NaN,84.59849004
0.0625,16.0,0.5,NaN,0.0,NaN,84.630703763
0.0625,32.0,0.6,NaN,0.0,NaN,84.523515492
0.0625,32.0,0.2,NaN,0.0,NaN,84.591849552
0.0625,64.0,0.1,NaN,0.0,NaN,84.889667056
0.0625,16.0,0.9,NaN,0.0,NaN,84.693898049
0.0625,64.0,0.4,NaN,0.0,NaN,84.597139835
0.0625,32.0,0.5,NaN,0.0,NaN,85.16581364
0.0625,32.0,0.7,NaN,0.0,NaN,84.619146603
0.0625,256.0,0.2,NaN,0.0,NaN,84.414516036
0.0625,64.0,1.0,NaN,0.0,NaN,84.600429158
0.0625,64.0,0.7,NaN,0.0,NaN,84.61909652
0.0625,64.0,0.05,NaN,0.0,NaN,84.599151491
0.0625,64.0,0.6,NaN,0.0,NaN,84.571270247
0.0625,32.0,0.3,NaN,0.0,NaN,84.633042332
0.0625,128.0,0.2,NaN,0.0,NaN,84.883631122
0.0625,64.0,0.2,NaN,0.0,NaN,84.473788413
0.0625,128.0,0.5,NaN,0.0,NaN,84.509025524
0.0625,128.0,0.8,NaN,0.0,NaN,84.529635308
0.0625,64.0,0.8,NaN,0.0,NaN,84.223146308
0.0625,256.0,0.1,NaN,0.0,NaN,84.510848918
0.0625,256.0,0.7,NaN,0.0,NaN,84.478544609
0.0625,32.0,0.8,NaN,0.0,NaN,84.616542357
0.0625,256.0,0.4,NaN,0.0,NaN,84.480962896
0.0625,128.0,0.3,NaN,0.0,NaN,84.324708434
0.0625,64.0,0.3,NaN,0.0,NaN,84.80624028
0.0625,128.0,0.1,NaN,0.0,NaN,84.49452454
0.0625,256.0,0.9,NaN,0.0,NaN,84.676850003
0.0625,64.0,0.9,NaN,0.0,NaN,84.498162094
0.0625,128.0,0.7,NaN,0.0,NaN,84.729962993
0.0625,256.0,0.6,NaN,0.0,NaN,84.625697536
0.0625,128.0,1.0,NaN,0.0,NaN,84.298158183
0.0625,128.0,0.4,NaN,0.0,NaN,84.474715495
0.0625,256.0,0.05,NaN,0.0,NaN,84.529579244
0.0625,256.0,0.3,NaN,0.0,NaN,84.560245708
0.0625,256.0,0.8,NaN,0.0,NaN,84.480851671
0.0625,512.0,0.05,NaN,0.0,NaN,84.389387936
0.0625,256.0,1.0,NaN,0.0,NaN,84.270760428
0.0625,512.0,0.1,NaN,0.0,NaN,84.337831639
0.0625,512.0,0.2,NaN,0.0,NaN,88.991335859
0.0625,512.0,0.3,NaN,0.0,NaN,88.973456133
0.0625,512.0,0.4,NaN,0.0,NaN,89.121313274
0.0625,512.0,0.5,NaN,0.0,NaN,89.002226124
0.0625,512.0,0.6,NaN,0.0,NaN,88.884588185
0.0625,512.0,0.7,NaN,0.0,NaN,74.300290319
0.125,0.125,0.7,NaN,NaN,NaN,84.152318837
0.125,0.0625,0.4,NaN,NaN,NaN,84.126420073
0.125,0.125,0.3,NaN,NaN,NaN,84.202839787
0.125,0.125,0.4,NaN,NaN,NaN,84.226222553
0.125,0.0625,0.3,NaN,NaN,NaN,84.545710806
0.0625,512.0,0.8,NaN,0.0,NaN,74.21309861
0.125,0.125,1.0,NaN,NaN,NaN,84.571438712
0.125,0.0625,0.6,NaN,NaN,NaN,84.5345259
0.125,0.0625,0.7,NaN,NaN,NaN,84.231781606
0.125,0.0625,0.8,NaN,NaN,NaN,84.011702255
0.125,0.25,0.3,NaN,NaN,NaN,84.220920663
0.125,0.25,0.05,NaN,NaN,NaN,84.303044086
0.125,0.125,0.05,NaN,NaN,NaN,84.29258425
0.125,0.25,0.9,NaN,NaN,NaN,84.510525146
0.125,0.125,0.6,NaN,NaN,NaN,84.302388652
0.125,0.25,0.6,NaN,NaN,NaN,84.21770848
0.125,0.0625,1.0,NaN,NaN,NaN,84.43354041
0.125,0.125,0.8,NaN,NaN,NaN,84.117362102
0.125,0.25,0.7,NaN,NaN,NaN,84.508453798
0.0625,512.0,0.9,NaN,0.0,NaN,74.295829637
0.125,0.125,0.1,NaN,NaN,NaN,84.077003546
0.125,0.125,0.5,NaN,NaN,NaN,84.489121858
0.125,0.5,0.2,NaN,0.0,NaN,84.331921409
0.125,0.25,0.2,NaN,NaN,NaN,84.39775297
0.0625,512.0,1.0,NaN,0.0,NaN,74.131026198
0.125,0.25,0.4,NaN,NaN,NaN,84.168788538
0.125,0.5,0.05,NaN,0.0,NaN,84.289322401
0.125,0.0625,0.05,NaN,NaN,NaN,73.880701192
0.125,0.0625,0.1,NaN,NaN,NaN,74.093672303
0.125,0.25,0.1,NaN,NaN,NaN,84.415322576
0.125,0.25,0.8,NaN,NaN,NaN,84.506954614
0.125,0.5,0.1,NaN,0.0,NaN,85.201202109
0.125,0.0625,0.2,NaN,NaN,NaN,73.926762921
0.125,0.0625,0.5,NaN,NaN,NaN,73.926145005
0.125,0.0625,0.9,NaN,NaN,NaN,73.86510215
0.125,0.125,0.2,NaN,NaN,NaN,74.067428398
0.125,0.125,0.9,NaN,NaN,NaN,73.882281331
0.125,0.25,0.5,NaN,NaN,NaN,73.950837874
0.125,0.25,1.0,NaN,NaN,NaN,73.96652016
0.125,0.5,0.3,NaN,0.0,NaN,73.897914553
0.125,2.0,0.7,NaN,0.0,NaN,87.578954112
0.125,8.0,0.4,NaN,0.0,NaN,84.740716281
0.125,4.0,0.2,NaN,0.0,NaN,84.785937241
0.125,64.0,0.5,NaN,0.0,NaN,72.828285399
0.125,4.0,0.4,NaN,0.0,NaN,84.761743488
0.125,128.0,0.1,NaN,0.0,NaN,73.688397228
0.125,4.0,0.1,NaN,0.0,NaN,84.781997828
0.125,4.0,0.5,NaN,0.0,NaN,84.682494585
0.125,4.0,0.8,NaN,0.0,NaN,84.828804459
0.125,4.0,0.7,NaN,0.0,NaN,85.043915861
0.125,4.0,0.3,NaN,0.0,NaN,84.732419815
0.125,8.0,0.5,NaN,0.0,NaN,84.697160914
0.125,8.0,1.0,NaN,0.0,NaN,84.566137437
0.125,16.0,0.05,NaN,0.0,NaN,84.644216769
0.125,8.0,0.1,NaN,0.0,NaN,84.6979028
0.125,16.0,0.5,NaN,0.0,NaN,84.731948375
0.125,4.0,0.6,NaN,0.0,NaN,84.736908357
0.125,16.0,0.6,NaN,0.0,NaN,84.695021437
0.125,8.0,0.05,NaN,0.0,NaN,84.698047099
0.125,4.0,0.9,NaN,0.0,NaN,84.764661666
0.125,8.0,0.2,NaN,0.0,NaN,84.772813247
0.125,8.0,0.7,NaN,0.0,NaN,84.715480778
0.125,32.0,0.05,NaN,0.0,NaN,84.686935077
0.125,8.0,0.6,NaN,0.0,NaN,84.974721931
0.125,4.0,1.0,NaN,0.0,NaN,84.886834349
0.125,16.0,0.2,NaN,0.0,NaN,84.654529862
0.125,16.0,0.1,NaN,0.0,NaN,84.80161149
0.125,32.0,0.1,NaN,0.0,NaN,84.770874179
0.125,8.0,0.3,NaN,0.0,NaN,84.785268188
0.125,8.0,0.8,NaN,0.0,NaN,84.93070318
0.125,16.0,0.8,NaN,0.0,NaN,84.675297958
0.125,16.0,0.7,NaN,0.0,NaN,84.635812833
0.125,8.0,0.9,NaN,0.0,NaN,84.78209543
0.125,32.0,0.6,NaN,0.0,NaN,84.566415413
0.125,32.0,0.7,NaN,0.0,NaN,84.538631541
0.125,64.0,0.1,NaN,0.0,NaN,84.568602262
0.125,0.5,0.7,NaN,0.0,NaN,88.9838289
0.125,0.5,0.5,NaN,0.0,NaN,88.704033467
0.125,16.0,0.3,NaN,0.0,NaN,84.616936489
0.125,0.5,0.4,NaN,0.0,NaN,88.762751059
0.125,0.5,0.6,NaN,0.0,NaN,88.690901224
0.125,64.0,0.2,NaN,0.0,NaN,84.830953871
0.125,32.0,0.3,NaN,0.0,NaN,84.573072477
0.125,64.0,0.9,NaN,0.0,NaN,84.538825198
0.125,16.0,0.9,NaN,0.0,NaN,84.667842427
0.125,128.0,0.5,NaN,0.0,NaN,84.511580614
0.125,64.0,0.8,NaN,0.0,NaN,84.492815486
0.125,32.0,0.2,NaN,0.0,NaN,84.664784025
0.125,32.0,0.9,NaN,0.0,NaN,84.802583658
0.125,32.0,0.4,NaN,0.0,NaN,84.770340333
0.125,0.5,0.8,NaN,0.0,NaN,88.658331878
0.125,128.0,0.7,NaN,0.0,NaN,84.476452549
0.125,32.0,0.8,NaN,0.0,NaN,84.75261969
0.125,64.0,0.3,NaN,0.0,NaN,84.520394959
0.125,128.0,0.4,NaN,0.0,NaN,84.457534919
0.125,64.0,0.4,NaN,0.0,NaN,84.509419766
0.125,16.0,0.4,NaN,0.0,NaN,84.489705726
0.125,16.0,1.0,NaN,0.0,NaN,84.648107107
0.125,128.0,0.05,NaN,0.0,NaN,84.538230533
0.125,32.0,1.0,NaN,0.0,NaN,84.87696242
0.125,32.0,0.5,NaN,0.0,NaN,84.703370777
0.125,64.0,1.0,NaN,0.0,NaN,84.522032892
0.125,64.0,0.05,NaN,0.0,NaN,84.574548845
0.125,64.0,0.6,NaN,0.0,NaN,84.53718034
0.125,128.0,0.2,NaN,0.0,NaN,84.490060922
0.125,128.0,0.6,NaN,0.0,NaN,84.540960858
0.125,64.0,0.7,NaN,0.0,NaN,84.554358181
0.125,128.0,0.3,NaN,0.0,NaN,84.614718998
0.125,0.5,0.9,NaN,0.0,NaN,88.682318471
0.125,0.5,1.0,NaN,0.0,NaN,88.472223064
0.125,1.0,0.05,NaN,0.0,NaN,88.434783347
0.125,1.0,0.1,NaN,0.0,NaN,88.551752559
0.125,1.0,0.2,NaN,0.0,NaN,88.466288939
0.125,1.0,0.3,NaN,0.0,NaN,89.240502742
0.125,1.0,0.4,NaN,0.0,NaN,88.895480565
0.125,1.0,0.5,NaN,0.0,NaN,89.67459604
0.125,1.0,0.6,NaN,0.0,NaN,88.046396406
0.125,1.0,0.7,NaN,0.0,NaN,88.007840276
0.125,1.0,0.8,NaN,0.0,NaN,87.981198844
0.125,1.0,0.9,NaN,0.0,NaN,88.424404985
0.125,1.0,1.0,NaN,0.0,NaN,88.016861305
0.125,2.0,0.05,NaN,0.0,NaN,88.125054159
0.125,2.0,0.1,NaN,0.0,NaN,88.011241789
0.125,2.0,0.2,NaN,0.0,NaN,88.08377525
0.125,2.0,0.3,NaN,0.0,NaN,88.391529864
0.125,2.0,0.6,NaN,0.0,NaN,88.186770127
0.125,2.0,0.5,NaN,0.0,NaN,87.991060571
0.125,2.0,0.4,NaN,0.0,NaN,87.946778365
0.125,2.0,0.9,NaN,0.0,NaN,88.068136079
0.125,4.0,0.05,NaN,0.0,NaN,87.991588039
0.125,2.0,1.0,NaN,0.0,NaN,88.090681185
0.125,2.0,0.8,NaN,0.0,NaN,88.05943472
0.125,128.0,0.9,NaN,0.0,NaN,83.926255669
0.125,128.0,0.8,NaN,0.0,NaN,84.255941891
0.125,128.0,1.0,NaN,0.0,NaN,84.190062605
0.125,256.0,0.05,NaN,0.0,NaN,88.635376966
0.125,256.0,0.1,NaN,0.0,NaN,74.739760986
0.125,256.0,0.7,NaN,0.0,NaN,84.479126215
0.125,256.0,0.9,NaN,0.0,NaN,84.376174957
0.125,256.0,1.0,NaN,0.0,NaN,84.399352223
0.125,512.0,0.6,NaN,0.0,NaN,84.428540237
0.125,512.0,0.8,NaN,0.0,NaN,84.111582771
0.125,512.0,0.2,NaN,0.0,NaN,84.686038883
0.125,512.0,0.1,NaN,0.0,NaN,84.331391502
0.125,512.0,0.7,NaN,0.0,NaN,84.379773767
0.125,512.0,0.3,NaN,0.0,NaN,84.399062535
0.25,0.0625,0.4,NaN,NaN,NaN,84.048073762
0.25,0.0625,0.05,NaN,NaN,NaN,84.239153402
0.125,512.0,0.5,NaN,0.0,NaN,84.418509597
0.25,0.0625,0.9,NaN,NaN,NaN,84.646862576
0.25,0.0625,0.2,NaN,NaN,NaN,84.376814366
0.25,0.0625,0.1,NaN,NaN,NaN,84.610419306
0.25,0.125,0.05,NaN,NaN,NaN,84.362820496
0.25,0.0625,0.7,NaN,NaN,NaN,84.482750264
0.25,0.0625,0.3,NaN,NaN,NaN,84.356054109
0.125,512.0,0.9,NaN,0.0,NaN,84.409894862
0.25,0.0625,1.0,NaN,NaN,NaN,84.594130675
0.25,0.125,0.3,NaN,NaN,NaN,84.376446125
0.25,0.125,0.7,NaN,NaN,NaN,84.419968821
0.125,256.0,0.2,NaN,0.0,NaN,74.02542102
0.25,0.0625,0.8,NaN,NaN,NaN,84.371209973
0.25,0.125,0.4,NaN,NaN,NaN,84.047013794
0.25,0.0625,0.5,NaN,NaN,NaN,84.61668147
0.125,256.0,0.3,NaN,0.0,NaN,74.027703966
0.25,0.125,0.1,NaN,NaN,NaN,84.473306347
0.25,0.125,0.5,NaN,NaN,NaN,84.423981211
0.125,256.0,0.4,NaN,0.0,NaN,73.879781155
0.125,256.0,0.5,NaN,0.0,NaN,73.918561419
0.125,256.0,0.6,NaN,0.0,NaN,74.056822893
0.125,256.0,0.8,NaN,0.0,NaN,73.869023458
0.125,512.0,0.05,NaN,0.0,NaN,73.892041923
0.125,512.0,0.4,NaN,0.0,NaN,73.947396218
0.125,512.0,1.0,NaN,0.0,NaN,73.943896376
0.25,0.0625,0.6,NaN,NaN,NaN,73.831314221
0.25,0.125,0.2,NaN,NaN,NaN,74.290887262
0.25,0.125,0.6,NaN,NaN,NaN,73.884256482
0.25,0.125,0.8,NaN,NaN,NaN,73.84527069
0.25,0.125,0.9,NaN,NaN,NaN,88.029429233
0.25,0.125,1.0,NaN,NaN,NaN,88.159048506
0.25,0.25,0.05,NaN,NaN,NaN,88.087646553
0.25,0.25,0.1,NaN,NaN,NaN,88.02174937
0.25,0.25,0.2,NaN,NaN,NaN,88.188437071
0.25,0.25,0.3,NaN,NaN,NaN,84.634749099
0.25,0.25,0.4,NaN,NaN,NaN,84.710017269
0.25,0.25,0.5,NaN,NaN,NaN,84.658858939
0.25,0.25,0.6,NaN,NaN,NaN,84.609421581
0.25,4.0,0.6,NaN,0.0,NaN,72.927323011
0.25,0.5,0.2,NaN,0.0,NaN,84.570135965
0.25,0.5,0.4,NaN,0.0,NaN,84.660745367
0.25,8.0,0.2,NaN,0.0,NaN,73.29634609
0.25,0.25,0.8,NaN,NaN,NaN,85.329284371
0.25,0.25,0.7,NaN,NaN,NaN,84.805885488
0.25,0.25,0.9,NaN,NaN,NaN,84.665148092
0.25,0.5,0.05,NaN,0.0,NaN,84.713578269
0.25,0.25,1.0,NaN,NaN,NaN,84.851845138
0.25,0.5,0.7,NaN,0.0,NaN,84.524138116
0.25,0.5,0.8,NaN,0.0,NaN,84.791698227
0.25,0.5,1.0,NaN,0.0,NaN,84.651347445
0.25,1.0,0.2,NaN,0.0,NaN,84.535292353
0.25,0.5,0.1,NaN,0.0,NaN,85.09351891
0.25,0.5,0.5,NaN,0.0,NaN,84.870673098
0.25,1.0,0.3,NaN,0.0,NaN,84.722521129
0.25,0.5,0.3,NaN,0.0,NaN,84.703876777
0.25,1.0,0.5,NaN,0.0,NaN,84.468938352
0.25,1.0,0.8,NaN,0.0,NaN,84.488445915
0.25,0.5,0.6,NaN,0.0,NaN,84.790722073
0.25,1.0,0.9,NaN,0.0,NaN,84.547315825
0.25,0.5,0.9,NaN,0.0,NaN,84.523551971
0.25,1.0,0.1,NaN,0.0,NaN,84.599733286
0.25,2.0,0.05,NaN,0.0,NaN,84.435992685
0.25,1.0,0.05,NaN,0.0,NaN,84.484603084
0.25,2.0,0.3,NaN,0.0,NaN,84.276033633
0.25,2.0,0.4,NaN,0.0,NaN,84.284343693
0.25,2.0,0.6,NaN,0.0,NaN,84.445986387
0.25,2.0,0.9,NaN,0.0,NaN,84.439195812
0.25,1.0,0.6,NaN,0.0,NaN,84.546904474
0.25,4.0,0.4,NaN,0.0,NaN,84.241979241
0.25,2.0,1.0,NaN,0.0,NaN,84.361902832
0.25,2.0,0.1,NaN,0.0,NaN,84.50170714
0.25,4.0,0.5,NaN,0.0,NaN,84.708185156
0.25,4.0,0.1,NaN,0.0,NaN,84.658838361
0.25,8.0,0.05,NaN,0.0,NaN,84.227435633
0.25,4.0,0.8,NaN,0.0,NaN,84.518145971
0.25,2.0,0.7,NaN,0.0,NaN,85.231248346
0.25,8.0,0.1,NaN,0.0,NaN,84.51163605
0.25,1.0,0.4,NaN,0.0,NaN,84.716631654
0.25,1.0,1.0,NaN,0.0,NaN,84.686049641
0.25,8.0,0.4,NaN,0.0,NaN,84.456197274
0.25,8.0,0.5,NaN,0.0,NaN,84.521396892
0.25,4.0,0.2,NaN,0.0,NaN,84.543266001
0.25,4.0,0.9,NaN,0.0,NaN,85.120550843
0.25,1.0,0.7,NaN,0.0,NaN,84.772573855
0.25,2.0,0.5,NaN,0.0,NaN,84.593267733
0.25,4.0,0.05,NaN,0.0,NaN,84.563184542
0.25,8.0,0.3,NaN,0.0,NaN,84.635857235
0.25,4.0,0.7,NaN,0.0,NaN,84.61530799
0.25,2.0,0.2,NaN,0.0,NaN,84.517678809
0.25,2.0,0.8,NaN,0.0,NaN,84.547811857
0.25,4.0,0.3,NaN,0.0,NaN,84.601472267
0.25,4.0,1.0,NaN,0.0,NaN,84.727827663
0.25,64.0,0.3,NaN,0.0,NaN,84.579061941
0.25,64.0,0.2,NaN,0.0,NaN,84.328553973
0.25,64.0,0.5,NaN,0.0,NaN,84.328968446
0.25,64.0,0.4,NaN,0.0,NaN,84.502719967
0.25,8.0,0.6,NaN,0.0,NaN,88.874441542
0.25,8.0,0.8,NaN,0.0,NaN,88.386526849
0.25,8.0,0.7,NaN,0.0,NaN,88.216107724
0.25,8.0,0.9,NaN,0.0,NaN,88.299669129
0.25,16.0,0.05,NaN,0.0,NaN,88.632500858
0.25,8.0,1.0,NaN,0.0,NaN,88.117314161
0.25,16.0,0.1,NaN,0.0,NaN,88.349193673
0.25,16.0,0.2,NaN,0.0,NaN,88.158429398
0.25,16.0,0.3,NaN,0.0,NaN,88.088183084
0.25,16.0,0.4,NaN,0.0,NaN,87.846848507
0.25,16.0,0.5,NaN,0.0,NaN,87.822104436
0.25,16.0,0.6,NaN,0.0,NaN,87.974609039
0.25,16.0,0.7,NaN,0.0,NaN,88.055532726
0.25,16.0,0.8,NaN,0.0,NaN,87.997800999
0.25,16.0,0.9,NaN,0.0,NaN,88.602514265
0.25,16.0,1.0,NaN,0.0,NaN,87.934931444
0.25,32.0,0.05,NaN,0.0,NaN,87.973502876
0.25,32.0,0.4,NaN,0.0,NaN,88.301416342
0.25,32.0,0.1,NaN,0.0,NaN,87.983900181
0.25,32.0,0.2,NaN,0.0,NaN,87.957935957
0.25,32.0,0.5,NaN,0.0,NaN,88.121639795
0.25,32.0,0.3,NaN,0.0,NaN,88.018832921
0.25,32.0,0.8,NaN,0.0,NaN,87.939686285
0.25,32.0,0.6,NaN,0.0,NaN,88.154880588
0.25,64.0,0.05,NaN,0.0,NaN,87.785691066
0.25,64.0,0.1,NaN,0.0,NaN,87.892310631
0.25,32.0,0.9,NaN,0.0,NaN,88.048291825
0.25,32.0,0.7,NaN,0.0,NaN,88.00017046
0.25,32.0,1.0,NaN,0.0,NaN,88.009615682
0.25,64.0,0.7,NaN,0.0,NaN,84.235149055
0.25,64.0,0.6,NaN,0.0,NaN,84.345303621
0.25,64.0,0.8,NaN,0.0,NaN,84.412266163
0.25,64.0,0.9,NaN,0.0,NaN,87.943291843
0.25,64.0,1.0,NaN,0.0,NaN,74.414915176
0.25,128.0,0.05,NaN,0.0,NaN,74.114980277
0.25,128.0,0.5,NaN,0.0,NaN,84.551005743
0.25,256.0,0.3,NaN,0.0,NaN,84.423269534
0.5,0.25,0.1,NaN,NaN,NaN,84.654746656
0.25,128.0,1.0,NaN,0.0,NaN,84.131409739
0.25,256.0,0.4,NaN,0.0,NaN,84.213574146
0.25,128.0,0.7,NaN,0.0,NaN,84.522645152
0.25,256.0,0.5,NaN,0.0,NaN,84.516672449
0.25,128.0,0.8,NaN,0.0,NaN,84.660706419
0.25,512.0,0.1,NaN,0.0,NaN,84.397416325
0.25,256.0,0.9,NaN,0.0,NaN,84.595761075
0.25,128.0,0.1,NaN,0.0,NaN,73.916485036
0.25,256.0,1.0,NaN,0.0,NaN,84.394399227
0.25,256.0,0.05,NaN,0.0,NaN,84.495769069
0.25,512.0,0.7,NaN,0.0,NaN,84.221193576
0.25,512.0,0.5,NaN,0.0,NaN,84.619907279
0.25,512.0,0.05,NaN,0.0,NaN,84.155897371
0.25,256.0,0.1,NaN,0.0,NaN,84.471849054
0.25,256.0,0.7,NaN,0.0,NaN,84.554405969
0.25,512.0,0.6,NaN,0.0,NaN,84.334565811
0.25,512.0,0.8,NaN,0.0,NaN,84.265140229
0.25,256.0,0.6,NaN,0.0,NaN,84.695745317
0.25,512.0,0.3,NaN,0.0,NaN,84.522881465
0.5,0.0625,0.1,NaN,NaN,NaN,84.405191425
0.25,512.0,0.2,NaN,0.0,NaN,84.487610569
0.5,0.0625,0.5,NaN,NaN,NaN,84.425639616
0.5,0.0625,0.2,NaN,NaN,NaN,84.697449501
0.25,128.0,0.2,NaN,0.0,NaN,73.983792718
0.25,128.0,0.3,NaN,0.0,NaN,73.89420187
0.25,512.0,0.9,NaN,0.0,NaN,84.479898344
0.25,128.0,0.4,NaN,0.0,NaN,73.950484132
0.25,128.0,0.6,NaN,0.0,NaN,73.869965349
0.25,512.0,1.0,NaN,0.0,NaN,84.446070998
0.5,0.0625,0.3,NaN,NaN,NaN,84.456278364
0.25,128.0,0.9,NaN,0.0,NaN,73.834948851
0.25,256.0,0.2,NaN,0.0,NaN,73.885354637
0.25,256.0,0.8,NaN,0.0,NaN,74.048496594
0.25,512.0,0.4,NaN,0.0,NaN,73.899374075
0.5,0.0625,0.05,NaN,NaN,NaN,74.033604614
0.5,0.0625,0.4,NaN,NaN,NaN,73.927344682
0.5,0.0625,0.6,NaN,NaN,NaN,73.930118554
0.5,0.0625,0.9,NaN,NaN,NaN,87.919084439
0.5,0.0625,0.8,NaN,NaN,NaN,88.014566564
0.5,0.0625,0.7,NaN,NaN,NaN,88.898076045
0.5,0.0625,1.0,NaN,NaN,NaN,89.034442411
0.5,0.125,0.05,NaN,NaN,NaN,89.079824416
0.5,2.0,0.3,NaN,0.0,NaN,72.949614576
0.5,0.125,0.6,NaN,NaN,NaN,84.448619904
0.5,0.125,0.3,NaN,NaN,NaN,84.746294106
0.5,2.0,0.9,NaN,0.0,NaN,72.882559756
0.5,0.25,0.3,NaN,NaN,NaN,84.826396409
0.5,0.25,0.05,NaN,NaN,NaN,84.867991321
0.5,0.125,0.1,NaN,NaN,NaN,84.772013715
0.5,0.25,0.7,NaN,NaN,NaN,84.609034483
0.5,0.25,0.6,NaN,NaN,NaN,84.53376646
0.5,0.25,0.9,NaN,NaN,NaN,84.46421748
0.5,0.125,0.5,NaN,NaN,NaN,85.154364445
0.5,0.125,0.2,NaN,NaN,NaN,85.155377663
0.5,0.125,0.9,NaN,NaN,NaN,84.492256451
0.5,0.5,0.2,NaN,0.0,NaN,84.415238361
0.5,0.25,0.4,NaN,NaN,NaN,84.649202975
0.5,0.5,0.4,NaN,0.0,NaN,84.647448494
0.5,0.5,1.0,NaN,0.0,NaN,84.509239905
0.5,0.5,0.1,NaN,0.0,NaN,84.611527972
0.5,0.25,1.0,NaN,NaN,NaN,84.537347996
0.5,0.5,0.8,NaN,0.0,NaN,84.457026171
0.5,0.125,0.4,NaN,NaN,NaN,85.53133335
0.5,0.125,0.8,NaN,NaN,NaN,84.675500291
0.5,0.125,0.7,NaN,NaN,NaN,84.70452821
0.5,0.5,0.7,NaN,0.0,NaN,84.509597413
0.5,0.25,0.2,NaN,NaN,NaN,84.695238052
0.5,0.25,0.8,NaN,NaN,NaN,84.686608171
0.5,0.125,1.0,NaN,NaN,NaN,84.605800124
0.5,1.0,0.5,NaN,0.0,NaN,84.470135551
0.5,0.5,0.5,NaN,0.0,NaN,84.417212471
0.5,1.0,0.3,NaN,0.0,NaN,84.528137745
0.5,2.0,0.05,NaN,0.0,NaN,84.363792119
0.5,1.0,0.9,NaN,0.0,NaN,84.521726531
0.5,1.0,0.2,NaN,0.0,NaN,84.464093346
0.5,1.0,0.05,NaN,0.0,NaN,84.231488729
0.5,0.5,0.3,NaN,0.0,NaN,84.735392858
0.5,2.0,0.7,NaN,0.0,NaN,84.475876624
0.5,0.25,0.5,NaN,NaN,NaN,84.466500499
0.5,1.0,0.8,NaN,0.0,NaN,84.47024037
0.5,2.0,0.5,NaN,0.0,NaN,84.671152866
0.5,2.0,0.4,NaN,0.0,NaN,84.56849859
0.5,0.5,0.9,NaN,0.0,NaN,84.508383335
0.5,1.0,0.6,NaN,0.0,NaN,84.461704347
0.5,1.0,0.4,NaN,0.0,NaN,84.724808431
0.5,4.0,0.05,NaN,0.0,NaN,84.720919983
0.5,2.0,0.1,NaN,0.0,NaN,84.267903054
0.5,2.0,1.0,NaN,0.0,NaN,84.453585583
0.5,0.5,0.05,NaN,0.0,NaN,84.565931502
0.5,0.5,0.6,NaN,0.0,NaN,85.007330533
0.5,1.0,1.0,NaN,0.0,NaN,84.715220992
0.5,1.0,0.1,NaN,0.0,NaN,84.565954883
0.5,2.0,0.6,NaN,0.0,NaN,85.263766374
0.5,1.0,0.7,NaN,0.0,NaN,85.06399366
0.5,2.0,0.2,NaN,0.0,NaN,84.602850821
0.5,2.0,0.8,NaN,0.0,NaN,84.589490015
0.5,8.0,0.2,NaN,0.0,NaN,84.322235612
0.5,4.0,0.7,NaN,0.0,NaN,84.334407346
0.5,4.0,0.9,NaN,0.0,NaN,84.511205615
0.5,4.0,1.0,NaN,0.0,NaN,84.322399854
0.5,8.0,0.05,NaN,0.0,NaN,84.216560359
0.5,8.0,0.1,NaN,0.0,NaN,84.550260738
0.5,4.0,0.8,NaN,0.0,NaN,84.644169836
0.5,4.0,0.3,NaN,0.0,NaN,86.241672698
0.5,4.0,0.5,NaN,0.0,NaN,86.146484426
0.5,4.0,0.4,NaN,0.0,NaN,86.926788059
0.5,4.0,0.2,NaN,0.0,NaN,86.436795825
0.5,4.0,0.6,NaN,0.0,NaN,86.280680199
0.5,4.0,0.1,NaN,0.0,NaN,86.495476052
0.5,8.0,0.3,NaN,0.0,NaN,87.93111816
0.5,8.0,0.4,NaN,0.0,NaN,88.039691191
0.5,8.0,0.5,NaN,0.0,NaN,87.961567138
0.5,8.0,0.6,NaN,0.0,NaN,87.935419255
0.5,8.0,0.7,NaN,0.0,NaN,87.949603269
0.5,8.0,0.8,NaN,0.0,NaN,87.953638045
0.5,8.0,0.9,NaN,0.0,NaN,88.1439589
0.5,8.0,1.0,NaN,0.0,NaN,87.887759053
0.5,16.0,0.05,NaN,0.0,NaN,87.872790984
0.5,16.0,0.2,NaN,0.0,NaN,88.629237966
0.5,16.0,0.1,NaN,0.0,NaN,88.266736578
0.5,16.0,0.3,NaN,0.0,NaN,87.933487702
0.5,16.0,0.4,NaN,0.0,NaN,87.832638414
0.5,16.0,0.6,NaN,0.0,NaN,87.951755058
0.5,32.0,0.2,NaN,0.0,NaN,88.194640946
0.5,16.0,1.0,NaN,0.0,NaN,88.144982321
0.5,32.0,0.3,NaN,0.0,NaN,88.060557448
0.5,16.0,0.9,NaN,0.0,NaN,88.505893628
0.5,16.0,0.5,NaN,0.0,NaN,88.055111674
0.5,32.0,0.05,NaN,0.0,NaN,87.858061432
0.5,16.0,0.8,NaN,0.0,NaN,87.908446372
0.5,32.0,0.1,NaN,0.0,NaN,87.972235135
0.5,16.0,0.7,NaN,0.0,NaN,87.883094464
0.5,32.0,0.5,NaN,0.0,NaN,84.260716658
0.5,32.0,0.4,NaN,0.0,NaN,84.474345177
0.5,32.0,0.6,NaN,0.0,NaN,84.185718901
0.5,32.0,0.7,NaN,0.0,NaN,88.766019656
0.5,128.0,0.3,NaN,0.0,NaN,84.548215489
0.5,64.0,0.8,NaN,0.0,NaN,84.35713196
0.5,128.0,0.5,NaN,0.0,NaN,84.235210382
0.5,128.0,0.1,NaN,0.0,NaN,84.373319574
0.5,64.0,0.6,NaN,0.0,NaN,84.557379577
0.5,128.0,0.8,NaN,0.0,NaN,84.366948313
0.5,128.0,0.2,NaN,0.0,NaN,84.281374346
0.5,64.0,1.0,NaN,0.0,NaN,84.276654743
0.5,128.0,1.0,NaN,0.0,NaN,84.372705975
0.5,64.0,0.4,NaN,0.0,NaN,84.380876905
0.5,128.0,0.6,NaN,0.0,NaN,84.426173251
0.5,256.0,0.4,NaN,0.0,NaN,84.211495162
0.5,256.0,0.1,NaN,0.0,NaN,84.738591175
0.5,128.0,0.9,NaN,0.0,NaN,84.234254359
0.5,256.0,0.6,NaN,0.0,NaN,85.205248268
0.5,256.0,0.2,NaN,0.0,NaN,84.385300841
0.5,256.0,0.8,NaN,0.0,NaN,84.337596723
0.5,256.0,0.9,NaN,0.0,NaN,84.356644512
0.5,64.0,0.7,NaN,0.0,NaN,84.385472404
0.5,512.0,0.2,NaN,0.0,NaN,84.445011035
0.5,256.0,0.5,NaN,0.0,NaN,84.303158179
0.5,128.0,0.05,NaN,0.0,NaN,84.389653723
0.5,512.0,0.05,NaN,0.0,NaN,84.215971175
0.5,128.0,0.7,NaN,0.0,NaN,84.379273083
0.5,256.0,0.3,NaN,0.0,NaN,84.419272503
0.5,32.0,0.8,NaN,0.0,NaN,74.147780851
0.5,32.0,0.9,NaN,0.0,NaN,74.044261251
0.5,512.0,0.3,NaN,0.0,NaN,84.445872494
0.5,256.0,1.0,NaN,0.0,NaN,84.448219991
0.5,32.0,1.0,NaN,0.0,NaN,74.476693965
0.5,64.0,0.05,NaN,0.0,NaN,73.992970738
0.5,64.0,0.1,NaN,0.0,NaN,74.00444797
0.5,64.0,0.2,NaN,0.0,NaN,74.104881048
0.5,64.0,0.3,NaN,0.0,NaN,73.836655201
0.5,64.0,0.5,NaN,0.0,NaN,74.241982492
0.5,64.0,0.9,NaN,0.0,NaN,73.944247561
0.5,128.0,0.4,NaN,0.0,NaN,73.997046308
0.5,256.0,0.05,NaN,0.0,NaN,74.529647229
0.5,256.0,0.7,NaN,0.0,NaN,73.861034741
0.5,512.0,0.4,NaN,0.0,NaN,74.029087596
0.5,512.0,0.1,NaN,0.0,NaN,73.894920295
0.5,512.0,0.5,NaN,0.0,NaN,87.781202175
0.5,512.0,0.6,NaN,0.0,NaN,88.212642852
0.5,512.0,0.7,NaN,0.0,NaN,87.86963258
0.5,512.0,0.8,NaN,0.0,NaN,84.742525071
1.0,0.0625,0.1,NaN,NaN,NaN,84.547307075
0.5,512.0,0.9,NaN,0.0,NaN,84.695206297
0.5,512.0,1.0,NaN,0.0,NaN,84.739270189
1.0,0.5,0.3,NaN,0.0,NaN,72.778107739
1.0,0.5,1.0,NaN,0.0,NaN,72.916834295
1.0,0.0625,0.05,NaN,NaN,NaN,84.749833691
1.0,0.0625,1.0,NaN,NaN,NaN,84.737672482
1.0,0.0625,0.7,NaN,NaN,NaN,84.676855022
1.0,0.0625,0.2,NaN,NaN,NaN,84.73934593
1.0,0.0625,0.4,NaN,NaN,NaN,84.545360635
1.0,0.0625,0.6,NaN,NaN,NaN,84.685616851
1.0,0.0625,0.3,NaN,NaN,NaN,84.923880558
1.0,0.125,0.5,NaN,NaN,NaN,84.690105441
1.0,0.125,0.2,NaN,NaN,NaN,84.699664531
1.0,0.0625,0.9,NaN,NaN,NaN,84.656238899
1.0,0.25,0.05,NaN,NaN,NaN,84.42772153
1.0,0.0625,0.5,NaN,NaN,NaN,84.670003786
1.0,0.0625,0.8,NaN,NaN,NaN,84.868328708
1.0,0.125,0.1,NaN,NaN,NaN,84.542972066
1.0,0.125,0.8,NaN,NaN,NaN,84.579143854
1.0,0.125,0.4,NaN,NaN,NaN,84.848733374
1.0,0.125,1.0,NaN,NaN,NaN,84.544720467
1.0,0.125,0.7,NaN,NaN,NaN,84.440712038
1.0,0.125,0.3,NaN,NaN,NaN,84.617382592
1.0,0.125,0.05,NaN,NaN,NaN,84.630012752
1.0,0.25,0.2,NaN,NaN,NaN,84.649711578
1.0,0.125,0.6,NaN,NaN,NaN,84.595520763
1.0,0.25,0.6,NaN,NaN,NaN,84.378282918
1.0,0.25,0.3,NaN,NaN,NaN,84.450549372
1.0,0.25,0.1,NaN,NaN,NaN,84.857024534
1.0,0.5,0.1,NaN,0.0,NaN,84.736673947
1.0,0.25,0.8,NaN,NaN,NaN,84.545387753
1.0,0.25,0.9,NaN,NaN,NaN,84.578307865
1.0,0.5,0.8,NaN,0.0,NaN,84.491598443
1.0,0.5,0.5,NaN,0.0,NaN,84.419738642
1.0,0.25,0.5,NaN,NaN,NaN,84.577558717
1.0,0.5,0.4,NaN,0.0,NaN,84.517558377
1.0,1.0,0.3,NaN,0.0,NaN,84.300859347
1.0,0.125,0.9,NaN,NaN,NaN,84.547141735
1.0,1.0,0.05,NaN,0.0,NaN,84.476676521
1.0,1.0,0.1,NaN,0.0,NaN,84.500361388
1.0,0.25,0.4,NaN,NaN,NaN,84.598383095
1.0,0.5,0.05,NaN,0.0,NaN,84.327513186
1.0,0.5,0.7,NaN,0.0,NaN,84.502205929
1.0,1.0,0.5,NaN,0.0,NaN,84.580175562
1.0,0.25,0.7,NaN,NaN,NaN,84.64446618
1.0,0.25,1.0,NaN,NaN,NaN,84.589529895
1.0,1.0,0.6,NaN,0.0,NaN,85.214462653
1.0,0.5,0.2,NaN,0.0,NaN,84.654228212
1.0,0.5,0.6,NaN,0.0,NaN,84.676979038
1.0,1.0,0.2,NaN,0.0,NaN,84.573967261
1.0,0.5,0.9,NaN,0.0,NaN,84.891823825
1.0,1.0,0.4,NaN,0.0,NaN,84.49018373
1.0,1.0,0.8,NaN,0.0,NaN,88.117584526
1.0,1.0,0.7,NaN,0.0,NaN,87.77364932
1.0,4.0,0.05,NaN,0.0,NaN,84.201828761
1.0,2.0,0.9,NaN,0.0,NaN,84.462482299
1.0,2.0,0.6,NaN,0.0,NaN,84.065495057
1.0,2.0,0.7,NaN,0.0,NaN,84.67210968
1.0,2.0,0.4,NaN,0.0,NaN,84.337431849
1.0,2.0,0.8,NaN,0.0,NaN,84.11497254
1.0,2.0,0.5,NaN,0.0,NaN,84.374741096
1.0,2.0,1.0,NaN,0.0,NaN,84.048270432
1.0,1.0,0.9,NaN,0.0,NaN,86.312463117
1.0,1.0,1.0,NaN,0.0,NaN,86.237319391
1.0,2.0,0.05,NaN,0.0,NaN,86.315141996
1.0,2.0,0.2,NaN,0.0,NaN,86.345462947
1.0,2.0,0.1,NaN,0.0,NaN,87.054917404
1.0,2.0,0.3,NaN,0.0,NaN,86.426779169
1.0,4.0,0.1,NaN,0.0,NaN,87.998062691
1.0,4.0,0.2,NaN,0.0,NaN,87.916299788
1.0,4.0,0.3,NaN,0.0,NaN,87.949303059
1.0,4.0,0.4,NaN,0.0,NaN,88.563470116
1.0,4.0,0.5,NaN,0.0,NaN,88.310061267
1.0,4.0,0.6,NaN,0.0,NaN,87.911618402
1.0,4.0,0.7,NaN,0.0,NaN,87.869369432
1.0,4.0,0.9,NaN,0.0,NaN,87.931799406
1.0,4.0,0.8,NaN,0.0,NaN,88.011257246
1.0,4.0,1.0,NaN,0.0,NaN,87.99989477
1.0,8.0,0.05,NaN,0.0,NaN,88.206794632
1.0,8.0,0.1,NaN,0.0,NaN,87.796291821
1.0,8.0,0.2,NaN,0.0,NaN,88.122123058
1.0,8.0,0.3,NaN,0.0,NaN,87.832486206
1.0,8.0,0.4,NaN,0.0,NaN,87.896723809
1.0,8.0,0.5,NaN,0.0,NaN,87.743417244
1.0,8.0,0.6,NaN,0.0,NaN,87.889060563
1.0,8.0,0.7,NaN,0.0,NaN,88.025110575
1.0,8.0,0.8,NaN,0.0,NaN,87.825225413
1.0,16.0,0.05,NaN,0.0,NaN,87.789585945
1.0,8.0,1.0,NaN,0.0,NaN,87.897747124
1.0,16.0,0.1,NaN,0.0,NaN,87.876106567
1.0,8.0,0.9,NaN,0.0,NaN,88.208209615
1.0,16.0,0.3,NaN,0.0,NaN,84.089139507
1.0,16.0,0.2,NaN,0.0,NaN,83.942368152
1.0,16.0,0.4,NaN,0.0,NaN,83.837917826
1.0,16.0,0.5,NaN,0.0,NaN,87.993304269
1.0,16.0,0.6,NaN,0.0,NaN,74.099436527
1.0,32.0,0.2,NaN,0.0,NaN,84.671582269
1.0,32.0,0.6,NaN,0.0,NaN,83.920757577
1.0,32.0,0.5,NaN,0.0,NaN,84.344998623
1.0,64.0,0.2,NaN,0.0,NaN,84.21479627
1.0,64.0,0.4,NaN,0.0,NaN,83.906000776
1.0,32.0,1.0,NaN,0.0,NaN,83.946845264
1.0,64.0,0.1,NaN,0.0,NaN,84.636566377
1.0,64.0,0.9,NaN,0.0,NaN,84.316510981
1.0,64.0,0.8,NaN,0.0,NaN,84.473594922
1.0,32.0,0.4,NaN,0.0,NaN,84.933159927
1.0,128.0,0.4,NaN,0.0,NaN,84.764710659
1.0,64.0,0.5,NaN,0.0,NaN,84.018617055
1.0,32.0,0.9,NaN,0.0,NaN,84.019528153
1.0,32.0,0.8,NaN,0.0,NaN,84.582768508
1.0,128.0,0.05,NaN,0.0,NaN,83.832830382
1.0,128.0,0.1,NaN,0.0,NaN,83.714862383
1.0,64.0,0.6,NaN,0.0,NaN,83.941991987
1.0,16.0,0.7,NaN,0.0,NaN,74.011037079
1.0,128.0,0.5,NaN,0.0,NaN,84.486087649
1.0,64.0,0.3,NaN,0.0,NaN,84.618791058
1.0,128.0,1.0,NaN,0.0,NaN,84.087102194
1.0,128.0,0.2,NaN,0.0,NaN,83.93284066
1.0,128.0,0.7,NaN,0.0,NaN,83.926148484
1.0,128.0,0.8,NaN,0.0,NaN,83.781275997
1.0,64.0,1.0,NaN,0.0,NaN,84.674984944
1.0,256.0,0.1,NaN,0.0,NaN,84.10525771
1.0,16.0,0.8,NaN,0.0,NaN,73.95186949
1.0,128.0,0.6,NaN,0.0,NaN,84.546970905
1.0,256.0,0.05,NaN,0.0,NaN,84.775455893
1.0,16.0,0.9,NaN,0.0,NaN,74.012149874
1.0,16.0,1.0,NaN,0.0,NaN,74.120161933
1.0,32.0,0.05,NaN,0.0,NaN,73.932890953
1.0,32.0,0.1,NaN,0.0,NaN,73.857703112
1.0,32.0,0.3,NaN,0.0,NaN,73.988484038
1.0,32.0,0.7,NaN,0.0,NaN,73.895760706
1.0,64.0,0.05,NaN,0.0,NaN,73.998181436
1.0,64.0,0.7,NaN,0.0,NaN,73.939963165
1.0,128.0,0.3,NaN,0.0,NaN,74.159558097
1.0,128.0,0.9,NaN,0.0,NaN,74.656273259
1.0,256.0,0.2,NaN,0.0,NaN,73.942929548
1.0,256.0,0.3,NaN,0.0,NaN,88.20545364
1.0,256.0,0.4,NaN,0.0,NaN,88.48118935
1.0,256.0,0.5,NaN,0.0,NaN,87.852496307
1.0,256.0,0.6,NaN,0.0,NaN,84.854610509
1.0,256.0,0.7,NaN,0.0,NaN,84.597221106
1.0,512.0,0.3,NaN,0.0,NaN,83.970757876
2.0,0.0625,0.7,NaN,NaN,NaN,72.725199269
1.0,512.0,0.4,NaN,0.0,NaN,84.069799449
1.0,256.0,0.8,NaN,0.0,NaN,84.619062371
2.0,0.0625,0.4,NaN,NaN,NaN,83.965525734
1.0,512.0,0.8,NaN,0.0,NaN,83.938350464
2.0,0.0625,0.2,NaN,NaN,NaN,83.92170828
1.0,512.0,0.9,NaN,0.0,NaN,84.177179797
1.0,512.0,0.6,NaN,0.0,NaN,84.070261422
1.0,512.0,0.05,NaN,0.0,NaN,84.78304049
2.0,0.125,0.3,NaN,NaN,NaN,72.805425315
2.0,0.125,0.05,NaN,NaN,NaN,83.906808063
2.0,0.0625,0.3,NaN,NaN,NaN,84.144955891
2.0,0.0625,0.9,NaN,NaN,NaN,83.999367127
1.0,256.0,0.9,NaN,0.0,NaN,84.661908784
2.0,0.125,0.6,NaN,NaN,NaN,83.890285414
2.0,0.0625,0.05,NaN,NaN,NaN,83.767057094
1.0,512.0,0.2,NaN,0.0,NaN,84.537011448
1.0,256.0,1.0,NaN,0.0,NaN,84.612948286
2.0,0.0625,0.6,NaN,NaN,NaN,83.996650009
2.0,0.0625,1.0,NaN,NaN,NaN,84.487738337
2.0,0.125,0.2,NaN,NaN,NaN,83.711861876
1.0,512.0,0.7,NaN,0.0,NaN,84.731627536
1.0,512.0,0.1,NaN,0.0,NaN,84.633923722
2.0,0.0625,0.1,NaN,NaN,NaN,84.470059525
1.0,512.0,0.5,NaN,0.0,NaN,84.615623026
2.0,0.125,0.5,NaN,NaN,NaN,84.357397107
2.0,0.0625,0.8,NaN,NaN,NaN,84.408521189
2.0,0.125,0.4,NaN,NaN,NaN,84.456661962
2.0,0.125,0.8,NaN,NaN,NaN,84.438951554
1.0,512.0,1.0,NaN,0.0,NaN,85.055619744
2.0,0.0625,0.5,NaN,NaN,NaN,84.529757876
2.0,0.125,0.1,NaN,NaN,NaN,84.507047795
2.0,0.125,0.7,NaN,NaN,NaN,84.545178698
2.0,0.125,0.9,NaN,NaN,NaN,87.922437635
2.0,0.125,1.0,NaN,NaN,NaN,88.419237392
2.0,0.25,1.0,NaN,NaN,NaN,84.541846991
2.0,0.25,0.6,NaN,NaN,NaN,84.596861601
2.0,1.0,0.3,NaN,0.0,NaN,84.29915301
2.0,1.0,0.7,NaN,0.0,NaN,84.469661786
2.0,0.25,0.8,NaN,NaN,NaN,84.369012916
2.0,0.25,0.7,NaN,NaN,NaN,84.370469495
2.0,0.5,0.1,NaN,0.0,NaN,84.371901997
2.0,0.25,0.9,NaN,NaN,NaN,84.509892082
2.0,0.5,0.3,NaN,0.0,NaN,84.165323303
2.0,0.5,0.2,NaN,0.0,NaN,84.342323583
2.0,0.5,0.05,NaN,0.0,NaN,84.384080272
2.0,0.5,0.5,NaN,0.0,NaN,84.586971253
2.0,0.5,0.7,NaN,0.0,NaN,84.275300798
2.0,0.5,0.4,NaN,0.0,NaN,84.347272916
2.0,0.5,0.9,NaN,0.0,NaN,84.347104665
2.0,1.0,0.2,NaN,0.0,NaN,84.335594591
2.0,1.0,0.05,NaN,0.0,NaN,84.44810043
2.0,1.0,0.5,NaN,0.0,NaN,84.373538309
2.0,1.0,0.9,NaN,0.0,NaN,84.355650105
2.0,0.5,1.0,NaN,0.0,NaN,84.365044569
2.0,1.0,0.8,NaN,0.0,NaN,84.579032629
2.0,0.5,0.6,NaN,0.0,NaN,84.405590676
2.0,0.5,0.8,NaN,0.0,NaN,84.301170828
2.0,1.0,0.4,NaN,0.0,NaN,84.437024813
2.0,1.0,0.6,NaN,0.0,NaN,84.349119538
2.0,1.0,0.1,NaN,0.0,NaN,84.413549416
2.0,0.25,0.2,NaN,NaN,NaN,87.793933134
2.0,0.25,0.3,NaN,NaN,NaN,87.377711796
2.0,0.25,0.5,NaN,NaN,NaN,87.597726949
2.0,0.25,0.05,NaN,NaN,NaN,87.881908381
2.0,0.25,0.4,NaN,NaN,NaN,87.42926021
2.0,0.25,0.1,NaN,NaN,NaN,89.214607187
2.0,1.0,1.0,NaN,0.0,NaN,86.90587011
2.0,2.0,0.05,NaN,0.0,NaN,87.152145714
2.0,2.0,0.1,NaN,0.0,NaN,87.103348465
2.0,2.0,0.2,NaN,0.0,NaN,87.833849563
2.0,2.0,0.3,NaN,0.0,NaN,87.016353203
2.0,2.0,0.6,NaN,0.0,NaN,87.069750598
2.0,2.0,0.4,NaN,0.0,NaN,87.385499393
2.0,2.0,0.5,NaN,0.0,NaN,87.608745866
2.0,2.0,0.8,NaN,0.0,NaN,87.663556745
2.0,2.0,0.7,NaN,0.0,NaN,87.650695732
2.0,8.0,0.1,NaN,0.0,NaN,84.352332704
2.0,8.0,0.05,NaN,0.0,NaN,84.207536643
2.0,8.0,0.2,NaN,0.0,NaN,84.117896639
2.0,2.0,0.9,NaN,0.0,NaN,88.148321275
2.0,2.0,1.0,NaN,0.0,NaN,88.341852512
2.0,4.0,0.05,NaN,0.0,NaN,87.466259054
2.0,4.0,0.1,NaN,0.0,NaN,88.212373377
2.0,4.0,0.2,NaN,0.0,NaN,87.924580925
2.0,4.0,0.3,NaN,0.0,NaN,87.349700733
2.0,4.0,0.4,NaN,0.0,NaN,87.433911004
2.0,4.0,0.5,NaN,0.0,NaN,87.378860656
2.0,4.0,0.6,NaN,0.0,NaN,87.255406188
2.0,4.0,0.7,NaN,0.0,NaN,87.625202051
2.0,4.0,1.0,NaN,0.0,NaN,87.386367052
2.0,4.0,0.8,NaN,0.0,NaN,87.574579313
2.0,4.0,0.9,NaN,0.0,NaN,87.735463675
2.0,8.0,0.3,NaN,0.0,NaN,88.046450771
2.0,16.0,0.5,NaN,0.0,NaN,84.217965979
2.0,32.0,0.1,NaN,0.0,NaN,84.445373927
2.0,16.0,0.05,NaN,0.0,NaN,84.859064028
2.0,32.0,0.05,NaN,0.0,NaN,84.35936831
2.0,16.0,0.9,NaN,0.0,NaN,84.410048478
2.0,16.0,1.0,NaN,0.0,NaN,84.221143514
2.0,32.0,0.7,NaN,0.0,NaN,84.287959892
2.0,16.0,0.2,NaN,0.0,NaN,84.790964374
2.0,32.0,0.8,NaN,0.0,NaN,84.076193027
2.0,16.0,0.3,NaN,0.0,NaN,84.554311781
2.0,16.0,0.7,NaN,0.0,NaN,84.271121558
2.0,32.0,0.5,NaN,0.0,NaN,84.609502429
2.0,16.0,0.6,NaN,0.0,NaN,84.409070781
2.0,64.0,0.4,NaN,0.0,NaN,84.116464539
2.0,32.0,0.6,NaN,0.0,NaN,84.227578354
2.0,64.0,0.1,NaN,0.0,NaN,84.371694065
2.0,64.0,0.3,NaN,0.0,NaN,84.33549365
2.0,64.0,0.9,NaN,0.0,NaN,84.578168167
2.0,64.0,0.2,NaN,0.0,NaN,84.237020481
2.0,32.0,0.2,NaN,0.0,NaN,84.571392211
2.0,64.0,0.8,NaN,0.0,NaN,84.420642169
2.0,32.0,0.3,NaN,0.0,NaN,84.321405796
2.0,32.0,1.0,NaN,0.0,NaN,84.371544494
2.0,8.0,0.4,NaN,0.0,NaN,74.140567803
2.0,64.0,0.6,NaN,0.0,NaN,84.643848434
2.0,32.0,0.9,NaN,0.0,NaN,84.453113485
2.0,8.0,0.5,NaN,0.0,NaN,74.064534708
2.0,64.0,0.5,NaN,0.0,NaN,84.511392233
2.0,8.0,0.6,NaN,0.0,NaN,74.240450986
2.0,64.0,1.0,NaN,0.0,NaN,84.671472382
2.0,8.0,0.7,NaN,0.0,NaN,74.020342513
2.0,8.0,0.8,NaN,0.0,NaN,73.993024704
2.0,8.0,0.9,NaN,0.0,NaN,73.932014711
2.0,8.0,1.0,NaN,0.0,NaN,74.063186506
2.0,16.0,0.1,NaN,0.0,NaN,73.85851757
2.0,16.0,0.4,NaN,0.0,NaN,73.865000303
2.0,16.0,0.8,NaN,0.0,NaN,73.930280555
2.0,32.0,0.4,NaN,0.0,NaN,73.960224226
2.0,64.0,0.05,NaN,0.0,NaN,74.047033086
2.0,64.0,0.7,NaN,0.0,NaN,73.873664357
2.0,128.0,0.05,NaN,0.0,NaN,73.982274449
2.0,128.0,0.1,NaN,0.0,NaN,88.158380949
2.0,128.0,0.2,NaN,0.0,NaN,88.33363675
2.0,128.0,0.3,NaN,0.0,NaN,88.06123989
2.0,128.0,0.4,NaN,0.0,NaN,84.79148777
2.0,128.0,0.5,NaN,0.0,NaN,84.86495248
2.0,128.0,0.9,NaN,0.0,NaN,84.501068179
2.0,256.0,0.1,NaN,0.0,NaN,84.291664644
2.0,512.0,0.9,NaN,0.0,NaN,72.723663816
2.0,256.0,0.3,NaN,0.0,NaN,84.451186966
2.0,256.0,0.8,NaN,0.0,NaN,84.277617782
2.0,512.0,0.05,NaN,0.0,NaN,84.126294664
2.0,128.0,0.6,NaN,0.0,NaN,84.672855048
2.0,512.0,0.6,NaN,0.0,NaN,84.47639883
2.0,256.0,0.2,NaN,0.0,NaN,84.725802284
4.0,0.0625,0.4,NaN,NaN,NaN,73.092965257
2.0,256.0,0.05,NaN,0.0,NaN,84.614820938
2.0,128.0,0.7,NaN,0.0,NaN,84.553387286
4.0,0.0625,0.2,NaN,NaN,NaN,84.355027168
2.0,256.0,0.6,NaN,0.0,NaN,84.28207266
2.0,512.0,0.1,NaN,0.0,NaN,84.340740502
2.0,256.0,0.5,NaN,0.0,NaN,84.434609598
2.0,256.0,1.0,NaN,0.0,NaN,84.587623587
2.0,512.0,0.5,NaN,0.0,NaN,84.743723746
2.0,256.0,0.7,NaN,0.0,NaN,84.360252548
2.0,512.0,0.7,NaN,0.0,NaN,84.330684086
2.0,128.0,0.8,NaN,0.0,NaN,84.845372508
2.0,512.0,0.2,NaN,0.0,NaN,84.407839757
2.0,512.0,0.3,NaN,0.0,NaN,84.438340635
2.0,512.0,0.8,NaN,0.0,NaN,84.443842447
2.0,128.0,1.0,NaN,0.0,NaN,84.576616906
2.0,512.0,1.0,NaN,0.0,NaN,84.327534833
2.0,256.0,0.4,NaN,0.0,NaN,84.581843632
4.0,0.0625,0.3,NaN,NaN,NaN,84.318346349
4.0,0.0625,0.1,NaN,NaN,NaN,84.395351104
4.0,0.0625,0.6,NaN,NaN,NaN,84.655001789
2.0,256.0,0.9,NaN,0.0,NaN,84.569030569
2.0,512.0,0.4,NaN,0.0,NaN,84.541809412
4.0,0.0625,0.05,NaN,NaN,NaN,84.634815871
4.0,0.0625,0.5,NaN,NaN,NaN,84.559956048
4.0,0.0625,0.7,NaN,NaN,NaN,88.058644969
4.0,0.0625,0.8,NaN,NaN,NaN,87.962842567
4.0,0.0625,0.9,NaN,NaN,NaN,87.834745328
4.0,0.0625,1.0,NaN,NaN,NaN,87.832805833
4.0,0.125,0.05,NaN,NaN,NaN,84.506492359
4.0,0.125,0.2,NaN,NaN,NaN,84.435484022
4.0,0.125,0.3,NaN,NaN,NaN,84.512910659
4.0,0.125,0.1,NaN,NaN,NaN,84.349602576
4.0,0.5,0.1,NaN,0.0,NaN,84.383044659
4.0,0.5,0.05,NaN,0.0,NaN,84.162518246
4.0,0.125,0.6,NaN,NaN,NaN,84.408885143
4.0,0.125,1.0,NaN,NaN,NaN,84.464274405
4.0,0.125,0.7,NaN,NaN,NaN,84.470760205
4.0,0.125,0.4,NaN,NaN,NaN,84.374642918
4.0,0.125,0.8,NaN,NaN,NaN,84.481819342
4.0,0.125,0.5,NaN,NaN,NaN,84.398335903
4.0,0.25,0.05,NaN,NaN,NaN,84.379616472
4.0,0.25,0.4,NaN,NaN,NaN,84.193458954
4.0,0.25,0.3,NaN,NaN,NaN,84.28259359
4.0,0.125,0.9,NaN,NaN,NaN,84.59210608
4.0,0.25,0.7,NaN,NaN,NaN,84.494740371
4.0,0.25,0.1,NaN,NaN,NaN,84.704687498
4.0,0.25,0.2,NaN,NaN,NaN,84.413263222
4.0,0.5,0.2,NaN,0.0,NaN,84.307252381
4.0,0.5,0.3,NaN,0.0,NaN,84.277836033
4.0,0.25,0.6,NaN,NaN,NaN,84.42021452
4.0,0.25,0.8,NaN,NaN,NaN,84.186796812
4.0,0.25,0.5,NaN,NaN,NaN,84.361762422
4.0,0.25,0.9,NaN,NaN,NaN,84.406475501
4.0,0.25,1.0,NaN,NaN,NaN,84.360884557
4.0,0.5,0.6,NaN,0.0,NaN,87.745329348
4.0,0.5,0.5,NaN,0.0,NaN,88.30166293
4.0,0.5,0.7,NaN,0.0,NaN,88.477494682
4.0,0.5,0.4,NaN,0.0,NaN,87.871202094
4.0,0.5,0.8,NaN,0.0,NaN,87.305525027
4.0,0.5,0.9,NaN,0.0,NaN,87.419226435
4.0,0.5,1.0,NaN,0.0,NaN,87.832270258
4.0,1.0,0.5,NaN,0.0,NaN,87.838316174
4.0,1.0,0.2,NaN,0.0,NaN,87.533612269
4.0,1.0,0.05,NaN,0.0,NaN,87.888332682
4.0,1.0,0.1,NaN,0.0,NaN,87.890758874
4.0,1.0,0.3,NaN,0.0,NaN,87.839082694
4.0,1.0,0.4,NaN,0.0,NaN,87.98105814
4.0,1.0,0.6,NaN,0.0,NaN,87.546289224
4.0,1.0,0.7,NaN,0.0,NaN,87.74046362
4.0,2.0,0.9,NaN,0.0,NaN,84.326245957
4.0,1.0,0.9,NaN,0.0,NaN,87.452221818
4.0,2.0,0.8,NaN,0.0,NaN,84.181968299
4.0,1.0,0.8,NaN,0.0,NaN,87.545719886
4.0,2.0,1.0,NaN,0.0,NaN,84.02867776
4.0,1.0,1.0,NaN,0.0,NaN,86.952206944
4.0,2.0,0.05,NaN,0.0,NaN,87.489462704
4.0,2.0,0.1,NaN,0.0,NaN,87.415326941
4.0,2.0,0.2,NaN,0.0,NaN,88.31519357
4.0,2.0,0.3,NaN,0.0,NaN,91.803488485
4.0,2.0,0.5,NaN,0.0,NaN,87.514992469
4.0,2.0,0.4,NaN,0.0,NaN,87.773045278
4.0,2.0,0.6,NaN,0.0,NaN,87.024896721
4.0,2.0,0.7,NaN,0.0,NaN,87.251047154
4.0,4.0,0.05,NaN,0.0,NaN,87.836602402
4.0,4.0,0.1,NaN,0.0,NaN,87.514469093
4.0,8.0,0.2,NaN,0.0,NaN,84.484952923
4.0,8.0,0.6,NaN,0.0,NaN,84.288531422
4.0,8.0,0.7,NaN,0.0,NaN,84.280365708
4.0,8.0,0.9,NaN,0.0,NaN,84.085591545
4.0,8.0,0.1,NaN,0.0,NaN,84.419536326
4.0,4.0,0.8,NaN,0.0,NaN,84.395849205
4.0,16.0,0.05,NaN,0.0,NaN,84.434177116
4.0,16.0,0.2,NaN,0.0,NaN,84.418369519
4.0,8.0,0.5,NaN,0.0,NaN,84.404379253
4.0,16.0,0.3,NaN,0.0,NaN,84.326925838
4.0,16.0,0.7,NaN,0.0,NaN,84.363424602
4.0,16.0,0.9,NaN,0.0,NaN,84.363927924
4.0,8.0,0.3,NaN,0.0,NaN,84.565488834
4.0,16.0,0.5,NaN,0.0,NaN,84.514174977
4.0,16.0,0.1,NaN,0.0,NaN,84.462492837
4.0,4.0,1.0,NaN,0.0,NaN,84.43667705
4.0,16.0,1.0,NaN,0.0,NaN,84.301153078
4.0,32.0,0.1,NaN,0.0,NaN,84.427538446
4.0,16.0,0.8,NaN,0.0,NaN,84.301042091
4.0,8.0,0.8,NaN,0.0,NaN,84.491651405
4.0,32.0,0.5,NaN,0.0,NaN,84.498686914
4.0,32.0,0.3,NaN,0.0,NaN,84.351368217
4.0,16.0,0.4,NaN,0.0,NaN,84.583472717
4.0,32.0,0.7,NaN,0.0,NaN,84.391128776
4.0,32.0,0.4,NaN,0.0,NaN,84.691325466
4.0,32.0,0.05,NaN,0.0,NaN,84.415915071
4.0,4.0,0.2,NaN,0.0,NaN,74.140486863
4.0,32.0,0.6,NaN,0.0,NaN,84.557852351
4.0,4.0,0.3,NaN,0.0,NaN,73.984860447
4.0,4.0,0.5,NaN,0.0,NaN,74.092702684
4.0,4.0,0.6,NaN,0.0,NaN,74.234966149
4.0,4.0,0.4,NaN,0.0,NaN,73.932336119
4.0,4.0,0.7,NaN,0.0,NaN,74.579857035
4.0,4.0,0.9,NaN,0.0,NaN,73.872603347
4.0,8.0,0.05,NaN,0.0,NaN,73.933330501
4.0,8.0,0.4,NaN,0.0,NaN,73.860581207
4.0,8.0,1.0,NaN,0.0,NaN,73.930851339
4.0,16.0,0.6,NaN,0.0,NaN,73.873196252
4.0,32.0,0.2,NaN,0.0,NaN,73.900485929
4.0,32.0,0.8,NaN,0.0,NaN,73.942570432
4.0,32.0,0.9,NaN,0.0,NaN,73.946117916
4.0,64.0,0.05,NaN,0.0,NaN,88.086614464
4.0,32.0,1.0,NaN,0.0,NaN,88.126642264
4.0,64.0,0.1,NaN,0.0,NaN,87.88586522
4.0,64.0,1.0,NaN,0.0,NaN,84.461248249
4.0,128.0,0.05,NaN,0.0,NaN,84.559609108
4.0,256.0,0.9,NaN,0.0,NaN,72.672280813
4.0,128.0,0.5,NaN,0.0,NaN,84.433770967
4.0,64.0,0.6,NaN,0.0,NaN,84.514520433
4.0,64.0,0.2,NaN,0.0,NaN,84.784800157
4.0,512.0,0.3,NaN,0.0,NaN,72.89420089
4.0,128.0,0.9,NaN,0.0,NaN,84.139676519
4.0,128.0,0.4,NaN,0.0,NaN,84.347568131
4.0,256.0,0.05,NaN,0.0,NaN,84.359616735
4.0,128.0,0.1,NaN,0.0,NaN,84.369098233
4.0,128.0,1.0,NaN,0.0,NaN,84.617949997
4.0,256.0,0.6,NaN,0.0,NaN,84.496616996
4.0,64.0,0.3,NaN,0.0,NaN,84.769368542
4.0,256.0,0.4,NaN,0.0,NaN,84.236505102
4.0,64.0,0.8,NaN,0.0,NaN,84.580870279
4.0,512.0,0.05,NaN,0.0,NaN,84.54037643
4.0,128.0,0.6,NaN,0.0,NaN,84.335366301
4.0,64.0,0.4,NaN,0.0,NaN,84.666563248
4.0,256.0,0.5,NaN,0.0,NaN,84.512399465
4.0,128.0,0.2,NaN,0.0,NaN,84.506206829
4.0,512.0,0.1,NaN,0.0,NaN,84.717227818
4.0,256.0,0.2,NaN,0.0,NaN,84.613533675
4.0,128.0,0.7,NaN,0.0,NaN,84.625867592
4.0,256.0,0.1,NaN,0.0,NaN,84.447570604
4.0,64.0,0.5,NaN,0.0,NaN,84.625400013
4.0,256.0,0.7,NaN,0.0,NaN,84.623956829
4.0,64.0,0.7,NaN,0.0,NaN,84.736099147
4.0,256.0,0.8,NaN,0.0,NaN,84.46483629
4.0,64.0,0.9,NaN,0.0,NaN,84.666654812
4.0,128.0,0.3,NaN,0.0,NaN,84.540849875
4.0,512.0,0.2,NaN,0.0,NaN,84.404507189
4.0,256.0,0.3,NaN,0.0,NaN,84.604107639
4.0,128.0,0.8,NaN,0.0,NaN,84.52291268
4.0,256.0,1.0,NaN,0.0,NaN,84.610946827
4.0,512.0,0.4,NaN,0.0,NaN,84.682609782
4.0,512.0,0.5,NaN,0.0,NaN,88.009190907
4.0,512.0,0.6,NaN,0.0,NaN,87.998496868
4.0,512.0,0.7,NaN,0.0,NaN,87.508496039
4.0,512.0,0.8,NaN,0.0,NaN,84.73217618
8.0,0.0625,0.05,NaN,NaN,NaN,84.259345625
8.0,0.0625,0.4,NaN,NaN,NaN,84.598127771
8.0,0.125,0.8,NaN,NaN,NaN,84.417558842
4.0,512.0,0.9,NaN,0.0,NaN,84.447563258
4.0,512.0,1.0,NaN,0.0,NaN,84.492455977
8.0,0.125,1.0,NaN,NaN,NaN,84.324715955
8.0,0.0625,0.2,NaN,NaN,NaN,84.44794444
8.0,0.0625,0.3,NaN,NaN,NaN,84.358805536
8.0,0.0625,0.8,NaN,NaN,NaN,84.403043955
8.0,0.125,0.1,NaN,NaN,NaN,84.172762165
8.0,0.0625,0.7,NaN,NaN,NaN,84.256566531
8.0,0.0625,0.6,NaN,NaN,NaN,84.386223785
8.0,0.125,0.05,NaN,NaN,NaN,84.361070277
8.0,0.0625,0.1,NaN,NaN,NaN,84.578904692
8.0,0.0625,0.5,NaN,NaN,NaN,84.385919009
8.0,0.0625,1.0,NaN,NaN,NaN,84.547666818
8.0,0.125,0.3,NaN,NaN,NaN,84.421750852
8.0,0.125,0.4,NaN,NaN,NaN,84.358535402
8.0,0.125,0.5,NaN,NaN,NaN,84.411119486
8.0,0.125,0.9,NaN,NaN,NaN,84.469265299
8.0,0.0625,0.9,NaN,NaN,NaN,84.486437544
8.0,0.25,0.05,NaN,NaN,NaN,84.130748013
8.0,0.125,0.7,NaN,NaN,NaN,84.3777801
8.0,0.125,0.2,NaN,NaN,NaN,84.503613073
8.0,0.125,0.6,NaN,NaN,NaN,84.478100417
8.0,0.25,0.1,NaN,NaN,NaN,87.177413038
8.0,0.25,0.2,NaN,NaN,NaN,87.519652944
8.0,0.25,0.5,NaN,NaN,NaN,87.384837593
8.0,0.25,0.3,NaN,NaN,NaN,87.290099542
8.0,0.25,0.4,NaN,NaN,NaN,87.368929532
8.0,0.25,0.9,NaN,NaN,NaN,87.623335654
8.0,0.25,0.7,NaN,NaN,NaN,89.480790001
8.0,0.25,0.8,NaN,NaN,NaN,87.207542673
8.0,0.25,0.6,NaN,NaN,NaN,87.688386323
8.0,0.25,1.0,NaN,NaN,NaN,87.824659932
8.0,0.5,0.05,NaN,0.0,NaN,88.190560542
8.0,0.5,0.1,NaN,0.0,NaN,88.221199868
8.0,1.0,0.5,NaN,0.0,NaN,84.425800553
8.0,1.0,0.6,NaN,0.0,NaN,84.259385505
8.0,1.0,0.7,NaN,0.0,NaN,84.352886869
8.0,0.5,0.2,NaN,0.0,NaN,87.940415472
8.0,0.5,0.4,NaN,0.0,NaN,88.204477014
8.0,0.5,0.3,NaN,0.0,NaN,87.825227401
8.0,0.5,0.6,NaN,0.0,NaN,87.789254958
8.0,0.5,0.7,NaN,0.0,NaN,87.942140186
8.0,0.5,0.5,NaN,0.0,NaN,88.600346148
8.0,0.5,0.8,NaN,0.0,NaN,87.701492358
8.0,0.5,0.9,NaN,0.0,NaN,87.940098372
8.0,0.5,1.0,NaN,0.0,NaN,87.997756987
8.0,1.0,0.05,NaN,0.0,NaN,88.629020036
8.0,1.0,0.2,NaN,0.0,NaN,88.274127714
8.0,1.0,0.1,NaN,0.0,NaN,87.837768487
8.0,1.0,0.3,NaN,0.0,NaN,87.847888256
8.0,1.0,0.4,NaN,0.0,NaN,87.911320467
8.0,1.0,0.8,NaN,0.0,NaN,88.058251292
8.0,4.0,0.9,NaN,0.0,NaN,84.395556539
8.0,1.0,0.9,NaN,0.0,NaN,87.514485379
8.0,2.0,1.0,NaN,0.0,NaN,84.324804112
8.0,4.0,0.7,NaN,0.0,NaN,84.681007008
8.0,1.0,1.0,NaN,0.0,NaN,87.371865187
8.0,4.0,0.1,NaN,0.0,NaN,84.289293464
8.0,8.0,0.05,NaN,0.0,NaN,84.382976774
8.0,4.0,0.5,NaN,0.0,NaN,84.499586527
8.0,4.0,0.3,NaN,0.0,NaN,84.464777236
8.0,4.0,1.0,NaN,0.0,NaN,84.246064086
8.0,4.0,0.4,NaN,0.0,NaN,84.42296247
8.0,8.0,0.1,NaN,0.0,NaN,84.130734065
8.0,8.0,0.3,NaN,0.0,NaN,84.310491839
8.0,8.0,0.5,NaN,0.0,NaN,84.470588919
8.0,2.0,0.7,NaN,0.0,NaN,84.456798605
8.0,16.0,0.1,NaN,0.0,NaN,84.36044188
8.0,8.0,0.7,NaN,0.0,NaN,84.407601152
8.0,8.0,0.8,NaN,0.0,NaN,84.093314418
8.0,8.0,1.0,NaN,0.0,NaN,84.458008386
8.0,16.0,0.3,NaN,0.0,NaN,84.974235496
8.0,8.0,0.6,NaN,0.0,NaN,84.381928804
8.0,16.0,0.4,NaN,0.0,NaN,84.379539622
8.0,2.0,0.9,NaN,0.0,NaN,84.426222169
8.0,16.0,0.2,NaN,0.0,NaN,84.498716053
8.0,4.0,0.2,NaN,0.0,NaN,84.581044165
8.0,4.0,0.8,NaN,0.0,NaN,84.452908059
8.0,8.0,0.4,NaN,0.0,NaN,84.488022331
8.0,16.0,0.6,NaN,0.0,NaN,84.386179564
8.0,16.0,0.05,NaN,0.0,NaN,84.503724904
8.0,2.0,0.05,NaN,0.0,NaN,74.173641367
8.0,2.0,0.1,NaN,0.0,NaN,73.969473083
8.0,2.0,0.2,NaN,0.0,NaN,73.906193691
8.0,2.0,0.4,NaN,0.0,NaN,73.964090742
8.0,2.0,0.3,NaN,0.0,NaN,73.983311534
8.0,2.0,0.5,NaN,0.0,NaN,74.033419811
8.0,2.0,0.6,NaN,0.0,NaN,73.927992356
8.0,2.0,0.8,NaN,0.0,NaN,73.888408708
8.0,4.0,0.05,NaN,0.0,NaN,74.068037868
8.0,4.0,0.6,NaN,0.0,NaN,73.878890238
8.0,8.0,0.2,NaN,0.0,NaN,74.215070155
8.0,8.0,0.9,NaN,0.0,NaN,74.037047754
8.0,16.0,0.5,NaN,0.0,NaN,73.867837938
8.0,16.0,0.7,NaN,0.0,NaN,73.878249955
8.0,16.0,0.8,NaN,0.0,NaN,87.925772636
8.0,16.0,0.9,NaN,0.0,NaN,88.135013985
8.0,16.0,1.0,NaN,0.0,NaN,88.133612393
8.0,32.0,0.05,NaN,0.0,NaN,84.712798513
8.0,32.0,0.1,NaN,0.0,NaN,84.713783803
8.0,32.0,0.4,NaN,0.0,NaN,84.391139833
8.0,32.0,0.8,NaN,0.0,NaN,84.309036031
8.0,32.0,0.6,NaN,0.0,NaN,84.249164808
8.0,32.0,1.0,NaN,0.0,NaN,84.287289707
8.0,32.0,0.9,NaN,0.0,NaN,84.683018369
8.0,128.0,0.5,NaN,0.0,NaN,72.737858474
8.0,64.0,0.3,NaN,0.0,NaN,84.441194067
8.0,64.0,0.05,NaN,0.0,NaN,84.6739641
8.0,64.0,0.6,NaN,0.0,NaN,84.378602764
8.0,32.0,0.2,NaN,0.0,NaN,84.613421012
8.0,64.0,0.2,NaN,0.0,NaN,84.44704581
8.0,64.0,0.4,NaN,0.0,NaN,84.581257859
8.0,64.0,0.9,NaN,0.0,NaN,84.34027602
8.0,32.0,0.3,NaN,0.0,NaN,84.655540329
8.0,64.0,0.8,NaN,0.0,NaN,84.512868281
8.0,128.0,0.1,NaN,0.0,NaN,84.435660352
8.0,128.0,0.4,NaN,0.0,NaN,84.174343354
8.0,64.0,0.5,NaN,0.0,NaN,84.342565935
8.0,128.0,0.05,NaN,0.0,NaN,84.329963235
8.0,256.0,0.05,NaN,0.0,NaN,72.790503585
8.0,64.0,1.0,NaN,0.0,NaN,84.322320932
8.0,128.0,0.8,NaN,0.0,NaN,84.38445557
8.0,128.0,0.3,NaN,0.0,NaN,84.387730708
8.0,32.0,0.5,NaN,0.0,NaN,84.531521948
8.0,32.0,0.7,NaN,0.0,NaN,84.612093063
8.0,128.0,1.0,NaN,0.0,NaN,84.284978344
8.0,64.0,0.1,NaN,0.0,NaN,84.754411779
8.0,128.0,0.6,NaN,0.0,NaN,84.277597306
8.0,128.0,0.7,NaN,0.0,NaN,84.376970179
8.0,256.0,0.1,NaN,0.0,NaN,84.318384909
8.0,64.0,0.7,NaN,0.0,NaN,84.478004035
8.0,128.0,0.2,NaN,0.0,NaN,84.51948686
8.0,128.0,0.9,NaN,0.0,NaN,84.820144045
8.0,256.0,0.2,NaN,0.0,NaN,85.071515349
8.0,256.0,0.3,NaN,0.0,NaN,87.85328504
8.0,256.0,0.4,NaN,0.0,NaN,88.327952526
16.0,0.0625,0.6,NaN,NaN,NaN,84.461237225
16.0,0.0625,0.8,NaN,NaN,NaN,84.306135649
8.0,256.0,0.7,NaN,0.0,NaN,84.319734952
8.0,256.0,0.5,NaN,0.0,NaN,84.570616459
8.0,256.0,0.6,NaN,0.0,NaN,84.461797477
8.0,512.0,0.1,NaN,0.0,NaN,84.455977128
8.0,256.0,1.0,NaN,0.0,NaN,84.372046076
8.0,256.0,0.8,NaN,0.0,NaN,84.314533112
8.0,512.0,0.4,NaN,0.0,NaN,84.408629394
8.0,512.0,0.05,NaN,0.0,NaN,84.747479488
8.0,256.0,0.9,NaN,0.0,NaN,84.279188767
8.0,512.0,0.5,NaN,0.0,NaN,84.252512054
8.0,512.0,0.9,NaN,0.0,NaN,84.3702107
8.0,512.0,0.2,NaN,0.0,NaN,84.416883029
8.0,512.0,0.8,NaN,0.0,NaN,84.603426776
8.0,512.0,0.6,NaN,0.0,NaN,84.451355154
8.0,512.0,0.3,NaN,0.0,NaN,84.385070565
16.0,0.0625,0.2,NaN,NaN,NaN,84.526428215
16.0,0.0625,0.7,NaN,NaN,NaN,84.229751208
16.0,0.0625,0.5,NaN,NaN,NaN,84.455230282
16.0,0.0625,0.1,NaN,NaN,NaN,84.389763747
16.0,0.0625,0.3,NaN,NaN,NaN,84.316315449
8.0,512.0,1.0,NaN,0.0,NaN,84.423744909
8.0,512.0,0.7,NaN,0.0,NaN,84.363966842
16.0,0.0625,0.05,NaN,NaN,NaN,84.38296561
16.0,0.0625,0.4,NaN,NaN,NaN,84.322436171
16.0,0.0625,0.9,NaN,NaN,NaN,88.512519821
16.0,0.0625,1.0,NaN,NaN,NaN,87.861945506
16.0,0.125,0.3,NaN,NaN,NaN,87.762729459
16.0,0.125,0.2,NaN,NaN,NaN,87.831130892
16.0,0.125,0.1,NaN,NaN,NaN,87.379940429
16.0,0.125,0.05,NaN,NaN,NaN,87.177540634
16.0,0.125,0.4,NaN,NaN,NaN,87.510625682
16.0,0.125,0.5,NaN,NaN,NaN,87.157774159
16.0,0.125,0.6,NaN,NaN,NaN,87.252253516
16.0,0.125,0.8,NaN,NaN,NaN,87.243077963
16.0,0.125,0.7,NaN,NaN,NaN,87.413100299
16.0,0.25,0.8,NaN,NaN,NaN,84.259245917
16.0,0.25,0.7,NaN,NaN,NaN,84.198767573
16.0,0.25,0.9,NaN,NaN,NaN,84.293151585
16.0,0.125,0.9,NaN,NaN,NaN,87.378790522
16.0,0.125,1.0,NaN,NaN,NaN,87.412701139
16.0,0.25,0.05,NaN,NaN,NaN,87.866050933
16.0,0.25,0.1,NaN,NaN,NaN,88.017543629
16.0,0.25,0.2,NaN,NaN,NaN,87.179455307
16.0,0.25,0.3,NaN,NaN,NaN,88.550286801
16.0,0.25,0.4,NaN,NaN,NaN,87.681815658
16.0,0.25,0.5,NaN,NaN,NaN,87.378749673
16.0,0.25,0.6,NaN,NaN,NaN,87.29483613
16.0,0.25,1.0,NaN,NaN,NaN,88.197025083
16.0,0.5,0.05,NaN,0.0,NaN,88.060294515
16.0,0.5,0.1,NaN,0.0,NaN,87.817184783
16.0,2.0,0.3,NaN,0.0,NaN,84.376939087
16.0,2.0,0.2,NaN,0.0,NaN,84.462786035
16.0,0.5,0.2,NaN,0.0,NaN,88.429568644
16.0,1.0,0.5,NaN,0.0,NaN,84.491886498
16.0,2.0,0.8,NaN,0.0,NaN,84.459253843
16.0,2.0,0.05,NaN,0.0,NaN,84.474508939
16.0,2.0,1.0,NaN,0.0,NaN,84.385430264
16.0,1.0,0.8,NaN,0.0,NaN,84.777812028
16.0,2.0,0.9,NaN,0.0,NaN,84.444620181
16.0,2.0,0.1,NaN,0.0,NaN,84.377483122
16.0,4.0,0.5,NaN,0.0,NaN,84.43380889
16.0,4.0,0.4,NaN,0.0,NaN,84.409683798
16.0,4.0,0.6,NaN,0.0,NaN,84.189492596
16.0,1.0,0.7,NaN,0.0,NaN,84.987450899
16.0,8.0,0.05,NaN,0.0,NaN,84.743774316
16.0,0.5,0.3,NaN,0.0,NaN,88.11998057
16.0,2.0,0.6,NaN,0.0,NaN,84.331421171
16.0,4.0,0.2,NaN,0.0,NaN,84.382549946
16.0,8.0,0.2,NaN,0.0,NaN,84.285658743
16.0,1.0,1.0,NaN,0.0,NaN,84.462267734
16.0,8.0,0.1,NaN,0.0,NaN,84.382352561
16.0,2.0,0.5,NaN,0.0,NaN,84.490867776
16.0,0.5,0.4,NaN,0.0,NaN,87.934796244
16.0,0.5,0.5,NaN,0.0,NaN,88.046781966
16.0,0.5,0.9,NaN,0.0,NaN,74.036570851
16.0,4.0,0.9,NaN,0.0,NaN,84.159106773
16.0,2.0,0.7,NaN,0.0,NaN,84.452341706
16.0,4.0,0.3,NaN,0.0,NaN,84.367249807
16.0,0.5,0.6,NaN,0.0,NaN,88.414583032
16.0,4.0,0.1,NaN,0.0,NaN,84.622704476
16.0,0.5,1.0,NaN,0.0,NaN,73.944430062
16.0,4.0,0.8,NaN,0.0,NaN,84.552988518
16.0,1.0,0.05,NaN,0.0,NaN,74.092764547
16.0,4.0,1.0,NaN,0.0,NaN,84.430149808
16.0,1.0,0.1,NaN,0.0,NaN,73.954837144
16.0,8.0,0.4,NaN,0.0,NaN,84.413911878
16.0,0.5,0.7,NaN,0.0,NaN,88.086841793
16.0,0.5,0.8,NaN,0.0,NaN,88.201876727
16.0,1.0,0.2,NaN,0.0,NaN,74.425423873
16.0,1.0,0.3,NaN,0.0,NaN,73.895702931
16.0,1.0,0.4,NaN,0.0,NaN,73.954003766
16.0,1.0,0.6,NaN,0.0,NaN,73.879951339
16.0,1.0,0.9,NaN,0.0,NaN,73.858874771
16.0,2.0,0.4,NaN,0.0,NaN,73.950218346
16.0,4.0,0.7,NaN,0.0,NaN,74.002312829
16.0,4.0,0.05,NaN,0.0,NaN,74.536204614
16.0,8.0,0.3,NaN,0.0,NaN,74.034888308
16.0,8.0,0.5,NaN,0.0,NaN,73.924595206
16.0,8.0,0.8,NaN,0.0,NaN,88.21279249
16.0,8.0,0.7,NaN,0.0,NaN,87.888544942
16.0,8.0,0.6,NaN,0.0,NaN,88.235176347
16.0,16.0,0.8,NaN,0.0,NaN,84.555893104
16.0,16.0,0.2,NaN,0.0,NaN,84.686203198
16.0,8.0,0.9,NaN,0.0,NaN,84.609533332
16.0,16.0,0.7,NaN,0.0,NaN,84.876569587
16.0,16.0,0.5,NaN,0.0,NaN,84.630941396
16.0,8.0,1.0,NaN,0.0,NaN,84.756409085
16.0,32.0,0.1,NaN,0.0,NaN,84.340996914
16.0,32.0,0.8,NaN,0.0,NaN,72.964963284
16.0,32.0,0.4,NaN,0.0,NaN,84.311590194
16.0,16.0,1.0,NaN,0.0,NaN,84.467605154
16.0,32.0,0.2,NaN,0.0,NaN,84.400645474
16.0,64.0,0.4,NaN,0.0,NaN,72.839075113
16.0,32.0,0.5,NaN,0.0,NaN,84.376074436
16.0,64.0,0.05,NaN,0.0,NaN,84.467134971
16.0,16.0,0.4,NaN,0.0,NaN,84.840019521
16.0,32.0,0.7,NaN,0.0,NaN,84.437614251
16.0,16.0,0.05,NaN,0.0,NaN,84.744187275
16.0,64.0,0.7,NaN,0.0,NaN,84.352657127
16.0,32.0,0.9,NaN,0.0,NaN,84.359964858
16.0,16.0,0.9,NaN,0.0,NaN,84.778895772
16.0,64.0,0.1,NaN,0.0,NaN,84.433824055
16.0,64.0,0.3,NaN,0.0,NaN,84.353807533
16.0,64.0,0.8,NaN,0.0,NaN,84.417988262
16.0,64.0,0.5,NaN,0.0,NaN,84.489845954
16.0,32.0,0.3,NaN,0.0,NaN,84.483266738
16.0,16.0,0.1,NaN,0.0,NaN,84.54964414
16.0,32.0,1.0,NaN,0.0,NaN,84.438256655
16.0,16.0,0.3,NaN,0.0,NaN,84.594252438
16.0,16.0,0.6,NaN,0.0,NaN,84.567987486
16.0,64.0,0.6,NaN,0.0,NaN,84.812472581
16.0,64.0,1.0,NaN,0.0,NaN,84.74858682
16.0,32.0,0.05,NaN,0.0,NaN,84.608830652
16.0,32.0,0.6,NaN,0.0,NaN,84.629858987
16.0,64.0,0.2,NaN,0.0,NaN,84.472842635
16.0,64.0,0.9,NaN,0.0,NaN,84.683641174
16.0,128.0,0.05,NaN,0.0,NaN,84.679567089
16.0,128.0,0.1,NaN,0.0,NaN,87.89999273
16.0,128.0,0.2,NaN,0.0,NaN,88.152163984
16.0,512.0,0.1,NaN,0.0,NaN,84.589718533
16.0,512.0,0.6,NaN,0.0,NaN,84.459633115
16.0,128.0,1.0,NaN,0.0,NaN,84.563193726
16.0,128.0,0.6,NaN,0.0,NaN,84.442308827
16.0,128.0,0.9,NaN,0.0,NaN,84.423186827
16.0,256.0,0.2,NaN,0.0,NaN,84.496177807
16.0,128.0,0.3,NaN,0.0,NaN,84.408901753
16.0,128.0,0.4,NaN,0.0,NaN,84.342352513
16.0,256.0,0.3,NaN,0.0,NaN,84.394961286
16.0,256.0,0.7,NaN,0.0,NaN,84.36211084
16.0,256.0,0.6,NaN,0.0,NaN,84.47808879
16.0,128.0,0.7,NaN,0.0,NaN,84.404052547
16.0,128.0,0.8,NaN,0.0,NaN,84.493017405
16.0,256.0,1.0,NaN,0.0,NaN,84.375137688
16.0,256.0,0.05,NaN,0.0,NaN,84.377863948
16.0,128.0,0.5,NaN,0.0,NaN,84.407716019
16.0,512.0,0.5,NaN,0.0,NaN,84.321694082
16.0,512.0,0.05,NaN,0.0,NaN,84.489823121
16.0,512.0,0.4,NaN,0.0,NaN,84.410753521
16.0,256.0,0.1,NaN,0.0,NaN,84.570398618
16.0,256.0,0.8,NaN,0.0,NaN,84.300784789
16.0,256.0,0.4,NaN,0.0,NaN,84.500207521
16.0,512.0,0.2,NaN,0.0,NaN,84.526670852
16.0,256.0,0.9,NaN,0.0,NaN,84.43806185
16.0,256.0,0.5,NaN,0.0,NaN,84.616754758
16.0,512.0,0.3,NaN,0.0,NaN,84.386876683
16.0,512.0,0.8,NaN,0.0,NaN,87.553329867
16.0,512.0,0.7,NaN,0.0,NaN,86.486386589
16.0,512.0,0.9,NaN,0.0,NaN,87.390980197
16.0,512.0,1.0,NaN,0.0,NaN,86.555217844
32.0,0.0625,0.05,NaN,NaN,NaN,87.266021416
32.0,0.0625,0.1,NaN,NaN,NaN,87.342737935
32.0,0.0625,0.2,NaN,NaN,NaN,86.449990932
32.0,0.0625,0.3,NaN,NaN,NaN,87.445872535
32.0,0.0625,0.4,NaN,NaN,NaN,87.367289611
32.0,0.125,0.5,NaN,NaN,NaN,84.299214444
32.0,0.125,0.4,NaN,NaN,NaN,84.081769008
32.0,0.125,0.6,NaN,NaN,NaN,84.197816389
32.0,0.0625,0.5,NaN,NaN,NaN,87.381522969
32.0,0.0625,0.9,NaN,NaN,NaN,88.189851174
32.0,0.0625,0.6,NaN,NaN,NaN,87.330856131
32.0,0.0625,0.8,NaN,NaN,NaN,87.863651393
32.0,0.0625,0.7,NaN,NaN,NaN,87.344831038
32.0,0.125,0.05,NaN,NaN,NaN,86.696902373
32.0,0.0625,1.0,NaN,NaN,NaN,87.203606762
32.0,0.125,0.1,NaN,NaN,NaN,88.221499799
32.0,0.125,0.2,NaN,NaN,NaN,86.539922393
32.0,0.125,0.3,NaN,NaN,NaN,87.365886356
32.0,0.125,0.7,NaN,NaN,NaN,88.119831055
32.0,0.125,0.8,NaN,NaN,NaN,87.286764822
32.0,0.25,0.5,NaN,NaN,NaN,84.498059884
32.0,0.5,0.4,NaN,0.0,NaN,84.42898655
32.0,0.5,0.05,NaN,0.0,NaN,84.236307612
32.0,0.25,0.8,NaN,NaN,NaN,84.39104308
32.0,0.5,0.3,NaN,0.0,NaN,85.115568175
32.0,1.0,0.05,NaN,0.0,NaN,84.269620124
32.0,0.5,0.6,NaN,0.0,NaN,84.30024243
32.0,0.5,1.0,NaN,0.0,NaN,84.437879121
32.0,0.25,0.7,NaN,NaN,NaN,84.884669815
32.0,1.0,0.6,NaN,0.0,NaN,84.373440248
32.0,0.5,0.9,NaN,0.0,NaN,84.431149561
32.0,0.5,0.1,NaN,0.0,NaN,84.387552829
32.0,1.0,0.7,NaN,0.0,NaN,84.454125884
32.0,1.0,0.2,NaN,0.0,NaN,84.509275752
32.0,1.0,0.5,NaN,0.0,NaN,84.253095923
32.0,0.25,1.0,NaN,NaN,NaN,84.585119693
32.0,2.0,0.2,NaN,0.0,NaN,84.50936943
32.0,2.0,0.1,NaN,0.0,NaN,84.282220609
32.0,2.0,0.3,NaN,0.0,NaN,84.130650214
32.0,0.5,0.7,NaN,0.0,NaN,84.241211692
32.0,1.0,0.9,NaN,0.0,NaN,84.292567763
32.0,0.125,0.9,NaN,NaN,NaN,74.058084603
32.0,0.5,0.5,NaN,0.0,NaN,84.488162527
32.0,1.0,0.3,NaN,0.0,NaN,84.670094356
32.0,1.0,0.1,NaN,0.0,NaN,84.529965009
32.0,0.125,1.0,NaN,NaN,NaN,74.120456645
32.0,1.0,1.0,NaN,0.0,NaN,84.360108701
32.0,0.25,0.05,NaN,NaN,NaN,73.936334284
32.0,1.0,0.8,NaN,0.0,NaN,84.549714811
32.0,2.0,0.4,NaN,0.0,NaN,84.526481573
32.0,0.25,0.1,NaN,NaN,NaN,73.986423816
32.0,0.25,0.2,NaN,NaN,NaN,73.909750424
32.0,0.25,0.3,NaN,NaN,NaN,73.934795479
32.0,0.25,0.4,NaN,NaN,NaN,74.316829597
32.0,0.25,0.6,NaN,NaN,NaN,73.907145885
32.0,0.25,0.9,NaN,NaN,NaN,73.975904481
32.0,0.5,0.2,NaN,0.0,NaN,73.822324147
32.0,0.5,0.8,NaN,0.0,NaN,73.916691621
32.0,1.0,0.4,NaN,0.0,NaN,73.993211971
32.0,2.0,0.05,NaN,0.0,NaN,73.897036712
32.0,2.0,0.5,NaN,0.0,NaN,73.932712346
32.0,2.0,0.6,NaN,0.0,NaN,88.071065339
32.0,2.0,0.7,NaN,0.0,NaN,88.248036619
32.0,2.0,0.8,NaN,0.0,NaN,88.071983421
32.0,8.0,0.3,NaN,0.0,NaN,84.567505323
32.0,8.0,0.05,NaN,0.0,NaN,84.735479893
32.0,8.0,0.5,NaN,0.0,NaN,84.362370815
32.0,8.0,0.7,NaN,0.0,NaN,84.548680095
32.0,8.0,0.8,NaN,0.0,NaN,84.453453098
32.0,16.0,0.2,NaN,0.0,NaN,84.526494963
32.0,16.0,1.0,NaN,0.0,NaN,72.975769438
32.0,8.0,1.0,NaN,0.0,NaN,84.260950067
32.0,8.0,0.2,NaN,0.0,NaN,84.582454981
32.0,32.0,0.6,NaN,0.0,NaN,72.733602003
32.0,16.0,0.8,NaN,0.0,NaN,84.44426601
32.0,16.0,0.5,NaN,0.0,NaN,84.382213037
32.0,16.0,0.1,NaN,0.0,NaN,84.427012879
32.0,16.0,0.3,NaN,0.0,NaN,84.694759787
32.0,2.0,1.0,NaN,0.0,NaN,87.755038986
32.0,4.0,0.7,NaN,0.0,NaN,84.807862449
32.0,32.0,0.4,NaN,0.0,NaN,84.422981274
32.0,16.0,0.7,NaN,0.0,NaN,84.475207764
32.0,2.0,0.9,NaN,0.0,NaN,87.115396053
32.0,32.0,0.1,NaN,0.0,NaN,84.271982837
32.0,32.0,0.3,NaN,0.0,NaN,84.449850051
32.0,8.0,0.6,NaN,0.0,NaN,84.529087111
32.0,16.0,0.9,NaN,0.0,NaN,85.02505311
32.0,4.0,0.8,NaN,0.0,NaN,84.656017726
32.0,32.0,0.5,NaN,0.0,NaN,84.516490682
32.0,4.0,0.9,NaN,0.0,NaN,84.593669951
32.0,16.0,0.05,NaN,0.0,NaN,84.514067215
32.0,16.0,0.6,NaN,0.0,NaN,84.471803534
32.0,4.0,1.0,NaN,0.0,NaN,84.77956844
32.0,4.0,0.05,NaN,0.0,NaN,87.898386536
32.0,8.0,0.1,NaN,0.0,NaN,84.575055012
32.0,4.0,0.1,NaN,0.0,NaN,88.482988871
32.0,8.0,0.4,NaN,0.0,NaN,84.774535566
32.0,4.0,0.2,NaN,0.0,NaN,87.28436647
32.0,4.0,0.3,NaN,0.0,NaN,87.809048967
32.0,32.0,0.2,NaN,0.0,NaN,84.405080478
32.0,32.0,0.8,NaN,0.0,NaN,84.803923265
32.0,8.0,0.9,NaN,0.0,NaN,84.560672583
32.0,16.0,0.4,NaN,0.0,NaN,84.476002914
32.0,32.0,0.7,NaN,0.0,NaN,84.56329182
32.0,32.0,0.05,NaN,0.0,NaN,84.9511131
32.0,32.0,0.9,NaN,0.0,NaN,84.50237123
32.0,4.0,0.5,NaN,0.0,NaN,87.385734316
32.0,4.0,0.6,NaN,0.0,NaN,87.504446774
32.0,4.0,0.4,NaN,0.0,NaN,87.247498048
32.0,32.0,1.0,NaN,0.0,NaN,88.001806744
32.0,64.0,0.05,NaN,0.0,NaN,88.008687847
32.0,64.0,0.2,NaN,0.0,NaN,84.341932325
32.0,128.0,1.0,NaN,0.0,NaN,84.192670532
32.0,64.0,0.4,NaN,0.0,NaN,84.941826697
32.0,64.0,0.6,NaN,0.0,NaN,84.501426792
32.0,64.0,0.1,NaN,0.0,NaN,84.541015289
32.0,256.0,0.4,NaN,0.0,NaN,84.350067944
32.0,64.0,1.0,NaN,0.0,NaN,84.418973691
32.0,64.0,0.3,NaN,0.0,NaN,84.297933456
32.0,64.0,0.7,NaN,0.0,NaN,84.429572934
32.0,64.0,0.5,NaN,0.0,NaN,84.388223484
32.0,128.0,0.3,NaN,0.0,NaN,84.675788195
32.0,64.0,0.9,NaN,0.0,NaN,84.377256554
32.0,128.0,0.1,NaN,0.0,NaN,84.307295849
32.0,64.0,0.8,NaN,0.0,NaN,84.407444198
32.0,128.0,0.7,NaN,0.0,NaN,84.358221242
32.0,128.0,0.05,NaN,0.0,NaN,84.889834032
32.0,128.0,0.5,NaN,0.0,NaN,84.263538443
32.0,256.0,0.1,NaN,0.0,NaN,84.540342437
32.0,128.0,0.4,NaN,0.0,NaN,84.299460654
32.0,128.0,0.2,NaN,0.0,NaN,84.545685943
32.0,128.0,0.8,NaN,0.0,NaN,84.426697173
32.0,256.0,0.3,NaN,0.0,NaN,84.453843092
32.0,128.0,0.9,NaN,0.0,NaN,84.391399045
32.0,128.0,0.6,NaN,0.0,NaN,84.360195358
32.0,256.0,0.05,NaN,0.0,NaN,84.610774142
32.0,256.0,0.2,NaN,0.0,NaN,84.486460123
32.0,256.0,0.8,NaN,0.0,NaN,87.171676522
32.0,256.0,0.7,NaN,0.0,NaN,86.654869686
32.0,256.0,0.9,NaN,0.0,NaN,87.344225071
32.0,256.0,1.0,NaN,0.0,NaN,87.163721147
32.0,256.0,0.6,NaN,0.0,NaN,87.175620228
32.0,256.0,0.5,NaN,0.0,NaN,87.297478422
32.0,512.0,0.05,NaN,0.0,NaN,87.703378919
32.0,512.0,0.2,NaN,0.0,NaN,86.903478934
32.0,512.0,0.1,NaN,0.0,NaN,87.425213635
64.0,0.0625,0.3,NaN,NaN,NaN,84.308604433
64.0,0.0625,0.2,NaN,NaN,NaN,84.099945717
32.0,512.0,0.3,NaN,0.0,NaN,87.136600012
64.0,0.0625,0.4,NaN,NaN,NaN,84.055564814
32.0,512.0,0.4,NaN,0.0,NaN,86.719465037
32.0,512.0,0.5,NaN,0.0,NaN,87.229804977
32.0,512.0,0.6,NaN,0.0,NaN,87.25593772
32.0,512.0,0.7,NaN,0.0,NaN,86.908641161
32.0,512.0,0.8,NaN,0.0,NaN,87.122860978
32.0,512.0,0.9,NaN,0.0,NaN,86.985027732
64.0,0.0625,0.05,NaN,NaN,NaN,87.357320967
32.0,512.0,1.0,NaN,0.0,NaN,88.323082664
64.0,0.0625,0.1,NaN,NaN,NaN,87.283348282
64.0,0.0625,0.5,NaN,NaN,NaN,87.952093234
64.0,0.125,0.1,NaN,NaN,NaN,84.362528593
64.0,0.25,0.1,NaN,NaN,NaN,84.157995237
64.0,0.125,1.0,NaN,NaN,NaN,84.240132371
64.0,0.125,0.5,NaN,NaN,NaN,84.399081749
64.0,0.0625,0.6,NaN,NaN,NaN,74.069977587
64.0,0.125,0.9,NaN,NaN,NaN,84.28670952
64.0,0.125,0.8,NaN,NaN,NaN,84.327372277
64.0,0.25,0.8,NaN,NaN,NaN,84.228001742
64.0,0.5,0.4,NaN,0.0,NaN,84.314962709
64.0,0.25,0.5,NaN,NaN,NaN,84.502247163
64.0,0.5,0.1,NaN,0.0,NaN,84.573382994
64.0,0.125,0.3,NaN,NaN,NaN,84.816439596
64.0,0.125,0.6,NaN,NaN,NaN,84.466485684
64.0,0.25,0.4,NaN,NaN,NaN,84.287855831
64.0,0.25,0.3,NaN,NaN,NaN,84.257127878
64.0,0.25,0.6,NaN,NaN,NaN,84.28947191
64.0,0.5,0.2,NaN,0.0,NaN,84.53804307
64.0,0.25,1.0,NaN,NaN,NaN,84.265856479
64.0,0.5,0.8,NaN,0.0,NaN,84.436043714
64.0,1.0,0.05,NaN,0.0,NaN,84.352943697
64.0,0.5,0.6,NaN,0.0,NaN,84.295234153
64.0,0.5,0.05,NaN,0.0,NaN,84.477361793
64.0,0.0625,0.7,NaN,NaN,NaN,73.999739302
64.0,0.5,0.9,NaN,0.0,NaN,84.407988449
64.0,0.25,0.05,NaN,NaN,NaN,84.374021998
64.0,0.25,0.7,NaN,NaN,NaN,84.408969498
64.0,0.5,0.7,NaN,0.0,NaN,84.384294439
64.0,0.5,0.3,NaN,0.0,NaN,84.376266238
64.0,0.0625,0.8,NaN,NaN,NaN,74.408589404
64.0,0.0625,0.9,NaN,NaN,NaN,73.903894542
64.0,0.5,1.0,NaN,0.0,NaN,84.718484864
64.0,0.0625,1.0,NaN,NaN,NaN,73.90472035
64.0,0.125,0.05,NaN,NaN,NaN,73.873405987
64.0,0.125,0.2,NaN,NaN,NaN,73.881038605
64.0,0.125,0.7,NaN,NaN,NaN,74.372149904
64.0,0.125,0.4,NaN,NaN,NaN,73.969803717
64.0,0.25,0.2,NaN,NaN,NaN,73.94323452
64.0,0.25,0.9,NaN,NaN,NaN,74.051832226
64.0,0.5,0.5,NaN,0.0,NaN,73.94242029
64.0,1.0,0.2,NaN,0.0,NaN,73.892563086
64.0,1.0,0.1,NaN,0.0,NaN,73.919566786
64.0,1.0,0.3,NaN,0.0,NaN,88.054041798
64.0,1.0,0.4,NaN,0.0,NaN,88.003954959
64.0,1.0,0.5,NaN,0.0,NaN,88.257907809
64.0,1.0,0.6,NaN,0.0,NaN,87.957100652
64.0,1.0,0.7,NaN,0.0,NaN,87.28040157
64.0,1.0,0.8,NaN,0.0,NaN,84.875459352
64.0,2.0,0.8,NaN,0.0,NaN,84.394327512
64.0,2.0,0.6,NaN,0.0,NaN,84.532972675
64.0,1.0,0.9,NaN,0.0,NaN,84.952105622
64.0,4.0,0.4,NaN,0.0,NaN,84.280511966
64.0,2.0,0.4,NaN,0.0,NaN,84.448711592
64.0,2.0,0.1,NaN,0.0,NaN,84.787690911
64.0,4.0,0.9,NaN,0.0,NaN,84.390274354
64.0,8.0,0.2,NaN,0.0,NaN,72.826743946
64.0,4.0,0.2,NaN,0.0,NaN,84.468539578
64.0,2.0,0.9,NaN,0.0,NaN,84.434355919
64.0,4.0,0.8,NaN,0.0,NaN,84.499813133
64.0,8.0,0.8,NaN,0.0,NaN,73.091496371
64.0,4.0,0.05,NaN,0.0,NaN,84.416860178
64.0,2.0,0.3,NaN,0.0,NaN,84.84125578
64.0,1.0,1.0,NaN,0.0,NaN,84.687955844
64.0,4.0,0.3,NaN,0.0,NaN,84.405802646
64.0,8.0,0.6,NaN,0.0,NaN,84.236012124
64.0,4.0,0.6,NaN,0.0,NaN,84.391572364
64.0,2.0,0.7,NaN,0.0,NaN,84.409605664
64.0,2.0,0.05,NaN,0.0,NaN,84.695475572
64.0,4.0,1.0,NaN,0.0,NaN,84.510334638
64.0,4.0,0.1,NaN,0.0,NaN,84.391598487
64.0,8.0,0.4,NaN,0.0,NaN,84.407429798
64.0,2.0,0.2,NaN,0.0,NaN,84.611852162
64.0,8.0,0.1,NaN,0.0,NaN,84.214164874
64.0,8.0,0.5,NaN,0.0,NaN,84.338450824
64.0,4.0,0.7,NaN,0.0,NaN,84.674360083
64.0,8.0,0.3,NaN,0.0,NaN,84.450555632
64.0,8.0,0.9,NaN,0.0,NaN,84.590114016
64.0,2.0,0.5,NaN,0.0,NaN,84.515815559
64.0,2.0,1.0,NaN,0.0,NaN,84.56487648
64.0,4.0,0.5,NaN,0.0,NaN,84.746702967
64.0,8.0,0.05,NaN,0.0,NaN,85.189164903
64.0,8.0,0.7,NaN,0.0,NaN,84.50964716
64.0,8.0,1.0,NaN,0.0,NaN,84.765820562
64.0,16.0,0.05,NaN,0.0,NaN,87.911788654
64.0,16.0,0.1,NaN,0.0,NaN,88.167033889
64.0,16.0,1.0,NaN,0.0,NaN,84.416972828
64.0,16.0,0.2,NaN,0.0,NaN,87.814800684
64.0,64.0,0.8,NaN,0.0,NaN,84.33919326
64.0,128.0,0.2,NaN,0.0,NaN,84.335251701
64.0,32.0,0.05,NaN,0.0,NaN,84.386611368
64.0,32.0,0.3,NaN,0.0,NaN,84.388050681
64.0,16.0,0.3,NaN,0.0,NaN,87.647526557
64.0,32.0,0.2,NaN,0.0,NaN,84.275477356
64.0,32.0,0.4,NaN,0.0,NaN,84.554937781
64.0,32.0,0.7,NaN,0.0,NaN,84.492915895
64.0,32.0,0.6,NaN,0.0,NaN,84.608380055
64.0,32.0,0.1,NaN,0.0,NaN,85.257701276
64.0,32.0,0.8,NaN,0.0,NaN,84.507848893
64.0,64.0,0.05,NaN,0.0,NaN,84.390745068
64.0,32.0,1.0,NaN,0.0,NaN,84.280893554
64.0,32.0,0.5,NaN,0.0,NaN,84.322669267
64.0,32.0,0.9,NaN,0.0,NaN,84.617132069
64.0,64.0,0.1,NaN,0.0,NaN,84.632207021
64.0,16.0,0.4,NaN,0.0,NaN,87.696597265
64.0,16.0,0.5,NaN,0.0,NaN,87.863997733
64.0,16.0,0.6,NaN,0.0,NaN,87.323387626
64.0,64.0,0.2,NaN,0.0,NaN,84.428117317
64.0,64.0,0.4,NaN,0.0,NaN,84.661131822
64.0,64.0,0.7,NaN,0.0,NaN,84.387770676
64.0,64.0,0.3,NaN,0.0,NaN,84.417259623
64.0,128.0,0.1,NaN,0.0,NaN,84.409504328
64.0,64.0,0.5,NaN,0.0,NaN,84.579029989
64.0,64.0,0.9,NaN,0.0,NaN,85.040972964
64.0,64.0,0.6,NaN,0.0,NaN,84.415942154
64.0,16.0,0.7,NaN,0.0,NaN,88.896893932
64.0,128.0,0.05,NaN,0.0,NaN,84.349549553
64.0,64.0,1.0,NaN,0.0,NaN,84.39118625
64.0,16.0,0.8,NaN,0.0,NaN,88.028515934
64.0,16.0,0.9,NaN,0.0,NaN,87.895821813
64.0,128.0,0.3,NaN,0.0,NaN,87.213682157
64.0,128.0,0.4,NaN,0.0,NaN,87.205386493
64.0,128.0,0.6,NaN,0.0,NaN,87.479633537
64.0,128.0,0.7,NaN,0.0,NaN,87.287023621
64.0,128.0,0.8,NaN,0.0,NaN,87.440811969
64.0,128.0,0.5,NaN,0.0,NaN,87.187810727
64.0,128.0,0.9,NaN,0.0,NaN,87.370335252
64.0,128.0,1.0,NaN,0.0,NaN,87.026652711
64.0,256.0,0.05,NaN,0.0,NaN,87.41104828
64.0,512.0,0.05,NaN,0.0,NaN,84.200997085
64.0,512.0,0.1,NaN,0.0,NaN,84.439447159
64.0,512.0,0.2,NaN,0.0,NaN,84.428809567
64.0,256.0,0.1,NaN,0.0,NaN,87.726314064
64.0,256.0,0.2,NaN,0.0,NaN,87.077541385
64.0,256.0,0.3,NaN,0.0,NaN,87.622114139
64.0,256.0,0.4,NaN,0.0,NaN,87.499792313
64.0,256.0,0.5,NaN,0.0,NaN,87.10180348
64.0,256.0,0.6,NaN,0.0,NaN,87.424412058
64.0,256.0,0.7,NaN,0.0,NaN,87.51924207
64.0,256.0,0.9,NaN,0.0,NaN,87.345976707
64.0,256.0,1.0,NaN,0.0,NaN,88.066970569
64.0,256.0,0.8,NaN,0.0,NaN,87.01651553
64.0,512.0,0.3,NaN,0.0,NaN,88.437236274
64.0,512.0,0.4,NaN,0.0,NaN,74.171897679
128.0,0.0625,0.7,NaN,NaN,NaN,84.486424172
128.0,0.0625,0.6,NaN,NaN,NaN,84.334690802
128.0,0.0625,0.3,NaN,NaN,NaN,84.37900629
128.0,0.0625,0.05,NaN,NaN,NaN,84.603589217
128.0,0.125,0.1,NaN,NaN,NaN,84.430452061
128.0,0.0625,1.0,NaN,NaN,NaN,84.508380052
128.0,0.125,0.2,NaN,NaN,NaN,84.332611673
128.0,0.125,0.8,NaN,NaN,NaN,84.407389258
128.0,0.125,0.9,NaN,NaN,NaN,84.492934021
128.0,0.0625,0.8,NaN,NaN,NaN,84.403727652
128.0,0.25,0.5,NaN,NaN,NaN,84.90277983
128.0,0.125,0.4,NaN,NaN,NaN,84.354609626
128.0,0.125,1.0,NaN,NaN,NaN,84.470918543
128.0,0.125,0.3,NaN,NaN,NaN,84.542280533
128.0,0.125,0.6,NaN,NaN,NaN,84.425843986
128.0,0.0625,0.2,NaN,NaN,NaN,84.53008221
128.0,0.25,0.2,NaN,NaN,NaN,84.206163148
128.0,0.25,0.05,NaN,NaN,NaN,84.78321964
128.0,0.25,0.4,NaN,NaN,NaN,84.316193921
128.0,0.0625,0.5,NaN,NaN,NaN,84.583032835
64.0,512.0,0.5,NaN,0.0,NaN,74.062879043
128.0,0.25,0.6,NaN,NaN,NaN,84.365433297
128.0,0.125,0.05,NaN,NaN,NaN,84.937141202
128.0,0.125,0.7,NaN,NaN,NaN,84.424136964
128.0,0.25,0.9,NaN,NaN,NaN,84.45424028
128.0,0.25,0.7,NaN,NaN,NaN,84.380210016
128.0,0.25,0.3,NaN,NaN,NaN,84.455871771
64.0,512.0,0.6,NaN,0.0,NaN,73.997013762
128.0,0.25,1.0,NaN,NaN,NaN,84.518448823
64.0,512.0,0.7,NaN,0.0,NaN,74.108537195
64.0,512.0,0.8,NaN,0.0,NaN,73.97616267
64.0,512.0,0.9,NaN,0.0,NaN,74.047019014
64.0,512.0,1.0,NaN,0.0,NaN,74.010273087
128.0,0.0625,0.1,NaN,NaN,NaN,73.894128228
128.0,0.0625,0.4,NaN,NaN,NaN,73.843127534
128.0,0.125,0.5,NaN,NaN,NaN,73.950639598
128.0,0.0625,0.9,NaN,NaN,NaN,74.027092242
128.0,0.25,0.1,NaN,NaN,NaN,73.893707167
128.0,0.25,0.8,NaN,NaN,NaN,73.903650678
128.0,0.5,0.05,NaN,0.0,NaN,73.964566905
128.0,0.5,0.1,NaN,0.0,NaN,87.912248343
128.0,0.5,0.2,NaN,0.0,NaN,88.449877338
128.0,0.5,0.3,NaN,0.0,NaN,88.396443039
128.0,2.0,0.9,NaN,0.0,NaN,72.8798331
128.0,1.0,0.05,NaN,0.0,NaN,84.535191419
128.0,0.5,0.4,NaN,0.0,NaN,84.616073101
128.0,1.0,1.0,NaN,0.0,NaN,84.372571226
128.0,1.0,0.4,NaN,0.0,NaN,84.455947838
128.0,1.0,0.5,NaN,0.0,NaN,84.395076161
128.0,4.0,0.4,NaN,0.0,NaN,73.139552575
128.0,1.0,0.9,NaN,0.0,NaN,84.555976001
128.0,0.5,0.8,NaN,0.0,NaN,84.633200272
128.0,1.0,0.2,NaN,0.0,NaN,84.322718377
128.0,2.0,0.5,NaN,0.0,NaN,84.456774223
128.0,2.0,0.05,NaN,0.0,NaN,84.378561703
128.0,2.0,0.4,NaN,0.0,NaN,84.513964999
128.0,0.5,1.0,NaN,0.0,NaN,84.59302305
128.0,1.0,0.7,NaN,0.0,NaN,84.374726332
128.0,2.0,0.6,NaN,0.0,NaN,84.402035358
128.0,4.0,0.1,NaN,0.0,NaN,84.255432646
128.0,4.0,0.05,NaN,0.0,NaN,84.462291789
128.0,0.5,0.5,NaN,0.0,NaN,84.59132721
128.0,1.0,0.3,NaN,0.0,NaN,84.513124034
128.0,2.0,0.2,NaN,0.0,NaN,84.275978992
128.0,0.5,0.6,NaN,0.0,NaN,84.76800326
128.0,1.0,0.8,NaN,0.0,NaN,84.709109591
128.0,4.0,0.2,NaN,0.0,NaN,84.514511388
128.0,2.0,0.8,NaN,0.0,NaN,84.856002312
128.0,0.5,0.7,NaN,0.0,NaN,84.774422372
128.0,2.0,0.3,NaN,0.0,NaN,84.640070384
128.0,2.0,1.0,NaN,0.0,NaN,84.522942823
128.0,0.5,0.9,NaN,0.0,NaN,84.669224356
128.0,1.0,0.1,NaN,0.0,NaN,84.730536186
128.0,1.0,0.6,NaN,0.0,NaN,84.599673341
128.0,4.0,0.5,NaN,0.0,NaN,84.570490164
128.0,2.0,0.1,NaN,0.0,NaN,84.681568222
128.0,2.0,0.7,NaN,0.0,NaN,84.584952557
128.0,4.0,0.3,NaN,0.0,NaN,84.620399546
128.0,4.0,0.6,NaN,0.0,NaN,84.658870869
128.0,4.0,0.7,NaN,0.0,NaN,88.102376254
128.0,4.0,0.8,NaN,0.0,NaN,87.867136555
128.0,8.0,0.3,NaN,0.0,NaN,84.452423829
128.0,8.0,0.05,NaN,0.0,NaN,84.523401382
128.0,8.0,0.6,NaN,0.0,NaN,84.377438604
128.0,8.0,0.1,NaN,0.0,NaN,84.303206489
128.0,8.0,0.7,NaN,0.0,NaN,84.532664663
128.0,32.0,0.05,NaN,0.0,NaN,84.225553695
128.0,8.0,1.0,NaN,0.0,NaN,84.427947744
128.0,8.0,0.2,NaN,0.0,NaN,84.437336658
128.0,32.0,0.3,NaN,0.0,NaN,84.377226099
128.0,16.0,0.05,NaN,0.0,NaN,84.667797997
128.0,16.0,0.4,NaN,0.0,NaN,84.293414127
128.0,8.0,0.5,NaN,0.0,NaN,84.62290827
128.0,8.0,0.4,NaN,0.0,NaN,84.564573055
128.0,4.0,0.9,NaN,0.0,NaN,87.977701891
128.0,16.0,0.3,NaN,0.0,NaN,84.354624616
128.0,8.0,0.9,NaN,0.0,NaN,84.335688278
128.0,16.0,0.7,NaN,0.0,NaN,84.327503895
128.0,16.0,0.8,NaN,0.0,NaN,84.193561993
128.0,4.0,1.0,NaN,0.0,NaN,87.336116153
128.0,16.0,0.2,NaN,0.0,NaN,84.405482097
128.0,16.0,0.1,NaN,0.0,NaN,84.558392758
128.0,32.0,0.1,NaN,0.0,NaN,84.546914263
128.0,8.0,0.8,NaN,0.0,NaN,84.439000871
128.0,32.0,0.2,NaN,0.0,NaN,84.449796181
128.0,16.0,0.5,NaN,0.0,NaN,84.419905196
128.0,16.0,0.6,NaN,0.0,NaN,84.415337949
128.0,16.0,0.9,NaN,0.0,NaN,84.378730104
128.0,16.0,1.0,NaN,0.0,NaN,84.363648428
128.0,32.0,0.4,NaN,0.0,NaN,87.739318036
128.0,32.0,0.5,NaN,0.0,NaN,87.842540644
128.0,32.0,0.6,NaN,0.0,NaN,88.467050279
128.0,32.0,0.7,NaN,0.0,NaN,87.770686072
128.0,32.0,0.8,NaN,0.0,NaN,88.08586647
128.0,32.0,0.9,NaN,0.0,NaN,87.765601135
128.0,32.0,1.0,NaN,0.0,NaN,87.93541619
128.0,64.0,0.1,NaN,0.0,NaN,87.735029103
128.0,64.0,0.05,NaN,0.0,NaN,88.143610225
128.0,64.0,0.2,NaN,0.0,NaN,87.929239511
128.0,64.0,0.3,NaN,0.0,NaN,87.739042293
128.0,64.0,0.5,NaN,0.0,NaN,87.99383333
128.0,64.0,0.4,NaN,0.0,NaN,88.639002411
128.0,64.0,0.6,NaN,0.0,NaN,87.851697111
128.0,64.0,0.7,NaN,0.0,NaN,87.336035598
128.0,64.0,0.9,NaN,0.0,NaN,87.394957562
128.0,64.0,0.8,NaN,0.0,NaN,87.427941631
128.0,128.0,0.9,NaN,0.0,NaN,84.239797069
128.0,128.0,1.0,NaN,0.0,NaN,84.31361706
128.0,256.0,0.05,NaN,0.0,NaN,84.238358956
128.0,128.0,0.05,NaN,0.0,NaN,87.651183327
128.0,64.0,1.0,NaN,0.0,NaN,87.268936745
128.0,128.0,0.1,NaN,0.0,NaN,87.386862138
128.0,128.0,0.2,NaN,0.0,NaN,87.437595992
128.0,128.0,0.3,NaN,0.0,NaN,87.267421602
128.0,128.0,0.4,NaN,0.0,NaN,87.847918948
128.0,128.0,0.5,NaN,0.0,NaN,88.079279533
128.0,128.0,0.6,NaN,0.0,NaN,88.131041786
128.0,128.0,0.7,NaN,0.0,NaN,87.245883242
128.0,128.0,0.8,NaN,0.0,NaN,88.625390136
128.0,256.0,0.1,NaN,0.0,NaN,88.252257183
128.0,512.0,0.4,NaN,0.0,NaN,84.265053864
128.0,512.0,0.6,NaN,0.0,NaN,84.662805518
128.0,512.0,0.7,NaN,0.0,NaN,84.344346777
128.0,512.0,1.0,NaN,0.0,NaN,84.459046946
128.0,256.0,0.8,NaN,0.0,NaN,84.598022198
128.0,512.0,0.1,NaN,0.0,NaN,84.827768651
256.0,0.0625,0.3,NaN,NaN,NaN,84.336351916
256.0,0.0625,0.2,NaN,NaN,NaN,85.11583168
128.0,256.0,1.0,NaN,0.0,NaN,84.434022637
256.0,0.125,0.2,NaN,NaN,NaN,84.475367688
256.0,0.0625,0.1,NaN,NaN,NaN,84.320448672
256.0,0.0625,1.0,NaN,NaN,NaN,84.392603183
256.0,0.0625,0.6,NaN,NaN,NaN,84.453927973
256.0,0.0625,0.8,NaN,NaN,NaN,84.568607287
256.0,0.0625,0.9,NaN,NaN,NaN,84.391767194
128.0,512.0,0.5,NaN,0.0,NaN,84.537343374
128.0,512.0,0.2,NaN,0.0,NaN,84.485620786
256.0,0.125,0.4,NaN,NaN,NaN,84.599906555
256.0,0.0625,0.05,NaN,NaN,NaN,84.326375964
256.0,0.125,0.6,NaN,NaN,NaN,84.330192599
128.0,512.0,0.8,NaN,0.0,NaN,84.568657516
256.0,0.125,0.5,NaN,NaN,NaN,84.363023986
256.0,0.0625,0.7,NaN,NaN,NaN,84.478009737
128.0,256.0,0.2,NaN,0.0,NaN,74.405266533
256.0,0.0625,0.4,NaN,NaN,NaN,84.418856174
128.0,256.0,0.3,NaN,0.0,NaN,73.9971048
256.0,0.125,0.3,NaN,NaN,NaN,84.329318788
128.0,256.0,0.4,NaN,0.0,NaN,74.077556267
256.0,0.125,0.7,NaN,NaN,NaN,84.404243956
256.0,0.125,0.05,NaN,NaN,NaN,84.413903224
128.0,256.0,0.5,NaN,0.0,NaN,74.223684881
128.0,256.0,0.6,NaN,0.0,NaN,74.098226262
128.0,256.0,0.7,NaN,0.0,NaN,74.363585953
128.0,256.0,0.9,NaN,0.0,NaN,73.949194963
128.0,512.0,0.05,NaN,0.0,NaN,73.841753302
128.0,512.0,0.3,NaN,0.0,NaN,73.934613339
128.0,512.0,0.9,NaN,0.0,NaN,73.912137283
256.0,0.0625,0.5,NaN,NaN,NaN,73.859666765
256.0,0.125,0.1,NaN,NaN,NaN,73.91511137
256.0,0.125,0.8,NaN,NaN,NaN,74.006790321
256.0,0.125,0.9,NaN,NaN,NaN,73.872333953
256.0,0.125,1.0,NaN,NaN,NaN,88.148864206
256.0,0.25,0.05,NaN,NaN,NaN,87.887948689
256.0,0.25,0.1,NaN,NaN,NaN,88.313319577
256.0,1.0,0.3,NaN,0.0,NaN,72.871107186
256.0,0.25,0.2,NaN,NaN,NaN,84.651822097
256.0,1.0,1.0,NaN,0.0,NaN,72.785477072
256.0,0.5,0.7,NaN,0.0,NaN,84.499037889
256.0,0.5,0.2,NaN,0.0,NaN,84.393938162
256.0,0.25,0.9,NaN,NaN,NaN,84.454543838
256.0,0.5,0.05,NaN,0.0,NaN,84.453763195
256.0,0.5,0.8,NaN,0.0,NaN,84.414671412
256.0,0.25,0.3,NaN,NaN,NaN,84.623400489
256.0,0.5,0.3,NaN,0.0,NaN,84.756255458
256.0,1.0,0.4,NaN,0.0,NaN,84.433609322
256.0,2.0,0.05,NaN,0.0,NaN,84.335314841
256.0,0.25,0.6,NaN,NaN,NaN,84.553137403
256.0,1.0,0.2,NaN,0.0,NaN,84.524298613
256.0,0.25,0.4,NaN,NaN,NaN,84.674349793
256.0,0.5,0.9,NaN,0.0,NaN,84.724330653
256.0,1.0,0.9,NaN,0.0,NaN,84.582606338
256.0,1.0,0.05,NaN,0.0,NaN,84.701695263
256.0,0.25,0.8,NaN,NaN,NaN,84.539241444
256.0,0.5,0.5,NaN,0.0,NaN,84.366587902
256.0,1.0,0.5,NaN,0.0,NaN,84.548344189
256.0,0.25,0.5,NaN,NaN,NaN,84.717269132
256.0,1.0,0.7,NaN,0.0,NaN,84.531196158
256.0,0.5,0.1,NaN,0.0,NaN,84.454370162
256.0,0.25,0.7,NaN,NaN,NaN,84.707639206
256.0,2.0,0.1,NaN,0.0,NaN,84.551304146
256.0,0.5,0.6,NaN,0.0,NaN,84.464631296
256.0,0.5,0.4,NaN,0.0,NaN,84.616344228
256.0,0.25,1.0,NaN,NaN,NaN,84.589529598
256.0,1.0,0.8,NaN,0.0,NaN,84.514488743
256.0,1.0,0.1,NaN,0.0,NaN,84.534981171
256.0,0.5,1.0,NaN,0.0,NaN,84.491754208
256.0,2.0,0.3,NaN,0.0,NaN,84.523871423
256.0,1.0,0.6,NaN,0.0,NaN,84.578611246
256.0,2.0,0.2,NaN,0.0,NaN,84.657870853
256.0,2.0,0.4,NaN,0.0,NaN,84.546161625
256.0,2.0,0.5,NaN,0.0,NaN,88.134973644
256.0,2.0,0.6,NaN,0.0,NaN,87.926414911
256.0,8.0,0.6,NaN,0.0,NaN,84.145470413
256.0,16.0,0.05,NaN,0.0,NaN,84.301617263
256.0,4.0,0.3,NaN,0.0,NaN,84.431895131
256.0,4.0,0.7,NaN,0.0,NaN,84.33332918
256.0,2.0,0.8,NaN,0.0,NaN,84.487615854
256.0,4.0,0.1,NaN,0.0,NaN,84.409470825
256.0,2.0,1.0,NaN,0.0,NaN,84.354063186
256.0,2.0,0.9,NaN,0.0,NaN,84.429987468
256.0,2.0,0.7,NaN,0.0,NaN,87.890668501
256.0,4.0,0.05,NaN,0.0,NaN,84.512601017
256.0,8.0,0.05,NaN,0.0,NaN,84.378287514
256.0,4.0,0.4,NaN,0.0,NaN,84.371952379
256.0,8.0,0.4,NaN,0.0,NaN,84.56330278
256.0,4.0,0.2,NaN,0.0,NaN,84.404657518
256.0,4.0,0.8,NaN,0.0,NaN,84.324269318
256.0,4.0,0.6,NaN,0.0,NaN,84.554221686
256.0,4.0,0.5,NaN,0.0,NaN,84.406191872
256.0,4.0,1.0,NaN,0.0,NaN,84.517638052
256.0,8.0,0.1,NaN,0.0,NaN,84.460815965
256.0,4.0,0.9,NaN,0.0,NaN,84.537488369
256.0,8.0,0.7,NaN,0.0,NaN,84.391430262
256.0,8.0,0.2,NaN,0.0,NaN,84.324373384
256.0,8.0,0.3,NaN,0.0,NaN,84.420974697
256.0,8.0,0.9,NaN,0.0,NaN,84.382278728
256.0,8.0,0.8,NaN,0.0,NaN,84.535417611
256.0,8.0,0.5,NaN,0.0,NaN,84.364810042
256.0,8.0,1.0,NaN,0.0,NaN,84.363159932
256.0,16.0,0.1,NaN,0.0,NaN,88.043899698
256.0,16.0,0.2,NaN,0.0,NaN,87.949314023
256.0,16.0,0.3,NaN,0.0,NaN,87.434235922
256.0,16.0,0.4,NaN,0.0,NaN,87.831867129
256.0,16.0,0.5,NaN,0.0,NaN,87.356345515
256.0,16.0,0.7,NaN,0.0,NaN,87.271674916
256.0,16.0,0.6,NaN,0.0,NaN,87.820876723
256.0,16.0,0.8,NaN,0.0,NaN,87.850949271
256.0,16.0,1.0,NaN,0.0,NaN,87.868665709
256.0,16.0,0.9,NaN,0.0,NaN,87.615473866
256.0,32.0,0.05,NaN,0.0,NaN,87.530576943
256.0,32.0,0.1,NaN,0.0,NaN,88.214419236
256.0,32.0,0.2,NaN,0.0,NaN,87.937216758
256.0,32.0,0.3,NaN,0.0,NaN,87.783177158
256.0,32.0,0.4,NaN,0.0,NaN,87.864507254
256.0,32.0,0.5,NaN,0.0,NaN,87.883867075
256.0,32.0,0.6,NaN,0.0,NaN,87.761597382
256.0,32.0,0.7,NaN,0.0,NaN,87.734853093
256.0,64.0,0.7,NaN,0.0,NaN,84.272703904
256.0,64.0,0.8,NaN,0.0,NaN,84.35873634
256.0,32.0,0.8,NaN,0.0,NaN,87.923334005
256.0,64.0,0.9,NaN,0.0,NaN,84.126098683
256.0,32.0,0.9,NaN,0.0,NaN,88.227648275
256.0,32.0,1.0,NaN,0.0,NaN,87.782035821
256.0,64.0,0.05,NaN,0.0,NaN,87.769133306
256.0,64.0,0.1,NaN,0.0,NaN,87.89696785
256.0,64.0,0.3,NaN,0.0,NaN,88.25931794
256.0,64.0,0.2,NaN,0.0,NaN,87.905216362
256.0,64.0,0.4,NaN,0.0,NaN,88.071229413
256.0,64.0,0.5,NaN,0.0,NaN,87.88403144
256.0,64.0,0.6,NaN,0.0,NaN,87.899177224
256.0,64.0,1.0,NaN,0.0,NaN,88.123044895
256.0,256.0,0.6,NaN,0.0,NaN,84.401123506
256.0,128.0,0.9,NaN,0.0,NaN,84.593460614
256.0,256.0,0.9,NaN,0.0,NaN,84.234492751
256.0,512.0,0.1,NaN,0.0,NaN,84.410695341
256.0,256.0,0.4,NaN,0.0,NaN,84.32289485
256.0,512.0,0.4,NaN,0.0,NaN,84.242836302
256.0,256.0,0.05,NaN,0.0,NaN,84.77041903
512.0,0.0625,0.1,NaN,NaN,NaN,84.204664572
256.0,256.0,0.1,NaN,0.0,NaN,84.66151579
256.0,512.0,0.8,NaN,0.0,NaN,84.37163843
256.0,512.0,0.2,NaN,0.0,NaN,84.41385715
256.0,512.0,0.9,NaN,0.0,NaN,84.481736957
256.0,128.0,0.05,NaN,0.0,NaN,74.099956451
256.0,256.0,1.0,NaN,0.0,NaN,84.377081149
256.0,512.0,0.6,NaN,0.0,NaN,84.300444526
512.0,0.0625,0.2,NaN,NaN,NaN,84.238889368
512.0,0.0625,0.4,NaN,NaN,NaN,84.367506617
256.0,256.0,0.5,NaN,0.0,NaN,84.231399614
256.0,256.0,0.3,NaN,0.0,NaN,84.784029133
512.0,0.0625,0.5,NaN,NaN,NaN,84.296293905
512.0,0.0625,0.7,NaN,NaN,NaN,84.399866975
256.0,512.0,0.05,NaN,0.0,NaN,84.318106446
256.0,256.0,0.8,NaN,0.0,NaN,84.557804615
256.0,128.0,0.1,NaN,0.0,NaN,74.076212723
256.0,512.0,0.7,NaN,0.0,NaN,84.459168403
256.0,512.0,0.5,NaN,0.0,NaN,84.494459507
256.0,128.0,0.2,NaN,0.0,NaN,74.313509
512.0,0.0625,0.3,NaN,NaN,NaN,85.244916235
256.0,128.0,0.3,NaN,0.0,NaN,74.007827677
512.0,0.0625,0.05,NaN,NaN,NaN,84.414972097
256.0,128.0,0.4,NaN,0.0,NaN,73.941263059
256.0,128.0,0.5,NaN,0.0,NaN,73.96964351
512.0,0.0625,0.8,NaN,NaN,NaN,84.363081313
256.0,128.0,0.6,NaN,0.0,NaN,73.897227031
256.0,128.0,0.7,NaN,0.0,NaN,74.040921521
256.0,128.0,0.8,NaN,0.0,NaN,73.874742697
256.0,128.0,1.0,NaN,0.0,NaN,74.020701649
256.0,256.0,0.2,NaN,0.0,NaN,73.926449176
256.0,256.0,0.7,NaN,0.0,NaN,74.104107139
256.0,512.0,0.3,NaN,0.0,NaN,74.009408915
256.0,512.0,1.0,NaN,0.0,NaN,73.913865722
512.0,0.0625,0.9,NaN,NaN,NaN,73.970499161
512.0,0.0625,0.6,NaN,NaN,NaN,74.146674684
512.0,0.0625,1.0,NaN,NaN,NaN,88.059795318
512.0,0.125,0.05,NaN,NaN,NaN,88.028209001
512.0,0.125,0.1,NaN,NaN,NaN,87.821325898
512.0,0.125,0.6,NaN,NaN,NaN,84.424983055
512.0,0.25,0.1,NaN,NaN,NaN,84.365734432
512.0,0.25,0.8,NaN,NaN,NaN,84.361337649
512.0,0.125,0.2,NaN,NaN,NaN,84.640397161
512.0,0.25,0.2,NaN,NaN,NaN,84.493032373
512.0,0.125,0.9,NaN,NaN,NaN,84.473528587
512.0,0.125,0.8,NaN,NaN,NaN,84.566334471
512.0,0.5,0.2,NaN,0.0,NaN,84.292070869
512.0,0.25,0.6,NaN,NaN,NaN,84.225781655
512.0,0.125,0.3,NaN,NaN,NaN,84.651937349
512.0,0.5,0.9,NaN,0.0,NaN,84.367044203
512.0,0.25,0.7,NaN,NaN,NaN,84.445841319
512.0,0.25,0.3,NaN,NaN,NaN,84.446506208
512.0,0.5,0.3,NaN,0.0,NaN,84.771628324
512.0,0.5,0.1,NaN,0.0,NaN,84.355531822
512.0,0.25,0.05,NaN,NaN,NaN,84.463842384
512.0,0.5,0.7,NaN,0.0,NaN,84.261928154
512.0,0.5,0.8,NaN,0.0,NaN,84.31734693
512.0,0.25,0.5,NaN,NaN,NaN,84.495229615
512.0,0.25,0.9,NaN,NaN,NaN,84.484126554
512.0,0.125,0.4,NaN,NaN,NaN,84.819000263
512.0,0.125,0.5,NaN,NaN,NaN,84.67808967
512.0,0.5,0.4,NaN,0.0,NaN,84.444319205
512.0,0.5,0.05,NaN,0.0,NaN,84.527499955
512.0,0.5,1.0,NaN,0.0,NaN,84.484752646
512.0,0.125,0.7,NaN,NaN,NaN,84.687016524
512.0,0.5,0.6,NaN,0.0,NaN,84.659142147
512.0,0.125,1.0,NaN,NaN,NaN,84.581112094
512.0,1.0,0.1,NaN,0.0,NaN,84.444386575
512.0,0.25,0.4,NaN,NaN,NaN,84.627221675
512.0,0.25,1.0,NaN,NaN,NaN,84.768477503
512.0,0.5,0.5,NaN,0.0,NaN,84.547256673
512.0,1.0,0.2,NaN,0.0,NaN,84.550688755
512.0,1.0,0.05,NaN,0.0,NaN,84.549066976
512.0,1.0,0.3,NaN,0.0,NaN,88.0339652
512.0,1.0,0.4,NaN,0.0,NaN,88.20264038
512.0,4.0,0.4,NaN,0.0,NaN,84.275464334
512.0,4.0,0.9,NaN,0.0,NaN,84.324514056
512.0,1.0,1.0,NaN,0.0,NaN,84.509784619
512.0,1.0,0.8,NaN,0.0,NaN,84.486365978
512.0,1.0,0.6,NaN,0.0,NaN,84.386543043
512.0,1.0,0.7,NaN,0.0,NaN,84.550577877
512.0,1.0,0.5,NaN,0.0,NaN,88.033459035
512.0,2.0,0.3,NaN,0.0,NaN,84.668125735
512.0,2.0,0.05,NaN,0.0,NaN,84.489414193
512.0,2.0,0.7,NaN,0.0,NaN,84.452295242
512.0,1.0,0.9,NaN,0.0,NaN,84.480294009
512.0,2.0,0.1,NaN,0.0,NaN,84.57173207
512.0,4.0,0.5,NaN,0.0,NaN,84.434810974
512.0,4.0,0.05,NaN,0.0,NaN,84.423812533
512.0,2.0,0.5,NaN,0.0,NaN,84.220491946
512.0,2.0,0.4,NaN,0.0,NaN,84.462009073
512.0,2.0,0.2,NaN,0.0,NaN,84.600387738
512.0,4.0,0.1,NaN,0.0,NaN,84.342050495
512.0,2.0,0.8,NaN,0.0,NaN,84.346486486
512.0,2.0,0.6,NaN,0.0,NaN,84.38271416
512.0,4.0,0.6,NaN,0.0,NaN,84.464098483
512.0,2.0,1.0,NaN,0.0,NaN,84.515773955
512.0,4.0,0.2,NaN,0.0,NaN,84.464785746
512.0,4.0,0.3,NaN,0.0,NaN,84.388790916
512.0,2.0,0.9,NaN,0.0,NaN,84.386768802
512.0,4.0,0.8,NaN,0.0,NaN,84.697859255
512.0,4.0,0.7,NaN,0.0,NaN,84.303649425
512.0,8.0,0.05,NaN,0.0,NaN,88.178932601
512.0,4.0,1.0,NaN,0.0,NaN,88.083436072
512.0,8.0,0.1,NaN,0.0,NaN,88.494515369
512.0,8.0,0.2,NaN,0.0,NaN,87.786837272
512.0,8.0,0.3,NaN,0.0,NaN,88.014924796
512.0,8.0,0.4,NaN,0.0,NaN,88.134815907
512.0,8.0,0.5,NaN,0.0,NaN,88.126626838
512.0,8.0,0.6,NaN,0.0,NaN,87.922780595
512.0,8.0,0.7,NaN,0.0,NaN,87.840386915
512.0,8.0,0.9,NaN,0.0,NaN,87.824788249
512.0,8.0,0.8,NaN,0.0,NaN,87.581476768
512.0,8.0,1.0,NaN,0.0,NaN,87.731618195
512.0,16.0,0.05,NaN,0.0,NaN,87.78325427
512.0,16.0,0.1,NaN,0.0,NaN,87.844890204
512.0,16.0,0.2,NaN,0.0,NaN,88.507392965
512.0,16.0,0.4,NaN,0.0,NaN,87.743312457
512.0,16.0,0.3,NaN,0.0,NaN,87.865025998
512.0,16.0,0.5,NaN,0.0,NaN,87.828398306
512.0,32.0,0.6,NaN,0.0,NaN,84.222580059
512.0,32.0,0.5,NaN,0.0,NaN,84.130020051
512.0,32.0,0.7,NaN,0.0,NaN,84.68005475
512.0,16.0,0.6,NaN,0.0,NaN,88.081929981
512.0,16.0,0.7,NaN,0.0,NaN,87.978994076
512.0,16.0,0.8,NaN,0.0,NaN,87.930034719
512.0,16.0,0.9,NaN,0.0,NaN,88.254261875
512.0,16.0,1.0,NaN,0.0,NaN,87.681114999
512.0,32.0,0.4,NaN,0.0,NaN,87.714313228
512.0,32.0,0.05,NaN,0.0,NaN,87.916832096
512.0,32.0,0.3,NaN,0.0,NaN,87.983006034
512.0,32.0,0.2,NaN,0.0,NaN,88.017543989
512.0,32.0,0.1,NaN,0.0,NaN,87.928039802
512.0,32.0,0.8,NaN,0.0,NaN,87.95880108
512.0,128.0,0.3,NaN,0.0,NaN,84.279443001
512.0,128.0,0.9,NaN,0.0,NaN,84.325659051
512.0,128.0,0.6,NaN,0.0,NaN,84.154852709
512.0,64.0,0.9,NaN,0.0,NaN,84.816044984
512.0,128.0,0.1,NaN,0.0,NaN,84.167171234
512.0,128.0,0.2,NaN,0.0,NaN,84.700692956
512.0,256.0,0.05,NaN,0.0,NaN,84.269240289
512.0,256.0,0.5,NaN,0.0,NaN,84.63340855
512.0,256.0,0.2,NaN,0.0,NaN,84.52233157
512.0,128.0,0.8,NaN,0.0,NaN,84.261181658
512.0,128.0,0.7,NaN,0.0,NaN,84.213875231
512.0,256.0,0.7,NaN,0.0,NaN,84.259875345
512.0,256.0,0.4,NaN,0.0,NaN,84.261055917
512.0,512.0,0.1,NaN,0.0,NaN,84.226016368
512.0,256.0,0.9,NaN,0.0,NaN,84.218537755
512.0,512.0,0.3,NaN,0.0,NaN,84.231910706
512.0,256.0,0.3,NaN,0.0,NaN,84.246098494
512.0,512.0,0.5,NaN,0.0,NaN,84.177510301
512.0,512.0,0.05,NaN,0.0,NaN,84.319811728
512.0,256.0,1.0,NaN,0.0,NaN,84.271733809
512.0,64.0,0.8,NaN,0.0,NaN,84.372246767
512.0,64.0,0.6,NaN,0.0,NaN,84.440365536
512.0,128.0,0.05,NaN,0.0,NaN,84.408602101
512.0,128.0,0.5,NaN,0.0,NaN,84.472718493
512.0,256.0,0.1,NaN,0.0,NaN,84.30343632
512.0,256.0,0.8,NaN,0.0,NaN,84.346388386
512.0,512.0,0.4,NaN,0.0,NaN,84.49915979
512.0,32.0,0.9,NaN,0.0,NaN,74.025789091
512.0,32.0,1.0,NaN,0.0,NaN,74.112539325
512.0,64.0,0.05,NaN,0.0,NaN,73.931309013
512.0,64.0,0.1,NaN,0.0,NaN,74.287620089
512.0,64.0,0.2,NaN,0.0,NaN,73.850836631
512.0,64.0,0.3,NaN,0.0,NaN,74.000855579
512.0,64.0,0.4,NaN,0.0,NaN,74.076905613
512.0,64.0,0.5,NaN,0.0,NaN,74.021974977
512.0,64.0,0.7,NaN,0.0,NaN,73.858707021
512.0,64.0,1.0,NaN,0.0,NaN,74.008000862
512.0,128.0,0.4,NaN,0.0,NaN,73.872473929
512.0,128.0,1.0,NaN,0.0,NaN,73.882779595
512.0,256.0,0.6,NaN,0.0,NaN,73.996103754
512.0,512.0,0.2,NaN,0.0,NaN,74.110619294
512.0,512.0,0.6,NaN,0.0,NaN,73.879769819
512.0,512.0,0.7,NaN,0.0,NaN,73.996098607
512.0,512.0,0.8,NaN,0.0,NaN,87.988011505
512.0,512.0,0.9,NaN,0.0,NaN,88.083652348
512.0,512.0,1.0,NaN,0.0,NaN,88.133298568
0.0625,0.0625,0.05,NaN,NaN,NaN,84.524135167
