0.15384615384615385,0.15384615384615385
0.15384615384615385,0.15384615384615385
0.15384615384615385,0.15384615384615385
0.15384615384615385,0.15384615384615385
0.15384615384615385,0.15384615384615385
0.15384615384615385,0.15384615384615385
0.15384615384615385,0.15384615384615385
0.15384615384615385,0.15384615384615385
0.15384615384615385,0.15384615384615385
0.15384615384615385,0.15384615384615385
0.15384615384615385,0.15384615384615385
0.15384615384615385,0.15384615384615385
0.15384615384615385,0.15384615384615385
0.15384615384615385,0.15384615384615385
0.15384615384615385,0.15384615384615385
0.15384615384615385,0.15384615384615385
0.15384615384615385,0.15384615384615385
0.15384615384615385,0.15384615384615385
0.15384615384615385,0.15384615384615385
0.15384615384615385,0.15384615384615385
0.15384615384615385,0.15384615384615385
0.15384615384615385,0.15384615384615385
0.15384615384615385,0.15384615384615385
0.15384615384615385,0.15384615384615385
0.15384615384615385,0.15384615384615385
0.15384615384615385,0.15384615384615385
0.15384615384615385,0.15384615384615385
0.15384615384615385,0.15384615384615385
0.15384615384615385,0.15384615384615385
0.15384615384615385,0.15384615384615385
0.15384615384615385,0.15384615384615385
0.15384615384615385,0.15384615384615385
0.4615384615384615,0.4615384615384615
0.4615384615384615,0.4615384615384615
0.4615384615384615,0.4615384615384615
0.4615384615384615,0.4615384615384615
0.4615384615384615,0.4615384615384615
0.4615384615384615,0.4615384615384615
0.4615384615384615,0.4615384615384615
0.4615384615384615,0.4615384615384615
0.4615384615384615,0.4615384615384615
0.4615384615384615,0.4615384615384615
0.4615384615384615,0.4615384615384615
0.449438202247191,0.449438202247191
0.449438202247191,0.449438202247191
0.449438202247191,0.449438202247191
0.449438202247191,0.449438202247191
0.449438202247191,0.449438202247191
0.4222222222222222,0.4222222222222222
0.4222222222222222,0.4222222222222222
0.4222222222222222,0.4222222222222222
0.4222222222222222,0.4222222222222222
0.4,0.4
0.3777777777777777,0.3777777777777777
0.4375,0.4375
0.4375,0.4375
0.4375,0.4375
0.4375,0.4375
0.4375,0.4375
0.4375,0.4375
0.326530612244898,0.326530612244898
0.326530612244898,0.326530612244898
0.326530612244898,0.326530612244898
0.326530612244898,0.326530612244898
0.326530612244898,0.326530612244898
0.4,0.4
0.4,0.4
0.4,0.4
0.4,0.4
0.29906542056074764,0.29906542056074764
0.29906542056074764,0.29906542056074764
0.29906542056074764,0.29906542056074764
0.29906542056074764,0.29906542056074764
0.29906542056074764,0.29906542056074764
0.29906542056074764,0.29906542056074764
0.29906542056074764,0.29906542056074764
0.36842105263157887,0.36842105263157887
0.36842105263157887,0.36842105263157887
0.3076923076923077,0.3076923076923077
0.3076923076923077,0.3076923076923077
0.28070175438596495,0.28070175438596495
0.28070175438596495,0.28070175438596495
0.28070175438596495,0.28070175438596495
0.28070175438596495,0.28070175438596495
0.28070175438596495,0.28070175438596495
0.28070175438596495,0.28070175438596495
0.28070175438596495,0.28070175438596495
0.3620689655172413,0.3620689655172413
0.3025210084033613,0.3025210084033613
0.3025210084033613,0.3025210084033613
0.2689075630252101,0.2689075630252101
0.2689075630252101,0.2689075630252101
0.2689075630252101,0.2689075630252101
0.2689075630252101,0.2689075630252101
0.2689075630252101,0.2689075630252101
0.2689075630252101,0.2689075630252101
0.2689075630252101,0.2689075630252101
0.2689075630252101,0.2689075630252101
0.3025210084033613,0.3025210084033613
0.3025210084033613,0.3025210084033613
0.2689075630252101,0.2689075630252101
0.2689075630252101,0.2689075630252101
0.2689075630252101,0.2689075630252101
0.2689075630252101,0.2689075630252101
0.2689075630252101,0.2689075630252101
0.2689075630252101,0.2689075630252101
0.2689075630252101,0.2689075630252101
0.2689075630252101,0.2689075630252101
0.2689075630252101,0.2689075630252101
0.3025210084033613,0.3025210084033613
0.2689075630252101,0.2689075630252101
0.2689075630252101,0.2689075630252101
0.2689075630252101,0.2689075630252101
0.2689075630252101,0.2689075630252101
0.2689075630252101,0.2689075630252101
0.2689075630252101,0.2689075630252101
0.2689075630252101,0.2689075630252101
0.2689075630252101,0.2689075630252101
0.2689075630252101,0.2689075630252101
0.2689075630252101,0.2689075630252101
0.2689075630252101,0.2689075630252101
0.2689075630252101,0.2689075630252101
0.2689075630252101,0.2689075630252101
0.2689075630252101,0.2689075630252101
0.2689075630252101,0.2689075630252101
0.2689075630252101,0.2689075630252101
0.2689075630252101,0.2689075630252101
0.2689075630252101,0.2689075630252101
0.2689075630252101,0.2689075630252101
0.2689075630252101,0.2689075630252101
0.2689075630252101,0.2689075630252101
0.2689075630252101,0.2689075630252101
0.2689075630252101,0.2689075630252101
0.2689075630252101,0.2689075630252101
0.2689075630252101,0.2689075630252101
0.2689075630252101,0.2689075630252101
0.2689075630252101,0.2689075630252101
0.2689075630252101,0.2689075630252101
0.2689075630252101,0.2689075630252101
0.2689075630252101,0.2689075630252101
0.2689075630252101,0.2689075630252101
0.2689075630252101,0.2689075630252101
0.27350427350427353,0.27350427350427353
0.27350427350427353,0.27350427350427353
0.27350427350427353,0.27350427350427353
0.27350427350427353,0.27350427350427353
0.27350427350427353,0.27350427350427353
0.27350427350427353,0.27350427350427353
0.27350427350427353,0.27350427350427353
0.27350427350427353,0.27350427350427353
0.27350427350427353,0.27350427350427353
0.27350427350427353,0.27350427350427353
0.27350427350427353,0.27350427350427353
0.15384615384615385,0.15384615384615385
0.15384615384615385,0.15384615384615385
0.15384615384615385,0.15384615384615385
0.15384615384615385,0.15384615384615385
0.15384615384615385,0.15384615384615385
0.15384615384615385,0.15384615384615385
0.15384615384615385,0.15384615384615385
0.15384615384615385,0.15384615384615385
0.15384615384615385,0.15384615384615385
0.15384615384615385,0.15384615384615385
0.15384615384615385,0.15384615384615385
0.15384615384615385,0.15384615384615385
0.15384615384615385,0.15384615384615385
0.15384615384615385,0.15384615384615385
0.15384615384615385,0.15384615384615385
0.15384615384615385,0.15384615384615385
0.15384615384615385,0.15384615384615385
0.15384615384615385,0.15384615384615385
0.15384615384615385,0.15384615384615385
0.15384615384615385,0.15384615384615385
0.15384615384615385,0.15384615384615385
0.15384615384615385,0.15384615384615385
0.15384615384615385,0.15384615384615385
0.15384615384615385,0.15384615384615385
0.15384615384615385,0.15384615384615385
0.15384615384615385,0.15384615384615385
0.15384615384615385,0.15384615384615385
0.15384615384615385,0.15384615384615385
0.15384615384615385,0.15384615384615385
0.15384615384615385,0.15384615384615385
0.15384615384615385,0.15384615384615385
0.15384615384615385,0.15384615384615385
0.15384615384615385,0.15384615384615385
0.4615384615384615,0.4615384615384615
0.4615384615384615,0.4615384615384615
0.4615384615384615,0.4615384615384615
0.4615384615384615,0.4615384615384615
0.4615384615384615,0.4615384615384615
0.4615384615384615,0.4615384615384615
0.4615384615384615,0.4615384615384615
0.4615384615384615,0.4615384615384615
0.4615384615384615,0.4615384615384615
0.4615384615384615,0.4615384615384615
0.4615384615384615,0.4615384615384615
0.449438202247191,0.449438202247191
0.449438202247191,0.449438202247191
0.449438202247191,0.449438202247191
0.449438202247191,0.449438202247191
0.449438202247191,0.449438202247191
0.4222222222222222,0.4222222222222222
0.4222222222222222,0.4222222222222222
0.4222222222222222,0.4222222222222222
0.4222222222222222,0.4222222222222222
0.4222222222222222,0.4222222222222222
0.3777777777777777,0.3777777777777777
0.4375,0.4375
0.4375,0.4375
0.4375,0.4375
0.4375,0.4375
0.4375,0.4375
0.4375,0.4375
0.3673469387755102,0.3673469387755102
0.326530612244898,0.326530612244898
0.326530612244898,0.326530612244898
0.326530612244898,0.326530612244898
0.326530612244898,0.326530612244898
0.4,0.4
0.4,0.4
0.4,0.4
0.4,0.4
0.29906542056074764,0.29906542056074764
0.29906542056074764,0.29906542056074764
0.29906542056074764,0.29906542056074764
0.29906542056074764,0.29906542056074764
0.29906542056074764,0.29906542056074764
0.29906542056074764,0.29906542056074764
0.29906542056074764,0.29906542056074764
0.36842105263157887,0.36842105263157887
0.36842105263157887,0.36842105263157887
0.3076923076923077,0.3076923076923077
0.3076923076923077,0.3076923076923077
0.3076923076923077,0.3076923076923077
0.28070175438596495,0.28070175438596495
0.28070175438596495,0.28070175438596495
0.28070175438596495,0.28070175438596495
0.28070175438596495,0.28070175438596495
0.28070175438596495,0.28070175438596495
0.28070175438596495,0.28070175438596495
0.3620689655172413,0.3620689655172413
0.3025210084033613,0.3025210084033613
0.3025210084033613,0.3025210084033613
0.2689075630252101,0.2689075630252101
0.2689075630252101,0.2689075630252101
0.2689075630252101,0.2689075630252101
0.2689075630252101,0.2689075630252101
0.2689075630252101,0.2689075630252101
0.2689075630252101,0.2689075630252101
0.2689075630252101,0.2689075630252101
0.2689075630252101,0.2689075630252101
0.3025210084033613,0.3025210084033613
0.3025210084033613,0.3025210084033613
0.2689075630252101,0.2689075630252101
0.2689075630252101,0.2689075630252101
0.2689075630252101,0.2689075630252101
0.2689075630252101,0.2689075630252101
0.2689075630252101,0.2689075630252101
0.2689075630252101,0.2689075630252101
0.2689075630252101,0.2689075630252101
0.2689075630252101,0.2689075630252101
0.2689075630252101,0.2689075630252101
0.3025210084033613,0.3025210084033613
0.2689075630252101,0.2689075630252101
0.2689075630252101,0.2689075630252101
0.2689075630252101,0.2689075630252101
0.2689075630252101,0.2689075630252101
0.2689075630252101,0.2689075630252101
0.2689075630252101,0.2689075630252101
0.2689075630252101,0.2689075630252101
0.2689075630252101,0.2689075630252101
0.2689075630252101,0.2689075630252101
0.2689075630252101,0.2689075630252101
0.2689075630252101,0.2689075630252101
0.2689075630252101,0.2689075630252101
0.2689075630252101,0.2689075630252101
0.2689075630252101,0.2689075630252101
0.2689075630252101,0.2689075630252101
0.2689075630252101,0.2689075630252101
0.2689075630252101,0.2689075630252101
0.2689075630252101,0.2689075630252101
0.2689075630252101,0.2689075630252101
0.2689075630252101,0.2689075630252101
0.2689075630252101,0.2689075630252101
0.2689075630252101,0.2689075630252101
0.2689075630252101,0.2689075630252101
0.2689075630252101,0.2689075630252101
0.2689075630252101,0.2689075630252101
0.2689075630252101,0.2689075630252101
0.2689075630252101,0.2689075630252101
0.2689075630252101,0.2689075630252101
0.2689075630252101,0.2689075630252101
0.2689075630252101,0.2689075630252101
0.2689075630252101,0.2689075630252101
0.2689075630252101,0.2689075630252101
0.27350427350427353,0.27350427350427353
0.27350427350427353,0.27350427350427353
0.27350427350427353,0.27350427350427353
0.27350427350427353,0.27350427350427353
0.27350427350427353,0.27350427350427353
0.27350427350427353,0.27350427350427353
0.27350427350427353,0.27350427350427353
0.27350427350427353,0.27350427350427353
0.27350427350427353,0.27350427350427353
0.27350427350427353,0.27350427350427353
0.27350427350427353,0.27350427350427353
0.16216216216216217,0.16216216216216217
0.16216216216216217,0.16216216216216217
0.16216216216216217,0.16216216216216217
0.16216216216216217,0.16216216216216217
0.16216216216216217,0.16216216216216217
0.16216216216216217,0.16216216216216217
0.16216216216216217,0.16216216216216217
0.16216216216216217,0.16216216216216217
0.16216216216216217,0.16216216216216217
0.16216216216216217,0.16216216216216217
0.16216216216216217,0.16216216216216217
0.16216216216216217,0.16216216216216217
0.16216216216216217,0.16216216216216217
0.16216216216216217,0.16216216216216217
0.16216216216216217,0.16216216216216217
0.16216216216216217,0.16216216216216217
0.16216216216216217,0.16216216216216217
0.16216216216216217,0.16216216216216217
0.16216216216216217,0.16216216216216217
0.16216216216216217,0.16216216216216217
0.16216216216216217,0.16216216216216217
0.16216216216216217,0.16216216216216217
0.16216216216216217,0.16216216216216217
0.16216216216216217,0.16216216216216217
0.16216216216216217,0.16216216216216217
0.16216216216216217,0.16216216216216217
0.16216216216216217,0.16216216216216217
0.16216216216216217,0.16216216216216217
0.16216216216216217,0.16216216216216217
0.16216216216216217,0.16216216216216217
0.16216216216216217,0.16216216216216217
0.16216216216216217,0.16216216216216217
0.16216216216216217,0.16216216216216217
0.4,0.4
0.4,0.4
0.4,0.4
0.4,0.4
0.4,0.4
0.4,0.4
0.4,0.4
0.4,0.4
0.4,0.4
0.4,0.4
0.4235294117647059,0.4235294117647059
0.4222222222222222,0.4222222222222222
0.4222222222222222,0.4222222222222222
0.4222222222222222,0.4222222222222222
0.4222222222222222,0.4222222222222222
0.4222222222222222,0.4222222222222222
0.4565217391304347,0.4565217391304347
0.4565217391304347,0.4565217391304347
0.45161290322580644,0.45161290322580644
0.45161290322580644,0.45161290322580644
0.45161290322580644,0.45161290322580644
0.40860215053763443,0.40860215053763443
0.43478260869565216,0.43478260869565216
0.43478260869565216,0.43478260869565216
0.43478260869565216,0.43478260869565216
0.46315789473684205,0.46315789473684205
0.4375,0.4375
0.43298969072164945,0.43298969072164945
0.38383838383838376,0.38383838383838376
0.3434343434343434,0.3434343434343434
0.3434343434343434,0.3434343434343434
0.3434343434343434,0.3434343434343434
0.3434343434343434,0.3434343434343434
0.4166666666666667,0.4166666666666667
0.4166666666666667,0.4166666666666667
0.4242424242424242,0.4242424242424242
0.4,0.4
0.33644859813084116,0.33644859813084116
0.29906542056074764,0.29906542056074764
0.29906542056074764,0.29906542056074764
0.29906542056074764,0.29906542056074764
0.29906542056074764,0.29906542056074764
0.29906542056074764,0.29906542056074764
0.29906542056074764,0.29906542056074764
0.3846153846153846,0.3846153846153846
0.38888888888888884,0.38888888888888884
0.3076923076923077,0.3076923076923077
0.288135593220339,0.288135593220339
0.288135593220339,0.288135593220339
0.288135593220339,0.288135593220339
0.288135593220339,0.288135593220339
0.28070175438596495,0.28070175438596495
0.28070175438596495,0.28070175438596495
0.28070175438596495,0.28070175438596495
0.28070175438596495,0.28070175438596495
0.38888888888888884,0.38888888888888884
0.3050847457627119,0.3050847457627119
0.2857142857142857,0.2857142857142857
0.2857142857142857,0.2857142857142857
0.2689075630252101,0.2689075630252101
0.2689075630252101,0.2689075630252101
0.2689075630252101,0.2689075630252101
0.2689075630252101,0.2689075630252101
0.2689075630252101,0.2689075630252101
0.2689075630252101,0.2689075630252101
0.2689075630252101,0.2689075630252101
0.3050847457627119,0.3050847457627119
0.2857142857142857,0.2857142857142857
0.2689075630252101,0.2689075630252101
0.2689075630252101,0.2689075630252101
0.2689075630252101,0.2689075630252101
0.2689075630252101,0.2689075630252101
0.2689075630252101,0.2689075630252101
0.2689075630252101,0.2689075630252101
0.2689075630252101,0.2689075630252101
0.2689075630252101,0.2689075630252101
0.2689075630252101,0.2689075630252101
0.2857142857142857,0.2857142857142857
0.2689075630252101,0.2689075630252101
0.2689075630252101,0.2689075630252101
0.2689075630252101,0.2689075630252101
0.2689075630252101,0.2689075630252101
0.2689075630252101,0.2689075630252101
0.2689075630252101,0.2689075630252101
0.2689075630252101,0.2689075630252101
0.2689075630252101,0.2689075630252101
0.2689075630252101,0.2689075630252101
0.2689075630252101,0.2689075630252101
0.2689075630252101,0.2689075630252101
0.2689075630252101,0.2689075630252101
0.2689075630252101,0.2689075630252101
0.2689075630252101,0.2689075630252101
0.2689075630252101,0.2689075630252101
0.2689075630252101,0.2689075630252101
0.2689075630252101,0.2689075630252101
0.2689075630252101,0.2689075630252101
0.2689075630252101,0.2689075630252101
0.2689075630252101,0.2689075630252101
0.2689075630252101,0.2689075630252101
0.2689075630252101,0.2689075630252101
0.2689075630252101,0.2689075630252101
0.2689075630252101,0.2689075630252101
0.2689075630252101,0.2689075630252101
0.2689075630252101,0.2689075630252101
0.2689075630252101,0.2689075630252101
0.2689075630252101,0.2689075630252101
0.2689075630252101,0.2689075630252101
0.2689075630252101,0.2689075630252101
0.2689075630252101,0.2689075630252101
0.2689075630252101,0.2689075630252101
0.27350427350427353,0.27350427350427353
0.27350427350427353,0.27350427350427353
0.27350427350427353,0.27350427350427353
0.27350427350427353,0.27350427350427353
0.27350427350427353,0.27350427350427353
0.27350427350427353,0.27350427350427353
0.27350427350427353,0.27350427350427353
0.27350427350427353,0.27350427350427353
0.27350427350427353,0.27350427350427353
0.27350427350427353,0.27350427350427353
0.27350427350427353,0.27350427350427353
0.4,0.4
0.4,0.4
0.4,0.4
0.4,0.4
0.4,0.4
0.4,0.4
0.4,0.4
0.4,0.4
0.4,0.4
0.4,0.4
0.4,0.4
0.4,0.4
0.4,0.4
0.4,0.4
0.4,0.4
0.4,0.4
0.4,0.4
0.4,0.4
0.4,0.4
0.4,0.4
0.4,0.4
0.4,0.4
0.4,0.4
0.4,0.4
0.4,0.4
0.4,0.4
0.4,0.4
0.4,0.4
0.4,0.4
0.4,0.4
0.4,0.4
0.4,0.4
0.4,0.4
0.5833333333333334,0.5833333333333334
0.5833333333333334,0.5833333333333334
0.5833333333333334,0.5833333333333334
0.5833333333333334,0.5833333333333334
0.5833333333333334,0.5833333333333334
0.5833333333333334,0.5833333333333334
0.5833333333333334,0.5833333333333334
0.5833333333333334,0.5833333333333334
0.5833333333333334,0.5833333333333334
0.5833333333333334,0.5833333333333334
0.5833333333333334,0.5833333333333334
0.6,0.6
0.6,0.6
0.6,0.6
0.6,0.6
0.6,0.6
0.6,0.6
0.6,0.6
0.6,0.6
0.6,0.6
0.6,0.6
0.62,0.62
0.6138613861386139,0.6138613861386139
0.6138613861386139,0.6138613861386139
0.6138613861386139,0.6138613861386139
0.6138613861386139,0.6138613861386139
0.5631067961165049,0.5631067961165049
0.5631067961165049,0.5631067961165049
0.5825242718446603,0.5825242718446603
0.6019417475728156,0.6019417475728156
0.6019417475728156,0.6019417475728156
0.5242718446601942,0.5242718446601942
0.4901960784313726,0.4901960784313726
0.6019417475728156,0.6019417475728156
0.6019417475728156,0.6019417475728156
0.6019417475728156,0.6019417475728156
0.5523809523809524,0.5523809523809524
0.5555555555555556,0.5555555555555556
0.45454545454545453,0.45454545454545453
0.45454545454545453,0.45454545454545453
0.45454545454545453,0.45454545454545453
0.3302752293577982,0.3302752293577982
0.3302752293577982,0.3302752293577982
0.3302752293577982,0.3302752293577982
0.5535714285714286,0.5535714285714286
0.5535714285714286,0.5535714285714286
0.5217391304347826,0.5217391304347826
0.4166666666666667,0.4166666666666667
0.4166666666666667,0.4166666666666667
0.31932773109243695,0.31932773109243695
0.3103448275862069,0.3103448275862069
0.3103448275862069,0.3103448275862069
0.3103448275862069,0.3103448275862069
0.3103448275862069,0.3103448275862069
0.3103448275862069,0.3103448275862069
0.5391304347826087,0.5391304347826087
0.5172413793103449,0.5172413793103449
0.4098360655737705,0.4098360655737705
0.3076923076923077,0.3076923076923077
0.3076923076923077,0.3076923076923077
0.3076923076923077,0.3076923076923077
0.3076923076923077,0.3076923076923077
0.3076923076923077,0.3076923076923077
0.3076923076923077,0.3076923076923077
0.3076923076923077,0.3076923076923077
0.3076923076923077,0.3076923076923077
0.5,0.5
0.4098360655737705,0.4098360655737705
0.3076923076923077,0.3076923076923077
0.3076923076923077,0.3076923076923077
0.3076923076923077,0.3076923076923077
0.3076923076923077,0.3076923076923077
0.3076923076923077,0.3076923076923077
0.3076923076923077,0.3076923076923077
0.3076923076923077,0.3076923076923077
0.3076923076923077,0.3076923076923077
0.3076923076923077,0.3076923076923077
0.4098360655737705,0.4098360655737705
0.3076923076923077,0.3076923076923077
0.3076923076923077,0.3076923076923077
0.3076923076923077,0.3076923076923077
0.3076923076923077,0.3076923076923077
0.3076923076923077,0.3076923076923077
0.3076923076923077,0.3076923076923077
0.3076923076923077,0.3076923076923077
0.3076923076923077,0.3076923076923077
0.3076923076923077,0.3076923076923077
0.3076923076923077,0.3076923076923077
0.3076923076923077,0.3076923076923077
0.3076923076923077,0.3076923076923077
0.3076923076923077,0.3076923076923077
0.3076923076923077,0.3076923076923077
0.3076923076923077,0.3076923076923077
0.3076923076923077,0.3076923076923077
0.3076923076923077,0.3076923076923077
0.3076923076923077,0.3076923076923077
0.3076923076923077,0.3076923076923077
0.2689075630252101,0.2689075630252101
0.2689075630252101,0.2689075630252101
0.3076923076923077,0.3076923076923077
0.3076923076923077,0.3076923076923077
0.3076923076923077,0.3076923076923077
0.3076923076923077,0.3076923076923077
0.3076923076923077,0.3076923076923077
0.2689075630252101,0.2689075630252101
0.2689075630252101,0.2689075630252101
0.2689075630252101,0.2689075630252101
0.2689075630252101,0.2689075630252101
0.2689075630252101,0.2689075630252101
0.2689075630252101,0.2689075630252101
0.3025210084033613,0.3025210084033613
0.3025210084033613,0.3025210084033613
0.3025210084033613,0.3025210084033613
0.3025210084033613,0.3025210084033613
0.3025210084033613,0.3025210084033613
0.3025210084033613,0.3025210084033613
0.3025210084033613,0.3025210084033613
0.3025210084033613,0.3025210084033613
0.3025210084033613,0.3025210084033613
0.3025210084033613,0.3025210084033613
0.3025210084033613,0.3025210084033613
0.5454545454545455,0.5454545454545455
0.5454545454545455,0.5454545454545455
0.5454545454545455,0.5454545454545455
0.5454545454545455,0.5454545454545455
0.5454545454545455,0.5454545454545455
0.5454545454545455,0.5454545454545455
0.5454545454545455,0.5454545454545455
0.5454545454545455,0.5454545454545455
0.5454545454545455,0.5454545454545455
0.5454545454545455,0.5454545454545455
0.5454545454545455,0.5454545454545455
0.5454545454545455,0.5454545454545455
0.5454545454545455,0.5454545454545455
0.5454545454545455,0.5454545454545455
0.5454545454545455,0.5454545454545455
0.5454545454545455,0.5454545454545455
0.5454545454545455,0.5454545454545455
0.5454545454545455,0.5454545454545455
0.5454545454545455,0.5454545454545455
0.5454545454545455,0.5454545454545455
0.5454545454545455,0.5454545454545455
0.5454545454545455,0.5454545454545455
0.5454545454545455,0.5454545454545455
0.5454545454545455,0.5454545454545455
0.5454545454545455,0.5454545454545455
0.5454545454545455,0.5454545454545455
0.5454545454545455,0.5454545454545455
0.5454545454545455,0.5454545454545455
0.5454545454545455,0.5454545454545455
0.5454545454545455,0.5454545454545455
0.5454545454545455,0.5454545454545455
0.5454545454545455,0.5454545454545455
0.5454545454545455,0.5454545454545455
0.6788990825688074,0.6788990825688074
0.6788990825688074,0.6788990825688074
0.6788990825688074,0.6788990825688074
0.6788990825688074,0.6788990825688074
0.6788990825688074,0.6788990825688074
0.6788990825688074,0.6788990825688074
0.6788990825688074,0.6788990825688074
0.6788990825688074,0.6788990825688074
0.6788990825688074,0.6788990825688074
0.6788990825688074,0.6788990825688074
0.6788990825688074,0.6788990825688074
0.7027027027027027,0.7027027027027027
0.7027027027027027,0.7027027027027027
0.7027027027027027,0.7027027027027027
0.7027027027027027,0.7027027027027027
0.7027027027027027,0.7027027027027027
0.7027027027027027,0.7027027027027027
0.7027027027027027,0.7027027027027027
0.7027027027027027,0.7027027027027027
0.7027027027027027,0.7027027027027027
0.7207207207207207,0.7207207207207207
0.7207207207207207,0.7207207207207207
0.7142857142857142,0.7142857142857142
0.7142857142857142,0.7142857142857142
0.7142857142857142,0.7142857142857142
0.7142857142857142,0.7142857142857142
0.7142857142857142,0.7142857142857142
0.7142857142857142,0.7142857142857142
0.7079646017699115,0.7079646017699115
0.7079646017699115,0.7079646017699115
0.6902654867256638,0.6902654867256638
0.672566371681416,0.672566371681416
0.6371681415929203,0.6371681415929203
0.7142857142857142,0.7142857142857142
0.7142857142857142,0.7142857142857142
0.7142857142857142,0.7142857142857142
0.7142857142857142,0.7142857142857142
0.7079646017699115,0.7079646017699115
0.7079646017699115,0.7079646017699115
0.6371681415929203,0.6371681415929203
0.6371681415929203,0.6371681415929203
0.5614035087719299,0.5614035087719299
0.5309734513274337,0.5309734513274337
0.40707964601769914,0.40707964601769914
0.6666666666666666,0.6666666666666666
0.6666666666666666,0.6666666666666666
0.6557377049180327,0.6557377049180327
0.6229508196721313,0.6229508196721313
0.5528455284552845,0.5528455284552845
0.45528455284552843,0.45528455284552843
0.45528455284552843,0.45528455284552843
0.36363636363636365,0.36363636363636365
0.3247863247863248,0.3247863247863248
0.3247863247863248,0.3247863247863248
0.3247863247863248,0.3247863247863248
0.6557377049180327,0.6557377049180327
0.639344262295082,0.639344262295082
0.5528455284552845,0.5528455284552845
0.45528455284552843,0.45528455284552843
0.3247863247863248,0.3247863247863248
0.3247863247863248,0.3247863247863248
0.3076923076923077,0.3076923076923077
0.3076923076923077,0.3076923076923077
0.3076923076923077,0.3076923076923077
0.3076923076923077,0.3076923076923077
0.3076923076923077,0.3076923076923077
0.639344262295082,0.639344262295082
0.5528455284552845,0.5528455284552845
0.3247863247863248,0.3247863247863248
0.3076923076923077,0.3076923076923077
0.3076923076923077,0.3076923076923077
0.3076923076923077,0.3076923076923077
0.3076923076923077,0.3076923076923077
0.3076923076923077,0.3076923076923077
0.3076923076923077,0.3076923076923077
0.3076923076923077,0.3076923076923077
0.3076923076923077,0.3076923076923077
0.5528455284552845,0.5528455284552845
0.36363636363636365,0.36363636363636365
0.3076923076923077,0.3076923076923077
0.3076923076923077,0.3076923076923077
0.3076923076923077,0.3076923076923077
0.3076923076923077,0.3076923076923077
0.3076923076923077,0.3076923076923077
0.3076923076923077,0.3076923076923077
0.3076923076923077,0.3076923076923077
0.3076923076923077,0.3076923076923077
0.3076923076923077,0.3076923076923077
0.36363636363636365,0.36363636363636365
0.3076923076923077,0.3076923076923077
0.3076923076923077,0.3076923076923077
0.3076923076923077,0.3076923076923077
0.3076923076923077,0.3076923076923077
0.3076923076923077,0.3076923076923077
0.3076923076923077,0.3076923076923077
0.3076923076923077,0.3076923076923077
0.3076923076923077,0.3076923076923077
0.3076923076923077,0.3076923076923077
0.3076923076923077,0.3076923076923077
0.3076923076923077,0.3076923076923077
0.3076923076923077,0.3076923076923077
0.3076923076923077,0.3076923076923077
0.3076923076923077,0.3076923076923077
0.3076923076923077,0.3076923076923077
0.3076923076923077,0.3076923076923077
0.2689075630252101,0.2689075630252101
0.2689075630252101,0.2689075630252101
0.2689075630252101,0.2689075630252101
0.2689075630252101,0.2689075630252101
0.2689075630252101,0.2689075630252101
0.3025210084033613,0.3025210084033613
0.3025210084033613,0.3025210084033613
0.3025210084033613,0.3025210084033613
0.3025210084033613,0.3025210084033613
0.3025210084033613,0.3025210084033613
0.3025210084033613,0.3025210084033613
0.3025210084033613,0.3025210084033613
0.3025210084033613,0.3025210084033613
0.3025210084033613,0.3025210084033613
0.3025210084033613,0.3025210084033613
0.3025210084033613,0.3025210084033613
0.6095238095238096,0.6095238095238096
0.6095238095238096,0.6095238095238096
0.6095238095238096,0.6095238095238096
0.6095238095238096,0.6095238095238096
0.6095238095238096,0.6095238095238096
0.6095238095238096,0.6095238095238096
0.6095238095238096,0.6095238095238096
0.6095238095238096,0.6095238095238096
0.6095238095238096,0.6095238095238096
0.6095238095238096,0.6095238095238096
0.6095238095238096,0.6095238095238096
0.6095238095238096,0.6095238095238096
0.6095238095238096,0.6095238095238096
0.6095238095238096,0.6095238095238096
0.6095238095238096,0.6095238095238096
0.6095238095238096,0.6095238095238096
0.6095238095238096,0.6095238095238096
0.6095238095238096,0.6095238095238096
0.6095238095238096,0.6095238095238096
0.6095238095238096,0.6095238095238096
0.6095238095238096,0.6095238095238096
0.6095238095238096,0.6095238095238096
0.6095238095238096,0.6095238095238096
0.6095238095238096,0.6095238095238096
0.6095238095238096,0.6095238095238096
0.6095238095238096,0.6095238095238096
0.6095238095238096,0.6095238095238096
0.6095238095238096,0.6095238095238096
0.6095238095238096,0.6095238095238096
0.6095238095238096,0.6095238095238096
0.6095238095238096,0.6095238095238096
0.6095238095238096,0.6095238095238096
0.6095238095238096,0.6095238095238096
0.7304347826086957,0.7304347826086957
0.7304347826086957,0.7304347826086957
0.7304347826086957,0.7304347826086957
0.7304347826086957,0.7304347826086957
0.7304347826086957,0.7304347826086957
0.7304347826086957,0.7304347826086957
0.7304347826086957,0.7304347826086957
0.7304347826086957,0.7304347826086957
0.7304347826086957,0.7304347826086957
0.7304347826086957,0.7304347826086957
0.7304347826086957,0.7304347826086957
0.7521367521367521,0.7521367521367521
0.7521367521367521,0.7521367521367521
0.7521367521367521,0.7521367521367521
0.7521367521367521,0.7521367521367521
0.7521367521367521,0.7521367521367521
0.7521367521367521,0.7521367521367521
0.7521367521367521,0.7521367521367521
0.7521367521367521,0.7521367521367521
0.7521367521367521,0.7521367521367521
0.7521367521367521,0.7521367521367521
0.7521367521367521,0.7521367521367521
0.7627118644067795,0.7627118644067795
0.7627118644067795,0.7627118644067795
0.7627118644067795,0.7627118644067795
0.7627118644067795,0.7627118644067795
0.7627118644067795,0.7627118644067795
0.7627118644067795,0.7627118644067795
0.7627118644067795,0.7627118644067795
0.7627118644067795,0.7627118644067795
0.7627118644067795,0.7627118644067795
0.7796610169491527,0.7796610169491527
0.7796610169491527,0.7796610169491527
0.7627118644067795,0.7627118644067795
0.7627118644067795,0.7627118644067795
0.7627118644067795,0.7627118644067795
0.7627118644067795,0.7627118644067795
0.7627118644067795,0.7627118644067795
0.7627118644067795,0.7627118644067795
0.7796610169491527,0.7796610169491527
0.728813559322034,0.728813559322034
0.711864406779661,0.711864406779661
0.6779661016949153,0.6779661016949153
0.6779661016949153,0.6779661016949153
0.7142857142857143,0.7142857142857143
0.7142857142857143,0.7142857142857143
0.7142857142857143,0.7142857142857143
0.7301587301587302,0.7301587301587302
0.6771653543307087,0.6771653543307087
0.6299212598425197,0.6299212598425197
0.59375,0.59375
0.5581395348837209,0.5581395348837209
0.5,0.5
0.5,0.5
0.46031746031746035,0.46031746031746035
0.7142857142857143,0.7142857142857143
0.7142857142857143,0.7142857142857143
0.7086614173228347,0.7086614173228347
0.59375,0.59375
0.5,0.5
0.5,0.5
0.4126984126984127,0.4126984126984127
0.384,0.384
0.35200000000000004,0.35200000000000004
0.35200000000000004,0.35200000000000004
0.35200000000000004,0.35200000000000004
0.7142857142857143,0.7142857142857143
0.6929133858267716,0.6929133858267716
0.53125,0.53125
0.4126984126984127,0.4126984126984127
0.384,0.384
0.35200000000000004,0.35200000000000004
0.35200000000000004,0.35200000000000004
0.3225806451612903,0.3225806451612903
0.3225806451612903,0.3225806451612903
0.3225806451612903,0.3225806451612903
0.3225806451612903,0.3225806451612903
0.6976744186046512,0.6976744186046512
0.53125,0.53125
0.384,0.384
0.35200000000000004,0.35200000000000004
0.3225806451612903,0.3225806451612903
0.3225806451612903,0.3225806451612903
0.3225806451612903,0.3225806451612903
0.3225806451612903,0.3225806451612903
0.3225806451612903,0.3225806451612903
0.3225806451612903,0.3225806451612903
0.3225806451612903,0.3225806451612903
0.53125,0.53125
0.384,0.384
0.3225806451612903,0.3225806451612903
0.3225806451612903,0.3225806451612903
0.3225806451612903,0.3225806451612903
0.3225806451612903,0.3225806451612903
0.3225806451612903,0.3225806451612903
0.3225806451612903,0.3225806451612903
0.3225806451612903,0.3225806451612903
0.3225806451612903,0.3225806451612903
0.3225806451612903,0.3225806451612903
0.384,0.384
0.3225806451612903,0.3225806451612903
0.3225806451612903,0.3225806451612903
0.3225806451612903,0.3225806451612903
0.3225806451612903,0.3225806451612903
0.3225806451612903,0.3225806451612903
0.3225806451612903,0.3225806451612903
0.3225806451612903,0.3225806451612903
0.3225806451612903,0.3225806451612903
0.3225806451612903,0.3225806451612903
0.3225806451612903,0.3225806451612903
0.3225806451612903,0.3225806451612903
0.3225806451612903,0.3225806451612903
0.3025210084033613,0.3025210084033613
0.3025210084033613,0.3025210084033613
0.3025210084033613,0.3025210084033613
0.3025210084033613,0.3025210084033613
0.3025210084033613,0.3025210084033613
0.3025210084033613,0.3025210084033613
0.3025210084033613,0.3025210084033613
0.3025210084033613,0.3025210084033613
0.3025210084033613,0.3025210084033613
0.6226415094339623,0.6226415094339623
0.6226415094339623,0.6226415094339623
0.6226415094339623,0.6226415094339623
0.6226415094339623,0.6226415094339623
0.6226415094339623,0.6226415094339623
0.6226415094339623,0.6226415094339623
0.6226415094339623,0.6226415094339623
0.6226415094339623,0.6226415094339623
0.6226415094339623,0.6226415094339623
0.6226415094339623,0.6226415094339623
0.6226415094339623,0.6226415094339623
0.6226415094339623,0.6226415094339623
0.6226415094339623,0.6226415094339623
0.6226415094339623,0.6226415094339623
0.6226415094339623,0.6226415094339623
0.6226415094339623,0.6226415094339623
0.6226415094339623,0.6226415094339623
0.6226415094339623,0.6226415094339623
0.6226415094339623,0.6226415094339623
0.6226415094339623,0.6226415094339623
0.6226415094339623,0.6226415094339623
0.6226415094339623,0.6226415094339623
0.6226415094339623,0.6226415094339623
0.6226415094339623,0.6226415094339623
0.6226415094339623,0.6226415094339623
0.6226415094339623,0.6226415094339623
0.6226415094339623,0.6226415094339623
0.6226415094339623,0.6226415094339623
0.6226415094339623,0.6226415094339623
0.6226415094339623,0.6226415094339623
0.6226415094339623,0.6226415094339623
0.6226415094339623,0.6226415094339623
0.6226415094339623,0.6226415094339623
0.7413793103448276,0.7413793103448276
0.7413793103448276,0.7413793103448276
0.7413793103448276,0.7413793103448276
0.7413793103448276,0.7413793103448276
0.7413793103448276,0.7413793103448276
0.7413793103448276,0.7413793103448276
0.7413793103448276,0.7413793103448276
0.7413793103448276,0.7413793103448276
0.7413793103448276,0.7413793103448276
0.7413793103448276,0.7413793103448276
0.7413793103448276,0.7413793103448276
0.7627118644067795,0.7627118644067795
0.7627118644067795,0.7627118644067795
0.7627118644067795,0.7627118644067795
0.7627118644067795,0.7627118644067795
0.7627118644067795,0.7627118644067795
0.7627118644067795,0.7627118644067795
0.7627118644067795,0.7627118644067795
0.7627118644067795,0.7627118644067795
0.7627118644067795,0.7627118644067795
0.7627118644067795,0.7627118644067795
0.7627118644067795,0.7627118644067795
0.773109243697479,0.773109243697479
0.773109243697479,0.773109243697479
0.773109243697479,0.773109243697479
0.773109243697479,0.773109243697479
0.773109243697479,0.773109243697479
0.773109243697479,0.773109243697479
0.773109243697479,0.773109243697479
0.773109243697479,0.773109243697479
0.773109243697479,0.773109243697479
0.773109243697479,0.773109243697479
0.773109243697479,0.773109243697479
0.773109243697479,0.773109243697479
0.773109243697479,0.773109243697479
0.773109243697479,0.773109243697479
0.773109243697479,0.773109243697479
0.773109243697479,0.773109243697479
0.773109243697479,0.773109243697479
0.773109243697479,0.773109243697479
0.773109243697479,0.773109243697479
0.773109243697479,0.773109243697479
0.7899159663865546,0.7899159663865546
0.7899159663865546,0.7899159663865546
0.7244094488188977,0.7244094488188977
0.7244094488188977,0.7244094488188977
0.7244094488188977,0.7244094488188977
0.7244094488188977,0.7244094488188977
0.7244094488188977,0.7244094488188977
0.7401574803149608,0.7401574803149608
0.7401574803149608,0.7401574803149608
0.6929133858267716,0.6929133858267716
0.6614173228346456,0.6614173228346456
0.59375,0.59375
0.59375,0.59375
0.7244094488188977,0.7244094488188977
0.7244094488188977,0.7244094488188977
0.7244094488188977,0.7244094488188977
0.7401574803149608,0.7401574803149608
0.6614173228346456,0.6614173228346456
0.59375,0.59375
0.5891472868217054,0.5891472868217054
0.5,0.5
0.5,0.5
0.46031746031746035,0.46031746031746035
0.4126984126984127,0.4126984126984127
0.7244094488188977,0.7244094488188977
0.7244094488188977,0.7244094488188977
0.6614173228346456,0.6614173228346456
0.5891472868217054,0.5891472868217054
0.5,0.5
0.4126984126984127,0.4126984126984127
0.384,0.384
0.35200000000000004,0.35200000000000004
0.35200000000000004,0.35200000000000004
0.35200000000000004,0.35200000000000004
0.35200000000000004,0.35200000000000004
0.7244094488188977,0.7244094488188977
0.6769230769230768,0.6769230769230768
0.5,0.5
0.384,0.384
0.35200000000000004,0.35200000000000004
0.35200000000000004,0.35200000000000004
0.3225806451612903,0.3225806451612903
0.3225806451612903,0.3225806451612903
0.3225806451612903,0.3225806451612903
0.3225806451612903,0.3225806451612903
0.3225806451612903,0.3225806451612903
0.6769230769230768,0.6769230769230768
0.5,0.5
0.35200000000000004,0.35200000000000004
0.3225806451612903,0.3225806451612903
0.3225806451612903,0.3225806451612903
0.3225806451612903,0.3225806451612903
0.3225806451612903,0.3225806451612903
0.3225806451612903,0.3225806451612903
0.3225806451612903,0.3225806451612903
0.3225806451612903,0.3225806451612903
0.3225806451612903,0.3225806451612903
0.5,0.5
0.35200000000000004,0.35200000000000004
0.3225806451612903,0.3225806451612903
0.3225806451612903,0.3225806451612903
0.3225806451612903,0.3225806451612903
0.3225806451612903,0.3225806451612903
0.3225806451612903,0.3225806451612903
0.3225806451612903,0.3225806451612903
0.3225806451612903,0.3225806451612903
0.3225806451612903,0.3225806451612903
0.3225806451612903,0.3225806451612903
0.35200000000000004,0.35200000000000004
0.3225806451612903,0.3225806451612903
0.3025210084033613,0.3025210084033613
0.3025210084033613,0.3025210084033613
0.3025210084033613,0.3025210084033613
0.3025210084033613,0.3025210084033613
0.3025210084033613,0.3025210084033613
0.3025210084033613,0.3025210084033613
0.3025210084033613,0.3025210084033613
0.3025210084033613,0.3025210084033613
0.3025210084033613,0.3025210084033613
0.6355140186915887,0.6355140186915887
0.6355140186915887,0.6355140186915887
0.6355140186915887,0.6355140186915887
0.6355140186915887,0.6355140186915887
0.6355140186915887,0.6355140186915887
0.6355140186915887,0.6355140186915887
0.6355140186915887,0.6355140186915887
0.6355140186915887,0.6355140186915887
0.6355140186915887,0.6355140186915887
0.6355140186915887,0.6355140186915887
0.6355140186915887,0.6355140186915887
0.6355140186915887,0.6355140186915887
0.6355140186915887,0.6355140186915887
0.6355140186915887,0.6355140186915887
0.6355140186915887,0.6355140186915887
0.6355140186915887,0.6355140186915887
0.6355140186915887,0.6355140186915887
0.6355140186915887,0.6355140186915887
0.6355140186915887,0.6355140186915887
0.6355140186915887,0.6355140186915887
0.6355140186915887,0.6355140186915887
0.6355140186915887,0.6355140186915887
0.6355140186915887,0.6355140186915887
0.6355140186915887,0.6355140186915887
0.6355140186915887,0.6355140186915887
0.6355140186915887,0.6355140186915887
0.6355140186915887,0.6355140186915887
0.6355140186915887,0.6355140186915887
0.6355140186915887,0.6355140186915887
0.6355140186915887,0.6355140186915887
0.6355140186915887,0.6355140186915887
0.6355140186915887,0.6355140186915887
0.6355140186915887,0.6355140186915887
0.7521367521367521,0.7521367521367521
0.7521367521367521,0.7521367521367521
0.7521367521367521,0.7521367521367521
0.7521367521367521,0.7521367521367521
0.7521367521367521,0.7521367521367521
0.7521367521367521,0.7521367521367521
0.7521367521367521,0.7521367521367521
0.7521367521367521,0.7521367521367521
0.7521367521367521,0.7521367521367521
0.7521367521367521,0.7521367521367521
0.7521367521367521,0.7521367521367521
0.773109243697479,0.773109243697479
0.773109243697479,0.773109243697479
0.773109243697479,0.773109243697479
0.773109243697479,0.773109243697479
0.773109243697479,0.773109243697479
0.773109243697479,0.773109243697479
0.773109243697479,0.773109243697479
0.773109243697479,0.773109243697479
0.773109243697479,0.773109243697479
0.773109243697479,0.773109243697479
0.773109243697479,0.773109243697479
0.7833333333333333,0.7833333333333333
0.7833333333333333,0.7833333333333333
0.7833333333333333,0.7833333333333333
0.7833333333333333,0.7833333333333333
0.7833333333333333,0.7833333333333333
0.7833333333333333,0.7833333333333333
0.7833333333333333,0.7833333333333333
0.7833333333333333,0.7833333333333333
0.7833333333333333,0.7833333333333333
0.7833333333333333,0.7833333333333333
0.7833333333333333,0.7833333333333333
0.7833333333333333,0.7833333333333333
0.7833333333333333,0.7833333333333333
0.7833333333333333,0.7833333333333333
0.7833333333333333,0.7833333333333333
0.7833333333333333,0.7833333333333333
0.7833333333333333,0.7833333333333333
0.7833333333333333,0.7833333333333333
0.7833333333333333,0.7833333333333333
0.7833333333333333,0.7833333333333333
0.7833333333333333,0.7833333333333333
0.7833333333333333,0.7833333333333333
0.746031746031746,0.746031746031746
0.746031746031746,0.746031746031746
0.746031746031746,0.746031746031746
0.746031746031746,0.746031746031746
0.7244094488188977,0.7244094488188977
0.7244094488188977,0.7244094488188977
0.7244094488188977,0.7244094488188977
0.7244094488188977,0.7244094488188977
0.7244094488188977,0.7244094488188977
0.7401574803149608,0.7401574803149608
0.7401574803149608,0.7401574803149608
0.7343749999999999,0.7343749999999999
0.7343749999999999,0.7343749999999999
0.7343749999999999,0.7343749999999999
0.7244094488188977,0.7244094488188977
0.7244094488188977,0.7244094488188977
0.7401574803149608,0.7401574803149608
0.7559055118110236,0.7559055118110236
0.6614173228346456,0.6614173228346456
0.6299212598425197,0.6299212598425197
0.59375,0.59375
0.59375,0.59375
0.7343749999999999,0.7343749999999999
0.7343749999999999,0.7343749999999999
0.7244094488188977,0.7244094488188977
0.7401574803149608,0.7401574803149608
0.6299212598425197,0.6299212598425197
0.59375,0.59375
0.53125,0.53125
0.5,0.5
0.4724409448818898,0.4724409448818898
0.4126984126984127,0.4126984126984127
0.384,0.384
0.7343749999999999,0.7343749999999999
0.7244094488188977,0.7244094488188977
0.6461538461538462,0.6461538461538462
0.53125,0.53125
0.4724409448818898,0.4724409448818898
0.384,0.384
0.384,0.384
0.35200000000000004,0.35200000000000004
0.35200000000000004,0.35200000000000004
0.35200000000000004,0.35200000000000004
0.35200000000000004,0.35200000000000004
0.7244094488188977,0.7244094488188977
0.6461538461538462,0.6461538461538462
0.4724409448818898,0.4724409448818898
0.384,0.384
0.35200000000000004,0.35200000000000004
0.35200000000000004,0.35200000000000004
0.3225806451612903,0.3225806451612903
0.3225806451612903,0.3225806451612903
0.3225806451612903,0.3225806451612903
0.3225806451612903,0.3225806451612903
0.3225806451612903,0.3225806451612903
0.6461538461538462,0.6461538461538462
0.4724409448818898,0.4724409448818898
0.35200000000000004,0.35200000000000004
0.3225806451612903,0.3225806451612903
0.3225806451612903,0.3225806451612903
0.3225806451612903,0.3225806451612903
0.3225806451612903,0.3225806451612903
0.3225806451612903,0.3225806451612903
0.3225806451612903,0.3225806451612903
0.3225806451612903,0.3225806451612903
0.3225806451612903,0.3225806451612903
0.4724409448818898,0.4724409448818898
0.35200000000000004,0.35200000000000004
0.3225806451612903,0.3225806451612903
0.3225806451612903,0.3225806451612903
0.3025210084033613,0.3025210084033613
0.3025210084033613,0.3025210084033613
0.3025210084033613,0.3025210084033613
0.3025210084033613,0.3025210084033613
0.3025210084033613,0.3025210084033613
0.3025210084033613,0.3025210084033613
0.3025210084033613,0.3025210084033613
0.6071428571428571,0.6071428571428571
0.6071428571428571,0.6071428571428571
0.6071428571428571,0.6071428571428571
0.6071428571428571,0.6071428571428571
0.6071428571428571,0.6071428571428571
0.6071428571428571,0.6071428571428571
0.6071428571428571,0.6071428571428571
0.6071428571428571,0.6071428571428571
0.6071428571428571,0.6071428571428571
0.6071428571428571,0.6071428571428571
0.6071428571428571,0.6071428571428571
0.6071428571428571,0.6071428571428571
0.6071428571428571,0.6071428571428571
0.6071428571428571,0.6071428571428571
0.6071428571428571,0.6071428571428571
0.6071428571428571,0.6071428571428571
0.6071428571428571,0.6071428571428571
0.6071428571428571,0.6071428571428571
0.6071428571428571,0.6071428571428571
0.6071428571428571,0.6071428571428571
0.6071428571428571,0.6071428571428571
0.6071428571428571,0.6071428571428571
0.6071428571428571,0.6071428571428571
0.6071428571428571,0.6071428571428571
0.6071428571428571,0.6071428571428571
0.6071428571428571,0.6071428571428571
0.6071428571428571,0.6071428571428571
0.6071428571428571,0.6071428571428571
0.6071428571428571,0.6071428571428571
0.6071428571428571,0.6071428571428571
0.6071428571428571,0.6071428571428571
0.6071428571428571,0.6071428571428571
0.6071428571428571,0.6071428571428571
0.7,0.7
0.7,0.7
0.7,0.7
0.7,0.7
0.7,0.7
0.7,0.7
0.7,0.7
0.7,0.7
0.7,0.7
0.7272727272727273,0.7272727272727273
0.7272727272727273,0.7272727272727273
0.7213114754098361,0.7213114754098361
0.7213114754098361,0.7213114754098361
0.7213114754098361,0.7213114754098361
0.7213114754098361,0.7213114754098361
0.7213114754098361,0.7213114754098361
0.7213114754098361,0.7213114754098361
0.7213114754098361,0.7213114754098361
0.7479674796747968,0.7479674796747968
0.7479674796747968,0.7479674796747968
0.7479674796747968,0.7479674796747968
0.7479674796747968,0.7479674796747968
0.7213114754098361,0.7213114754098361
0.7213114754098361,0.7213114754098361
0.7213114754098361,0.7213114754098361
0.7213114754098361,0.7213114754098361
0.7580645161290323,0.7580645161290323
0.7580645161290323,0.7580645161290323
0.7580645161290323,0.7580645161290323
0.7580645161290323,0.7580645161290323
0.7580645161290323,0.7580645161290323
0.7580645161290323,0.7580645161290323
0.7580645161290323,0.7580645161290323
0.7213114754098361,0.7213114754098361
0.7213114754098361,0.7213114754098361
0.7580645161290323,0.7580645161290323
0.7580645161290323,0.7580645161290323
0.7580645161290323,0.7580645161290323
0.7580645161290323,0.7580645161290323
0.7580645161290323,0.7580645161290323
0.7580645161290323,0.7580645161290323
0.7580645161290323,0.7580645161290323
0.7580645161290323,0.7580645161290323
0.7580645161290323,0.7580645161290323
0.6875,0.6875
0.6875,0.6875
0.7286821705426356,0.7286821705426356
0.7286821705426356,0.7286821705426356
0.7286821705426356,0.7286821705426356
0.7286821705426356,0.7286821705426356
0.7286821705426356,0.7286821705426356
0.7286821705426356,0.7286821705426356
0.7286821705426356,0.7286821705426356
0.7286821705426356,0.7286821705426356
0.7131782945736433,0.7131782945736433
0.6769230769230768,0.6769230769230768
0.7230769230769231,0.7230769230769231
0.7230769230769231,0.7230769230769231
0.7230769230769231,0.7230769230769231
0.7230769230769231,0.7230769230769231
0.7230769230769231,0.7230769230769231
0.7131782945736433,0.7131782945736433
0.7131782945736433,0.7131782945736433
0.7131782945736433,0.7131782945736433
0.7286821705426356,0.7286821705426356
0.7286821705426356,0.7286821705426356
0.7230769230769231,0.7230769230769231
0.7230769230769231,0.7230769230769231
0.7230769230769231,0.7230769230769231
0.7131782945736433,0.7131782945736433
0.7131782945736433,0.7131782945736433
0.7286821705426356,0.7286821705426356
0.7131782945736433,0.7131782945736433
0.6511627906976744,0.6511627906976744
0.6201550387596899,0.6201550387596899
0.5846153846153846,0.5846153846153846
0.5846153846153846,0.5846153846153846
0.7230769230769231,0.7230769230769231
0.7230769230769231,0.7230769230769231
0.7131782945736433,0.7131782945736433
0.7022900763358779,0.7022900763358779
0.6363636363636365,0.6363636363636365
0.5846153846153846,0.5846153846153846
0.4923076923076923,0.4923076923076923
0.4732824427480916,0.4732824427480916
0.4461538461538461,0.4461538461538461
0.4,0.4
0.37209302325581395,0.37209302325581395
0.7230769230769231,0.7230769230769231
0.7131782945736433,0.7131782945736433
0.6363636363636365,0.6363636363636365
0.4923076923076923,0.4923076923076923
0.4461538461538461,0.4461538461538461
0.37209302325581395,0.37209302325581395
0.34108527131782945,0.34108527131782945
0.34108527131782945,0.34108527131782945
0.34108527131782945,0.34108527131782945
0.34108527131782945,0.34108527131782945
0.3125,0.3125
0.7131782945736433,0.7131782945736433
0.6363636363636365,0.6363636363636365
0.4461538461538461,0.4461538461538461
0.34108527131782945,0.34108527131782945
0.34108527131782945,0.34108527131782945
0.3125,0.3125
0.3125,0.3125
0.3125,0.3125
0.3125,0.3125
0.3125,0.3125
0.3125,0.3125
0.6363636363636365,0.6363636363636365
0.4461538461538461,0.4461538461538461
0.34108527131782945,0.34108527131782945
0.3125,0.3125
0.2834645669291339,0.2834645669291339
0.2834645669291339,0.2834645669291339
0.2834645669291339,0.2834645669291339
0.2834645669291339,0.2834645669291339
0.2834645669291339,0.2834645669291339
0.2834645669291339,0.2834645669291339
0.2834645669291339,0.2834645669291339
0.5714285714285714,0.5714285714285714
0.5714285714285714,0.5714285714285714
0.5714285714285714,0.5714285714285714
0.5714285714285714,0.5714285714285714
0.5714285714285714,0.5714285714285714
0.5714285714285714,0.5714285714285714
0.5714285714285714,0.5714285714285714
0.5714285714285714,0.5714285714285714
0.5714285714285714,0.5714285714285714
0.5714285714285714,0.5714285714285714
0.5714285714285714,0.5714285714285714
0.5714285714285714,0.5714285714285714
0.5714285714285714,0.5714285714285714
0.5714285714285714,0.5714285714285714
0.5714285714285714,0.5714285714285714
0.5714285714285714,0.5714285714285714
0.5714285714285714,0.5714285714285714
0.5714285714285714,0.5714285714285714
0.5714285714285714,0.5714285714285714
0.5714285714285714,0.5714285714285714
0.5714285714285714,0.5714285714285714
0.5714285714285714,0.5714285714285714
0.5714285714285714,0.5714285714285714
0.5714285714285714,0.5714285714285714
0.5714285714285714,0.5714285714285714
0.5714285714285714,0.5714285714285714
0.5714285714285714,0.5714285714285714
0.5714285714285714,0.5714285714285714
0.5714285714285714,0.5714285714285714
0.5714285714285714,0.5714285714285714
0.5714285714285714,0.5714285714285714
0.5714285714285714,0.5714285714285714
0.5714285714285714,0.5714285714285714
0.6178861788617885,0.6178861788617885
0.64,0.64
0.64,0.64
0.64,0.64
0.64,0.64
0.64,0.64
0.64,0.64
0.64,0.64
0.6614173228346456,0.6614173228346456
0.6614173228346456,0.6614173228346456
0.6614173228346456,0.6614173228346456
0.64,0.64
0.64,0.64
0.64,0.64
0.64,0.64
0.64,0.64
0.64,0.64
0.6614173228346456,0.6614173228346456
0.6614173228346456,0.6614173228346456
0.6614173228346456,0.6614173228346456
0.6614173228346456,0.6614173228346456
0.7086614173228347,0.7086614173228347
0.64,0.64
0.64,0.64
0.64,0.64
0.6821705426356589,0.6821705426356589
0.6821705426356589,0.6821705426356589
0.6821705426356589,0.6821705426356589
0.6821705426356589,0.6821705426356589
0.6821705426356589,0.6821705426356589
0.6976744186046512,0.6976744186046512
0.6976744186046512,0.6976744186046512
0.7343749999999999,0.7343749999999999
0.64,0.64
0.64,0.64
0.6821705426356589,0.6821705426356589
0.6821705426356589,0.6821705426356589
0.6821705426356589,0.6821705426356589
0.6976744186046512,0.6976744186046512
0.7343749999999999,0.7343749999999999
0.7343749999999999,0.7343749999999999
0.7343749999999999,0.7343749999999999
0.7343749999999999,0.7343749999999999
0.7343749999999999,0.7343749999999999
0.6106870229007634,0.6106870229007634
0.6567164179104478,0.6567164179104478
0.6567164179104478,0.6567164179104478
0.6716417910447762,0.6716417910447762
0.7067669172932332,0.7067669172932332
0.7067669172932332,0.7067669172932332
0.7067669172932332,0.7067669172932332
0.7067669172932332,0.7067669172932332
0.7067669172932332,0.7067669172932332
0.7067669172932332,0.7067669172932332
0.7067669172932332,0.7067669172932332
0.6518518518518519,0.6518518518518519
0.6518518518518519,0.6518518518518519
0.7014925373134329,0.7014925373134329
0.7014925373134329,0.7014925373134329
0.7014925373134329,0.7014925373134329
0.7014925373134329,0.7014925373134329
0.7014925373134329,0.7014925373134329
0.7014925373134329,0.7014925373134329
0.7014925373134329,0.7014925373134329
0.7014925373134329,0.7014925373134329
0.7067669172932332,0.7067669172932332
0.6518518518518519,0.6518518518518519
0.7014925373134329,0.7014925373134329
0.7014925373134329,0.7014925373134329
0.7014925373134329,0.7014925373134329
0.7014925373134329,0.7014925373134329
0.7067669172932332,0.7067669172932332
0.6865671641791045,0.6865671641791045
0.6865671641791045,0.6865671641791045
0.6865671641791045,0.6865671641791045
0.7014925373134329,0.7014925373134329
0.7014925373134329,0.7014925373134329
0.7014925373134329,0.7014925373134329
0.7014925373134329,0.7014925373134329
0.7014925373134329,0.7014925373134329
0.6865671641791045,0.6865671641791045
0.6865671641791045,0.6865671641791045
0.7014925373134329,0.7014925373134329
0.676470588235294,0.676470588235294
0.6222222222222222,0.6222222222222222
0.5714285714285714,0.5714285714285714
0.5714285714285714,0.5714285714285714
0.5671641791044775,0.5671641791044775
0.7014925373134329,0.7014925373134329
0.7014925373134329,0.7014925373134329
0.6865671641791045,0.6865671641791045
0.676470588235294,0.676470588235294
0.6222222222222222,0.6222222222222222
0.5671641791044775,0.5671641791044775
0.48120300751879697,0.48120300751879697
0.48120300751879697,0.48120300751879697
0.4,0.4
0.37209302325581395,0.37209302325581395
0.37209302325581395,0.37209302325581395
0.7014925373134329,0.7014925373134329
0.6865671641791045,0.6865671641791045
0.6222222222222222,0.6222222222222222
0.48120300751879697,0.48120300751879697
0.4,0.4
0.37209302325581395,0.37209302325581395
0.34108527131782945,0.34108527131782945
0.34108527131782945,0.34108527131782945
0.34108527131782945,0.34108527131782945
0.34108527131782945,0.34108527131782945
0.30769230769230765,0.30769230769230765
0.676470588235294,0.676470588235294
0.6222222222222222,0.6222222222222222
0.4,0.4
0.34108527131782945,0.34108527131782945
0.34108527131782945,0.34108527131782945
0.30769230769230765,0.30769230769230765
0.30769230769230765,0.30769230769230765
0.30769230769230765,0.30769230769230765
0.30769230769230765,0.30769230769230765
0.2834645669291339,0.2834645669291339
0.2834645669291339,0.2834645669291339
0.5439999999999999,0.5439999999999999
0.5439999999999999,0.5439999999999999
0.5439999999999999,0.5439999999999999
0.5439999999999999,0.5439999999999999
0.5439999999999999,0.5439999999999999
0.5439999999999999,0.5439999999999999
0.5439999999999999,0.5439999999999999
0.5439999999999999,0.5439999999999999
0.5439999999999999,0.5439999999999999
0.5439999999999999,0.5439999999999999
0.5439999999999999,0.5439999999999999
0.5439999999999999,0.5439999999999999
0.5439999999999999,0.5439999999999999
0.5439999999999999,0.5439999999999999
0.5439999999999999,0.5439999999999999
0.5439999999999999,0.5439999999999999
0.5439999999999999,0.5439999999999999
0.5439999999999999,0.5439999999999999
0.5439999999999999,0.5439999999999999
0.5439999999999999,0.5439999999999999
0.5439999999999999,0.5439999999999999
0.5439999999999999,0.5439999999999999
0.5439999999999999,0.5439999999999999
0.5439999999999999,0.5439999999999999
0.5439999999999999,0.5439999999999999
0.5439999999999999,0.5439999999999999
0.5439999999999999,0.5439999999999999
0.5439999999999999,0.5439999999999999
0.5439999999999999,0.5439999999999999
0.5439999999999999,0.5439999999999999
0.5439999999999999,0.5439999999999999
0.5439999999999999,0.5439999999999999
0.5439999999999999,0.5439999999999999
0.5669291338582678,0.5669291338582678
0.5669291338582678,0.5669291338582678
0.5669291338582678,0.5669291338582678
0.5891472868217054,0.5891472868217054
0.6153846153846153,0.6153846153846153
0.6153846153846153,0.6153846153846153
0.6153846153846153,0.6153846153846153
0.6153846153846153,0.6153846153846153
0.6153846153846153,0.6153846153846153
0.6153846153846153,0.6153846153846153
0.6153846153846153,0.6153846153846153
0.5669291338582678,0.5669291338582678
0.5669291338582678,0.5669291338582678
0.5669291338582678,0.5669291338582678
0.6153846153846153,0.6153846153846153
0.6153846153846153,0.6153846153846153
0.6153846153846153,0.6153846153846153
0.6153846153846153,0.6153846153846153
0.6153846153846153,0.6153846153846153
0.6153846153846153,0.6153846153846153
0.6153846153846153,0.6153846153846153
0.6153846153846153,0.6153846153846153
0.5669291338582678,0.5669291338582678
0.5669291338582678,0.5669291338582678
0.6153846153846153,0.6153846153846153
0.6153846153846153,0.6153846153846153
0.6153846153846153,0.6153846153846153
0.6153846153846153,0.6153846153846153
0.6153846153846153,0.6153846153846153
0.6153846153846153,0.6153846153846153
0.6153846153846153,0.6153846153846153
0.6153846153846153,0.6153846153846153
0.6666666666666666,0.6666666666666666
0.5669291338582678,0.5669291338582678
0.5891472868217054,0.5891472868217054
0.6153846153846153,0.6153846153846153
0.6153846153846153,0.6153846153846153
0.6153846153846153,0.6153846153846153
0.6153846153846153,0.6153846153846153
0.6666666666666666,0.6666666666666666
0.6666666666666666,0.6666666666666666
0.6666666666666666,0.6666666666666666
0.6666666666666666,0.6666666666666666
0.6818181818181818,0.6818181818181818
0.5714285714285714,0.5714285714285714
0.5970149253731343,0.5970149253731343
0.5970149253731343,0.5970149253731343
0.5970149253731343,0.5970149253731343
0.6567164179104478,0.6567164179104478
0.6423357664233577,0.6423357664233577
0.6569343065693432,0.6569343065693432
0.6911764705882353,0.6911764705882353
0.7014925373134329,0.7014925373134329
0.7014925373134329,0.7014925373134329
0.7014925373134329,0.7014925373134329
0.5882352941176471,0.5882352941176471
0.5882352941176471,0.5882352941176471
0.6518518518518519,0.6518518518518519
0.6617647058823529,0.6617647058823529
0.6962962962962963,0.6962962962962963
0.6962962962962963,0.6962962962962963
0.6962962962962963,0.6962962962962963
0.6962962962962963,0.6962962962962963
0.6962962962962963,0.6962962962962963
0.6962962962962963,0.6962962962962963
0.6962962962962963,0.6962962962962963
0.5882352941176471,0.5882352941176471
0.6470588235294117,0.6470588235294117
0.6962962962962963,0.6962962962962963
0.6962962962962963,0.6962962962962963
0.6962962962962963,0.6962962962962963
0.6962962962962963,0.6962962962962963
0.6962962962962963,0.6962962962962963
0.6962962962962963,0.6962962962962963
0.6962962962962963,0.6962962962962963
0.6962962962962963,0.6962962962962963
0.7014925373134329,0.7014925373134329
0.6470588235294117,0.6470588235294117
0.6962962962962963,0.6962962962962963
0.6962962962962963,0.6962962962962963
0.6962962962962963,0.6962962962962963
0.6962962962962963,0.6962962962962963
0.7014925373134329,0.7014925373134329
0.6865671641791045,0.6865671641791045
0.6865671641791045,0.6865671641791045
0.6865671641791045,0.6865671641791045
0.7014925373134329,0.7014925373134329
0.7014925373134329,0.7014925373134329
0.6962962962962963,0.6962962962962963
0.6962962962962963,0.6962962962962963
0.6962962962962963,0.6962962962962963
0.6865671641791045,0.6865671641791045
0.6865671641791045,0.6865671641791045
0.7014925373134329,0.7014925373134329
0.676470588235294,0.676470588235294
0.6222222222222222,0.6222222222222222
0.5714285714285714,0.5714285714285714
0.5714285714285714,0.5714285714285714
0.5671641791044775,0.5671641791044775
0.6962962962962963,0.6962962962962963
0.6962962962962963,0.6962962962962963
0.6865671641791045,0.6865671641791045
0.676470588235294,0.676470588235294
0.5714285714285714,0.5714285714285714
0.5671641791044775,0.5671641791044775
0.48120300751879697,0.48120300751879697
0.46616541353383456,0.46616541353383456
0.40601503759398494,0.40601503759398494
0.36641221374045807,0.36641221374045807
0.36641221374045807,0.36641221374045807
0.6962962962962963,0.6962962962962963
0.676470588235294,0.676470588235294
0.5714285714285714,0.5714285714285714
0.48120300751879697,0.48120300751879697
0.40601503759398494,0.40601503759398494
0.36641221374045807,0.36641221374045807
0.34108527131782945,0.34108527131782945
0.34108527131782945,0.34108527131782945
0.34108527131782945,0.34108527131782945
0.34108527131782945,0.34108527131782945
0.30769230769230765,0.30769230769230765
0.5271317829457365,0.5271317829457365
0.5271317829457365,0.5271317829457365
0.5271317829457365,0.5271317829457365
0.5271317829457365,0.5271317829457365
0.5271317829457365,0.5271317829457365
0.5271317829457365,0.5271317829457365
0.5271317829457365,0.5271317829457365
0.5271317829457365,0.5271317829457365
0.5271317829457365,0.5271317829457365
0.5271317829457365,0.5271317829457365
0.5271317829457365,0.5271317829457365
0.5271317829457365,0.5271317829457365
0.5271317829457365,0.5271317829457365
0.5271317829457365,0.5271317829457365
0.5271317829457365,0.5271317829457365
0.5271317829457365,0.5271317829457365
0.5271317829457365,0.5271317829457365
0.5271317829457365,0.5271317829457365
0.5271317829457365,0.5271317829457365
0.5271317829457365,0.5271317829457365
0.5271317829457365,0.5271317829457365
0.5271317829457365,0.5271317829457365
0.5271317829457365,0.5271317829457365
0.5271317829457365,0.5271317829457365
0.5271317829457365,0.5271317829457365
0.5271317829457365,0.5271317829457365
0.5271317829457365,0.5271317829457365
0.5271317829457365,0.5271317829457365
0.5271317829457365,0.5271317829457365
0.5271317829457365,0.5271317829457365
0.5271317829457365,0.5271317829457365
0.5271317829457365,0.5271317829457365
0.5271317829457365,0.5271317829457365
0.549618320610687,0.549618320610687
0.549618320610687,0.549618320610687
0.549618320610687,0.549618320610687
0.549618320610687,0.549618320610687
0.549618320610687,0.549618320610687
0.549618320610687,0.549618320610687
0.549618320610687,0.549618320610687
0.549618320610687,0.549618320610687
0.549618320610687,0.549618320610687
0.549618320610687,0.549618320610687
0.549618320610687,0.549618320610687
0.549618320610687,0.549618320610687
0.549618320610687,0.549618320610687
0.549618320610687,0.549618320610687
0.549618320610687,0.549618320610687
0.549618320610687,0.549618320610687
0.549618320610687,0.549618320610687
0.549618320610687,0.549618320610687
0.549618320610687,0.549618320610687
0.606060606060606,0.606060606060606
0.606060606060606,0.606060606060606
0.606060606060606,0.606060606060606
0.549618320610687,0.549618320610687
0.549618320610687,0.549618320610687
0.549618320610687,0.549618320610687
0.549618320610687,0.549618320610687
0.549618320610687,0.549618320610687
0.549618320610687,0.549618320610687
0.606060606060606,0.606060606060606
0.606060606060606,0.606060606060606
0.606060606060606,0.606060606060606
0.606060606060606,0.606060606060606
0.606060606060606,0.606060606060606
0.549618320610687,0.549618320610687
0.549618320610687,0.549618320610687
0.549618320610687,0.549618320610687
0.549618320610687,0.549618320610687
0.606060606060606,0.606060606060606
0.606060606060606,0.606060606060606
0.606060606060606,0.606060606060606
0.606060606060606,0.606060606060606
0.606060606060606,0.606060606060606
0.606060606060606,0.606060606060606
0.606060606060606,0.606060606060606
0.5373134328358209,0.5373134328358209
0.5373134328358209,0.5373134328358209
0.5925925925925926,0.5925925925925926
0.5925925925925926,0.5925925925925926
0.5925925925925926,0.5925925925925926
0.5925925925925926,0.5925925925925926
0.5925925925925926,0.5925925925925926
0.5925925925925926,0.5925925925925926
0.6567164179104478,0.6567164179104478
0.6567164179104478,0.6567164179104478
0.6423357664233577,0.6423357664233577
0.5373134328358209,0.5373134328358209
0.5925925925925926,0.5925925925925926
0.5925925925925926,0.5925925925925926
0.5925925925925926,0.5925925925925926
0.6518518518518519,0.6518518518518519
0.6518518518518519,0.6518518518518519
0.6617647058823529,0.6617647058823529
0.6962962962962963,0.6962962962962963
0.6962962962962963,0.6962962962962963
0.6962962962962963,0.6962962962962963
0.6962962962962963,0.6962962962962963
0.5925925925925926,0.5925925925925926
0.5925925925925926,0.5925925925925926
0.6470588235294117,0.6470588235294117
0.6617647058823529,0.6617647058823529
0.6962962962962963,0.6962962962962963
0.6962962962962963,0.6962962962962963
0.6962962962962963,0.6962962962962963
0.6962962962962963,0.6962962962962963
0.6962962962962963,0.6962962962962963
0.6962962962962963,0.6962962962962963
0.6962962962962963,0.6962962962962963
0.5925925925925926,0.5925925925925926
0.6470588235294117,0.6470588235294117
0.6962962962962963,0.6962962962962963
0.6962962962962963,0.6962962962962963
0.6962962962962963,0.6962962962962963
0.6962962962962963,0.6962962962962963
0.6962962962962963,0.6962962962962963
0.6962962962962963,0.6962962962962963
0.6962962962962963,0.6962962962962963
0.6962962962962963,0.6962962962962963
0.6811594202898551,0.6811594202898551
0.6470588235294117,0.6470588235294117
0.6962962962962963,0.6962962962962963
0.6962962962962963,0.6962962962962963
0.6962962962962963,0.6962962962962963
0.6962962962962963,0.6962962962962963
0.6714285714285714,0.6714285714285714
0.6715328467153285,0.6715328467153285
0.6715328467153285,0.6715328467153285
0.6715328467153285,0.6715328467153285
0.6861313868613139,0.6861313868613139
0.6861313868613139,0.6861313868613139
0.6962962962962963,0.6962962962962963
0.6962962962962963,0.6962962962962963
0.6962962962962963,0.6962962962962963
0.6715328467153285,0.6715328467153285
0.6715328467153285,0.6715328467153285
0.6861313868613139,0.6861313868613139
0.6714285714285714,0.6714285714285714
0.608695652173913,0.608695652173913
0.5629629629629629,0.5629629629629629
0.5629629629629629,0.5629629629629629
0.5671641791044775,0.5671641791044775
0.6962962962962963,0.6962962962962963
0.6962962962962963,0.6962962962962963
0.6618705035971223,0.6618705035971223
0.6524822695035462,0.6524822695035462
0.5629629629629629,0.5629629629629629
0.5671641791044775,0.5671641791044775
0.48120300751879697,0.48120300751879697
0.46616541353383456,0.46616541353383456
0.40601503759398494,0.40601503759398494
0.36641221374045807,0.36641221374045807
0.36641221374045807,0.36641221374045807
0.5271317829457365,0.5271317829457365
0.5271317829457365,0.5271317829457365
0.5271317829457365,0.5271317829457365
0.5271317829457365,0.5271317829457365
0.5271317829457365,0.5271317829457365
0.5271317829457365,0.5271317829457365
0.5271317829457365,0.5271317829457365
0.5271317829457365,0.5271317829457365
0.5271317829457365,0.5271317829457365
0.5271317829457365,0.5271317829457365
0.5271317829457365,0.5271317829457365
0.5271317829457365,0.5271317829457365
0.5271317829457365,0.5271317829457365
0.5271317829457365,0.5271317829457365
0.5271317829457365,0.5271317829457365
0.5271317829457365,0.5271317829457365
0.5271317829457365,0.5271317829457365
0.5271317829457365,0.5271317829457365
0.5271317829457365,0.5271317829457365
0.5271317829457365,0.5271317829457365
0.5271317829457365,0.5271317829457365
0.5271317829457365,0.5271317829457365
0.5271317829457365,0.5271317829457365
0.5271317829457365,0.5271317829457365
0.5271317829457365,0.5271317829457365
0.5271317829457365,0.5271317829457365
0.5271317829457365,0.5271317829457365
0.5271317829457365,0.5271317829457365
0.5271317829457365,0.5271317829457365
0.5271317829457365,0.5271317829457365
0.5271317829457365,0.5271317829457365
0.5271317829457365,0.5271317829457365
0.5271317829457365,0.5271317829457365
0.549618320610687,0.549618320610687
0.549618320610687,0.549618320610687
0.549618320610687,0.549618320610687
0.549618320610687,0.549618320610687
0.549618320610687,0.549618320610687
0.549618320610687,0.549618320610687
0.549618320610687,0.549618320610687
0.549618320610687,0.549618320610687
0.549618320610687,0.549618320610687
0.549618320610687,0.549618320610687
0.549618320610687,0.549618320610687
0.549618320610687,0.549618320610687
0.549618320610687,0.549618320610687
0.549618320610687,0.549618320610687
0.549618320610687,0.549618320610687
0.549618320610687,0.549618320610687
0.549618320610687,0.549618320610687
0.549618320610687,0.549618320610687
0.549618320610687,0.549618320610687
0.549618320610687,0.549618320610687
0.549618320610687,0.549618320610687
0.549618320610687,0.549618320610687
0.549618320610687,0.549618320610687
0.549618320610687,0.549618320610687
0.549618320610687,0.549618320610687
0.549618320610687,0.549618320610687
0.549618320610687,0.549618320610687
0.549618320610687,0.549618320610687
0.549618320610687,0.549618320610687
0.549618320610687,0.549618320610687
0.549618320610687,0.549618320610687
0.549618320610687,0.549618320610687
0.5757575757575758,0.5757575757575758
0.549618320610687,0.549618320610687
0.549618320610687,0.549618320610687
0.549618320610687,0.549618320610687
0.549618320610687,0.549618320610687
0.549618320610687,0.549618320610687
0.549618320610687,0.549618320610687
0.5757575757575758,0.5757575757575758
0.606060606060606,0.606060606060606
0.606060606060606,0.606060606060606
0.606060606060606,0.606060606060606
0.606060606060606,0.606060606060606
0.5373134328358209,0.5373134328358209
0.5373134328358209,0.5373134328358209
0.5373134328358209,0.5373134328358209
0.5373134328358209,0.5373134328358209
0.5925925925925926,0.5925925925925926
0.5925925925925926,0.5925925925925926
0.5925925925925926,0.5925925925925926
0.5925925925925926,0.5925925925925926
0.5925925925925926,0.5925925925925926
0.5925925925925926,0.5925925925925926
0.5925925925925926,0.5925925925925926
0.5373134328358209,0.5373134328358209
0.5373134328358209,0.5373134328358209
0.5925925925925926,0.5925925925925926
0.5925925925925926,0.5925925925925926
0.5925925925925926,0.5925925925925926
0.5925925925925926,0.5925925925925926
0.5925925925925926,0.5925925925925926
0.5925925925925926,0.5925925925925926
0.6518518518518519,0.6518518518518519
0.6376811594202899,0.6376811594202899
0.6376811594202899,0.6376811594202899
0.5373134328358209,0.5373134328358209
0.5925925925925926,0.5925925925925926
0.5925925925925926,0.5925925925925926
0.5925925925925926,0.5925925925925926
0.6470588235294117,0.6470588235294117
0.6376811594202899,0.6376811594202899
0.6521739130434783,0.6521739130434783
0.6811594202898551,0.6811594202898551
0.6811594202898551,0.6811594202898551
0.6811594202898551,0.6811594202898551
0.6811594202898551,0.6811594202898551
0.5629629629629629,0.5629629629629629
0.5925925925925926,0.5925925925925926
0.6470588235294117,0.6470588235294117
0.6521739130434783,0.6521739130434783
0.6811594202898551,0.6811594202898551
0.6811594202898551,0.6811594202898551
0.6811594202898551,0.6811594202898551
0.6811594202898551,0.6811594202898551
0.6811594202898551,0.6811594202898551
0.6811594202898551,0.6811594202898551
0.6811594202898551,0.6811594202898551
0.5839416058394159,0.5839416058394159
0.6470588235294117,0.6470588235294117
0.6811594202898551,0.6811594202898551
0.6811594202898551,0.6811594202898551
0.6811594202898551,0.6811594202898551
0.6811594202898551,0.6811594202898551
0.6811594202898551,0.6811594202898551
0.6811594202898551,0.6811594202898551
0.6811594202898551,0.6811594202898551
0.6619718309859154,0.6619718309859154
0.6619718309859154,0.6619718309859154
0.6470588235294117,0.6470588235294117
0.6811594202898551,0.6811594202898551
0.6811594202898551,0.6811594202898551
0.6811594202898551,0.6811594202898551
0.6811594202898551,0.6811594202898551
0.6619718309859154,0.6619718309859154
0.6571428571428571,0.6571428571428571
0.6571428571428571,0.6571428571428571
0.6571428571428571,0.6571428571428571
0.6714285714285714,0.6714285714285714
0.6714285714285714,0.6714285714285714
0.6811594202898551,0.6811594202898551
0.6811594202898551,0.6811594202898551
0.6811594202898551,0.6811594202898551
0.6571428571428571,0.6571428571428571
0.6571428571428571,0.6571428571428571
0.6666666666666667,0.6666666666666667
0.6527777777777777,0.6527777777777777
0.5957446808510639,0.5957446808510639
0.5507246376811593,0.5507246376811593
0.5507246376811593,0.5507246376811593
0.5547445255474452,0.5547445255474452
0.5151515151515152,0.5151515151515152
0.5151515151515152,0.5151515151515152
0.5151515151515152,0.5151515151515152
0.5151515151515152,0.5151515151515152
0.5151515151515152,0.5151515151515152
0.5151515151515152,0.5151515151515152
0.5151515151515152,0.5151515151515152
0.5151515151515152,0.5151515151515152
0.5151515151515152,0.5151515151515152
0.5151515151515152,0.5151515151515152
0.5151515151515152,0.5151515151515152
0.5151515151515152,0.5151515151515152
0.5151515151515152,0.5151515151515152
0.5151515151515152,0.5151515151515152
0.5151515151515152,0.5151515151515152
0.5151515151515152,0.5151515151515152
0.5151515151515152,0.5151515151515152
0.5151515151515152,0.5151515151515152
0.5151515151515152,0.5151515151515152
0.5151515151515152,0.5151515151515152
0.5151515151515152,0.5151515151515152
0.5151515151515152,0.5151515151515152
0.5151515151515152,0.5151515151515152
0.5151515151515152,0.5151515151515152
0.5151515151515152,0.5151515151515152
0.5151515151515152,0.5151515151515152
0.5151515151515152,0.5151515151515152
0.5151515151515152,0.5151515151515152
0.5151515151515152,0.5151515151515152
0.5151515151515152,0.5151515151515152
0.5151515151515152,0.5151515151515152
0.5151515151515152,0.5151515151515152
0.5151515151515152,0.5151515151515152
0.5373134328358209,0.5373134328358209
0.5373134328358209,0.5373134328358209
0.5373134328358209,0.5373134328358209
0.5373134328358209,0.5373134328358209
0.5373134328358209,0.5373134328358209
0.5373134328358209,0.5373134328358209
0.5373134328358209,0.5373134328358209
0.5373134328358209,0.5373134328358209
0.5373134328358209,0.5373134328358209
0.5373134328358209,0.5373134328358209
0.5373134328358209,0.5373134328358209
0.5373134328358209,0.5373134328358209
0.5373134328358209,0.5373134328358209
0.5373134328358209,0.5373134328358209
0.5373134328358209,0.5373134328358209
0.5373134328358209,0.5373134328358209
0.5373134328358209,0.5373134328358209
0.5373134328358209,0.5373134328358209
0.5373134328358209,0.5373134328358209
0.5373134328358209,0.5373134328358209
0.5373134328358209,0.5373134328358209
0.5373134328358209,0.5373134328358209
0.5373134328358209,0.5373134328358209
0.5373134328358209,0.5373134328358209
0.5373134328358209,0.5373134328358209
0.5373134328358209,0.5373134328358209
0.5373134328358209,0.5373134328358209
0.5373134328358209,0.5373134328358209
0.5373134328358209,0.5373134328358209
0.5373134328358209,0.5373134328358209
0.5373134328358209,0.5373134328358209
0.5373134328358209,0.5373134328358209
0.5373134328358209,0.5373134328358209
0.5373134328358209,0.5373134328358209
0.5373134328358209,0.5373134328358209
0.5373134328358209,0.5373134328358209
0.5373134328358209,0.5373134328358209
0.5373134328358209,0.5373134328358209
0.5373134328358209,0.5373134328358209
0.5373134328358209,0.5373134328358209
0.5373134328358209,0.5373134328358209
0.5373134328358209,0.5373134328358209
0.5373134328358209,0.5373134328358209
0.5373134328358209,0.5373134328358209
0.5294117647058824,0.5294117647058824
0.5294117647058824,0.5294117647058824
0.5294117647058824,0.5294117647058824
0.5294117647058824,0.5294117647058824
0.5294117647058824,0.5294117647058824
0.5294117647058824,0.5294117647058824
0.5294117647058824,0.5294117647058824
0.5294117647058824,0.5294117647058824
0.5294117647058824,0.5294117647058824
0.5925925925925926,0.5925925925925926
0.5925925925925926,0.5925925925925926
0.5255474452554744,0.5255474452554744
0.5255474452554744,0.5255474452554744
0.5255474452554744,0.5255474452554744
0.5255474452554744,0.5255474452554744
0.5255474452554744,0.5255474452554744
0.5882352941176471,0.5882352941176471
0.5882352941176471,0.5882352941176471
0.5882352941176471,0.5882352941176471
0.5925925925925926,0.5925925925925926
0.5925925925925926,0.5925925925925926
0.5925925925925926,0.5925925925925926
0.5217391304347826,0.5217391304347826
0.5217391304347826,0.5217391304347826
0.5217391304347826,0.5217391304347826
0.5839416058394159,0.5839416058394159
0.5839416058394159,0.5839416058394159
0.5839416058394159,0.5839416058394159
0.5839416058394159,0.5839416058394159
0.5839416058394159,0.5839416058394159
0.6470588235294117,0.6470588235294117
0.6470588235294117,0.6470588235294117
0.6376811594202899,0.6376811594202899
0.5217391304347826,0.5217391304347826
0.5217391304347826,0.5217391304347826
0.5839416058394159,0.5839416058394159
0.5839416058394159,0.5839416058394159
0.6470588235294117,0.6470588235294117
0.6376811594202899,0.6376811594202899
0.6521739130434783,0.6521739130434783
0.6762589928057553,0.6762589928057553
0.6762589928057553,0.6762589928057553
0.6762589928057553,0.6762589928057553
0.6762589928057553,0.6762589928057553
0.5217391304347826,0.5217391304347826
0.5839416058394159,0.5839416058394159
0.6470588235294117,0.6470588235294117
0.6521739130434783,0.6521739130434783
0.6762589928057553,0.6762589928057553
0.6762589928057553,0.6762589928057553
0.6762589928057553,0.6762589928057553
0.6762589928057553,0.6762589928057553
0.6762589928057553,0.6762589928057553
0.6762589928057553,0.6762589928057553
0.6762589928057553,0.6762589928057553
0.5839416058394159,0.5839416058394159
0.6470588235294117,0.6470588235294117
0.6762589928057553,0.6762589928057553
0.6762589928057553,0.6762589928057553
0.6762589928057553,0.6762589928057553
0.6762589928057553,0.6762589928057553
0.6762589928057553,0.6762589928057553
0.6762589928057553,0.6762589928057553
0.6762589928057553,0.6762589928057553
0.6619718309859154,0.6619718309859154
0.6619718309859154,0.6619718309859154
0.6470588235294117,0.6470588235294117
0.6762589928057553,0.6762589928057553
0.6762589928057553,0.6762589928057553
0.6762589928057553,0.6762589928057553
0.6762589928057553,0.6762589928057553
0.6619718309859154,0.6619718309859154
0.6524822695035462,0.6524822695035462
0.6524822695035462,0.6524822695035462
0.6524822695035462,0.6524822695035462
0.6666666666666667,0.6666666666666667
0.6666666666666667,0.6666666666666667
